1	 -- 	WM_DESTROY
1	 -- 	WM_ACTIVATE
1	 -- 	WM_KILLFOCUS
1	 -- 	WM_CLOSE
1	 -- 	WM_ACTIVATEAPP
1	 -- 	WM_WINDOWPOSCHANGING
1	 -- 	WM_WINDOWPOSCHANGED
1	 -- 	WM_GETICON
1	 -- 	WM_NCDESTROY
1	 -- 	WM_NCACTIVATE
1	 -- 	Unknown
2	 -- 	WM_KEYUP
2	 -- 	WM_SYSKEYDOWN
1	 -- 	WM_SYSCOMMAND
1	 -- 	WM_IME_SETCONTEXT
1	 -- 	WM_IME_NOTIFY
Events = 18, unique events = 16
