Frame,Poll Count,Is Polling,Source,Event Name,Event Code
0,0,0,MESSAGE PUMP,WM_GETMINMAXINFO,36
0,0,0,MESSAGE PUMP,WM_WINDOWPOSCHANGING,70
0,0,0,MESSAGE PUMP,WM_GETMINMAXINFO,36
0,0,0,MESSAGE PUMP,WM_NCCALCSIZE,131
0,0,0,MESSAGE PUMP,WM_WINDOWPOSCHANGING,70
0,0,0,MESSAGE PUMP,WM_ACTIVATEAPP,28
0,0,0,MESSAGE PUMP,WM_NCACTIVATE,134
0,0,0,MESSAGE PUMP,WM_ACTIVATE,6
0,0,0,MESSAGE PUMP,WM_IME_SETCONTEXT,641
0,0,0,MESSAGE PUMP,WM_IME_NOTIFY,642
0,0,0,MESSAGE PUMP,WM_SETFOCUS,7
0,0,0,MESSAGE PUMP,WM_NCPAINT,133
0,0,0,MESSAGE PUMP,WM_ERASEBKGND,20
0,0,0,MESSAGE PUMP,WM_WINDOWPOSCHANGED,71
0,0,0,MESSAGE PUMP,WM_MOVE,3
0,0,0,MESSAGE PUMP,WM_SIZE,5
0,0,0,MESSAGE PUMP,WM_WINDOWPOSCHANGING,70
0,0,0,MESSAGE PUMP,WM_GETMINMAXINFO,36
0,0,0,MESSAGE PUMP,WM_NCPAINT,133
0,0,0,MESSAGE PUMP,WM_ERASEBKGND,20
0,0,0,MESSAGE PUMP,WM_WINDOWPOSCHANGED,71
0,0,0,MESSAGE PUMP,WM_MOVE,3
0,0,0,MESSAGE PUMP,WM_SETICON,128
0,0,0,MESSAGE PUMP,Unknown,174
0,0,0,MESSAGE PUMP,WM_SETICON,128
0,0,0,MESSAGE PUMP,Unknown,174
0,0,0,MESSAGE PUMP,WM_WINDOWPOSCHANGING,70
0,0,0,MESSAGE PUMP,WM_GETICON,127
0,0,0,MESSAGE PUMP,WM_WINDOWPOSCHANGING,70
1,0,1,MESSAGE PUMP,WM_GETICON,127
1,0,1,MESSAGE PUMP,Unknown,799
1,0,1,MESSAGE PUMP,Unknown,49375
1,0,1,MESSAGE PUMP,WM_GETMINMAXINFO,36
1,0,1,MESSAGE PUMP,WM_NCHITTEST,132
1,0,1,MESSAGE PUMP,WM_SETCURSOR,32
1,0,1,MESSAGE PUMP,WM_MOUSEFIRST,512
1,0,1,MESSAGE PUMP,WM_PAINT,15
1483,0,1,MESSAGE PUMP,WM_KEYDOWN,256
1486,0,1,MESSAGE PUMP,WM_KEYDOWN,256
1486,0,1,MESSAGE PUMP,WM_CHAR,258
1486,0,0,MESSAGE PUMP,WM_NCACTIVATE,134
1486,0,0,MESSAGE PUMP,WM_GETICON,127
1486,0,0,MESSAGE PUMP,WM_ACTIVATE,6
1486,0,0,MESSAGE PUMP,WM_KILLFOCUS,8
1486,0,0,MESSAGE PUMP,WM_IME_SETCONTEXT,641
1486,0,0,MESSAGE PUMP,WM_IME_NOTIFY,642
1486,0,0,MESSAGE PUMP,WM_NCHITTEST,132
1486,0,0,MESSAGE PUMP,WM_SETCURSOR,32
1486,0,0,MESSAGE PUMP,WM_MOUSEFIRST,512
1486,0,0,MESSAGE PUMP,WM_NCHITTEST,132
1486,0,0,MESSAGE PUMP,WM_SETCURSOR,32
1486,0,0,MESSAGE PUMP,WM_MOUSEFIRST,512
1486,0,0,MESSAGE PUMP,WM_GETICON,127
1486,0,0,MESSAGE PUMP,WM_NCHITTEST,132
1486,0,0,MESSAGE PUMP,WM_SETCURSOR,32
1486,0,0,MESSAGE PUMP,WM_MOUSEFIRST,512
1486,0,0,MESSAGE PUMP,WM_NCHITTEST,132
1486,0,0,MESSAGE PUMP,WM_SETCURSOR,32
1486,0,0,MESSAGE PUMP,WM_MOUSEFIRST,512
1486,0,0,MESSAGE PUMP,WM_NCHITTEST,132
1486,0,0,MESSAGE PUMP,WM_SETCURSOR,32
1486,0,0,MESSAGE PUMP,WM_MOUSEFIRST,512
1486,0,0,MESSAGE PUMP,WM_NCHITTEST,132
1486,0,0,MESSAGE PUMP,WM_SETCURSOR,32
1486,0,0,MESSAGE PUMP,WM_MOUSEFIRST,512
1486,0,0,MESSAGE PUMP,WM_NCHITTEST,132
1486,0,0,MESSAGE PUMP,WM_SETCURSOR,32
1486,0,0,MESSAGE PUMP,WM_MOUSEFIRST,512
1486,0,0,MESSAGE PUMP,WM_NCHITTEST,132
1486,0,0,MESSAGE PUMP,WM_SETCURSOR,32
1486,0,0,MESSAGE PUMP,WM_MOUSEFIRST,512
1486,0,0,MESSAGE PUMP,WM_NCHITTEST,132
1486,0,0,MESSAGE PUMP,WM_SETCURSOR,32
1486,0,0,MESSAGE PUMP,WM_MOUSEFIRST,512
1486,0,0,MESSAGE PUMP,WM_NCHITTEST,132
1486,0,0,MESSAGE PUMP,WM_SETCURSOR,32
1486,0,0,MESSAGE PUMP,WM_MOUSEFIRST,512
1486,0,0,MESSAGE PUMP,WM_NCHITTEST,132
1486,0,0,MESSAGE PUMP,WM_SETCURSOR,32
1486,0,0,MESSAGE PUMP,WM_MOUSEFIRST,512
1486,0,0,MESSAGE PUMP,WM_NCHITTEST,132
1486,0,0,MESSAGE PUMP,WM_SETCURSOR,32
1486,0,0,MESSAGE PUMP,WM_MOUSEFIRST,512
1486,0,0,MESSAGE PUMP,WM_NCHITTEST,132
1486,0,0,MESSAGE PUMP,WM_SETCURSOR,32
1486,0,0,MESSAGE PUMP,WM_MOUSEFIRST,512
1486,0,0,MESSAGE PUMP,WM_NCHITTEST,132
1486,0,0,MESSAGE PUMP,WM_SETCURSOR,32
1486,0,0,MESSAGE PUMP,WM_MOUSEFIRST,512
1486,0,0,MESSAGE PUMP,WM_NCHITTEST,132
1486,0,0,MESSAGE PUMP,WM_SETCURSOR,32
1486,0,0,MESSAGE PUMP,WM_MOUSEFIRST,512
1486,0,0,MESSAGE PUMP,WM_NCHITTEST,132
1486,0,0,MESSAGE PUMP,WM_SETCURSOR,32
1486,0,0,MESSAGE PUMP,WM_MOUSEFIRST,512
1486,0,0,MESSAGE PUMP,WM_NCHITTEST,132
1486,0,0,MESSAGE PUMP,WM_SETCURSOR,32
1486,0,0,MESSAGE PUMP,WM_MOUSEFIRST,512
1486,0,0,MESSAGE PUMP,WM_NCHITTEST,132
1486,0,0,MESSAGE PUMP,WM_SETCURSOR,32
1486,0,0,MESSAGE PUMP,WM_MOUSEFIRST,512
1486,0,0,MESSAGE PUMP,WM_NCHITTEST,132
1486,0,0,MESSAGE PUMP,WM_SETCURSOR,32
1486,0,0,MESSAGE PUMP,WM_MOUSEFIRST,512
1486,0,0,MESSAGE PUMP,WM_NCHITTEST,132
1486,0,0,MESSAGE PUMP,WM_SETCURSOR,32
1486,0,0,MESSAGE PUMP,WM_MOUSEFIRST,512
1486,0,0,MESSAGE PUMP,WM_NCHITTEST,132
1486,0,0,MESSAGE PUMP,WM_SETCURSOR,32
1486,0,0,MESSAGE PUMP,WM_MOUSEFIRST,512
1486,0,0,MESSAGE PUMP,WM_NCHITTEST,132
1486,0,0,MESSAGE PUMP,WM_SETCURSOR,32
1486,0,0,MESSAGE PUMP,WM_MOUSEFIRST,512
1486,0,0,MESSAGE PUMP,WM_NCHITTEST,132
1486,0,0,MESSAGE PUMP,WM_SETCURSOR,32
1486,0,0,MESSAGE PUMP,WM_MOUSEFIRST,512
1486,0,0,MESSAGE PUMP,WM_NCHITTEST,132
1486,0,0,MESSAGE PUMP,WM_SETCURSOR,32
1486,0,0,MESSAGE PUMP,WM_MOUSEFIRST,512
1486,0,0,MESSAGE PUMP,WM_NCHITTEST,132
1486,0,0,MESSAGE PUMP,WM_SETCURSOR,32
1486,0,0,MESSAGE PUMP,WM_MOUSEFIRST,512
1486,0,0,MESSAGE PUMP,WM_NCHITTEST,132
1486,0,0,MESSAGE PUMP,WM_SETCURSOR,32
1486,0,0,MESSAGE PUMP,WM_MOUSEFIRST,512
1486,0,0,MESSAGE PUMP,WM_NCHITTEST,132
1486,0,0,MESSAGE PUMP,WM_SETCURSOR,32
1486,0,0,MESSAGE PUMP,WM_MOUSEFIRST,512
1486,0,0,MESSAGE PUMP,WM_NCHITTEST,132
1486,0,0,MESSAGE PUMP,WM_SETCURSOR,32
1486,0,0,MESSAGE PUMP,WM_MOUSEFIRST,512
1486,0,0,MESSAGE PUMP,WM_NCHITTEST,132
1486,0,0,MESSAGE PUMP,WM_SETCURSOR,32
1486,0,0,MESSAGE PUMP,WM_MOUSEFIRST,512
1486,0,0,MESSAGE PUMP,WM_NCHITTEST,132
1486,0,0,MESSAGE PUMP,WM_SETCURSOR,32
1486,0,0,MESSAGE PUMP,WM_MOUSEFIRST,512
1486,0,0,MESSAGE PUMP,WM_NCHITTEST,132
1486,0,0,MESSAGE PUMP,WM_SETCURSOR,32
1486,0,0,MESSAGE PUMP,WM_MOUSEFIRST,512
1486,0,0,MESSAGE PUMP,WM_NCHITTEST,132
1486,0,0,MESSAGE PUMP,WM_SETCURSOR,32
1486,0,0,MESSAGE PUMP,WM_MOUSEFIRST,512
1486,0,0,MESSAGE PUMP,WM_NCHITTEST,132
1486,0,0,MESSAGE PUMP,WM_SETCURSOR,32
1486,0,0,MESSAGE PUMP,WM_MOUSEFIRST,512
1486,0,0,MESSAGE PUMP,WM_NCHITTEST,132
1486,0,0,MESSAGE PUMP,WM_SETCURSOR,32
1486,0,0,MESSAGE PUMP,WM_MOUSEFIRST,512
1486,0,0,MESSAGE PUMP,WM_NCHITTEST,132
1486,0,0,MESSAGE PUMP,WM_SETCURSOR,32
1486,0,0,MESSAGE PUMP,WM_MOUSEFIRST,512
1486,0,0,MESSAGE PUMP,WM_NCHITTEST,132
1486,0,0,MESSAGE PUMP,WM_SETCURSOR,32
1486,0,0,MESSAGE PUMP,WM_MOUSEFIRST,512
1486,0,0,MESSAGE PUMP,WM_NCHITTEST,132
1486,0,0,MESSAGE PUMP,WM_SETCURSOR,32
1486,0,0,MESSAGE PUMP,WM_MOUSEFIRST,512
1486,0,0,MESSAGE PUMP,WM_NCHITTEST,132
1486,0,0,MESSAGE PUMP,WM_SETCURSOR,32
1486,0,0,MESSAGE PUMP,WM_MOUSEFIRST,512
1486,0,0,MESSAGE PUMP,WM_NCHITTEST,132
1486,0,0,MESSAGE PUMP,WM_SETCURSOR,32
1486,0,0,MESSAGE PUMP,WM_MOUSEFIRST,512
1486,0,0,MESSAGE PUMP,WM_NCHITTEST,132
1486,0,0,MESSAGE PUMP,WM_SETCURSOR,32
1486,0,0,MESSAGE PUMP,WM_MOUSEFIRST,512
1486,0,0,MESSAGE PUMP,WM_WINDOWPOSCHANGING,70
1486,0,0,MESSAGE PUMP,WM_WINDOWPOSCHANGED,71
1486,0,0,MESSAGE PUMP,WM_ACTIVATEAPP,28
1486,0,0,MESSAGE PUMP,WM_NCACTIVATE,134
1486,0,0,MESSAGE PUMP,WM_ACTIVATE,6
1486,0,0,MESSAGE PUMP,WM_IME_SETCONTEXT,641
1486,0,0,MESSAGE PUMP,WM_IME_NOTIFY,642
1486,0,0,MESSAGE PUMP,WM_SETFOCUS,7
1487,0,1,MESSAGE PUMP,WM_KEYUP,257
1487,0,1,MESSAGE PUMP,WM_NCHITTEST,132
1487,0,1,MESSAGE PUMP,WM_SETCURSOR,32
1487,0,1,MESSAGE PUMP,WM_MOUSEFIRST,512
1487,0,1,MESSAGE PUMP,WM_NCHITTEST,132
1487,0,1,MESSAGE PUMP,WM_SETCURSOR,32
1487,0,1,MESSAGE PUMP,WM_MOUSEFIRST,512
3454,0,1,MESSAGE PUMP,WM_KEYDOWN,256
3456,0,1,MESSAGE PUMP,WM_KEYUP,257
3460,0,1,MESSAGE PUMP,WM_KEYDOWN,256
3462,0,1,MESSAGE PUMP,WM_KEYUP,257
3487,0,1,MESSAGE PUMP,WM_KEYDOWN,256
3490,0,1,MESSAGE PUMP,WM_KEYUP,257
3495,0,1,MESSAGE PUMP,WM_KEYDOWN,256
3499,0,1,MESSAGE PUMP,WM_KEYUP,257
3502,0,1,MESSAGE PUMP,WM_KEYDOWN,256
3505,0,1,MESSAGE PUMP,WM_KEYUP,257
3542,0,1,MESSAGE PUMP,WM_KEYDOWN,256
3547,0,1,MESSAGE PUMP,WM_KEYUP,257
3553,0,1,MESSAGE PUMP,WM_KEYDOWN,256
3558,0,1,MESSAGE PUMP,WM_KEYUP,257
3562,0,1,MESSAGE PUMP,WM_KEYDOWN,256
3564,0,1,MESSAGE PUMP,WM_KEYUP,257
3569,0,1,MESSAGE PUMP,WM_KEYDOWN,256
3573,0,1,MESSAGE PUMP,WM_KEYUP,257
3577,0,1,MESSAGE PUMP,WM_KEYDOWN,256
3582,0,1,MESSAGE PUMP,WM_KEYUP,257
3620,0,1,MESSAGE PUMP,WM_KEYDOWN,256
3626,0,1,MESSAGE PUMP,WM_KEYUP,257
3629,0,1,MESSAGE PUMP,WM_KEYDOWN,256
3631,0,1,MESSAGE PUMP,WM_KEYUP,257
3651,0,1,MESSAGE PUMP,WM_KEYDOWN,256
3653,0,1,MESSAGE PUMP,WM_KEYUP,257
3678,0,1,MESSAGE PUMP,WM_KEYDOWN,256
3682,0,1,MESSAGE PUMP,WM_KEYUP,257
3687,0,1,MESSAGE PUMP,WM_KEYDOWN,256
3691,0,1,MESSAGE PUMP,WM_KEYUP,257
3695,0,1,MESSAGE PUMP,WM_KEYDOWN,256
3699,0,1,MESSAGE PUMP,WM_KEYUP,257
3704,0,1,MESSAGE PUMP,WM_KEYDOWN,256
3708,0,1,MESSAGE PUMP,WM_KEYUP,257
3712,0,1,MESSAGE PUMP,WM_KEYDOWN,256
3716,0,1,MESSAGE PUMP,WM_KEYUP,257
3743,0,1,MESSAGE PUMP,WM_KEYDOWN,256
3744,0,1,MESSAGE PUMP,WM_KEYUP,257
3758,0,1,MESSAGE PUMP,WM_KEYDOWN,256
3760,0,1,MESSAGE PUMP,WM_KEYUP,257
3763,0,1,MESSAGE PUMP,WM_KEYDOWN,256
3765,0,1,MESSAGE PUMP,WM_KEYUP,257
3786,0,1,MESSAGE PUMP,WM_KEYDOWN,256
3787,0,1,MESSAGE PUMP,WM_KEYUP,257
3799,0,1,MESSAGE PUMP,WM_KEYDOWN,256
3801,0,1,MESSAGE PUMP,WM_KEYUP,257
3803,0,1,MESSAGE PUMP,WM_KEYDOWN,256
3805,0,1,MESSAGE PUMP,WM_KEYUP,257
3807,0,1,MESSAGE PUMP,WM_KEYDOWN,256
3809,0,1,MESSAGE PUMP,WM_KEYUP,257
3811,0,1,MESSAGE PUMP,WM_KEYDOWN,256
3814,0,1,MESSAGE PUMP,WM_KEYUP,257
3816,0,1,MESSAGE PUMP,WM_KEYDOWN,256
3818,0,1,MESSAGE PUMP,WM_KEYUP,257
3820,0,1,MESSAGE PUMP,WM_KEYDOWN,256
3822,0,1,MESSAGE PUMP,WM_KEYUP,257
3824,0,1,MESSAGE PUMP,WM_KEYDOWN,256
3826,0,1,MESSAGE PUMP,WM_KEYUP,257
3828,0,1,MESSAGE PUMP,WM_KEYDOWN,256
3830,0,1,MESSAGE PUMP,WM_KEYUP,257
3832,0,1,MESSAGE PUMP,WM_KEYDOWN,256
3834,0,1,MESSAGE PUMP,WM_KEYUP,257
3836,0,1,MESSAGE PUMP,WM_KEYDOWN,256
3838,0,1,MESSAGE PUMP,WM_KEYUP,257
3840,0,1,MESSAGE PUMP,WM_KEYDOWN,256
3842,0,1,MESSAGE PUMP,WM_KEYUP,257
3844,0,1,MESSAGE PUMP,WM_KEYDOWN,256
3846,0,1,MESSAGE PUMP,WM_KEYUP,257
3848,0,1,MESSAGE PUMP,WM_KEYDOWN,256
3850,0,1,MESSAGE PUMP,WM_KEYUP,257
3852,0,1,MESSAGE PUMP,WM_KEYDOWN,256
3854,0,1,MESSAGE PUMP,WM_KEYUP,257
3856,0,1,MESSAGE PUMP,WM_KEYDOWN,256
3858,0,1,MESSAGE PUMP,WM_KEYUP,257
3861,0,1,MESSAGE PUMP,WM_KEYDOWN,256
3863,0,1,MESSAGE PUMP,WM_KEYUP,257
3865,0,1,MESSAGE PUMP,WM_KEYDOWN,256
3867,0,1,MESSAGE PUMP,WM_KEYUP,257
3869,0,1,MESSAGE PUMP,WM_KEYDOWN,256
3871,0,1,MESSAGE PUMP,WM_KEYUP,257
3873,0,1,MESSAGE PUMP,WM_KEYDOWN,256
3875,0,1,MESSAGE PUMP,WM_KEYUP,257
3876,0,1,MESSAGE PUMP,WM_KEYDOWN,256
3877,0,1,MESSAGE PUMP,WM_KEYUP,257
3879,0,1,MESSAGE PUMP,WM_KEYDOWN,256
3880,0,1,MESSAGE PUMP,WM_KEYUP,257
3882,0,1,MESSAGE PUMP,WM_KEYDOWN,256
3883,0,1,MESSAGE PUMP,WM_KEYUP,257
3885,0,1,MESSAGE PUMP,WM_KEYDOWN,256
3888,0,1,MESSAGE PUMP,WM_KEYUP,257
3890,0,1,MESSAGE PUMP,WM_KEYDOWN,256
3892,0,1,MESSAGE PUMP,WM_KEYUP,257
3894,0,1,MESSAGE PUMP,WM_KEYDOWN,256
3896,0,1,MESSAGE PUMP,WM_KEYUP,257
3898,0,1,MESSAGE PUMP,WM_KEYDOWN,256
3901,0,1,MESSAGE PUMP,WM_KEYUP,257
3903,0,1,MESSAGE PUMP,WM_KEYDOWN,256
3905,0,1,MESSAGE PUMP,WM_KEYUP,257
3907,0,1,MESSAGE PUMP,WM_KEYDOWN,256
3909,0,1,MESSAGE PUMP,WM_KEYUP,257
3911,0,1,MESSAGE PUMP,WM_KEYDOWN,256
3913,0,1,MESSAGE PUMP,WM_KEYUP,257
3916,0,1,MESSAGE PUMP,WM_KEYDOWN,256
3918,0,1,MESSAGE PUMP,WM_KEYUP,257
3920,0,1,MESSAGE PUMP,WM_KEYDOWN,256
3922,0,1,MESSAGE PUMP,WM_KEYUP,257
3924,0,1,MESSAGE PUMP,WM_KEYDOWN,256
3926,0,1,MESSAGE PUMP,WM_KEYUP,257
3928,0,1,MESSAGE PUMP,WM_KEYDOWN,256
3930,0,1,MESSAGE PUMP,WM_KEYUP,257
3933,0,1,MESSAGE PUMP,WM_KEYDOWN,256
3935,0,1,MESSAGE PUMP,WM_KEYUP,257
3937,0,1,MESSAGE PUMP,WM_KEYDOWN,256
3939,0,1,MESSAGE PUMP,WM_KEYUP,257
3941,0,1,MESSAGE PUMP,WM_KEYDOWN,256
3943,0,1,MESSAGE PUMP,WM_KEYUP,257
3945,0,1,MESSAGE PUMP,WM_KEYDOWN,256
3948,0,1,MESSAGE PUMP,WM_KEYUP,257
3950,0,1,MESSAGE PUMP,WM_KEYDOWN,256
3952,0,1,MESSAGE PUMP,WM_KEYUP,257
3954,0,1,MESSAGE PUMP,WM_KEYDOWN,256
3956,0,1,MESSAGE PUMP,WM_KEYUP,257
3958,0,1,MESSAGE PUMP,WM_KEYDOWN,256
3960,0,1,MESSAGE PUMP,WM_KEYUP,257
3962,0,1,MESSAGE PUMP,WM_KEYDOWN,256
3965,0,1,MESSAGE PUMP,WM_KEYUP,257
3967,0,1,MESSAGE PUMP,WM_KEYDOWN,256
3969,0,1,MESSAGE PUMP,WM_KEYUP,257
3983,0,1,MESSAGE PUMP,WM_KEYDOWN,256
3985,0,1,MESSAGE PUMP,WM_KEYUP,257
4000,0,1,MESSAGE PUMP,WM_KEYDOWN,256
4002,0,1,MESSAGE PUMP,WM_KEYUP,257
4004,0,1,MESSAGE PUMP,WM_KEYDOWN,256
4005,0,1,MESSAGE PUMP,WM_KEYUP,257
4015,0,1,MESSAGE PUMP,WM_KEYDOWN,256
4016,0,1,MESSAGE PUMP,WM_KEYUP,257
4018,0,1,MESSAGE PUMP,WM_KEYDOWN,256
4020,0,1,MESSAGE PUMP,WM_KEYUP,257
4022,0,1,MESSAGE PUMP,WM_KEYDOWN,256
4023,0,1,MESSAGE PUMP,WM_KEYUP,257
4025,0,1,MESSAGE PUMP,WM_KEYDOWN,256
4027,0,1,MESSAGE PUMP,WM_KEYUP,257
4028,0,1,MESSAGE PUMP,WM_KEYDOWN,256
4030,0,1,MESSAGE PUMP,WM_KEYUP,257
4032,0,1,MESSAGE PUMP,WM_KEYDOWN,256
4033,0,1,MESSAGE PUMP,WM_KEYUP,257
4045,0,1,MESSAGE PUMP,WM_KEYDOWN,256
4047,0,1,MESSAGE PUMP,WM_KEYUP,257
4048,0,1,MESSAGE PUMP,WM_KEYDOWN,256
4050,0,1,MESSAGE PUMP,WM_KEYUP,257
4052,0,1,MESSAGE PUMP,WM_KEYDOWN,256
4054,0,1,MESSAGE PUMP,WM_KEYUP,257
4056,0,1,MESSAGE PUMP,WM_KEYDOWN,256
4058,0,1,MESSAGE PUMP,WM_KEYUP,257
4061,0,1,MESSAGE PUMP,WM_KEYDOWN,256
4063,0,1,MESSAGE PUMP,WM_KEYUP,257
4066,0,1,MESSAGE PUMP,WM_KEYDOWN,256
4070,0,1,MESSAGE PUMP,WM_KEYUP,257
4075,0,1,MESSAGE PUMP,WM_KEYDOWN,256
4080,0,1,MESSAGE PUMP,WM_KEYUP,257
4086,0,1,MESSAGE PUMP,WM_KEYDOWN,256
4089,0,1,MESSAGE PUMP,WM_KEYUP,257
4092,0,1,MESSAGE PUMP,WM_KEYDOWN,256
4094,0,1,MESSAGE PUMP,WM_KEYUP,257
4097,0,1,MESSAGE PUMP,WM_KEYDOWN,256
4102,0,1,MESSAGE PUMP,WM_KEYUP,257
4108,0,1,MESSAGE PUMP,WM_KEYDOWN,256
4114,0,1,MESSAGE PUMP,WM_KEYUP,257
4120,0,1,MESSAGE PUMP,WM_KEYDOWN,256
4127,0,1,MESSAGE PUMP,WM_KEYUP,257
4132,0,1,MESSAGE PUMP,WM_KEYDOWN,256
4136,0,1,MESSAGE PUMP,WM_KEYUP,257
4139,0,1,MESSAGE PUMP,WM_KEYDOWN,256
4143,0,1,MESSAGE PUMP,WM_KEYUP,257
4173,0,1,MESSAGE PUMP,WM_KEYDOWN,256
4176,0,1,MESSAGE PUMP,WM_KEYUP,257
4204,0,1,MESSAGE PUMP,WM_KEYDOWN,256
4205,0,1,MESSAGE PUMP,WM_KEYUP,257
4230,0,1,MESSAGE PUMP,WM_KEYDOWN,256
4235,0,1,MESSAGE PUMP,WM_KEYUP,257
4240,0,1,MESSAGE PUMP,WM_KEYDOWN,256
4244,0,1,MESSAGE PUMP,WM_KEYUP,257
4264,0,1,MESSAGE PUMP,WM_KEYDOWN,256
4265,0,1,MESSAGE PUMP,WM_KEYUP,257
4288,0,1,MESSAGE PUMP,WM_KEYDOWN,256
4292,0,1,MESSAGE PUMP,WM_KEYUP,257
4294,0,1,MESSAGE PUMP,WM_KEYDOWN,256
4297,0,1,MESSAGE PUMP,WM_KEYUP,257
4301,0,1,MESSAGE PUMP,WM_KEYDOWN,256
4305,0,1,MESSAGE PUMP,WM_KEYUP,257
4309,0,1,MESSAGE PUMP,WM_KEYDOWN,256
4313,0,1,MESSAGE PUMP,WM_KEYUP,257
4317,0,1,MESSAGE PUMP,WM_KEYDOWN,256
4321,0,1,MESSAGE PUMP,WM_KEYUP,257
4324,0,1,MESSAGE PUMP,WM_KEYDOWN,256
4328,0,1,MESSAGE PUMP,WM_KEYUP,257
4332,0,1,MESSAGE PUMP,WM_KEYDOWN,256
4335,0,1,MESSAGE PUMP,WM_KEYUP,257
4340,0,1,MESSAGE PUMP,WM_KEYDOWN,256
4344,0,1,MESSAGE PUMP,WM_KEYUP,257
4348,0,1,MESSAGE PUMP,WM_KEYDOWN,256
4352,0,1,MESSAGE PUMP,WM_KEYUP,257
4356,0,1,MESSAGE PUMP,WM_KEYDOWN,256
4360,0,1,MESSAGE PUMP,WM_KEYUP,257
4364,0,1,MESSAGE PUMP,WM_KEYDOWN,256
4368,0,1,MESSAGE PUMP,WM_KEYUP,257
4372,0,1,MESSAGE PUMP,WM_KEYDOWN,256
4376,0,1,MESSAGE PUMP,WM_KEYUP,257
4380,0,1,MESSAGE PUMP,WM_KEYDOWN,256
4384,0,1,MESSAGE PUMP,WM_KEYUP,257
4410,0,1,MESSAGE PUMP,WM_KEYDOWN,256
4411,0,1,MESSAGE PUMP,WM_KEYUP,257
4425,0,1,MESSAGE PUMP,WM_KEYDOWN,256
4428,0,1,MESSAGE PUMP,WM_KEYUP,257
4430,0,1,MESSAGE PUMP,WM_KEYDOWN,256
4432,0,1,MESSAGE PUMP,WM_KEYUP,257
4435,0,1,MESSAGE PUMP,WM_KEYDOWN,256
4437,0,1,MESSAGE PUMP,WM_KEYUP,257
4454,0,1,MESSAGE PUMP,WM_KEYDOWN,256
4457,0,1,MESSAGE PUMP,WM_KEYUP,257
4459,0,1,MESSAGE PUMP,WM_KEYDOWN,256
4461,0,1,MESSAGE PUMP,WM_KEYUP,257
4464,0,1,MESSAGE PUMP,WM_KEYDOWN,256
4466,0,1,MESSAGE PUMP,WM_KEYUP,257
4468,0,1,MESSAGE PUMP,WM_KEYDOWN,256
4471,0,1,MESSAGE PUMP,WM_KEYUP,257
4473,0,1,MESSAGE PUMP,WM_KEYDOWN,256
4476,0,1,MESSAGE PUMP,WM_KEYUP,257
4478,0,1,MESSAGE PUMP,WM_KEYDOWN,256
4481,0,1,MESSAGE PUMP,WM_KEYUP,257
4483,0,1,MESSAGE PUMP,WM_KEYDOWN,256
4485,0,1,MESSAGE PUMP,WM_KEYUP,257
4488,0,1,MESSAGE PUMP,WM_KEYDOWN,256
4490,0,1,MESSAGE PUMP,WM_KEYUP,257
4493,0,1,MESSAGE PUMP,WM_KEYDOWN,256
4495,0,1,MESSAGE PUMP,WM_KEYUP,257
4497,0,1,MESSAGE PUMP,WM_KEYDOWN,256
4500,0,1,MESSAGE PUMP,WM_KEYUP,257
4502,0,1,MESSAGE PUMP,WM_KEYDOWN,256
4505,0,1,MESSAGE PUMP,WM_KEYUP,257
4507,0,1,MESSAGE PUMP,WM_KEYDOWN,256
4510,0,1,MESSAGE PUMP,WM_KEYUP,257
4859,0,1,MESSAGE PUMP,WM_KEYDOWN,256
4862,0,1,MESSAGE PUMP,WM_KEYUP,257
5004,0,1,MESSAGE PUMP,WM_KEYDOWN,256
5006,0,1,MESSAGE PUMP,WM_KEYUP,257
5146,0,1,MESSAGE PUMP,WM_KEYDOWN,256
5148,0,1,MESSAGE PUMP,WM_SYSKEYDOWN,260
5148,0,1,MESSAGE PUMP,WM_CONTEXTMENU,123
5150,0,1,MESSAGE PUMP,WM_SYSKEYUP,261
5150,0,1,MESSAGE PUMP,WM_SYSCOMMAND,274
5152,0,1,MESSAGE PUMP,WM_KEYUP,257
5286,0,1,MESSAGE PUMP,WM_KEYDOWN,256
5288,0,1,MESSAGE PUMP,WM_KEYUP,257
5290,0,1,MESSAGE PUMP,WM_KEYDOWN,256
5293,0,1,MESSAGE PUMP,WM_KEYUP,257
5295,0,1,MESSAGE PUMP,WM_KEYDOWN,256
5297,0,1,MESSAGE PUMP,WM_KEYUP,257
5299,0,1,MESSAGE PUMP,WM_KEYDOWN,256
5302,0,1,MESSAGE PUMP,WM_KEYUP,257
5304,0,1,MESSAGE PUMP,WM_KEYDOWN,256
5306,0,1,MESSAGE PUMP,WM_KEYUP,257
5309,0,1,MESSAGE PUMP,WM_KEYDOWN,256
5311,0,1,MESSAGE PUMP,WM_KEYUP,257
5445,0,1,MESSAGE PUMP,WM_KEYDOWN,256
5445,0,1,MESSAGE PUMP,WM_CHAR,258
5446,0,1,MESSAGE PUMP,WM_KEYUP,257
5691,0,1,MESSAGE PUMP,WM_KEYDOWN,256
5694,0,1,MESSAGE PUMP,WM_KEYDOWN,256
5694,0,1,MESSAGE PUMP,WM_CHAR,258
5694,0,0,MESSAGE PUMP,WM_NCACTIVATE,134
5694,0,0,MESSAGE PUMP,WM_ACTIVATE,6
5694,0,0,MESSAGE PUMP,WM_KILLFOCUS,8
5694,0,0,MESSAGE PUMP,WM_IME_SETCONTEXT,641
5694,0,0,MESSAGE PUMP,WM_IME_NOTIFY,642
5694,0,0,MESSAGE PUMP,WM_NCHITTEST,132
5694,0,0,MESSAGE PUMP,WM_SETCURSOR,32
5694,0,0,MESSAGE PUMP,WM_MOUSEFIRST,512
5694,0,0,MESSAGE PUMP,WM_NCHITTEST,132
5694,0,0,MESSAGE PUMP,WM_SETCURSOR,32
5694,0,0,MESSAGE PUMP,WM_MOUSEFIRST,512
5694,0,0,MESSAGE PUMP,WM_NCHITTEST,132
5694,0,0,MESSAGE PUMP,WM_SETCURSOR,32
5694,0,0,MESSAGE PUMP,WM_MOUSEFIRST,512
5694,0,0,MESSAGE PUMP,WM_NCHITTEST,132
5694,0,0,MESSAGE PUMP,WM_SETCURSOR,32
5694,0,0,MESSAGE PUMP,WM_MOUSEFIRST,512
5694,0,0,MESSAGE PUMP,WM_NCHITTEST,132
5694,0,0,MESSAGE PUMP,WM_SETCURSOR,32
5694,0,0,MESSAGE PUMP,WM_MOUSEFIRST,512
5694,0,0,MESSAGE PUMP,WM_NCHITTEST,132
5694,0,0,MESSAGE PUMP,WM_SETCURSOR,32
5694,0,0,MESSAGE PUMP,WM_MOUSEFIRST,512
5694,0,0,MESSAGE PUMP,WM_NCHITTEST,132
5694,0,0,MESSAGE PUMP,WM_SETCURSOR,32
5694,0,0,MESSAGE PUMP,WM_MOUSEFIRST,512
5694,0,0,MESSAGE PUMP,WM_NCHITTEST,132
5694,0,0,MESSAGE PUMP,WM_SETCURSOR,32
5694,0,0,MESSAGE PUMP,WM_MOUSEFIRST,512
5694,0,0,MESSAGE PUMP,WM_NCHITTEST,132
5694,0,0,MESSAGE PUMP,WM_SETCURSOR,32
5694,0,0,MESSAGE PUMP,WM_MOUSEFIRST,512
5694,0,0,MESSAGE PUMP,WM_NCHITTEST,132
5694,0,0,MESSAGE PUMP,WM_SETCURSOR,32
5694,0,0,MESSAGE PUMP,WM_MOUSEFIRST,512
5694,0,0,MESSAGE PUMP,WM_NCHITTEST,132
5694,0,0,MESSAGE PUMP,WM_SETCURSOR,32
5694,0,0,MESSAGE PUMP,WM_MOUSEFIRST,512
5694,0,0,MESSAGE PUMP,WM_NCHITTEST,132
5694,0,0,MESSAGE PUMP,WM_SETCURSOR,32
5694,0,0,MESSAGE PUMP,WM_MOUSEFIRST,512
5694,0,0,MESSAGE PUMP,WM_NCHITTEST,132
5694,0,0,MESSAGE PUMP,WM_SETCURSOR,32
5694,0,0,MESSAGE PUMP,WM_MOUSEFIRST,512
5694,0,0,MESSAGE PUMP,WM_NCHITTEST,132
5694,0,0,MESSAGE PUMP,WM_SETCURSOR,32
5694,0,0,MESSAGE PUMP,WM_MOUSEFIRST,512
5694,0,0,MESSAGE PUMP,WM_NCHITTEST,132
5694,0,0,MESSAGE PUMP,WM_SETCURSOR,32
5694,0,0,MESSAGE PUMP,WM_MOUSEFIRST,512
5694,0,0,MESSAGE PUMP,WM_NCHITTEST,132
5694,0,0,MESSAGE PUMP,WM_SETCURSOR,32
5694,0,0,MESSAGE PUMP,WM_MOUSEFIRST,512
5694,0,0,MESSAGE PUMP,WM_NCHITTEST,132
5694,0,0,MESSAGE PUMP,WM_SETCURSOR,32
5694,0,0,MESSAGE PUMP,WM_MOUSEFIRST,512
5694,0,0,MESSAGE PUMP,WM_NCHITTEST,132
5694,0,0,MESSAGE PUMP,WM_SETCURSOR,32
5694,0,0,MESSAGE PUMP,WM_MOUSEFIRST,512
5694,0,0,MESSAGE PUMP,WM_NCHITTEST,132
5694,0,0,MESSAGE PUMP,WM_SETCURSOR,32
5694,0,0,MESSAGE PUMP,WM_MOUSEFIRST,512
5694,0,0,MESSAGE PUMP,WM_NCHITTEST,132
5694,0,0,MESSAGE PUMP,WM_SETCURSOR,32
5694,0,0,MESSAGE PUMP,WM_MOUSEFIRST,512
5694,0,0,MESSAGE PUMP,WM_NCHITTEST,132
5694,0,0,MESSAGE PUMP,WM_SETCURSOR,32
5694,0,0,MESSAGE PUMP,WM_MOUSEFIRST,512
5694,0,0,MESSAGE PUMP,WM_NCHITTEST,132
5694,0,0,MESSAGE PUMP,WM_SETCURSOR,32
5694,0,0,MESSAGE PUMP,WM_MOUSEFIRST,512
5694,0,0,MESSAGE PUMP,WM_NCHITTEST,132
5694,0,0,MESSAGE PUMP,WM_SETCURSOR,32
5694,0,0,MESSAGE PUMP,WM_MOUSEFIRST,512
5694,0,0,MESSAGE PUMP,WM_NCHITTEST,132
5694,0,0,MESSAGE PUMP,WM_SETCURSOR,32
5694,0,0,MESSAGE PUMP,WM_MOUSEFIRST,512
5694,0,0,MESSAGE PUMP,WM_NCHITTEST,132
5694,0,0,MESSAGE PUMP,WM_SETCURSOR,32
5694,0,0,MESSAGE PUMP,WM_MOUSEFIRST,512
5694,0,0,MESSAGE PUMP,WM_NCHITTEST,132
5694,0,0,MESSAGE PUMP,WM_SETCURSOR,32
5694,0,0,MESSAGE PUMP,WM_MOUSEFIRST,512
5694,0,0,MESSAGE PUMP,WM_NCHITTEST,132
5694,0,0,MESSAGE PUMP,WM_SETCURSOR,32
5694,0,0,MESSAGE PUMP,WM_MOUSEFIRST,512
5694,0,0,MESSAGE PUMP,WM_NCHITTEST,132
5694,0,0,MESSAGE PUMP,WM_SETCURSOR,32
5694,0,0,MESSAGE PUMP,WM_MOUSEFIRST,512
5694,0,0,MESSAGE PUMP,WM_NCHITTEST,132
5694,0,0,MESSAGE PUMP,WM_SETCURSOR,32
5694,0,0,MESSAGE PUMP,WM_MOUSEFIRST,512
5694,0,0,MESSAGE PUMP,WM_NCHITTEST,132
5694,0,0,MESSAGE PUMP,WM_SETCURSOR,32
5694,0,0,MESSAGE PUMP,WM_MOUSEFIRST,512
5694,0,0,MESSAGE PUMP,WM_NCHITTEST,132
5694,0,0,MESSAGE PUMP,WM_SETCURSOR,32
5694,0,0,MESSAGE PUMP,WM_MOUSEFIRST,512
5694,0,0,MESSAGE PUMP,WM_NCHITTEST,132
5694,0,0,MESSAGE PUMP,WM_SETCURSOR,32
5694,0,0,MESSAGE PUMP,WM_MOUSEFIRST,512
5694,0,0,MESSAGE PUMP,WM_NCHITTEST,132
5694,0,0,MESSAGE PUMP,WM_SETCURSOR,32
5694,0,0,MESSAGE PUMP,WM_MOUSEFIRST,512
5694,0,0,MESSAGE PUMP,WM_NCHITTEST,132
5694,0,0,MESSAGE PUMP,WM_SETCURSOR,32
5694,0,0,MESSAGE PUMP,WM_MOUSEFIRST,512
5694,0,0,MESSAGE PUMP,WM_NCHITTEST,132
5694,0,0,MESSAGE PUMP,WM_SETCURSOR,32
5694,0,0,MESSAGE PUMP,WM_MOUSEFIRST,512
5694,0,0,MESSAGE PUMP,WM_NCHITTEST,132
5694,0,0,MESSAGE PUMP,WM_SETCURSOR,32
5694,0,0,MESSAGE PUMP,WM_MOUSEFIRST,512
5694,0,0,MESSAGE PUMP,WM_NCHITTEST,132
5694,0,0,MESSAGE PUMP,WM_SETCURSOR,32
5694,0,0,MESSAGE PUMP,WM_MOUSEFIRST,512
5694,0,0,MESSAGE PUMP,WM_NCHITTEST,132
5694,0,0,MESSAGE PUMP,WM_SETCURSOR,32
5694,0,0,MESSAGE PUMP,WM_MOUSEFIRST,512
5694,0,0,MESSAGE PUMP,WM_WINDOWPOSCHANGING,70
5694,0,0,MESSAGE PUMP,WM_WINDOWPOSCHANGED,71
5694,0,0,MESSAGE PUMP,WM_ACTIVATEAPP,28
5694,0,0,MESSAGE PUMP,WM_NCACTIVATE,134
5694,0,0,MESSAGE PUMP,WM_ACTIVATE,6
5694,0,0,MESSAGE PUMP,WM_IME_SETCONTEXT,641
5694,0,0,MESSAGE PUMP,WM_IME_NOTIFY,642
5694,0,0,MESSAGE PUMP,WM_SETFOCUS,7
5695,0,1,MESSAGE PUMP,WM_NCHITTEST,132
5695,0,1,MESSAGE PUMP,WM_SETCURSOR,32
5695,0,1,MESSAGE PUMP,WM_MOUSEFIRST,512
5695,0,1,MESSAGE PUMP,WM_KEYUP,257
5695,0,1,MESSAGE PUMP,WM_NCHITTEST,132
5695,0,1,MESSAGE PUMP,WM_SETCURSOR,32
5695,0,1,MESSAGE PUMP,WM_MOUSEFIRST,512
5695,0,1,MESSAGE PUMP,WM_NCHITTEST,132
5695,0,1,MESSAGE PUMP,WM_SETCURSOR,32
5695,0,1,MESSAGE PUMP,WM_MOUSEFIRST,512
6757,0,1,MESSAGE PUMP,WM_KEYDOWN,256
6760,0,1,MESSAGE PUMP,WM_KEYUP,257
6763,0,1,MESSAGE PUMP,WM_KEYDOWN,256
6766,0,1,MESSAGE PUMP,WM_KEYUP,257
6769,0,1,MESSAGE PUMP,WM_KEYDOWN,256
6772,0,1,MESSAGE PUMP,WM_KEYUP,257
6776,0,1,MESSAGE PUMP,WM_KEYDOWN,256
6778,0,1,MESSAGE PUMP,WM_KEYUP,257
6783,0,1,MESSAGE PUMP,WM_KEYDOWN,256
6789,0,1,MESSAGE PUMP,WM_KEYUP,257
6816,0,1,MESSAGE PUMP,WM_KEYDOWN,256
6816,0,1,MESSAGE PUMP,WM_CHAR,258
6817,0,1,MESSAGE PUMP,WM_KEYUP,257
6817,0,1,MESSAGE PUMP,WM_KEYDOWN,256
6817,0,1,MESSAGE PUMP,WM_KEYUP,257
6817,0,1,MESSAGE PUMP,WM_KEYDOWN,256
6817,0,1,MESSAGE PUMP,WM_KEYUP,257
6817,0,1,MESSAGE PUMP,WM_KEYDOWN,256
6818,0,1,MESSAGE PUMP,WM_KEYUP,257
6821,0,1,MESSAGE PUMP,WM_KEYDOWN,256
6822,0,1,MESSAGE PUMP,WM_KEYUP,257
6822,0,1,MESSAGE PUMP,WM_KEYDOWN,256
6823,0,1,MESSAGE PUMP,WM_KEYUP,257
6824,0,1,MESSAGE PUMP,WM_KEYDOWN,256
6826,0,1,MESSAGE PUMP,WM_KEYUP,257
6828,0,1,MESSAGE PUMP,WM_KEYDOWN,256
6830,0,1,MESSAGE PUMP,WM_KEYUP,257
6834,0,1,MESSAGE PUMP,WM_KEYDOWN,256
6836,0,1,MESSAGE PUMP,WM_KEYUP,257
6841,0,1,MESSAGE PUMP,WM_KEYDOWN,256
6843,0,1,MESSAGE PUMP,WM_KEYUP,257
6847,0,1,MESSAGE PUMP,WM_KEYDOWN,256
6849,0,1,MESSAGE PUMP,WM_KEYUP,257
6853,0,1,MESSAGE PUMP,WM_KEYDOWN,256
6855,0,1,MESSAGE PUMP,WM_KEYUP,257
6858,0,1,MESSAGE PUMP,WM_KEYDOWN,256
6860,0,1,MESSAGE PUMP,WM_KEYUP,257
6864,0,1,MESSAGE PUMP,WM_KEYDOWN,256
6867,0,1,MESSAGE PUMP,WM_KEYUP,257
6871,0,1,MESSAGE PUMP,WM_KEYDOWN,256
6873,0,1,MESSAGE PUMP,WM_KEYUP,257
6878,0,1,MESSAGE PUMP,WM_KEYDOWN,256
6880,0,1,MESSAGE PUMP,WM_KEYUP,257
6884,0,1,MESSAGE PUMP,WM_KEYDOWN,256
6887,0,1,MESSAGE PUMP,WM_KEYUP,257
6891,0,1,MESSAGE PUMP,WM_KEYDOWN,256
6892,0,1,MESSAGE PUMP,WM_KEYUP,257
6893,0,1,MESSAGE PUMP,WM_KEYDOWN,256
6895,0,1,MESSAGE PUMP,WM_KEYUP,257
6898,0,1,MESSAGE PUMP,WM_KEYDOWN,256
6899,0,1,MESSAGE PUMP,WM_KEYUP,257
6900,0,1,MESSAGE PUMP,WM_KEYDOWN,256
6903,0,1,MESSAGE PUMP,WM_KEYUP,257
6907,0,1,MESSAGE PUMP,WM_KEYDOWN,256
6910,0,1,MESSAGE PUMP,WM_KEYUP,257
6914,0,1,MESSAGE PUMP,WM_KEYDOWN,256
6916,0,1,MESSAGE PUMP,WM_KEYUP,257
6920,0,1,MESSAGE PUMP,WM_KEYDOWN,256
6923,0,1,MESSAGE PUMP,WM_KEYUP,257
6927,0,1,MESSAGE PUMP,WM_KEYDOWN,256
6929,0,1,MESSAGE PUMP,WM_KEYUP,257
6933,0,1,MESSAGE PUMP,WM_KEYDOWN,256
6936,0,1,MESSAGE PUMP,WM_KEYUP,257
6940,0,1,MESSAGE PUMP,WM_KEYDOWN,256
6942,0,1,MESSAGE PUMP,WM_KEYUP,257
6947,0,1,MESSAGE PUMP,WM_KEYDOWN,256
6949,0,1,MESSAGE PUMP,WM_KEYUP,257
6953,0,1,MESSAGE PUMP,WM_KEYDOWN,256
6955,0,1,MESSAGE PUMP,WM_KEYUP,257
6959,0,1,MESSAGE PUMP,WM_KEYDOWN,256
6962,0,1,MESSAGE PUMP,WM_KEYUP,257
6966,0,1,MESSAGE PUMP,WM_KEYDOWN,256
6967,0,1,MESSAGE PUMP,WM_KEYUP,257
6987,0,1,MESSAGE PUMP,WM_KEYDOWN,256
6989,0,1,MESSAGE PUMP,WM_KEYUP,257
6992,0,1,MESSAGE PUMP,WM_KEYDOWN,256
6994,0,1,MESSAGE PUMP,WM_KEYUP,257
6998,0,1,MESSAGE PUMP,WM_KEYDOWN,256
7000,0,1,MESSAGE PUMP,WM_KEYUP,257
7004,0,1,MESSAGE PUMP,WM_KEYDOWN,256
7007,0,1,MESSAGE PUMP,WM_KEYUP,257
7011,0,1,MESSAGE PUMP,WM_KEYDOWN,256
7013,0,1,MESSAGE PUMP,WM_KEYUP,257
7017,0,1,MESSAGE PUMP,WM_KEYDOWN,256
7020,0,1,MESSAGE PUMP,WM_KEYUP,257
7024,0,1,MESSAGE PUMP,WM_KEYDOWN,256
7026,0,1,MESSAGE PUMP,WM_KEYUP,257
7030,0,1,MESSAGE PUMP,WM_KEYDOWN,256
7033,0,1,MESSAGE PUMP,WM_KEYUP,257
7037,0,1,MESSAGE PUMP,WM_KEYDOWN,256
7039,0,1,MESSAGE PUMP,WM_KEYUP,257
7043,0,1,MESSAGE PUMP,WM_KEYDOWN,256
7045,0,1,MESSAGE PUMP,WM_KEYUP,257
7048,0,1,MESSAGE PUMP,WM_KEYDOWN,256
7049,0,1,MESSAGE PUMP,WM_KEYUP,257
7053,0,1,MESSAGE PUMP,WM_KEYDOWN,256
7054,0,1,MESSAGE PUMP,WM_KEYUP,257
7058,0,1,MESSAGE PUMP,WM_KEYDOWN,256
7059,0,1,MESSAGE PUMP,WM_KEYUP,257
7062,0,1,MESSAGE PUMP,WM_KEYDOWN,256
7064,0,1,MESSAGE PUMP,WM_KEYUP,257
7068,0,1,MESSAGE PUMP,WM_KEYDOWN,256
7070,0,1,MESSAGE PUMP,WM_KEYUP,257
7074,0,1,MESSAGE PUMP,WM_KEYDOWN,256
7077,0,1,MESSAGE PUMP,WM_KEYUP,257
7081,0,1,MESSAGE PUMP,WM_KEYDOWN,256
7083,0,1,MESSAGE PUMP,WM_KEYUP,257
7087,0,1,MESSAGE PUMP,WM_KEYDOWN,256
7090,0,1,MESSAGE PUMP,WM_KEYUP,257
7092,0,1,MESSAGE PUMP,WM_KEYDOWN,256
7093,0,1,MESSAGE PUMP,WM_KEYUP,257
7096,0,1,MESSAGE PUMP,WM_KEYDOWN,256
7099,0,1,MESSAGE PUMP,WM_KEYUP,257
7122,0,1,MESSAGE PUMP,WM_KEYDOWN,256
7146,0,1,MESSAGE PUMP,WM_KEYDOWN,256
7147,0,1,MESSAGE PUMP,WM_KEYUP,257
7148,0,1,MESSAGE PUMP,WM_KEYDOWN,256
7149,0,1,MESSAGE PUMP,WM_KEYUP,257
7152,0,1,MESSAGE PUMP,WM_KEYDOWN,256
7153,0,1,MESSAGE PUMP,WM_KEYUP,257
7156,0,1,MESSAGE PUMP,WM_KEYDOWN,256
7157,0,1,MESSAGE PUMP,WM_KEYUP,257
7160,0,1,MESSAGE PUMP,WM_KEYDOWN,256
7161,0,1,MESSAGE PUMP,WM_KEYUP,257
7164,0,1,MESSAGE PUMP,WM_KEYDOWN,256
7165,0,1,MESSAGE PUMP,WM_KEYUP,257
7190,0,1,MESSAGE PUMP,WM_KEYUP,257
7210,0,1,MESSAGE PUMP,WM_KEYDOWN,256
7211,0,1,MESSAGE PUMP,WM_KEYUP,257
7231,0,1,MESSAGE PUMP,WM_KEYDOWN,256
7235,0,1,MESSAGE PUMP,WM_KEYDOWN,256
7235,0,1,MESSAGE PUMP,WM_CHAR,258
7236,0,1,MESSAGE PUMP,WM_KEYUP,257
7236,0,1,MESSAGE PUMP,WM_KEYUP,257
7236,0,1,MESSAGE PUMP,WM_KEYDOWN,256
7236,0,1,MESSAGE PUMP,WM_KEYUP,257
7237,0,1,MESSAGE PUMP,WM_KEYDOWN,256
7237,0,1,MESSAGE PUMP,WM_KEYUP,257
7237,0,1,MESSAGE PUMP,WM_KEYDOWN,256
7238,0,1,MESSAGE PUMP,WM_KEYUP,257
7260,0,1,MESSAGE PUMP,WM_KEYDOWN,256
7261,0,1,MESSAGE PUMP,WM_KEYUP,257
7283,0,1,MESSAGE PUMP,WM_KEYDOWN,256
7286,0,1,MESSAGE PUMP,WM_KEYDOWN,256
7287,0,1,MESSAGE PUMP,WM_KEYUP,257
7290,0,1,MESSAGE PUMP,WM_KEYUP,257
7313,0,1,MESSAGE PUMP,WM_KEYDOWN,256
7314,0,1,MESSAGE PUMP,WM_KEYUP,257
7318,0,1,MESSAGE PUMP,WM_KEYDOWN,256
7319,0,1,MESSAGE PUMP,WM_KEYUP,257
7323,0,1,MESSAGE PUMP,WM_KEYDOWN,256
7324,0,1,MESSAGE PUMP,WM_KEYUP,257
7326,0,1,MESSAGE PUMP,WM_KEYDOWN,256
7327,0,1,MESSAGE PUMP,WM_KEYUP,257
7349,0,1,MESSAGE PUMP,WM_KEYDOWN,256
7352,0,1,MESSAGE PUMP,WM_KEYDOWN,256
7352,0,1,MESSAGE PUMP,WM_CHAR,258
7353,0,1,MESSAGE PUMP,WM_KEYUP,257
7357,0,1,MESSAGE PUMP,WM_KEYUP,257
7361,0,1,MESSAGE PUMP,WM_KEYDOWN,256
7361,0,1,MESSAGE PUMP,WM_CHAR,258
7364,0,1,MESSAGE PUMP,WM_KEYUP,257
7367,0,1,MESSAGE PUMP,WM_KEYDOWN,256
7367,0,1,MESSAGE PUMP,WM_CHAR,258
7368,0,1,MESSAGE PUMP,WM_KEYUP,257
7371,0,1,MESSAGE PUMP,WM_KEYDOWN,256
7371,0,1,MESSAGE PUMP,WM_CHAR,258
7374,0,1,MESSAGE PUMP,WM_KEYUP,257
7377,0,1,MESSAGE PUMP,WM_KEYDOWN,256
7377,0,1,MESSAGE PUMP,WM_CHAR,258
7378,0,1,MESSAGE PUMP,WM_KEYUP,257
7382,0,1,MESSAGE PUMP,WM_KEYDOWN,256
7382,0,1,MESSAGE PUMP,WM_CHAR,258
7383,0,1,MESSAGE PUMP,WM_KEYUP,257
7385,0,1,MESSAGE PUMP,WM_KEYDOWN,256
7385,0,1,MESSAGE PUMP,WM_CHAR,258
7386,0,1,MESSAGE PUMP,WM_KEYUP,257
7388,0,1,MESSAGE PUMP,WM_KEYDOWN,256
7388,0,1,MESSAGE PUMP,WM_CHAR,258
7389,0,1,MESSAGE PUMP,WM_KEYUP,257
7393,0,1,MESSAGE PUMP,WM_KEYDOWN,256
7393,0,1,MESSAGE PUMP,WM_CHAR,258
7394,0,1,MESSAGE PUMP,WM_KEYUP,257
7396,0,1,MESSAGE PUMP,WM_KEYDOWN,256
7396,0,1,MESSAGE PUMP,WM_CHAR,258
7397,0,1,MESSAGE PUMP,WM_KEYUP,257
7400,0,1,MESSAGE PUMP,WM_KEYDOWN,256
7400,0,1,MESSAGE PUMP,WM_CHAR,258
7401,0,1,MESSAGE PUMP,WM_KEYUP,257
7419,0,1,MESSAGE PUMP,WM_KEYDOWN,256
7423,0,1,MESSAGE PUMP,WM_KEYDOWN,256
7424,0,1,MESSAGE PUMP,WM_KEYUP,257
7424,0,1,MESSAGE PUMP,WM_KEYUP,257
7451,0,1,MESSAGE PUMP,WM_KEYDOWN,256
7451,0,1,MESSAGE PUMP,WM_CHAR,258
7452,0,1,MESSAGE PUMP,WM_KEYUP,257
7645,0,1,MESSAGE PUMP,WM_KEYDOWN,256
7648,0,1,MESSAGE PUMP,WM_KEYDOWN,256
7652,0,1,MESSAGE PUMP,WM_KEYUP,257
7658,0,1,MESSAGE PUMP,WM_KEYUP,257
7876,0,1,MESSAGE PUMP,WM_KEYDOWN,256
7879,0,1,MESSAGE PUMP,WM_KEYDOWN,256
7883,0,1,MESSAGE PUMP,WM_KEYUP,257
7886,0,1,MESSAGE PUMP,WM_KEYUP,257
8402,0,1,MESSAGE PUMP,WM_KEYDOWN,256
8407,0,1,MESSAGE PUMP,WM_KEYUP,257
8640,0,1,MESSAGE PUMP,WM_KEYDOWN,256
8643,0,1,MESSAGE PUMP,WM_KEYUP,257
8847,0,1,MESSAGE PUMP,WM_KEYDOWN,256
8850,0,1,MESSAGE PUMP,WM_SYSKEYDOWN,260
8850,0,1,MESSAGE PUMP,WM_CONTEXTMENU,123
8852,0,1,MESSAGE PUMP,WM_SYSKEYUP,261
8852,0,1,MESSAGE PUMP,WM_SYSCOMMAND,274
8857,0,1,MESSAGE PUMP,WM_KEYUP,257
9088,0,1,MESSAGE PUMP,WM_KEYDOWN,256
9092,0,1,MESSAGE PUMP,WM_KEYUP,257
9095,0,1,MESSAGE PUMP,WM_KEYDOWN,256
9098,0,1,MESSAGE PUMP,WM_KEYUP,257
9101,0,1,MESSAGE PUMP,WM_KEYDOWN,256
9105,0,1,MESSAGE PUMP,WM_KEYUP,257
9108,0,1,MESSAGE PUMP,WM_KEYDOWN,256
9111,0,1,MESSAGE PUMP,WM_KEYUP,257
9114,0,1,MESSAGE PUMP,WM_KEYDOWN,256
9117,0,1,MESSAGE PUMP,WM_KEYUP,257
9120,0,1,MESSAGE PUMP,WM_KEYDOWN,256
9123,0,1,MESSAGE PUMP,WM_KEYUP,257
9353,0,1,MESSAGE PUMP,WM_KEYDOWN,256
9353,0,1,MESSAGE PUMP,WM_CHAR,258
9354,0,1,MESSAGE PUMP,WM_KEYUP,257
9596,0,1,MESSAGE PUMP,WM_SYSKEYDOWN,260
9600,0,1,MESSAGE PUMP,WM_SYSKEYDOWN,260
9600,0,1,MESSAGE PUMP,WM_SYSCOMMAND,274
9600,0,1,MESSAGE PUMP,WM_CLOSE,16
9600,0,0,MESSAGE PUMP,Unknown,144
9600,0,0,MESSAGE PUMP,WM_WINDOWPOSCHANGING,70
9600,0,0,MESSAGE PUMP,WM_WINDOWPOSCHANGED,71
9600,0,0,MESSAGE PUMP,WM_NCACTIVATE,134
9600,0,0,MESSAGE PUMP,WM_ACTIVATE,6
9600,0,0,MESSAGE PUMP,WM_ACTIVATEAPP,28
9600,0,0,MESSAGE PUMP,WM_KILLFOCUS,8
9600,0,0,MESSAGE PUMP,WM_IME_SETCONTEXT,641
9600,0,0,MESSAGE PUMP,WM_IME_NOTIFY,642
9600,0,0,MESSAGE PUMP,WM_DESTROY,2
9600,0,0,MESSAGE PUMP,WM_NCDESTROY,130
