Frame,Poll Count,Is Polling,Source,Event Name,Event Code
0,0,0,MESSAGE PUMP,WM_GETMINMAXINFO,36
0,0,0,MESSAGE PUMP,WM_WINDOWPOSCHANGING,70
0,0,0,MESSAGE PUMP,WM_GETMINMAXINFO,36
0,0,0,MESSAGE PUMP,WM_NCCALCSIZE,131
0,0,0,MESSAGE PUMP,WM_WINDOWPOSCHANGING,70
0,0,0,MESSAGE PUMP,WM_ACTIVATEAPP,28
0,0,0,MESSAGE PUMP,WM_NCACTIVATE,134
0,0,0,MESSAGE PUMP,WM_ACTIVATE,6
0,0,0,MESSAGE PUMP,WM_IME_SETCONTEXT,641
0,0,0,MESSAGE PUMP,WM_IME_NOTIFY,642
0,0,0,MESSAGE PUMP,WM_SETFOCUS,7
0,0,0,MESSAGE PUMP,WM_NCPAINT,133
0,0,0,MESSAGE PUMP,WM_ERASEBKGND,20
0,0,0,MESSAGE PUMP,WM_WINDOWPOSCHANGED,71
0,0,0,MESSAGE PUMP,WM_MOVE,3
0,0,0,MESSAGE PUMP,WM_SIZE,5
0,0,0,MESSAGE PUMP,WM_WINDOWPOSCHANGING,70
0,0,0,MESSAGE PUMP,WM_GETMINMAXINFO,36
0,0,0,MESSAGE PUMP,WM_NCPAINT,133
0,0,0,MESSAGE PUMP,WM_ERASEBKGND,20
0,0,0,MESSAGE PUMP,WM_WINDOWPOSCHANGED,71
0,0,0,MESSAGE PUMP,WM_MOVE,3
0,0,0,MESSAGE PUMP,WM_SETICON,128
0,0,0,MESSAGE PUMP,Unknown,174
0,0,0,MESSAGE PUMP,WM_SETICON,128
0,0,0,MESSAGE PUMP,Unknown,174
0,0,0,MESSAGE PUMP,WM_WINDOWPOSCHANGING,70
0,0,0,MESSAGE PUMP,WM_GETICON,127
0,0,0,MESSAGE PUMP,WM_WINDOWPOSCHANGING,70
1,0,1,MESSAGE PUMP,WM_GETICON,127
1,0,1,MESSAGE PUMP,Unknown,799
1,0,1,MESSAGE PUMP,Unknown,49375
1,0,1,MESSAGE PUMP,WM_GETMINMAXINFO,36
1,0,1,MESSAGE PUMP,WM_NCHITTEST,132
1,0,1,MESSAGE PUMP,WM_SETCURSOR,32
1,0,1,MESSAGE PUMP,WM_MOUSEFIRST,512
1,0,1,MESSAGE PUMP,WM_PAINT,15
1424,0,1,MESSAGE PUMP,WM_KEYDOWN,256
1427,0,1,MESSAGE PUMP,WM_KEYDOWN,256
1427,0,1,MESSAGE PUMP,WM_CHAR,258
1427,0,0,MESSAGE PUMP,WM_NCACTIVATE,134
1427,0,0,MESSAGE PUMP,WM_GETICON,127
1427,0,0,MESSAGE PUMP,WM_ACTIVATE,6
1427,0,0,MESSAGE PUMP,WM_KILLFOCUS,8
1427,0,0,MESSAGE PUMP,WM_IME_SETCONTEXT,641
1427,0,0,MESSAGE PUMP,WM_IME_NOTIFY,642
1427,0,0,MESSAGE PUMP,WM_NCHITTEST,132
1427,0,0,MESSAGE PUMP,WM_SETCURSOR,32
1427,0,0,MESSAGE PUMP,WM_MOUSEFIRST,512
1427,0,0,MESSAGE PUMP,WM_NCHITTEST,132
1427,0,0,MESSAGE PUMP,WM_SETCURSOR,32
1427,0,0,MESSAGE PUMP,WM_MOUSEFIRST,512
1427,0,0,MESSAGE PUMP,WM_NCHITTEST,132
1427,0,0,MESSAGE PUMP,WM_SETCURSOR,32
1427,0,0,MESSAGE PUMP,WM_MOUSEFIRST,512
1427,0,0,MESSAGE PUMP,WM_GETICON,127
1427,0,0,MESSAGE PUMP,WM_NCHITTEST,132
1427,0,0,MESSAGE PUMP,WM_SETCURSOR,32
1427,0,0,MESSAGE PUMP,WM_MOUSEFIRST,512
1427,0,0,MESSAGE PUMP,WM_NCHITTEST,132
1427,0,0,MESSAGE PUMP,WM_SETCURSOR,32
1427,0,0,MESSAGE PUMP,WM_MOUSEFIRST,512
1427,0,0,MESSAGE PUMP,WM_NCHITTEST,132
1427,0,0,MESSAGE PUMP,WM_SETCURSOR,32
1427,0,0,MESSAGE PUMP,WM_MOUSEFIRST,512
1427,0,0,MESSAGE PUMP,WM_NCHITTEST,132
1427,0,0,MESSAGE PUMP,WM_SETCURSOR,32
1427,0,0,MESSAGE PUMP,WM_MOUSEFIRST,512
1427,0,0,MESSAGE PUMP,WM_NCHITTEST,132
1427,0,0,MESSAGE PUMP,WM_SETCURSOR,32
1427,0,0,MESSAGE PUMP,WM_MOUSEFIRST,512
1427,0,0,MESSAGE PUMP,WM_NCHITTEST,132
1427,0,0,MESSAGE PUMP,WM_SETCURSOR,32
1427,0,0,MESSAGE PUMP,WM_MOUSEFIRST,512
1427,0,0,MESSAGE PUMP,WM_NCHITTEST,132
1427,0,0,MESSAGE PUMP,WM_SETCURSOR,32
1427,0,0,MESSAGE PUMP,WM_MOUSEFIRST,512
1427,0,0,MESSAGE PUMP,WM_NCHITTEST,132
1427,0,0,MESSAGE PUMP,WM_SETCURSOR,32
1427,0,0,MESSAGE PUMP,WM_MOUSEFIRST,512
1427,0,0,MESSAGE PUMP,WM_NCHITTEST,132
1427,0,0,MESSAGE PUMP,WM_SETCURSOR,32
1427,0,0,MESSAGE PUMP,WM_MOUSEFIRST,512
1427,0,0,MESSAGE PUMP,WM_NCHITTEST,132
1427,0,0,MESSAGE PUMP,WM_SETCURSOR,32
1427,0,0,MESSAGE PUMP,WM_MOUSEFIRST,512
1427,0,0,MESSAGE PUMP,WM_NCHITTEST,132
1427,0,0,MESSAGE PUMP,WM_SETCURSOR,32
1427,0,0,MESSAGE PUMP,WM_MOUSEFIRST,512
1427,0,0,MESSAGE PUMP,WM_NCHITTEST,132
1427,0,0,MESSAGE PUMP,WM_SETCURSOR,32
1427,0,0,MESSAGE PUMP,WM_MOUSEFIRST,512
1427,0,0,MESSAGE PUMP,WM_NCHITTEST,132
1427,0,0,MESSAGE PUMP,WM_SETCURSOR,32
1427,0,0,MESSAGE PUMP,WM_MOUSEFIRST,512
1427,0,0,MESSAGE PUMP,WM_NCHITTEST,132
1427,0,0,MESSAGE PUMP,WM_SETCURSOR,32
1427,0,0,MESSAGE PUMP,WM_MOUSEFIRST,512
1427,0,0,MESSAGE PUMP,WM_NCHITTEST,132
1427,0,0,MESSAGE PUMP,WM_SETCURSOR,32
1427,0,0,MESSAGE PUMP,WM_MOUSEFIRST,512
1427,0,0,MESSAGE PUMP,WM_NCHITTEST,132
1427,0,0,MESSAGE PUMP,WM_SETCURSOR,32
1427,0,0,MESSAGE PUMP,WM_MOUSEFIRST,512
1427,0,0,MESSAGE PUMP,WM_NCHITTEST,132
1427,0,0,MESSAGE PUMP,WM_SETCURSOR,32
1427,0,0,MESSAGE PUMP,WM_MOUSEFIRST,512
1427,0,0,MESSAGE PUMP,WM_NCHITTEST,132
1427,0,0,MESSAGE PUMP,WM_SETCURSOR,32
1427,0,0,MESSAGE PUMP,WM_MOUSEFIRST,512
1427,0,0,MESSAGE PUMP,WM_NCHITTEST,132
1427,0,0,MESSAGE PUMP,WM_SETCURSOR,32
1427,0,0,MESSAGE PUMP,WM_MOUSEFIRST,512
1427,0,0,MESSAGE PUMP,WM_NCHITTEST,132
1427,0,0,MESSAGE PUMP,WM_SETCURSOR,32
1427,0,0,MESSAGE PUMP,WM_MOUSEFIRST,512
1427,0,0,MESSAGE PUMP,WM_NCHITTEST,132
1427,0,0,MESSAGE PUMP,WM_SETCURSOR,32
1427,0,0,MESSAGE PUMP,WM_MOUSEFIRST,512
1427,0,0,MESSAGE PUMP,WM_NCHITTEST,132
1427,0,0,MESSAGE PUMP,WM_SETCURSOR,32
1427,0,0,MESSAGE PUMP,WM_MOUSEFIRST,512
1427,0,0,MESSAGE PUMP,WM_NCHITTEST,132
1427,0,0,MESSAGE PUMP,WM_SETCURSOR,32
1427,0,0,MESSAGE PUMP,WM_MOUSEFIRST,512
1427,0,0,MESSAGE PUMP,WM_NCHITTEST,132
1427,0,0,MESSAGE PUMP,WM_SETCURSOR,32
1427,0,0,MESSAGE PUMP,WM_MOUSEFIRST,512
1427,0,0,MESSAGE PUMP,WM_NCHITTEST,132
1427,0,0,MESSAGE PUMP,WM_SETCURSOR,32
1427,0,0,MESSAGE PUMP,WM_MOUSEFIRST,512
1427,0,0,MESSAGE PUMP,WM_NCHITTEST,132
1427,0,0,MESSAGE PUMP,WM_SETCURSOR,32
1427,0,0,MESSAGE PUMP,WM_MOUSEFIRST,512
1427,0,0,MESSAGE PUMP,WM_NCHITTEST,132
1427,0,0,MESSAGE PUMP,WM_SETCURSOR,32
1427,0,0,MESSAGE PUMP,WM_MOUSEFIRST,512
1427,0,0,MESSAGE PUMP,WM_NCHITTEST,132
1427,0,0,MESSAGE PUMP,WM_SETCURSOR,32
1427,0,0,MESSAGE PUMP,WM_MOUSEFIRST,512
1427,0,0,MESSAGE PUMP,WM_NCHITTEST,132
1427,0,0,MESSAGE PUMP,WM_SETCURSOR,32
1427,0,0,MESSAGE PUMP,WM_MOUSEFIRST,512
1427,0,0,MESSAGE PUMP,WM_NCHITTEST,132
1427,0,0,MESSAGE PUMP,WM_SETCURSOR,32
1427,0,0,MESSAGE PUMP,WM_MOUSEFIRST,512
1427,0,0,MESSAGE PUMP,WM_NCHITTEST,132
1427,0,0,MESSAGE PUMP,WM_SETCURSOR,32
1427,0,0,MESSAGE PUMP,WM_MOUSEFIRST,512
1427,0,0,MESSAGE PUMP,WM_NCHITTEST,132
1427,0,0,MESSAGE PUMP,WM_SETCURSOR,32
1427,0,0,MESSAGE PUMP,WM_MOUSEFIRST,512
1427,0,0,MESSAGE PUMP,WM_NCHITTEST,132
1427,0,0,MESSAGE PUMP,WM_SETCURSOR,32
1427,0,0,MESSAGE PUMP,WM_MOUSEFIRST,512
1427,0,0,MESSAGE PUMP,WM_NCHITTEST,132
1427,0,0,MESSAGE PUMP,WM_SETCURSOR,32
1427,0,0,MESSAGE PUMP,WM_MOUSEFIRST,512
1427,0,0,MESSAGE PUMP,WM_NCHITTEST,132
1427,0,0,MESSAGE PUMP,WM_SETCURSOR,32
1427,0,0,MESSAGE PUMP,WM_MOUSEFIRST,512
1427,0,0,MESSAGE PUMP,WM_NCHITTEST,132
1427,0,0,MESSAGE PUMP,WM_SETCURSOR,32
1427,0,0,MESSAGE PUMP,WM_MOUSEFIRST,512
1427,0,0,MESSAGE PUMP,WM_WINDOWPOSCHANGING,70
1427,0,0,MESSAGE PUMP,WM_WINDOWPOSCHANGED,71
1427,0,0,MESSAGE PUMP,WM_ACTIVATEAPP,28
1427,0,0,MESSAGE PUMP,WM_NCACTIVATE,134
1427,0,0,MESSAGE PUMP,WM_ACTIVATE,6
1427,0,0,MESSAGE PUMP,WM_IME_SETCONTEXT,641
1427,0,0,MESSAGE PUMP,WM_IME_NOTIFY,642
1427,0,0,MESSAGE PUMP,WM_SETFOCUS,7
1428,0,1,MESSAGE PUMP,WM_KEYUP,257
1428,0,1,MESSAGE PUMP,WM_NCHITTEST,132
1428,0,1,MESSAGE PUMP,WM_SETCURSOR,32
1428,0,1,MESSAGE PUMP,WM_MOUSEFIRST,512
1428,0,1,MESSAGE PUMP,WM_NCHITTEST,132
1428,0,1,MESSAGE PUMP,WM_SETCURSOR,32
1428,0,1,MESSAGE PUMP,WM_MOUSEFIRST,512
3297,0,1,MESSAGE PUMP,WM_KEYDOWN,256
3300,0,1,MESSAGE PUMP,WM_KEYUP,257
3303,0,1,MESSAGE PUMP,WM_KEYDOWN,256
3307,0,1,MESSAGE PUMP,WM_KEYUP,257
3333,0,1,MESSAGE PUMP,WM_KEYDOWN,256
3336,0,1,MESSAGE PUMP,WM_KEYUP,257
3339,0,1,MESSAGE PUMP,WM_KEYDOWN,256
3342,0,1,MESSAGE PUMP,WM_KEYUP,257
3345,0,1,MESSAGE PUMP,WM_KEYDOWN,256
3348,0,1,MESSAGE PUMP,WM_KEYUP,257
3386,0,1,MESSAGE PUMP,WM_KEYDOWN,256
3390,0,1,MESSAGE PUMP,WM_KEYUP,257
3396,0,1,MESSAGE PUMP,WM_KEYDOWN,256
3401,0,1,MESSAGE PUMP,WM_KEYUP,257
3407,0,1,MESSAGE PUMP,WM_KEYDOWN,256
3411,0,1,MESSAGE PUMP,WM_KEYUP,257
3416,0,1,MESSAGE PUMP,WM_KEYDOWN,256
3421,0,1,MESSAGE PUMP,WM_KEYUP,257
3426,0,1,MESSAGE PUMP,WM_KEYDOWN,256
3430,0,1,MESSAGE PUMP,WM_KEYUP,257
3468,0,1,MESSAGE PUMP,WM_KEYDOWN,256
3473,0,1,MESSAGE PUMP,WM_KEYUP,257
3478,0,1,MESSAGE PUMP,WM_KEYDOWN,256
3483,0,1,MESSAGE PUMP,WM_KEYUP,257
3517,0,1,MESSAGE PUMP,WM_KEYDOWN,256
3518,0,1,MESSAGE PUMP,WM_KEYUP,257
3541,0,1,MESSAGE PUMP,WM_KEYDOWN,256
3546,0,1,MESSAGE PUMP,WM_KEYUP,257
3550,0,1,MESSAGE PUMP,WM_KEYDOWN,256
3554,0,1,MESSAGE PUMP,WM_KEYUP,257
3559,0,1,MESSAGE PUMP,WM_KEYDOWN,256
3563,0,1,MESSAGE PUMP,WM_KEYUP,257
3567,0,1,MESSAGE PUMP,WM_KEYDOWN,256
3571,0,1,MESSAGE PUMP,WM_KEYUP,257
3576,0,1,MESSAGE PUMP,WM_KEYDOWN,256
3580,0,1,MESSAGE PUMP,WM_KEYUP,257
3608,0,1,MESSAGE PUMP,WM_KEYDOWN,256
3609,0,1,MESSAGE PUMP,WM_KEYUP,257
3623,0,1,MESSAGE PUMP,WM_KEYDOWN,256
3626,0,1,MESSAGE PUMP,WM_KEYUP,257
3629,0,1,MESSAGE PUMP,WM_KEYDOWN,256
3632,0,1,MESSAGE PUMP,WM_KEYUP,257
3653,0,1,MESSAGE PUMP,WM_KEYDOWN,256
3654,0,1,MESSAGE PUMP,WM_KEYUP,257
3664,0,1,MESSAGE PUMP,WM_KEYDOWN,256
3667,0,1,MESSAGE PUMP,WM_KEYUP,257
3669,0,1,MESSAGE PUMP,WM_KEYDOWN,256
3671,0,1,MESSAGE PUMP,WM_KEYUP,257
3673,0,1,MESSAGE PUMP,WM_KEYDOWN,256
3675,0,1,MESSAGE PUMP,WM_KEYUP,257
3677,0,1,MESSAGE PUMP,WM_KEYDOWN,256
3679,0,1,MESSAGE PUMP,WM_KEYUP,257
3682,0,1,MESSAGE PUMP,WM_KEYDOWN,256
3684,0,1,MESSAGE PUMP,WM_KEYUP,257
3686,0,1,MESSAGE PUMP,WM_KEYDOWN,256
3688,0,1,MESSAGE PUMP,WM_KEYUP,257
3690,0,1,MESSAGE PUMP,WM_KEYDOWN,256
3692,0,1,MESSAGE PUMP,WM_KEYUP,257
3694,0,1,MESSAGE PUMP,WM_KEYDOWN,256
3696,0,1,MESSAGE PUMP,WM_KEYUP,257
3698,0,1,MESSAGE PUMP,WM_KEYDOWN,256
3700,0,1,MESSAGE PUMP,WM_KEYUP,257
3702,0,1,MESSAGE PUMP,WM_KEYDOWN,256
3704,0,1,MESSAGE PUMP,WM_KEYUP,257
3706,0,1,MESSAGE PUMP,WM_KEYDOWN,256
3708,0,1,MESSAGE PUMP,WM_KEYUP,257
3710,0,1,MESSAGE PUMP,WM_KEYDOWN,256
3712,0,1,MESSAGE PUMP,WM_KEYUP,257
3714,0,1,MESSAGE PUMP,WM_KEYDOWN,256
3716,0,1,MESSAGE PUMP,WM_KEYUP,257
3718,0,1,MESSAGE PUMP,WM_KEYDOWN,256
3720,0,1,MESSAGE PUMP,WM_KEYUP,257
3722,0,1,MESSAGE PUMP,WM_KEYDOWN,256
3724,0,1,MESSAGE PUMP,WM_KEYUP,257
3726,0,1,MESSAGE PUMP,WM_KEYDOWN,256
3729,0,1,MESSAGE PUMP,WM_KEYUP,257
3731,0,1,MESSAGE PUMP,WM_KEYDOWN,256
3733,0,1,MESSAGE PUMP,WM_KEYUP,257
3735,0,1,MESSAGE PUMP,WM_KEYDOWN,256
3737,0,1,MESSAGE PUMP,WM_KEYUP,257
3739,0,1,MESSAGE PUMP,WM_KEYDOWN,256
3741,0,1,MESSAGE PUMP,WM_KEYUP,257
3743,0,1,MESSAGE PUMP,WM_KEYDOWN,256
3745,0,1,MESSAGE PUMP,WM_KEYUP,257
3747,0,1,MESSAGE PUMP,WM_KEYDOWN,256
3749,0,1,MESSAGE PUMP,WM_KEYUP,257
3751,0,1,MESSAGE PUMP,WM_KEYDOWN,256
3753,0,1,MESSAGE PUMP,WM_KEYUP,257
3755,0,1,MESSAGE PUMP,WM_KEYDOWN,256
3757,0,1,MESSAGE PUMP,WM_KEYUP,257
3760,0,1,MESSAGE PUMP,WM_KEYDOWN,256
3762,0,1,MESSAGE PUMP,WM_KEYUP,257
3764,0,1,MESSAGE PUMP,WM_KEYDOWN,256
3766,0,1,MESSAGE PUMP,WM_KEYUP,257
3768,0,1,MESSAGE PUMP,WM_KEYDOWN,256
3770,0,1,MESSAGE PUMP,WM_KEYUP,257
3772,0,1,MESSAGE PUMP,WM_KEYDOWN,256
3774,0,1,MESSAGE PUMP,WM_KEYUP,257
3776,0,1,MESSAGE PUMP,WM_KEYDOWN,256
3778,0,1,MESSAGE PUMP,WM_KEYUP,257
3781,0,1,MESSAGE PUMP,WM_KEYDOWN,256
3783,0,1,MESSAGE PUMP,WM_KEYUP,257
3785,0,1,MESSAGE PUMP,WM_KEYDOWN,256
3787,0,1,MESSAGE PUMP,WM_KEYUP,257
3789,0,1,MESSAGE PUMP,WM_KEYDOWN,256
3791,0,1,MESSAGE PUMP,WM_KEYUP,257
3793,0,1,MESSAGE PUMP,WM_KEYDOWN,256
3795,0,1,MESSAGE PUMP,WM_KEYUP,257
3797,0,1,MESSAGE PUMP,WM_KEYDOWN,256
3799,0,1,MESSAGE PUMP,WM_KEYUP,257
3801,0,1,MESSAGE PUMP,WM_KEYDOWN,256
3803,0,1,MESSAGE PUMP,WM_KEYUP,257
3806,0,1,MESSAGE PUMP,WM_KEYDOWN,256
3808,0,1,MESSAGE PUMP,WM_KEYUP,257
3810,0,1,MESSAGE PUMP,WM_KEYDOWN,256
3812,0,1,MESSAGE PUMP,WM_KEYUP,257
3814,0,1,MESSAGE PUMP,WM_KEYDOWN,256
3816,0,1,MESSAGE PUMP,WM_KEYUP,257
3818,0,1,MESSAGE PUMP,WM_KEYDOWN,256
3821,0,1,MESSAGE PUMP,WM_KEYUP,257
3823,0,1,MESSAGE PUMP,WM_KEYDOWN,256
3825,0,1,MESSAGE PUMP,WM_KEYUP,257
3827,0,1,MESSAGE PUMP,WM_KEYDOWN,256
3829,0,1,MESSAGE PUMP,WM_KEYUP,257
3831,0,1,MESSAGE PUMP,WM_KEYDOWN,256
3833,0,1,MESSAGE PUMP,WM_KEYUP,257
3835,0,1,MESSAGE PUMP,WM_KEYDOWN,256
3838,0,1,MESSAGE PUMP,WM_KEYUP,257
3851,0,1,MESSAGE PUMP,WM_KEYDOWN,256
3853,0,1,MESSAGE PUMP,WM_KEYUP,257
3867,0,1,MESSAGE PUMP,WM_KEYDOWN,256
3869,0,1,MESSAGE PUMP,WM_KEYUP,257
3871,0,1,MESSAGE PUMP,WM_KEYDOWN,256
3872,0,1,MESSAGE PUMP,WM_KEYUP,257
3882,0,1,MESSAGE PUMP,WM_KEYDOWN,256
3883,0,1,MESSAGE PUMP,WM_KEYUP,257
3885,0,1,MESSAGE PUMP,WM_KEYDOWN,256
3887,0,1,MESSAGE PUMP,WM_KEYUP,257
3888,0,1,MESSAGE PUMP,WM_KEYDOWN,256
3890,0,1,MESSAGE PUMP,WM_KEYUP,257
3892,0,1,MESSAGE PUMP,WM_KEYDOWN,256
3894,0,1,MESSAGE PUMP,WM_KEYUP,257
3895,0,1,MESSAGE PUMP,WM_KEYDOWN,256
3897,0,1,MESSAGE PUMP,WM_KEYUP,257
3899,0,1,MESSAGE PUMP,WM_KEYDOWN,256
3900,0,1,MESSAGE PUMP,WM_KEYUP,257
3912,0,1,MESSAGE PUMP,WM_KEYDOWN,256
3913,0,1,MESSAGE PUMP,WM_KEYUP,257
3915,0,1,MESSAGE PUMP,WM_KEYDOWN,256
3916,0,1,MESSAGE PUMP,WM_KEYUP,257
3918,0,1,MESSAGE PUMP,WM_KEYDOWN,256
3920,0,1,MESSAGE PUMP,WM_KEYUP,257
3922,0,1,MESSAGE PUMP,WM_KEYDOWN,256
3925,0,1,MESSAGE PUMP,WM_KEYUP,257
3928,0,1,MESSAGE PUMP,WM_KEYDOWN,256
3931,0,1,MESSAGE PUMP,WM_KEYUP,257
3934,0,1,MESSAGE PUMP,WM_KEYDOWN,256
3937,0,1,MESSAGE PUMP,WM_KEYUP,257
3939,0,1,MESSAGE PUMP,WM_KEYDOWN,256
3943,0,1,MESSAGE PUMP,WM_KEYUP,257
3948,0,1,MESSAGE PUMP,WM_KEYDOWN,256
3953,0,1,MESSAGE PUMP,WM_KEYUP,257
3958,0,1,MESSAGE PUMP,WM_KEYDOWN,256
3963,0,1,MESSAGE PUMP,WM_KEYUP,257
3968,0,1,MESSAGE PUMP,WM_KEYDOWN,256
3973,0,1,MESSAGE PUMP,WM_KEYUP,257
3980,0,1,MESSAGE PUMP,WM_KEYDOWN,256
3986,0,1,MESSAGE PUMP,WM_KEYUP,257
3992,0,1,MESSAGE PUMP,WM_KEYDOWN,256
3998,0,1,MESSAGE PUMP,WM_KEYUP,257
4004,0,1,MESSAGE PUMP,WM_KEYDOWN,256
4009,0,1,MESSAGE PUMP,WM_KEYUP,257
4014,0,1,MESSAGE PUMP,WM_KEYDOWN,256
4019,0,1,MESSAGE PUMP,WM_KEYUP,257
4058,0,1,MESSAGE PUMP,WM_KEYDOWN,256
4064,0,1,MESSAGE PUMP,WM_KEYUP,257
4102,0,1,MESSAGE PUMP,WM_KEYDOWN,256
4104,0,1,MESSAGE PUMP,WM_KEYUP,257
4138,0,1,MESSAGE PUMP,WM_KEYDOWN,256
4142,0,1,MESSAGE PUMP,WM_KEYUP,257
4147,0,1,MESSAGE PUMP,WM_KEYDOWN,256
4152,0,1,MESSAGE PUMP,WM_KEYUP,257
4183,0,1,MESSAGE PUMP,WM_KEYDOWN,256
4186,0,1,MESSAGE PUMP,WM_KEYUP,257
4214,0,1,MESSAGE PUMP,WM_KEYDOWN,256
4218,0,1,MESSAGE PUMP,WM_KEYUP,257
4222,0,1,MESSAGE PUMP,WM_KEYDOWN,256
4225,0,1,MESSAGE PUMP,WM_KEYUP,257
4229,0,1,MESSAGE PUMP,WM_KEYDOWN,256
4233,0,1,MESSAGE PUMP,WM_KEYUP,257
4237,0,1,MESSAGE PUMP,WM_KEYDOWN,256
4241,0,1,MESSAGE PUMP,WM_KEYUP,257
4245,0,1,MESSAGE PUMP,WM_KEYDOWN,256
4249,0,1,MESSAGE PUMP,WM_KEYUP,257
4253,0,1,MESSAGE PUMP,WM_KEYDOWN,256
4257,0,1,MESSAGE PUMP,WM_KEYUP,257
4261,0,1,MESSAGE PUMP,WM_KEYDOWN,256
4265,0,1,MESSAGE PUMP,WM_KEYUP,257
4268,0,1,MESSAGE PUMP,WM_KEYDOWN,256
4272,0,1,MESSAGE PUMP,WM_KEYUP,257
4276,0,1,MESSAGE PUMP,WM_KEYDOWN,256
4280,0,1,MESSAGE PUMP,WM_KEYUP,257
4284,0,1,MESSAGE PUMP,WM_KEYDOWN,256
4288,0,1,MESSAGE PUMP,WM_KEYUP,257
4292,0,1,MESSAGE PUMP,WM_KEYDOWN,256
4296,0,1,MESSAGE PUMP,WM_KEYUP,257
4300,0,1,MESSAGE PUMP,WM_KEYDOWN,256
4304,0,1,MESSAGE PUMP,WM_KEYUP,257
4309,0,1,MESSAGE PUMP,WM_KEYDOWN,256
4312,0,1,MESSAGE PUMP,WM_KEYUP,257
4339,0,1,MESSAGE PUMP,WM_KEYDOWN,256
4340,0,1,MESSAGE PUMP,WM_KEYUP,257
4354,0,1,MESSAGE PUMP,WM_KEYDOWN,256
4357,0,1,MESSAGE PUMP,WM_KEYUP,257
4359,0,1,MESSAGE PUMP,WM_KEYDOWN,256
4360,0,1,MESSAGE PUMP,WM_KEYUP,257
4362,0,1,MESSAGE PUMP,WM_KEYDOWN,256
4364,0,1,MESSAGE PUMP,WM_KEYUP,257
4381,0,1,MESSAGE PUMP,WM_KEYDOWN,256
4383,0,1,MESSAGE PUMP,WM_KEYUP,257
4385,0,1,MESSAGE PUMP,WM_KEYDOWN,256
4386,0,1,MESSAGE PUMP,WM_KEYUP,257
4389,0,1,MESSAGE PUMP,WM_KEYDOWN,256
4391,0,1,MESSAGE PUMP,WM_KEYUP,257
4392,0,1,MESSAGE PUMP,WM_KEYDOWN,256
4394,0,1,MESSAGE PUMP,WM_KEYUP,257
4397,0,1,MESSAGE PUMP,WM_KEYDOWN,256
4399,0,1,MESSAGE PUMP,WM_KEYUP,257
4402,0,1,MESSAGE PUMP,WM_KEYDOWN,256
4404,0,1,MESSAGE PUMP,WM_KEYUP,257
4407,0,1,MESSAGE PUMP,WM_KEYDOWN,256
4409,0,1,MESSAGE PUMP,WM_KEYUP,257
4411,0,1,MESSAGE PUMP,WM_KEYDOWN,256
4414,0,1,MESSAGE PUMP,WM_KEYUP,257
4416,0,1,MESSAGE PUMP,WM_KEYDOWN,256
4419,0,1,MESSAGE PUMP,WM_KEYUP,257
4421,0,1,MESSAGE PUMP,WM_KEYDOWN,256
4424,0,1,MESSAGE PUMP,WM_KEYUP,257
4426,0,1,MESSAGE PUMP,WM_KEYDOWN,256
4428,0,1,MESSAGE PUMP,WM_KEYUP,257
4431,0,1,MESSAGE PUMP,WM_KEYDOWN,256
4433,0,1,MESSAGE PUMP,WM_KEYUP,257
4783,0,1,MESSAGE PUMP,WM_KEYDOWN,256
4785,0,1,MESSAGE PUMP,WM_KEYUP,257
4926,0,1,MESSAGE PUMP,WM_KEYDOWN,256
4929,0,1,MESSAGE PUMP,WM_KEYUP,257
5069,0,1,MESSAGE PUMP,WM_KEYDOWN,256
5070,0,1,MESSAGE PUMP,WM_SYSKEYDOWN,260
5070,0,1,MESSAGE PUMP,WM_CONTEXTMENU,123
5072,0,1,MESSAGE PUMP,WM_SYSKEYUP,261
5072,0,1,MESSAGE PUMP,WM_SYSCOMMAND,274
5074,0,1,MESSAGE PUMP,WM_KEYUP,257
5210,0,1,MESSAGE PUMP,WM_KEYDOWN,256
5212,0,1,MESSAGE PUMP,WM_KEYUP,257
5214,0,1,MESSAGE PUMP,WM_KEYDOWN,256
5217,0,1,MESSAGE PUMP,WM_KEYUP,257
5219,0,1,MESSAGE PUMP,WM_KEYDOWN,256
5221,0,1,MESSAGE PUMP,WM_KEYUP,257
5223,0,1,MESSAGE PUMP,WM_KEYDOWN,256
5226,0,1,MESSAGE PUMP,WM_KEYUP,257
5228,0,1,MESSAGE PUMP,WM_KEYDOWN,256
5231,0,1,MESSAGE PUMP,WM_KEYUP,257
5233,0,1,MESSAGE PUMP,WM_KEYDOWN,256
5235,0,1,MESSAGE PUMP,WM_KEYUP,257
5368,0,1,MESSAGE PUMP,WM_KEYDOWN,256
5368,0,1,MESSAGE PUMP,WM_CHAR,258
5369,0,1,MESSAGE PUMP,WM_KEYUP,257
5602,0,1,MESSAGE PUMP,WM_KEYDOWN,256
5606,0,1,MESSAGE PUMP,WM_KEYDOWN,256
5606,0,1,MESSAGE PUMP,WM_CHAR,258
5606,0,0,MESSAGE PUMP,WM_NCACTIVATE,134
5606,0,0,MESSAGE PUMP,WM_ACTIVATE,6
5606,0,0,MESSAGE PUMP,WM_KILLFOCUS,8
5606,0,0,MESSAGE PUMP,WM_IME_SETCONTEXT,641
5606,0,0,MESSAGE PUMP,WM_IME_NOTIFY,642
5606,0,0,MESSAGE PUMP,WM_NCHITTEST,132
5606,0,0,MESSAGE PUMP,WM_SETCURSOR,32
5606,0,0,MESSAGE PUMP,WM_MOUSEFIRST,512
5606,0,0,MESSAGE PUMP,WM_NCHITTEST,132
5606,0,0,MESSAGE PUMP,WM_SETCURSOR,32
5606,0,0,MESSAGE PUMP,WM_MOUSEFIRST,512
5606,0,0,MESSAGE PUMP,WM_NCHITTEST,132
5606,0,0,MESSAGE PUMP,WM_SETCURSOR,32
5606,0,0,MESSAGE PUMP,WM_MOUSEFIRST,512
5606,0,0,MESSAGE PUMP,WM_NCHITTEST,132
5606,0,0,MESSAGE PUMP,WM_SETCURSOR,32
5606,0,0,MESSAGE PUMP,WM_MOUSEFIRST,512
5606,0,0,MESSAGE PUMP,WM_NCHITTEST,132
5606,0,0,MESSAGE PUMP,WM_SETCURSOR,32
5606,0,0,MESSAGE PUMP,WM_MOUSEFIRST,512
5606,0,0,MESSAGE PUMP,WM_NCHITTEST,132
5606,0,0,MESSAGE PUMP,WM_SETCURSOR,32
5606,0,0,MESSAGE PUMP,WM_MOUSEFIRST,512
5606,0,0,MESSAGE PUMP,WM_NCHITTEST,132
5606,0,0,MESSAGE PUMP,WM_SETCURSOR,32
5606,0,0,MESSAGE PUMP,WM_MOUSEFIRST,512
5606,0,0,MESSAGE PUMP,WM_NCHITTEST,132
5606,0,0,MESSAGE PUMP,WM_SETCURSOR,32
5606,0,0,MESSAGE PUMP,WM_MOUSEFIRST,512
5606,0,0,MESSAGE PUMP,WM_NCHITTEST,132
5606,0,0,MESSAGE PUMP,WM_SETCURSOR,32
5606,0,0,MESSAGE PUMP,WM_MOUSEFIRST,512
5606,0,0,MESSAGE PUMP,WM_NCHITTEST,132
5606,0,0,MESSAGE PUMP,WM_SETCURSOR,32
5606,0,0,MESSAGE PUMP,WM_MOUSEFIRST,512
5606,0,0,MESSAGE PUMP,WM_NCHITTEST,132
5606,0,0,MESSAGE PUMP,WM_SETCURSOR,32
5606,0,0,MESSAGE PUMP,WM_MOUSEFIRST,512
5606,0,0,MESSAGE PUMP,WM_NCHITTEST,132
5606,0,0,MESSAGE PUMP,WM_SETCURSOR,32
5606,0,0,MESSAGE PUMP,WM_MOUSEFIRST,512
5606,0,0,MESSAGE PUMP,WM_NCHITTEST,132
5606,0,0,MESSAGE PUMP,WM_SETCURSOR,32
5606,0,0,MESSAGE PUMP,WM_MOUSEFIRST,512
5606,0,0,MESSAGE PUMP,WM_NCHITTEST,132
5606,0,0,MESSAGE PUMP,WM_SETCURSOR,32
5606,0,0,MESSAGE PUMP,WM_MOUSEFIRST,512
5606,0,0,MESSAGE PUMP,WM_NCHITTEST,132
5606,0,0,MESSAGE PUMP,WM_SETCURSOR,32
5606,0,0,MESSAGE PUMP,WM_MOUSEFIRST,512
5606,0,0,MESSAGE PUMP,WM_NCHITTEST,132
5606,0,0,MESSAGE PUMP,WM_SETCURSOR,32
5606,0,0,MESSAGE PUMP,WM_MOUSEFIRST,512
5606,0,0,MESSAGE PUMP,WM_NCHITTEST,132
5606,0,0,MESSAGE PUMP,WM_SETCURSOR,32
5606,0,0,MESSAGE PUMP,WM_MOUSEFIRST,512
5606,0,0,MESSAGE PUMP,WM_NCHITTEST,132
5606,0,0,MESSAGE PUMP,WM_SETCURSOR,32
5606,0,0,MESSAGE PUMP,WM_MOUSEFIRST,512
5606,0,0,MESSAGE PUMP,WM_NCHITTEST,132
5606,0,0,MESSAGE PUMP,WM_SETCURSOR,32
5606,0,0,MESSAGE PUMP,WM_MOUSEFIRST,512
5606,0,0,MESSAGE PUMP,WM_NCHITTEST,132
5606,0,0,MESSAGE PUMP,WM_SETCURSOR,32
5606,0,0,MESSAGE PUMP,WM_MOUSEFIRST,512
5606,0,0,MESSAGE PUMP,WM_NCHITTEST,132
5606,0,0,MESSAGE PUMP,WM_SETCURSOR,32
5606,0,0,MESSAGE PUMP,WM_MOUSEFIRST,512
5606,0,0,MESSAGE PUMP,WM_NCHITTEST,132
5606,0,0,MESSAGE PUMP,WM_SETCURSOR,32
5606,0,0,MESSAGE PUMP,WM_MOUSEFIRST,512
5606,0,0,MESSAGE PUMP,WM_NCHITTEST,132
5606,0,0,MESSAGE PUMP,WM_SETCURSOR,32
5606,0,0,MESSAGE PUMP,WM_MOUSEFIRST,512
5606,0,0,MESSAGE PUMP,WM_NCHITTEST,132
5606,0,0,MESSAGE PUMP,WM_SETCURSOR,32
5606,0,0,MESSAGE PUMP,WM_MOUSEFIRST,512
5606,0,0,MESSAGE PUMP,WM_NCHITTEST,132
5606,0,0,MESSAGE PUMP,WM_SETCURSOR,32
5606,0,0,MESSAGE PUMP,WM_MOUSEFIRST,512
5606,0,0,MESSAGE PUMP,WM_NCHITTEST,132
5606,0,0,MESSAGE PUMP,WM_SETCURSOR,32
5606,0,0,MESSAGE PUMP,WM_MOUSEFIRST,512
5606,0,0,MESSAGE PUMP,WM_NCHITTEST,132
5606,0,0,MESSAGE PUMP,WM_SETCURSOR,32
5606,0,0,MESSAGE PUMP,WM_MOUSEFIRST,512
5606,0,0,MESSAGE PUMP,WM_NCHITTEST,132
5606,0,0,MESSAGE PUMP,WM_SETCURSOR,32
5606,0,0,MESSAGE PUMP,WM_MOUSEFIRST,512
5606,0,0,MESSAGE PUMP,WM_NCHITTEST,132
5606,0,0,MESSAGE PUMP,WM_SETCURSOR,32
5606,0,0,MESSAGE PUMP,WM_MOUSEFIRST,512
5606,0,0,MESSAGE PUMP,WM_NCHITTEST,132
5606,0,0,MESSAGE PUMP,WM_SETCURSOR,32
5606,0,0,MESSAGE PUMP,WM_MOUSEFIRST,512
5606,0,0,MESSAGE PUMP,WM_NCHITTEST,132
5606,0,0,MESSAGE PUMP,WM_SETCURSOR,32
5606,0,0,MESSAGE PUMP,WM_MOUSEFIRST,512
5606,0,0,MESSAGE PUMP,WM_NCHITTEST,132
5606,0,0,MESSAGE PUMP,WM_SETCURSOR,32
5606,0,0,MESSAGE PUMP,WM_MOUSEFIRST,512
5606,0,0,MESSAGE PUMP,WM_NCHITTEST,132
5606,0,0,MESSAGE PUMP,WM_SETCURSOR,32
5606,0,0,MESSAGE PUMP,WM_MOUSEFIRST,512
5606,0,0,MESSAGE PUMP,WM_NCHITTEST,132
5606,0,0,MESSAGE PUMP,WM_SETCURSOR,32
5606,0,0,MESSAGE PUMP,WM_MOUSEFIRST,512
5606,0,0,MESSAGE PUMP,WM_NCHITTEST,132
5606,0,0,MESSAGE PUMP,WM_SETCURSOR,32
5606,0,0,MESSAGE PUMP,WM_MOUSEFIRST,512
5606,0,0,MESSAGE PUMP,WM_NCHITTEST,132
5606,0,0,MESSAGE PUMP,WM_SETCURSOR,32
5606,0,0,MESSAGE PUMP,WM_MOUSEFIRST,512
5606,0,0,MESSAGE PUMP,WM_NCHITTEST,132
5606,0,0,MESSAGE PUMP,WM_SETCURSOR,32
5606,0,0,MESSAGE PUMP,WM_MOUSEFIRST,512
5606,0,0,MESSAGE PUMP,WM_NCHITTEST,132
5606,0,0,MESSAGE PUMP,WM_SETCURSOR,32
5606,0,0,MESSAGE PUMP,WM_MOUSEFIRST,512
5606,0,0,MESSAGE PUMP,WM_NCHITTEST,132
5606,0,0,MESSAGE PUMP,WM_SETCURSOR,32
5606,0,0,MESSAGE PUMP,WM_MOUSEFIRST,512
5606,0,0,MESSAGE PUMP,WM_NCHITTEST,132
5606,0,0,MESSAGE PUMP,WM_SETCURSOR,32
5606,0,0,MESSAGE PUMP,WM_MOUSEFIRST,512
5606,0,0,MESSAGE PUMP,WM_NCHITTEST,132
5606,0,0,MESSAGE PUMP,WM_SETCURSOR,32
5606,0,0,MESSAGE PUMP,WM_MOUSEFIRST,512
5606,0,0,MESSAGE PUMP,WM_NCHITTEST,132
5606,0,0,MESSAGE PUMP,WM_SETCURSOR,32
5606,0,0,MESSAGE PUMP,WM_MOUSEFIRST,512
5606,0,0,MESSAGE PUMP,WM_WINDOWPOSCHANGING,70
5606,0,0,MESSAGE PUMP,WM_WINDOWPOSCHANGED,71
5606,0,0,MESSAGE PUMP,WM_ACTIVATEAPP,28
5606,0,0,MESSAGE PUMP,WM_NCACTIVATE,134
5606,0,0,MESSAGE PUMP,WM_ACTIVATE,6
5606,0,0,MESSAGE PUMP,WM_IME_SETCONTEXT,641
5606,0,0,MESSAGE PUMP,WM_IME_NOTIFY,642
5606,0,0,MESSAGE PUMP,WM_SETFOCUS,7
5607,0,1,MESSAGE PUMP,WM_NCHITTEST,132
5607,0,1,MESSAGE PUMP,WM_SETCURSOR,32
5607,0,1,MESSAGE PUMP,WM_MOUSEFIRST,512
5607,0,1,MESSAGE PUMP,WM_KEYUP,257
5607,0,1,MESSAGE PUMP,WM_NCHITTEST,132
5607,0,1,MESSAGE PUMP,WM_SETCURSOR,32
5607,0,1,MESSAGE PUMP,WM_MOUSEFIRST,512
5607,0,1,MESSAGE PUMP,WM_NCHITTEST,132
5607,0,1,MESSAGE PUMP,WM_SETCURSOR,32
5607,0,1,MESSAGE PUMP,WM_MOUSEFIRST,512
6674,0,1,MESSAGE PUMP,WM_KEYDOWN,256
6677,0,1,MESSAGE PUMP,WM_KEYUP,257
6680,0,1,MESSAGE PUMP,WM_KEYDOWN,256
6683,0,1,MESSAGE PUMP,WM_KEYUP,257
6686,0,1,MESSAGE PUMP,WM_KEYDOWN,256
6691,0,1,MESSAGE PUMP,WM_KEYUP,257
6697,0,1,MESSAGE PUMP,WM_KEYDOWN,256
6702,0,1,MESSAGE PUMP,WM_KEYUP,257
6708,0,1,MESSAGE PUMP,WM_KEYDOWN,256
6713,0,1,MESSAGE PUMP,WM_KEYUP,257
6752,0,1,MESSAGE PUMP,WM_KEYDOWN,256
6752,0,1,MESSAGE PUMP,WM_CHAR,258
6753,0,1,MESSAGE PUMP,WM_KEYUP,257
6753,0,1,MESSAGE PUMP,WM_KEYDOWN,256
6753,0,1,MESSAGE PUMP,WM_KEYUP,257
6753,0,1,MESSAGE PUMP,WM_KEYDOWN,256
6753,0,1,MESSAGE PUMP,WM_KEYUP,257
6754,0,1,MESSAGE PUMP,WM_KEYDOWN,256
6755,0,1,MESSAGE PUMP,WM_KEYUP,257
6755,0,1,MESSAGE PUMP,WM_KEYDOWN,256
6756,0,1,MESSAGE PUMP,WM_KEYUP,257
6757,0,1,MESSAGE PUMP,WM_KEYDOWN,256
6758,0,1,MESSAGE PUMP,WM_KEYUP,257
6763,0,1,MESSAGE PUMP,WM_KEYDOWN,256
6764,0,1,MESSAGE PUMP,WM_KEYUP,257
6767,0,1,MESSAGE PUMP,WM_KEYDOWN,256
6768,0,1,MESSAGE PUMP,WM_KEYUP,257
6771,0,1,MESSAGE PUMP,WM_KEYDOWN,256
6772,0,1,MESSAGE PUMP,WM_KEYUP,257
6776,0,1,MESSAGE PUMP,WM_KEYDOWN,256
6779,0,1,MESSAGE PUMP,WM_KEYUP,257
6783,0,1,MESSAGE PUMP,WM_KEYDOWN,256
6786,0,1,MESSAGE PUMP,WM_KEYUP,257
6791,0,1,MESSAGE PUMP,WM_KEYDOWN,256
6793,0,1,MESSAGE PUMP,WM_KEYUP,257
6798,0,1,MESSAGE PUMP,WM_KEYDOWN,256
6800,0,1,MESSAGE PUMP,WM_KEYUP,257
6805,0,1,MESSAGE PUMP,WM_KEYDOWN,256
6808,0,1,MESSAGE PUMP,WM_KEYUP,257
6812,0,1,MESSAGE PUMP,WM_KEYDOWN,256
6813,0,1,MESSAGE PUMP,WM_KEYUP,257
6814,0,1,MESSAGE PUMP,WM_KEYDOWN,256
6816,0,1,MESSAGE PUMP,WM_KEYUP,257
6821,0,1,MESSAGE PUMP,WM_KEYDOWN,256
6823,0,1,MESSAGE PUMP,WM_KEYUP,257
6828,0,1,MESSAGE PUMP,WM_KEYDOWN,256
6830,0,1,MESSAGE PUMP,WM_KEYUP,257
6835,0,1,MESSAGE PUMP,WM_KEYDOWN,256
6837,0,1,MESSAGE PUMP,WM_KEYUP,257
6839,0,1,MESSAGE PUMP,WM_KEYDOWN,256
6840,0,1,MESSAGE PUMP,WM_KEYUP,257
6844,0,1,MESSAGE PUMP,WM_KEYDOWN,256
6848,0,1,MESSAGE PUMP,WM_KEYUP,257
6852,0,1,MESSAGE PUMP,WM_KEYDOWN,256
6855,0,1,MESSAGE PUMP,WM_KEYUP,257
6860,0,1,MESSAGE PUMP,WM_KEYDOWN,256
6862,0,1,MESSAGE PUMP,WM_KEYUP,257
6866,0,1,MESSAGE PUMP,WM_KEYDOWN,256
6869,0,1,MESSAGE PUMP,WM_KEYUP,257
6874,0,1,MESSAGE PUMP,WM_KEYDOWN,256
6876,0,1,MESSAGE PUMP,WM_KEYUP,257
6880,0,1,MESSAGE PUMP,WM_KEYDOWN,256
6883,0,1,MESSAGE PUMP,WM_KEYUP,257
6887,0,1,MESSAGE PUMP,WM_KEYDOWN,256
6890,0,1,MESSAGE PUMP,WM_KEYUP,257
6894,0,1,MESSAGE PUMP,WM_KEYDOWN,256
6897,0,1,MESSAGE PUMP,WM_KEYUP,257
6902,0,1,MESSAGE PUMP,WM_KEYDOWN,256
6905,0,1,MESSAGE PUMP,WM_KEYUP,257
6909,0,1,MESSAGE PUMP,WM_KEYDOWN,256
6912,0,1,MESSAGE PUMP,WM_KEYUP,257
6916,0,1,MESSAGE PUMP,WM_KEYDOWN,256
6919,0,1,MESSAGE PUMP,WM_KEYUP,257
6949,0,1,MESSAGE PUMP,WM_KEYDOWN,256
6952,0,1,MESSAGE PUMP,WM_KEYUP,257
6956,0,1,MESSAGE PUMP,WM_KEYDOWN,256
6959,0,1,MESSAGE PUMP,WM_KEYUP,257
6963,0,1,MESSAGE PUMP,WM_KEYDOWN,256
6966,0,1,MESSAGE PUMP,WM_KEYUP,257
6970,0,1,MESSAGE PUMP,WM_KEYDOWN,256
6973,0,1,MESSAGE PUMP,WM_KEYUP,257
6977,0,1,MESSAGE PUMP,WM_KEYDOWN,256
6981,0,1,MESSAGE PUMP,WM_KEYUP,257
6985,0,1,MESSAGE PUMP,WM_KEYDOWN,256
6987,0,1,MESSAGE PUMP,WM_KEYUP,257
6992,0,1,MESSAGE PUMP,WM_KEYDOWN,256
6995,0,1,MESSAGE PUMP,WM_KEYUP,257
6999,0,1,MESSAGE PUMP,WM_KEYDOWN,256
7003,0,1,MESSAGE PUMP,WM_KEYUP,257
7007,0,1,MESSAGE PUMP,WM_KEYDOWN,256
7010,0,1,MESSAGE PUMP,WM_KEYUP,257
7014,0,1,MESSAGE PUMP,WM_KEYDOWN,256
7017,0,1,MESSAGE PUMP,WM_KEYUP,257
7021,0,1,MESSAGE PUMP,WM_KEYDOWN,256
7024,0,1,MESSAGE PUMP,WM_KEYUP,257
7028,0,1,MESSAGE PUMP,WM_KEYDOWN,256
7031,0,1,MESSAGE PUMP,WM_KEYUP,257
7035,0,1,MESSAGE PUMP,WM_KEYDOWN,256
7038,0,1,MESSAGE PUMP,WM_KEYUP,257
7042,0,1,MESSAGE PUMP,WM_KEYDOWN,256
7045,0,1,MESSAGE PUMP,WM_KEYUP,257
7049,0,1,MESSAGE PUMP,WM_KEYDOWN,256
7050,0,1,MESSAGE PUMP,WM_KEYUP,257
7053,0,1,MESSAGE PUMP,WM_KEYDOWN,256
7054,0,1,MESSAGE PUMP,WM_KEYUP,257
7058,0,1,MESSAGE PUMP,WM_KEYDOWN,256
7059,0,1,MESSAGE PUMP,WM_KEYUP,257
7061,0,1,MESSAGE PUMP,WM_KEYDOWN,256
7062,0,1,MESSAGE PUMP,WM_KEYUP,257
7065,0,1,MESSAGE PUMP,WM_KEYDOWN,256
7068,0,1,MESSAGE PUMP,WM_KEYUP,257
7073,0,1,MESSAGE PUMP,WM_KEYDOWN,256
7076,0,1,MESSAGE PUMP,WM_KEYUP,257
7105,0,1,MESSAGE PUMP,WM_KEYDOWN,256
7134,0,1,MESSAGE PUMP,WM_KEYDOWN,256
7135,0,1,MESSAGE PUMP,WM_KEYUP,257
7138,0,1,MESSAGE PUMP,WM_KEYDOWN,256
7139,0,1,MESSAGE PUMP,WM_KEYUP,257
7142,0,1,MESSAGE PUMP,WM_KEYDOWN,256
7143,0,1,MESSAGE PUMP,WM_KEYUP,257
7146,0,1,MESSAGE PUMP,WM_KEYDOWN,256
7147,0,1,MESSAGE PUMP,WM_KEYUP,257
7150,0,1,MESSAGE PUMP,WM_KEYDOWN,256
7151,0,1,MESSAGE PUMP,WM_KEYUP,257
7153,0,1,MESSAGE PUMP,WM_KEYDOWN,256
7154,0,1,MESSAGE PUMP,WM_KEYUP,257
7182,0,1,MESSAGE PUMP,WM_KEYUP,257
7211,0,1,MESSAGE PUMP,WM_KEYDOWN,256
7212,0,1,MESSAGE PUMP,WM_KEYUP,257
7241,0,1,MESSAGE PUMP,WM_KEYDOWN,256
7245,0,1,MESSAGE PUMP,WM_KEYDOWN,256
7245,0,1,MESSAGE PUMP,WM_CHAR,258
7246,0,1,MESSAGE PUMP,WM_KEYUP,257
7246,0,1,MESSAGE PUMP,WM_KEYUP,257
7246,0,1,MESSAGE PUMP,WM_KEYDOWN,256
7246,0,1,MESSAGE PUMP,WM_KEYUP,257
7247,0,1,MESSAGE PUMP,WM_KEYDOWN,256
7247,0,1,MESSAGE PUMP,WM_KEYUP,257
7247,0,1,MESSAGE PUMP,WM_KEYDOWN,256
7249,0,1,MESSAGE PUMP,WM_KEYUP,257
7273,0,1,MESSAGE PUMP,WM_KEYDOWN,256
7275,0,1,MESSAGE PUMP,WM_KEYUP,257
7304,0,1,MESSAGE PUMP,WM_KEYDOWN,256
7308,0,1,MESSAGE PUMP,WM_KEYDOWN,256
7309,0,1,MESSAGE PUMP,WM_KEYUP,257
7313,0,1,MESSAGE PUMP,WM_KEYUP,257
7334,0,1,MESSAGE PUMP,WM_KEYDOWN,256
7336,0,1,MESSAGE PUMP,WM_KEYUP,257
7339,0,1,MESSAGE PUMP,WM_KEYDOWN,256
7341,0,1,MESSAGE PUMP,WM_KEYUP,257
7344,0,1,MESSAGE PUMP,WM_KEYDOWN,256
7346,0,1,MESSAGE PUMP,WM_KEYUP,257
7348,0,1,MESSAGE PUMP,WM_KEYDOWN,256
7349,0,1,MESSAGE PUMP,WM_KEYUP,257
7373,0,1,MESSAGE PUMP,WM_KEYDOWN,256
7377,0,1,MESSAGE PUMP,WM_KEYDOWN,256
7377,0,1,MESSAGE PUMP,WM_CHAR,258
7378,0,1,MESSAGE PUMP,WM_KEYUP,257
7381,0,1,MESSAGE PUMP,WM_KEYUP,257
7385,0,1,MESSAGE PUMP,WM_KEYDOWN,256
7385,0,1,MESSAGE PUMP,WM_CHAR,258
7386,0,1,MESSAGE PUMP,WM_KEYUP,257
7390,0,1,MESSAGE PUMP,WM_KEYDOWN,256
7390,0,1,MESSAGE PUMP,WM_CHAR,258
7391,0,1,MESSAGE PUMP,WM_KEYUP,257
7393,0,1,MESSAGE PUMP,WM_KEYDOWN,256
7393,0,1,MESSAGE PUMP,WM_CHAR,258
7395,0,1,MESSAGE PUMP,WM_KEYUP,257
7400,0,1,MESSAGE PUMP,WM_KEYDOWN,256
7400,0,1,MESSAGE PUMP,WM_CHAR,258
7402,0,1,MESSAGE PUMP,WM_KEYUP,257
7405,0,1,MESSAGE PUMP,WM_KEYDOWN,256
7405,0,1,MESSAGE PUMP,WM_CHAR,258
7407,0,1,MESSAGE PUMP,WM_KEYUP,257
7411,0,1,MESSAGE PUMP,WM_KEYDOWN,256
7411,0,1,MESSAGE PUMP,WM_CHAR,258
7413,0,1,MESSAGE PUMP,WM_KEYUP,257
7417,0,1,MESSAGE PUMP,WM_KEYDOWN,256
7417,0,1,MESSAGE PUMP,WM_CHAR,258
7419,0,1,MESSAGE PUMP,WM_KEYUP,257
7424,0,1,MESSAGE PUMP,WM_KEYDOWN,256
7424,0,1,MESSAGE PUMP,WM_CHAR,258
7426,0,1,MESSAGE PUMP,WM_KEYUP,257
7430,0,1,MESSAGE PUMP,WM_KEYDOWN,256
7430,0,1,MESSAGE PUMP,WM_CHAR,258
7433,0,1,MESSAGE PUMP,WM_KEYUP,257
7437,0,1,MESSAGE PUMP,WM_KEYDOWN,256
7437,0,1,MESSAGE PUMP,WM_CHAR,258
7439,0,1,MESSAGE PUMP,WM_KEYUP,257
7463,0,1,MESSAGE PUMP,WM_KEYDOWN,256
7467,0,1,MESSAGE PUMP,WM_KEYDOWN,256
7469,0,1,MESSAGE PUMP,WM_KEYUP,257
7473,0,1,MESSAGE PUMP,WM_KEYUP,257
7502,0,1,MESSAGE PUMP,WM_KEYDOWN,256
7502,0,1,MESSAGE PUMP,WM_CHAR,258
7503,0,1,MESSAGE PUMP,WM_KEYUP,257
7738,0,1,MESSAGE PUMP,WM_KEYDOWN,256
7743,0,1,MESSAGE PUMP,WM_KEYDOWN,256
7748,0,1,MESSAGE PUMP,WM_KEYUP,257
7754,0,1,MESSAGE PUMP,WM_KEYUP,257
8071,0,1,MESSAGE PUMP,WM_KEYDOWN,256
8077,0,1,MESSAGE PUMP,WM_KEYDOWN,256
8084,0,1,MESSAGE PUMP,WM_KEYUP,257
8090,0,1,MESSAGE PUMP,WM_KEYUP,257
8628,0,1,MESSAGE PUMP,WM_KEYDOWN,256
8631,0,1,MESSAGE PUMP,WM_KEYUP,257
8900,0,1,MESSAGE PUMP,WM_KEYDOWN,256
8905,0,1,MESSAGE PUMP,WM_KEYUP,257
9202,0,1,MESSAGE PUMP,WM_KEYDOWN,256
9205,0,1,MESSAGE PUMP,WM_SYSKEYDOWN,260
9205,0,1,MESSAGE PUMP,WM_CONTEXTMENU,123
9207,0,1,MESSAGE PUMP,WM_SYSKEYUP,261
9207,0,1,MESSAGE PUMP,WM_SYSCOMMAND,274
9210,0,1,MESSAGE PUMP,WM_KEYUP,257
9518,0,1,MESSAGE PUMP,WM_KEYDOWN,256
9523,0,1,MESSAGE PUMP,WM_KEYUP,257
9529,0,1,MESSAGE PUMP,WM_KEYDOWN,256
9534,0,1,MESSAGE PUMP,WM_KEYUP,257
9540,0,1,MESSAGE PUMP,WM_KEYDOWN,256
9545,0,1,MESSAGE PUMP,WM_KEYUP,257
9550,0,1,MESSAGE PUMP,WM_KEYDOWN,256
9555,0,1,MESSAGE PUMP,WM_KEYUP,257
9560,0,1,MESSAGE PUMP,WM_KEYDOWN,256
9566,0,1,MESSAGE PUMP,WM_KEYUP,257
9571,0,1,MESSAGE PUMP,WM_KEYDOWN,256
9576,0,1,MESSAGE PUMP,WM_KEYUP,257
9883,0,1,MESSAGE PUMP,WM_KEYDOWN,256
9883,0,1,MESSAGE PUMP,WM_CHAR,258
9884,0,1,MESSAGE PUMP,WM_KEYUP,257
10137,0,1,MESSAGE PUMP,WM_SYSKEYDOWN,260
10140,0,1,MESSAGE PUMP,WM_SYSKEYDOWN,260
10140,0,1,MESSAGE PUMP,WM_SYSCOMMAND,274
10140,0,1,MESSAGE PUMP,WM_CLOSE,16
10140,0,0,MESSAGE PUMP,Unknown,144
10140,0,0,MESSAGE PUMP,WM_WINDOWPOSCHANGING,70
10140,0,0,MESSAGE PUMP,WM_WINDOWPOSCHANGED,71
10140,0,0,MESSAGE PUMP,WM_NCACTIVATE,134
10140,0,0,MESSAGE PUMP,WM_ACTIVATE,6
10140,0,0,MESSAGE PUMP,WM_ACTIVATEAPP,28
10140,0,0,MESSAGE PUMP,WM_KILLFOCUS,8
10140,0,0,MESSAGE PUMP,WM_IME_SETCONTEXT,641
10140,0,0,MESSAGE PUMP,WM_IME_NOTIFY,642
10140,0,0,MESSAGE PUMP,WM_DESTROY,2
10140,0,0,MESSAGE PUMP,WM_NCDESTROY,130
