Frame,Poll Count,Is Polling,Source,Event Name,Event Code
0,0,0,MESSAGE PUMP,WM_GETMINMAXINFO,36
0,0,0,MESSAGE PUMP,WM_WINDOWPOSCHANGING,70
0,0,0,MESSAGE PUMP,WM_GETMINMAXINFO,36
0,0,0,MESSAGE PUMP,WM_NCCALCSIZE,131
0,0,0,MESSAGE PUMP,WM_WINDOWPOSCHANGING,70
0,0,0,MESSAGE PUMP,WM_ACTIVATEAPP,28
0,0,0,MESSAGE PUMP,WM_NCACTIVATE,134
0,0,0,MESSAGE PUMP,WM_ACTIVATE,6
0,0,0,MESSAGE PUMP,WM_IME_SETCONTEXT,641
0,0,0,MESSAGE PUMP,WM_IME_NOTIFY,642
0,0,0,MESSAGE PUMP,WM_SETFOCUS,7
0,0,0,MESSAGE PUMP,WM_NCPAINT,133
0,0,0,MESSAGE PUMP,WM_ERASEBKGND,20
0,0,0,MESSAGE PUMP,WM_WINDOWPOSCHANGED,71
0,0,0,MESSAGE PUMP,WM_MOVE,3
0,0,0,MESSAGE PUMP,WM_SIZE,5
0,0,0,MESSAGE PUMP,WM_WINDOWPOSCHANGING,70
0,0,0,MESSAGE PUMP,WM_GETMINMAXINFO,36
0,0,0,MESSAGE PUMP,WM_NCPAINT,133
0,0,0,MESSAGE PUMP,WM_ERASEBKGND,20
0,0,0,MESSAGE PUMP,WM_WINDOWPOSCHANGED,71
0,0,0,MESSAGE PUMP,WM_MOVE,3
0,0,0,MESSAGE PUMP,WM_SETICON,128
0,0,0,MESSAGE PUMP,Unknown,174
0,0,0,MESSAGE PUMP,WM_SETICON,128
0,0,0,MESSAGE PUMP,Unknown,174
0,0,0,MESSAGE PUMP,WM_WINDOWPOSCHANGING,70
0,0,0,MESSAGE PUMP,WM_GETOBJECT,61
0,0,0,MESSAGE PUMP,WM_GETICON,127
0,0,0,MESSAGE PUMP,WM_WINDOWPOSCHANGING,70
1,0,1,MESSAGE PUMP,WM_GETICON,127
1,0,1,MESSAGE PUMP,Unknown,799
1,0,1,MESSAGE PUMP,Unknown,49328
1,0,1,MESSAGE PUMP,WM_GETMINMAXINFO,36
1,0,1,MESSAGE PUMP,WM_NCHITTEST,132
1,0,1,MESSAGE PUMP,WM_SETCURSOR,32
1,0,1,MESSAGE PUMP,WM_MOUSEFIRST,512
1,0,1,MESSAGE PUMP,WM_PAINT,15
1,0,1,MESSAGE PUMP,WM_GETOBJECT,61
1,0,1,MESSAGE PUMP,Unknown,356
1,0,1,MESSAGE PUMP,WM_GETOBJECT,61
1,0,1,MESSAGE PUMP,WM_GETOBJECT,61
8,0,1,MESSAGE PUMP,WM_GETOBJECT,61
19,0,1,MESSAGE PUMP,WM_GETOBJECT,61
22,0,1,MESSAGE PUMP,Unknown,356
44,0,1,MESSAGE PUMP,WM_GETOBJECT,61
61,0,1,MESSAGE PUMP,Unknown,356
62,0,1,MESSAGE PUMP,WM_GETOBJECT,61
64,0,1,MESSAGE PUMP,WM_GETOBJECT,61
64,0,1,MESSAGE PUMP,Unknown,356
67,0,1,MESSAGE PUMP,Unknown,356
68,0,1,MESSAGE PUMP,WM_GETOBJECT,61
72,0,1,MESSAGE PUMP,Unknown,356
84,0,1,MESSAGE PUMP,WM_GETOBJECT,61
88,0,1,MESSAGE PUMP,Unknown,356
93,0,1,MESSAGE PUMP,Unknown,356
103,0,1,MESSAGE PUMP,Unknown,356
104,0,1,MESSAGE PUMP,WM_GETOBJECT,61
104,0,1,MESSAGE PUMP,WM_GETOBJECT,61
105,0,1,MESSAGE PUMP,WM_GETOBJECT,61
106,0,1,MESSAGE PUMP,WM_GETOBJECT,61
106,0,1,MESSAGE PUMP,Unknown,356
107,0,1,MESSAGE PUMP,WM_GETOBJECT,61
108,0,1,MESSAGE PUMP,Unknown,356
109,0,1,MESSAGE PUMP,Unknown,356
111,0,1,MESSAGE PUMP,WM_GETOBJECT,61
112,0,1,MESSAGE PUMP,WM_GETOBJECT,61
113,0,1,MESSAGE PUMP,WM_GETOBJECT,61
116,0,1,MESSAGE PUMP,WM_GETOBJECT,61
118,0,1,MESSAGE PUMP,Unknown,356
120,0,1,MESSAGE PUMP,WM_GETOBJECT,61
122,0,1,MESSAGE PUMP,Unknown,356
125,0,1,MESSAGE PUMP,WM_GETOBJECT,61
129,0,1,MESSAGE PUMP,Unknown,356
139,0,1,MESSAGE PUMP,Unknown,356
140,0,1,MESSAGE PUMP,WM_GETOBJECT,61
142,0,1,MESSAGE PUMP,WM_GETOBJECT,61
145,0,1,MESSAGE PUMP,Unknown,356
153,0,1,MESSAGE PUMP,Unknown,356
154,0,1,MESSAGE PUMP,WM_GETOBJECT,61
155,0,1,MESSAGE PUMP,WM_GETOBJECT,61
155,0,1,MESSAGE PUMP,WM_GETOBJECT,61
156,0,1,MESSAGE PUMP,WM_GETOBJECT,61
157,0,1,MESSAGE PUMP,WM_GETOBJECT,61
159,0,1,MESSAGE PUMP,WM_GETOBJECT,61
161,0,1,MESSAGE PUMP,Unknown,356
166,0,1,MESSAGE PUMP,WM_GETOBJECT,61
170,0,1,MESSAGE PUMP,Unknown,356
178,0,1,MESSAGE PUMP,WM_GETOBJECT,61
182,0,1,MESSAGE PUMP,Unknown,356
206,0,1,MESSAGE PUMP,WM_GETOBJECT,61
209,0,1,MESSAGE PUMP,Unknown,356
233,0,1,MESSAGE PUMP,WM_GETOBJECT,61
236,0,1,MESSAGE PUMP,Unknown,356
245,0,1,MESSAGE PUMP,WM_GETOBJECT,61
251,0,1,MESSAGE PUMP,WM_GETOBJECT,61
254,0,1,MESSAGE PUMP,Unknown,356
278,0,1,MESSAGE PUMP,WM_GETOBJECT,61
281,0,1,MESSAGE PUMP,Unknown,356
297,0,1,MESSAGE PUMP,WM_GETOBJECT,61
300,0,1,MESSAGE PUMP,Unknown,356
315,0,1,MESSAGE PUMP,WM_GETOBJECT,61
318,0,1,MESSAGE PUMP,Unknown,356
328,0,1,MESSAGE PUMP,WM_GETOBJECT,61
336,0,1,MESSAGE PUMP,WM_GETOBJECT,61
339,0,1,MESSAGE PUMP,Unknown,356
353,0,1,MESSAGE PUMP,WM_GETOBJECT,61
356,0,1,MESSAGE PUMP,Unknown,356
372,0,1,MESSAGE PUMP,WM_GETOBJECT,61
375,0,1,MESSAGE PUMP,Unknown,356
390,0,1,MESSAGE PUMP,WM_GETOBJECT,61
393,0,1,MESSAGE PUMP,Unknown,356
403,0,1,MESSAGE PUMP,WM_GETOBJECT,61
410,0,1,MESSAGE PUMP,WM_GETOBJECT,61
413,0,1,MESSAGE PUMP,Unknown,356
429,0,1,MESSAGE PUMP,WM_GETOBJECT,61
432,0,1,MESSAGE PUMP,Unknown,356
446,0,1,MESSAGE PUMP,WM_GETOBJECT,61
449,0,1,MESSAGE PUMP,Unknown,356
464,0,1,MESSAGE PUMP,WM_GETOBJECT,61
467,0,1,MESSAGE PUMP,Unknown,356
480,0,1,MESSAGE PUMP,WM_GETOBJECT,61
485,0,1,MESSAGE PUMP,WM_GETOBJECT,61
488,0,1,MESSAGE PUMP,Unknown,356
503,0,1,MESSAGE PUMP,WM_GETOBJECT,61
506,0,1,MESSAGE PUMP,Unknown,356
521,0,1,MESSAGE PUMP,WM_GETOBJECT,61
524,0,1,MESSAGE PUMP,Unknown,356
539,0,1,MESSAGE PUMP,WM_GETOBJECT,61
542,0,1,MESSAGE PUMP,Unknown,356
557,0,1,MESSAGE PUMP,WM_GETOBJECT,61
560,0,1,MESSAGE PUMP,Unknown,356
572,0,1,MESSAGE PUMP,WM_GETOBJECT,61
577,0,1,MESSAGE PUMP,WM_GETOBJECT,61
580,0,1,MESSAGE PUMP,Unknown,356
588,0,0,MESSAGE PUMP,WM_GETOBJECT,61
588,0,0,MESSAGE PUMP,Unknown,356
588,0,0,MESSAGE PUMP,WM_GETOBJECT,61
588,0,0,MESSAGE PUMP,Unknown,356
588,0,0,MESSAGE PUMP,WM_GETOBJECT,61
588,0,0,MESSAGE PUMP,Unknown,356
588,0,0,MESSAGE PUMP,WM_GETOBJECT,61
588,0,0,MESSAGE PUMP,Unknown,356
588,0,0,MESSAGE PUMP,WM_GETOBJECT,61
588,0,0,MESSAGE PUMP,Unknown,356
588,0,0,MESSAGE PUMP,WM_GETOBJECT,61
588,0,0,MESSAGE PUMP,Unknown,356
588,0,0,MESSAGE PUMP,WM_GETOBJECT,61
588,0,0,MESSAGE PUMP,Unknown,356
609,0,1,MESSAGE PUMP,WM_GETOBJECT,61
611,0,1,MESSAGE PUMP,Unknown,356
618,0,1,MESSAGE PUMP,WM_GETOBJECT,61
620,0,1,MESSAGE PUMP,Unknown,356
626,0,1,MESSAGE PUMP,WM_GETOBJECT,61
628,0,1,MESSAGE PUMP,Unknown,356
635,0,1,MESSAGE PUMP,WM_GETOBJECT,61
637,0,1,MESSAGE PUMP,Unknown,356
645,0,1,MESSAGE PUMP,WM_GETOBJECT,61
647,0,1,MESSAGE PUMP,Unknown,356
655,0,1,MESSAGE PUMP,Unknown,356
1995,0,1,MESSAGE PUMP,WM_KEYDOWN,256
2002,0,1,MESSAGE PUMP,WM_KEYDOWN,256
2002,0,1,MESSAGE PUMP,WM_CHAR,258
2002,0,0,MESSAGE PUMP,WM_NCACTIVATE,134
2002,0,0,MESSAGE PUMP,WM_GETICON,127
2002,0,0,MESSAGE PUMP,WM_ACTIVATE,6
2002,0,0,MESSAGE PUMP,WM_KILLFOCUS,8
2002,0,0,MESSAGE PUMP,WM_IME_SETCONTEXT,641
2002,0,0,MESSAGE PUMP,WM_IME_NOTIFY,642
2002,0,0,MESSAGE PUMP,WM_MOUSELEAVE,675
2002,0,0,MESSAGE PUMP,WM_GETICON,127
2002,0,0,MESSAGE PUMP,WM_WINDOWPOSCHANGING,70
2002,0,0,MESSAGE PUMP,WM_WINDOWPOSCHANGED,71
2002,0,0,MESSAGE PUMP,WM_ACTIVATEAPP,28
2002,0,0,MESSAGE PUMP,WM_NCACTIVATE,134
2002,0,0,MESSAGE PUMP,WM_ACTIVATE,6
2002,0,0,MESSAGE PUMP,WM_IME_SETCONTEXT,641
2002,0,0,MESSAGE PUMP,WM_IME_NOTIFY,642
2002,0,0,MESSAGE PUMP,WM_SETFOCUS,7
2003,0,1,MESSAGE PUMP,WM_GETOBJECT,61
2003,0,1,MESSAGE PUMP,Unknown,49767
2003,0,1,MESSAGE PUMP,Unknown,49767
2003,0,1,MESSAGE PUMP,Unknown,49767
2003,0,1,MESSAGE PUMP,Unknown,49767
2003,0,1,MESSAGE PUMP,Unknown,49767
2003,0,1,MESSAGE PUMP,Unknown,49767
2003,0,1,MESSAGE PUMP,Unknown,49767
2003,0,1,MESSAGE PUMP,Unknown,49767
2003,0,1,MESSAGE PUMP,Unknown,49767
2003,0,1,MESSAGE PUMP,Unknown,49767
2003,0,1,MESSAGE PUMP,Unknown,49767
2003,0,1,MESSAGE PUMP,Unknown,49767
2003,0,1,MESSAGE PUMP,Unknown,49767
2003,0,1,MESSAGE PUMP,Unknown,49767
2003,0,1,MESSAGE PUMP,Unknown,49767
2003,0,1,MESSAGE PUMP,Unknown,49767
2003,0,1,MESSAGE PUMP,Unknown,49767
2003,0,1,MESSAGE PUMP,Unknown,49767
2003,0,1,MESSAGE PUMP,Unknown,49767
2003,0,1,MESSAGE PUMP,Unknown,49767
2003,0,1,MESSAGE PUMP,Unknown,49767
2003,0,1,MESSAGE PUMP,Unknown,49767
2003,0,1,MESSAGE PUMP,Unknown,49767
2003,0,1,MESSAGE PUMP,Unknown,49767
2003,0,1,MESSAGE PUMP,WM_KEYUP,257
2003,0,1,MESSAGE PUMP,WM_GETOBJECT,61
2003,0,1,MESSAGE PUMP,WM_NCHITTEST,132
2003,0,1,MESSAGE PUMP,WM_SETCURSOR,32
2003,0,1,MESSAGE PUMP,WM_MOUSEFIRST,512
2004,0,1,MESSAGE PUMP,Unknown,49766
2004,0,1,MESSAGE PUMP,Unknown,49767
2004,0,1,MESSAGE PUMP,Unknown,49767
2005,0,1,MESSAGE PUMP,Unknown,49766
2007,0,1,MESSAGE PUMP,WM_GETOBJECT,61
2009,0,1,MESSAGE PUMP,Unknown,356
2016,0,1,MESSAGE PUMP,WM_GETOBJECT,61
2018,0,1,MESSAGE PUMP,Unknown,356
2027,0,1,MESSAGE PUMP,WM_GETOBJECT,61
2029,0,1,MESSAGE PUMP,Unknown,356
2037,0,1,MESSAGE PUMP,Unknown,356
2038,0,1,MESSAGE PUMP,Unknown,356
2039,0,1,MESSAGE PUMP,WM_GETOBJECT,61
2041,0,1,MESSAGE PUMP,Unknown,356
2047,0,1,MESSAGE PUMP,Unknown,356
2563,0,1,MESSAGE PUMP,WM_GETOBJECT,61
2565,0,1,MESSAGE PUMP,Unknown,356
2572,0,1,MESSAGE PUMP,WM_GETOBJECT,61
2574,0,1,MESSAGE PUMP,Unknown,356
4472,0,1,MESSAGE PUMP,WM_KEYDOWN,256
4474,0,1,MESSAGE PUMP,WM_GETOBJECT,61
4476,0,1,MESSAGE PUMP,WM_GETOBJECT,61
4478,0,1,MESSAGE PUMP,Unknown,356
4478,0,1,MESSAGE PUMP,WM_KEYUP,257
4481,0,1,MESSAGE PUMP,WM_KEYDOWN,256
4482,0,1,MESSAGE PUMP,WM_KEYUP,257
4487,0,1,MESSAGE PUMP,WM_GETOBJECT,61
4490,0,1,MESSAGE PUMP,Unknown,356
4500,0,1,MESSAGE PUMP,WM_GETOBJECT,61
4503,0,1,MESSAGE PUMP,Unknown,356
4509,0,1,MESSAGE PUMP,WM_GETOBJECT,61
4511,0,1,MESSAGE PUMP,Unknown,356
4524,0,1,MESSAGE PUMP,WM_KEYDOWN,256
4530,0,1,MESSAGE PUMP,WM_KEYUP,257
4531,0,1,MESSAGE PUMP,WM_GETOBJECT,61
4534,0,1,MESSAGE PUMP,Unknown,356
4536,0,1,MESSAGE PUMP,WM_KEYDOWN,256
4542,0,1,MESSAGE PUMP,WM_KEYUP,257
4545,0,1,MESSAGE PUMP,WM_KEYDOWN,256
4548,0,1,MESSAGE PUMP,WM_GETOBJECT,61
4550,0,1,MESSAGE PUMP,WM_GETOBJECT,61
4550,0,1,MESSAGE PUMP,WM_KEYUP,257
4551,0,1,MESSAGE PUMP,Unknown,356
4562,0,1,MESSAGE PUMP,WM_GETOBJECT,61
4564,0,1,MESSAGE PUMP,Unknown,356
4575,0,1,MESSAGE PUMP,WM_GETOBJECT,61
4577,0,1,MESSAGE PUMP,Unknown,356
4587,0,1,MESSAGE PUMP,WM_GETOBJECT,61
4589,0,1,MESSAGE PUMP,Unknown,356
4589,0,1,MESSAGE PUMP,WM_KEYDOWN,256
4594,0,1,MESSAGE PUMP,WM_KEYUP,257
4599,0,1,MESSAGE PUMP,WM_GETOBJECT,61
4600,0,1,MESSAGE PUMP,WM_KEYDOWN,256
4601,0,1,MESSAGE PUMP,Unknown,356
4606,0,1,MESSAGE PUMP,WM_KEYUP,257
4612,0,1,MESSAGE PUMP,WM_KEYDOWN,256
4617,0,1,MESSAGE PUMP,WM_KEYUP,257
4618,0,1,MESSAGE PUMP,WM_GETOBJECT,61
4621,0,1,MESSAGE PUMP,Unknown,356
4623,0,1,MESSAGE PUMP,WM_KEYDOWN,256
4628,0,1,MESSAGE PUMP,WM_KEYUP,257
4634,0,1,MESSAGE PUMP,WM_KEYDOWN,256
4637,0,1,MESSAGE PUMP,WM_KEYUP,257
4638,0,1,MESSAGE PUMP,WM_GETOBJECT,61
4640,0,1,MESSAGE PUMP,WM_GETOBJECT,61
4642,0,1,MESSAGE PUMP,Unknown,356
4642,0,1,MESSAGE PUMP,Unknown,356
4649,0,1,MESSAGE PUMP,WM_GETOBJECT,61
4667,0,1,MESSAGE PUMP,WM_GETOBJECT,61
4669,0,1,MESSAGE PUMP,Unknown,356
4671,0,1,MESSAGE PUMP,WM_KEYDOWN,256
4676,0,1,MESSAGE PUMP,WM_KEYUP,257
4680,0,1,MESSAGE PUMP,WM_GETOBJECT,61
4681,0,1,MESSAGE PUMP,WM_KEYDOWN,256
4681,0,1,MESSAGE PUMP,Unknown,356
4686,0,1,MESSAGE PUMP,WM_KEYUP,257
4691,0,1,MESSAGE PUMP,WM_GETOBJECT,61
4693,0,1,MESSAGE PUMP,Unknown,356
4704,0,1,MESSAGE PUMP,WM_GETOBJECT,61
4706,0,1,MESSAGE PUMP,Unknown,356
4717,0,1,MESSAGE PUMP,WM_GETOBJECT,61
4719,0,1,MESSAGE PUMP,Unknown,356
4720,0,1,MESSAGE PUMP,WM_KEYDOWN,256
4722,0,1,MESSAGE PUMP,WM_GETOBJECT,61
4722,0,1,MESSAGE PUMP,WM_KEYUP,257
4723,0,1,MESSAGE PUMP,WM_GETOBJECT,61
4733,0,1,MESSAGE PUMP,WM_GETOBJECT,61
4735,0,1,MESSAGE PUMP,Unknown,356
4742,0,1,MESSAGE PUMP,WM_KEYDOWN,256
4745,0,1,MESSAGE PUMP,WM_GETOBJECT,61
4746,0,1,MESSAGE PUMP,WM_KEYUP,257
4747,0,1,MESSAGE PUMP,Unknown,356
4750,0,1,MESSAGE PUMP,WM_KEYDOWN,256
4754,0,1,MESSAGE PUMP,WM_KEYUP,257
4755,0,1,MESSAGE PUMP,WM_GETOBJECT,61
4757,0,1,MESSAGE PUMP,Unknown,356
4758,0,1,MESSAGE PUMP,WM_KEYDOWN,256
4762,0,1,MESSAGE PUMP,WM_KEYUP,257
4767,0,1,MESSAGE PUMP,WM_GETOBJECT,61
4767,0,1,MESSAGE PUMP,WM_KEYDOWN,256
4768,0,1,MESSAGE PUMP,Unknown,356
4771,0,1,MESSAGE PUMP,WM_KEYUP,257
4771,0,1,MESSAGE PUMP,WM_GETOBJECT,61
4775,0,1,MESSAGE PUMP,WM_KEYDOWN,256
4780,0,1,MESSAGE PUMP,WM_GETOBJECT,61
4780,0,1,MESSAGE PUMP,WM_KEYUP,257
4781,0,1,MESSAGE PUMP,Unknown,356
4792,0,1,MESSAGE PUMP,WM_GETOBJECT,61
4794,0,1,MESSAGE PUMP,Unknown,356
4804,0,1,MESSAGE PUMP,WM_KEYDOWN,256
4804,0,1,MESSAGE PUMP,WM_GETOBJECT,61
4806,0,1,MESSAGE PUMP,Unknown,356
4807,0,1,MESSAGE PUMP,WM_KEYUP,257
4817,0,1,MESSAGE PUMP,WM_GETOBJECT,61
4819,0,1,MESSAGE PUMP,Unknown,356
4830,0,1,MESSAGE PUMP,WM_GETOBJECT,61
4832,0,1,MESSAGE PUMP,Unknown,356
4836,0,1,MESSAGE PUMP,WM_GETOBJECT,61
4836,0,1,MESSAGE PUMP,WM_KEYDOWN,256
4840,0,1,MESSAGE PUMP,WM_KEYUP,257
4844,0,1,MESSAGE PUMP,WM_KEYDOWN,256
4844,0,1,MESSAGE PUMP,WM_GETOBJECT,61
4846,0,1,MESSAGE PUMP,Unknown,356
4849,0,1,MESSAGE PUMP,WM_KEYUP,257
4856,0,1,MESSAGE PUMP,WM_GETOBJECT,61
4858,0,1,MESSAGE PUMP,Unknown,356
4868,0,1,MESSAGE PUMP,WM_GETOBJECT,61
4870,0,1,MESSAGE PUMP,Unknown,356
4877,0,1,MESSAGE PUMP,WM_KEYDOWN,256
4880,0,1,MESSAGE PUMP,WM_GETOBJECT,61
4882,0,1,MESSAGE PUMP,Unknown,356
4882,0,1,MESSAGE PUMP,WM_KEYUP,257
4892,0,1,MESSAGE PUMP,WM_GETOBJECT,61
4894,0,1,MESSAGE PUMP,Unknown,356
4898,0,1,MESSAGE PUMP,WM_GETOBJECT,61
4908,0,1,MESSAGE PUMP,WM_GETOBJECT,61
4910,0,1,MESSAGE PUMP,Unknown,356
4910,0,1,MESSAGE PUMP,WM_KEYDOWN,256
4914,0,1,MESSAGE PUMP,WM_KEYUP,257
4919,0,1,MESSAGE PUMP,WM_KEYDOWN,256
4919,0,1,MESSAGE PUMP,WM_GETOBJECT,61
4921,0,1,MESSAGE PUMP,Unknown,356
4923,0,1,MESSAGE PUMP,WM_KEYUP,257
4927,0,1,MESSAGE PUMP,WM_KEYDOWN,256
4931,0,1,MESSAGE PUMP,WM_GETOBJECT,61
4932,0,1,MESSAGE PUMP,WM_KEYUP,257
4933,0,1,MESSAGE PUMP,Unknown,356
4936,0,1,MESSAGE PUMP,WM_KEYDOWN,256
4940,0,1,MESSAGE PUMP,WM_KEYUP,257
4942,0,1,MESSAGE PUMP,WM_GETOBJECT,61
4944,0,1,MESSAGE PUMP,Unknown,356
4945,0,1,MESSAGE PUMP,WM_KEYDOWN,256
4949,0,1,MESSAGE PUMP,WM_KEYUP,257
4953,0,1,MESSAGE PUMP,WM_KEYDOWN,256
4953,0,1,MESSAGE PUMP,WM_GETOBJECT,61
4955,0,1,MESSAGE PUMP,Unknown,356
4957,0,1,MESSAGE PUMP,WM_KEYUP,257
4959,0,1,MESSAGE PUMP,WM_GETOBJECT,61
4962,0,1,MESSAGE PUMP,WM_KEYDOWN,256
4966,0,1,MESSAGE PUMP,WM_KEYUP,257
4968,0,1,MESSAGE PUMP,WM_GETOBJECT,61
4970,0,1,MESSAGE PUMP,Unknown,356
4970,0,1,MESSAGE PUMP,WM_KEYDOWN,256
4972,0,1,MESSAGE PUMP,WM_KEYUP,257
4977,0,1,MESSAGE PUMP,WM_KEYDOWN,256
4978,0,1,MESSAGE PUMP,WM_GETOBJECT,61
4980,0,1,MESSAGE PUMP,Unknown,356
4981,0,1,MESSAGE PUMP,WM_KEYUP,257
4984,0,1,MESSAGE PUMP,WM_KEYDOWN,256
4988,0,1,MESSAGE PUMP,WM_KEYUP,257
4988,0,1,MESSAGE PUMP,WM_GETOBJECT,61
4990,0,1,MESSAGE PUMP,Unknown,356
4992,0,1,MESSAGE PUMP,WM_KEYDOWN,256
4997,0,1,MESSAGE PUMP,WM_KEYUP,257
4999,0,1,MESSAGE PUMP,WM_GETOBJECT,61
5001,0,1,MESSAGE PUMP,Unknown,356
5001,0,1,MESSAGE PUMP,WM_KEYDOWN,256
5005,0,1,MESSAGE PUMP,WM_KEYUP,257
5010,0,1,MESSAGE PUMP,WM_GETOBJECT,61
5010,0,1,MESSAGE PUMP,WM_KEYDOWN,256
5011,0,1,MESSAGE PUMP,Unknown,356
5014,0,1,MESSAGE PUMP,WM_KEYUP,257
5014,0,1,MESSAGE PUMP,WM_GETOBJECT,61
5016,0,1,MESSAGE PUMP,WM_GETOBJECT,61
5018,0,1,MESSAGE PUMP,WM_KEYDOWN,256
5023,0,1,MESSAGE PUMP,WM_KEYUP,257
5025,0,1,MESSAGE PUMP,WM_GETOBJECT,61
5027,0,1,MESSAGE PUMP,Unknown,356
5027,0,1,MESSAGE PUMP,WM_KEYDOWN,256
5031,0,1,MESSAGE PUMP,WM_KEYUP,257
5036,0,1,MESSAGE PUMP,WM_GETOBJECT,61
5036,0,1,MESSAGE PUMP,WM_KEYDOWN,256
5037,0,1,MESSAGE PUMP,Unknown,356
5040,0,1,MESSAGE PUMP,WM_KEYUP,257
5044,0,1,MESSAGE PUMP,WM_KEYDOWN,256
5046,0,1,MESSAGE PUMP,WM_GETOBJECT,61
5048,0,1,MESSAGE PUMP,Unknown,356
5048,0,1,MESSAGE PUMP,WM_KEYUP,257
5052,0,1,MESSAGE PUMP,WM_KEYDOWN,256
5056,0,1,MESSAGE PUMP,WM_KEYUP,257
5056,0,1,MESSAGE PUMP,WM_GETOBJECT,61
5058,0,1,MESSAGE PUMP,Unknown,356
5060,0,1,MESSAGE PUMP,WM_KEYDOWN,256
5064,0,1,MESSAGE PUMP,WM_KEYUP,257
5068,0,1,MESSAGE PUMP,WM_GETOBJECT,61
5068,0,1,MESSAGE PUMP,WM_KEYDOWN,256
5069,0,1,MESSAGE PUMP,Unknown,356
5072,0,1,MESSAGE PUMP,WM_KEYUP,257
5077,0,1,MESSAGE PUMP,WM_KEYDOWN,256
5078,0,1,MESSAGE PUMP,WM_GETOBJECT,61
5080,0,1,MESSAGE PUMP,WM_GETOBJECT,61
5081,0,1,MESSAGE PUMP,WM_KEYUP,257
5082,0,1,MESSAGE PUMP,Unknown,356
5085,0,1,MESSAGE PUMP,WM_KEYDOWN,256
5089,0,1,MESSAGE PUMP,WM_KEYUP,257
5091,0,1,MESSAGE PUMP,WM_GETOBJECT,61
5093,0,1,MESSAGE PUMP,Unknown,356
5094,0,1,MESSAGE PUMP,WM_KEYDOWN,256
5098,0,1,MESSAGE PUMP,WM_KEYUP,257
5102,0,1,MESSAGE PUMP,WM_GETOBJECT,61
5102,0,1,MESSAGE PUMP,WM_KEYDOWN,256
5103,0,1,MESSAGE PUMP,Unknown,356
5107,0,1,MESSAGE PUMP,WM_KEYUP,257
5111,0,1,MESSAGE PUMP,WM_KEYDOWN,256
5113,0,1,MESSAGE PUMP,WM_GETOBJECT,61
5115,0,1,MESSAGE PUMP,Unknown,356
5115,0,1,MESSAGE PUMP,WM_KEYUP,257
5120,0,1,MESSAGE PUMP,WM_KEYDOWN,256
5124,0,1,MESSAGE PUMP,WM_GETOBJECT,61
5124,0,1,MESSAGE PUMP,WM_KEYUP,257
5125,0,1,MESSAGE PUMP,Unknown,356
5128,0,1,MESSAGE PUMP,WM_KEYDOWN,256
5132,0,1,MESSAGE PUMP,WM_KEYUP,257
5134,0,1,MESSAGE PUMP,WM_GETOBJECT,61
5136,0,1,MESSAGE PUMP,Unknown,356
5137,0,1,MESSAGE PUMP,WM_KEYDOWN,256
5141,0,1,MESSAGE PUMP,WM_KEYUP,257
5145,0,1,MESSAGE PUMP,WM_GETOBJECT,61
5146,0,1,MESSAGE PUMP,WM_KEYDOWN,256
5146,0,1,MESSAGE PUMP,Unknown,356
5150,0,1,MESSAGE PUMP,WM_GETOBJECT,61
5150,0,1,MESSAGE PUMP,WM_KEYUP,257
5154,0,1,MESSAGE PUMP,WM_KEYDOWN,256
5158,0,1,MESSAGE PUMP,WM_GETOBJECT,61
5158,0,1,MESSAGE PUMP,WM_KEYUP,257
5159,0,1,MESSAGE PUMP,Unknown,356
5163,0,1,MESSAGE PUMP,WM_KEYDOWN,256
5167,0,1,MESSAGE PUMP,WM_KEYUP,257
5169,0,1,MESSAGE PUMP,WM_GETOBJECT,61
5171,0,1,MESSAGE PUMP,Unknown,356
5171,0,1,MESSAGE PUMP,WM_KEYDOWN,256
5176,0,1,MESSAGE PUMP,WM_KEYUP,257
5180,0,1,MESSAGE PUMP,WM_KEYDOWN,256
5180,0,1,MESSAGE PUMP,WM_GETOBJECT,61
5182,0,1,MESSAGE PUMP,Unknown,356
5184,0,1,MESSAGE PUMP,WM_KEYUP,257
5189,0,1,MESSAGE PUMP,WM_KEYDOWN,256
5192,0,1,MESSAGE PUMP,WM_GETOBJECT,61
5193,0,1,MESSAGE PUMP,WM_KEYUP,257
5194,0,1,MESSAGE PUMP,Unknown,356
5197,0,1,MESSAGE PUMP,WM_KEYDOWN,256
5201,0,1,MESSAGE PUMP,WM_KEYUP,257
5203,0,1,MESSAGE PUMP,WM_GETOBJECT,61
5205,0,1,MESSAGE PUMP,Unknown,356
5206,0,1,MESSAGE PUMP,WM_KEYDOWN,256
5210,0,1,MESSAGE PUMP,WM_KEYUP,257
5214,0,1,MESSAGE PUMP,WM_GETOBJECT,61
5214,0,1,MESSAGE PUMP,WM_KEYDOWN,256
5215,0,1,MESSAGE PUMP,Unknown,356
5219,0,1,MESSAGE PUMP,WM_GETOBJECT,61
5219,0,1,MESSAGE PUMP,WM_KEYUP,257
5223,0,1,MESSAGE PUMP,WM_KEYDOWN,256
5227,0,1,MESSAGE PUMP,WM_GETOBJECT,61
5228,0,1,MESSAGE PUMP,WM_KEYUP,257
5229,0,1,MESSAGE PUMP,Unknown,356
5232,0,1,MESSAGE PUMP,WM_KEYDOWN,256
5236,0,1,MESSAGE PUMP,WM_KEYUP,257
5237,0,1,MESSAGE PUMP,WM_GETOBJECT,61
5239,0,1,MESSAGE PUMP,Unknown,356
5241,0,1,MESSAGE PUMP,WM_KEYDOWN,256
5245,0,1,MESSAGE PUMP,WM_KEYUP,257
5249,0,1,MESSAGE PUMP,WM_GETOBJECT,61
5249,0,1,MESSAGE PUMP,WM_KEYDOWN,256
5250,0,1,MESSAGE PUMP,Unknown,356
5254,0,1,MESSAGE PUMP,WM_KEYUP,257
5258,0,1,MESSAGE PUMP,WM_KEYDOWN,256
5259,0,1,MESSAGE PUMP,WM_GETOBJECT,61
5261,0,1,MESSAGE PUMP,Unknown,356
5262,0,1,MESSAGE PUMP,WM_KEYUP,257
5272,0,1,MESSAGE PUMP,WM_GETOBJECT,61
5274,0,1,MESSAGE PUMP,Unknown,356
5285,0,1,MESSAGE PUMP,WM_GETOBJECT,61
5287,0,1,MESSAGE PUMP,Unknown,356
5291,0,1,MESSAGE PUMP,WM_GETOBJECT,61
5292,0,1,MESSAGE PUMP,WM_KEYDOWN,256
5296,0,1,MESSAGE PUMP,WM_KEYUP,257
5300,0,1,MESSAGE PUMP,WM_GETOBJECT,61
5302,0,1,MESSAGE PUMP,Unknown,356
5312,0,1,MESSAGE PUMP,WM_GETOBJECT,61
5314,0,1,MESSAGE PUMP,Unknown,356
5325,0,1,MESSAGE PUMP,WM_GETOBJECT,61
5325,0,1,MESSAGE PUMP,WM_KEYDOWN,256
5326,0,1,MESSAGE PUMP,Unknown,356
5329,0,1,MESSAGE PUMP,WM_KEYUP,257
5333,0,1,MESSAGE PUMP,WM_KEYDOWN,256
5334,0,1,MESSAGE PUMP,WM_GETOBJECT,61
5336,0,1,MESSAGE PUMP,Unknown,356
5336,0,1,MESSAGE PUMP,WM_KEYUP,257
5346,0,1,MESSAGE PUMP,WM_GETOBJECT,61
5348,0,1,MESSAGE PUMP,Unknown,356
5352,0,1,MESSAGE PUMP,WM_GETOBJECT,61
5361,0,1,MESSAGE PUMP,WM_GETOBJECT,61
5363,0,1,MESSAGE PUMP,Unknown,356
5365,0,1,MESSAGE PUMP,WM_KEYDOWN,256
5365,0,1,MESSAGE PUMP,WM_KEYUP,257
5365,0,1,MESSAGE PUMP,WM_KEYDOWN,256
5366,0,1,MESSAGE PUMP,WM_KEYUP,257
5368,0,1,MESSAGE PUMP,WM_KEYDOWN,256
5370,0,1,MESSAGE PUMP,WM_GETOBJECT,61
5371,0,1,MESSAGE PUMP,WM_KEYUP,257
5372,0,1,MESSAGE PUMP,Unknown,356
5375,0,1,MESSAGE PUMP,WM_KEYDOWN,256
5380,0,1,MESSAGE PUMP,WM_KEYUP,257
5381,0,1,MESSAGE PUMP,WM_GETOBJECT,61
5383,0,1,MESSAGE PUMP,Unknown,356
5384,0,1,MESSAGE PUMP,WM_KEYDOWN,256
5387,0,1,MESSAGE PUMP,WM_KEYUP,257
5391,0,1,MESSAGE PUMP,WM_KEYDOWN,256
5391,0,1,MESSAGE PUMP,WM_GETOBJECT,61
5393,0,1,MESSAGE PUMP,Unknown,356
5394,0,1,MESSAGE PUMP,WM_GETOBJECT,61
5395,0,1,MESSAGE PUMP,WM_KEYUP,257
5407,0,1,MESSAGE PUMP,WM_GETOBJECT,61
5409,0,1,MESSAGE PUMP,Unknown,356
5420,0,1,MESSAGE PUMP,WM_GETOBJECT,61
5422,0,1,MESSAGE PUMP,Unknown,356
5423,0,1,MESSAGE PUMP,WM_KEYDOWN,256
5423,0,0,MESSAGE PUMP,WM_GETOBJECT,61
5423,0,0,MESSAGE PUMP,Unknown,356
5423,0,0,MESSAGE PUMP,WM_GETOBJECT,61
5423,0,0,MESSAGE PUMP,Unknown,356
5423,0,0,MESSAGE PUMP,WM_GETOBJECT,61
5423,0,0,MESSAGE PUMP,Unknown,356
5423,0,0,MESSAGE PUMP,WM_GETOBJECT,61
5423,0,0,MESSAGE PUMP,Unknown,356
5424,0,1,MESSAGE PUMP,WM_KEYUP,257
5429,0,1,MESSAGE PUMP,WM_GETOBJECT,61
5429,0,1,MESSAGE PUMP,WM_KEYDOWN,256
5430,0,1,MESSAGE PUMP,Unknown,356
5436,0,1,MESSAGE PUMP,WM_KEYUP,257
5441,0,1,MESSAGE PUMP,WM_KEYDOWN,256
5441,0,1,MESSAGE PUMP,WM_GETOBJECT,61
5441,0,0,MESSAGE PUMP,Unknown,356
5445,0,1,MESSAGE PUMP,WM_KEYUP,257
5446,0,1,MESSAGE PUMP,WM_GETOBJECT,61
5448,0,1,MESSAGE PUMP,Unknown,356
5451,0,1,MESSAGE PUMP,WM_KEYDOWN,256
5458,0,1,MESSAGE PUMP,WM_KEYUP,257
5459,0,1,MESSAGE PUMP,WM_GETOBJECT,61
5461,0,1,MESSAGE PUMP,Unknown,356
5463,0,1,MESSAGE PUMP,WM_GETOBJECT,61
5464,0,1,MESSAGE PUMP,WM_KEYDOWN,256
5468,0,1,MESSAGE PUMP,WM_GETOBJECT,61
5470,0,1,MESSAGE PUMP,Unknown,356
5471,0,1,MESSAGE PUMP,WM_KEYUP,257
5478,0,1,MESSAGE PUMP,WM_KEYDOWN,256
5479,0,1,MESSAGE PUMP,WM_GETOBJECT,61
5481,0,1,MESSAGE PUMP,Unknown,356
5484,0,1,MESSAGE PUMP,WM_KEYUP,257
5490,0,1,MESSAGE PUMP,WM_KEYDOWN,256
5497,0,1,MESSAGE PUMP,WM_KEYUP,257
5503,0,1,MESSAGE PUMP,WM_KEYDOWN,256
5510,0,1,MESSAGE PUMP,WM_KEYUP,257
5516,0,1,MESSAGE PUMP,WM_KEYDOWN,256
5523,0,1,MESSAGE PUMP,WM_KEYUP,257
5529,0,1,MESSAGE PUMP,WM_KEYDOWN,256
5535,0,1,MESSAGE PUMP,WM_KEYUP,257
5542,0,1,MESSAGE PUMP,WM_KEYDOWN,256
5548,0,1,MESSAGE PUMP,WM_KEYUP,257
5555,0,1,MESSAGE PUMP,WM_KEYDOWN,256
5562,0,1,MESSAGE PUMP,WM_KEYUP,257
5568,0,1,MESSAGE PUMP,WM_KEYDOWN,256
5574,0,1,MESSAGE PUMP,WM_KEYUP,257
5581,0,1,MESSAGE PUMP,WM_KEYDOWN,256
5587,0,1,MESSAGE PUMP,WM_KEYUP,257
5630,0,1,MESSAGE PUMP,WM_KEYDOWN,256
5637,0,1,MESSAGE PUMP,WM_KEYUP,257
5681,0,1,MESSAGE PUMP,WM_KEYDOWN,256
5683,0,1,MESSAGE PUMP,WM_GETOBJECT,61
5685,0,1,MESSAGE PUMP,WM_GETOBJECT,61
5686,0,1,MESSAGE PUMP,WM_KEYUP,257
5687,0,1,MESSAGE PUMP,Unknown,356
5726,0,1,MESSAGE PUMP,WM_KEYDOWN,256
5729,0,1,MESSAGE PUMP,WM_GETOBJECT,61
5731,0,1,MESSAGE PUMP,Unknown,356
5731,0,1,MESSAGE PUMP,WM_KEYUP,257
5737,0,1,MESSAGE PUMP,WM_KEYDOWN,256
5740,0,1,MESSAGE PUMP,WM_GETOBJECT,61
5742,0,1,MESSAGE PUMP,Unknown,356
5742,0,1,MESSAGE PUMP,WM_KEYUP,257
5752,0,1,MESSAGE PUMP,WM_GETOBJECT,61
5754,0,1,MESSAGE PUMP,Unknown,356
5765,0,1,MESSAGE PUMP,WM_GETOBJECT,61
5768,0,1,MESSAGE PUMP,Unknown,356
5774,0,1,MESSAGE PUMP,WM_GETOBJECT,61
5780,0,1,MESSAGE PUMP,WM_KEYDOWN,256
5786,0,1,MESSAGE PUMP,WM_KEYUP,257
5809,0,1,MESSAGE PUMP,WM_GETOBJECT,61
5811,0,1,MESSAGE PUMP,Unknown,356
5825,0,1,MESSAGE PUMP,WM_KEYDOWN,256
5827,0,1,MESSAGE PUMP,WM_GETOBJECT,61
5829,0,1,MESSAGE PUMP,Unknown,356
5831,0,1,MESSAGE PUMP,WM_KEYUP,257
5837,0,1,MESSAGE PUMP,WM_KEYDOWN,256
5840,0,1,MESSAGE PUMP,WM_GETOBJECT,61
5843,0,1,MESSAGE PUMP,Unknown,356
5843,0,1,MESSAGE PUMP,WM_KEYUP,257
5849,0,1,MESSAGE PUMP,WM_KEYDOWN,256
5854,0,1,MESSAGE PUMP,WM_KEYUP,257
5860,0,1,MESSAGE PUMP,WM_KEYDOWN,256
5860,0,1,MESSAGE PUMP,WM_GETOBJECT,61
5863,0,1,MESSAGE PUMP,Unknown,356
5865,0,1,MESSAGE PUMP,WM_KEYUP,257
5871,0,1,MESSAGE PUMP,WM_GETOBJECT,61
5871,0,1,MESSAGE PUMP,WM_KEYDOWN,256
5877,0,1,MESSAGE PUMP,WM_KEYUP,257
5883,0,1,MESSAGE PUMP,WM_KEYDOWN,256
5888,0,1,MESSAGE PUMP,WM_KEYUP,257
5890,0,1,MESSAGE PUMP,WM_GETOBJECT,61
5893,0,1,MESSAGE PUMP,Unknown,356
5894,0,1,MESSAGE PUMP,WM_GETOBJECT,61
5894,0,1,MESSAGE PUMP,WM_KEYDOWN,256
5896,0,1,MESSAGE PUMP,Unknown,356
5900,0,1,MESSAGE PUMP,WM_KEYUP,257
5905,0,1,MESSAGE PUMP,WM_KEYDOWN,256
5911,0,1,MESSAGE PUMP,WM_KEYUP,257
5914,0,1,MESSAGE PUMP,WM_GETOBJECT,61
5916,0,1,MESSAGE PUMP,Unknown,356
5917,0,1,MESSAGE PUMP,WM_KEYDOWN,256
5922,0,1,MESSAGE PUMP,WM_KEYUP,257
5927,0,1,MESSAGE PUMP,WM_GETOBJECT,61
5928,0,1,MESSAGE PUMP,WM_KEYDOWN,256
5928,0,1,MESSAGE PUMP,Unknown,356
5933,0,1,MESSAGE PUMP,WM_KEYUP,257
5938,0,1,MESSAGE PUMP,WM_GETOBJECT,61
5939,0,1,MESSAGE PUMP,WM_KEYDOWN,256
5939,0,1,MESSAGE PUMP,Unknown,356
5945,0,1,MESSAGE PUMP,WM_KEYUP,257
5950,0,1,MESSAGE PUMP,WM_GETOBJECT,61
5950,0,1,MESSAGE PUMP,WM_KEYDOWN,256
5951,0,1,MESSAGE PUMP,Unknown,356
5955,0,1,MESSAGE PUMP,WM_GETOBJECT,61
5955,0,1,MESSAGE PUMP,WM_KEYUP,257
5959,0,1,MESSAGE PUMP,WM_KEYDOWN,256
5962,0,1,MESSAGE PUMP,WM_GETOBJECT,61
5964,0,1,MESSAGE PUMP,Unknown,356
5965,0,1,MESSAGE PUMP,WM_KEYUP,257
5975,0,1,MESSAGE PUMP,WM_GETOBJECT,61
5977,0,1,MESSAGE PUMP,Unknown,356
5988,0,1,MESSAGE PUMP,WM_GETOBJECT,61
5990,0,1,MESSAGE PUMP,Unknown,356
6001,0,1,MESSAGE PUMP,WM_GETOBJECT,61
6003,0,1,MESSAGE PUMP,Unknown,356
6005,0,1,MESSAGE PUMP,WM_KEYDOWN,256
6008,0,1,MESSAGE PUMP,WM_KEYUP,257
6012,0,1,MESSAGE PUMP,WM_GETOBJECT,61
6014,0,1,MESSAGE PUMP,Unknown,356
6025,0,1,MESSAGE PUMP,WM_GETOBJECT,61
6027,0,1,MESSAGE PUMP,Unknown,356
6036,0,1,MESSAGE PUMP,WM_GETOBJECT,61
6044,0,1,MESSAGE PUMP,WM_KEYDOWN,256
6049,0,1,MESSAGE PUMP,WM_KEYUP,257
6054,0,1,MESSAGE PUMP,WM_KEYDOWN,256
6059,0,1,MESSAGE PUMP,WM_KEYUP,257
6061,0,1,MESSAGE PUMP,WM_GETOBJECT,61
6063,0,1,MESSAGE PUMP,Unknown,356
6064,0,1,MESSAGE PUMP,WM_KEYDOWN,256
6069,0,1,MESSAGE PUMP,WM_GETOBJECT,61
6069,0,1,MESSAGE PUMP,WM_KEYUP,257
6071,0,1,MESSAGE PUMP,Unknown,356
6086,0,1,MESSAGE PUMP,WM_GETOBJECT,61
6089,0,1,MESSAGE PUMP,Unknown,356
6103,0,1,MESSAGE PUMP,WM_KEYDOWN,256
6103,0,1,MESSAGE PUMP,WM_GETOBJECT,61
6105,0,1,MESSAGE PUMP,Unknown,356
6108,0,1,MESSAGE PUMP,WM_KEYUP,257
6108,0,1,MESSAGE PUMP,WM_GETOBJECT,61
6114,0,1,MESSAGE PUMP,WM_KEYDOWN,256
6116,0,1,MESSAGE PUMP,WM_GETOBJECT,61
6118,0,1,MESSAGE PUMP,Unknown,356
6118,0,1,MESSAGE PUMP,WM_KEYUP,257
6124,0,1,MESSAGE PUMP,WM_KEYDOWN,256
6127,0,1,MESSAGE PUMP,WM_GETOBJECT,61
6128,0,1,MESSAGE PUMP,WM_KEYUP,257
6129,0,1,MESSAGE PUMP,Unknown,356
6133,0,1,MESSAGE PUMP,WM_KEYDOWN,256
6138,0,1,MESSAGE PUMP,WM_KEYUP,257
6138,0,1,MESSAGE PUMP,WM_GETOBJECT,61
6140,0,1,MESSAGE PUMP,Unknown,356
6143,0,1,MESSAGE PUMP,WM_KEYDOWN,256
6148,0,1,MESSAGE PUMP,WM_KEYUP,257
6150,0,1,MESSAGE PUMP,WM_GETOBJECT,61
6152,0,1,MESSAGE PUMP,Unknown,356
6153,0,1,MESSAGE PUMP,WM_KEYDOWN,256
6158,0,1,MESSAGE PUMP,WM_KEYUP,257
6162,0,1,MESSAGE PUMP,WM_GETOBJECT,61
6163,0,1,MESSAGE PUMP,WM_KEYDOWN,256
6163,0,1,MESSAGE PUMP,Unknown,356
6168,0,1,MESSAGE PUMP,WM_KEYUP,257
6173,0,1,MESSAGE PUMP,WM_KEYDOWN,256
6173,0,1,MESSAGE PUMP,WM_GETOBJECT,61
6175,0,1,MESSAGE PUMP,Unknown,356
6178,0,1,MESSAGE PUMP,WM_GETOBJECT,61
6178,0,1,MESSAGE PUMP,WM_KEYUP,257
6181,0,1,MESSAGE PUMP,WM_GETOBJECT,61
6183,0,1,MESSAGE PUMP,WM_KEYDOWN,256
6188,0,1,MESSAGE PUMP,WM_KEYUP,257
6189,0,1,MESSAGE PUMP,WM_GETOBJECT,61
6191,0,1,MESSAGE PUMP,Unknown,356
6193,0,1,MESSAGE PUMP,WM_KEYDOWN,256
6198,0,1,MESSAGE PUMP,WM_KEYUP,257
6200,0,1,MESSAGE PUMP,WM_GETOBJECT,61
6202,0,1,MESSAGE PUMP,Unknown,356
6203,0,1,MESSAGE PUMP,WM_KEYDOWN,256
6208,0,1,MESSAGE PUMP,WM_KEYUP,257
6211,0,1,MESSAGE PUMP,WM_GETOBJECT,61
6213,0,1,MESSAGE PUMP,Unknown,356
6213,0,1,MESSAGE PUMP,WM_KEYDOWN,256
6218,0,1,MESSAGE PUMP,WM_KEYUP,257
6224,0,1,MESSAGE PUMP,WM_GETOBJECT,61
6226,0,1,MESSAGE PUMP,Unknown,356
6236,0,1,MESSAGE PUMP,WM_GETOBJECT,61
6239,0,1,MESSAGE PUMP,Unknown,356
6250,0,1,MESSAGE PUMP,WM_GETOBJECT,61
6252,0,1,MESSAGE PUMP,Unknown,356
6256,0,1,MESSAGE PUMP,WM_GETOBJECT,61
6265,0,1,MESSAGE PUMP,WM_GETOBJECT,61
6267,0,1,MESSAGE PUMP,Unknown,356
6278,0,1,MESSAGE PUMP,WM_GETOBJECT,61
6280,0,1,MESSAGE PUMP,Unknown,356
6290,0,1,MESSAGE PUMP,WM_GETOBJECT,61
6292,0,1,MESSAGE PUMP,Unknown,356
6303,0,1,MESSAGE PUMP,WM_GETOBJECT,61
6305,0,1,MESSAGE PUMP,Unknown,356
6315,0,1,MESSAGE PUMP,WM_GETOBJECT,61
6317,0,1,MESSAGE PUMP,Unknown,356
6328,0,1,MESSAGE PUMP,WM_GETOBJECT,61
6330,0,1,MESSAGE PUMP,Unknown,356
6334,0,1,MESSAGE PUMP,WM_GETOBJECT,61
6344,0,1,MESSAGE PUMP,WM_GETOBJECT,61
6346,0,1,MESSAGE PUMP,Unknown,356
6357,0,1,MESSAGE PUMP,WM_GETOBJECT,61
6359,0,1,MESSAGE PUMP,Unknown,356
6369,0,1,MESSAGE PUMP,WM_GETOBJECT,61
6371,0,1,MESSAGE PUMP,Unknown,356
6382,0,1,MESSAGE PUMP,WM_GETOBJECT,61
6384,0,1,MESSAGE PUMP,Unknown,356
6394,0,1,MESSAGE PUMP,WM_GETOBJECT,61
6396,0,1,MESSAGE PUMP,Unknown,356
6407,0,1,MESSAGE PUMP,WM_GETOBJECT,61
6409,0,1,MESSAGE PUMP,Unknown,356
6413,0,1,MESSAGE PUMP,WM_GETOBJECT,61
6423,0,1,MESSAGE PUMP,WM_GETOBJECT,61
6425,0,1,MESSAGE PUMP,Unknown,356
6436,0,1,MESSAGE PUMP,WM_GETOBJECT,61
6438,0,1,MESSAGE PUMP,Unknown,356
6448,0,1,MESSAGE PUMP,WM_GETOBJECT,61
6450,0,1,MESSAGE PUMP,Unknown,356
6461,0,1,MESSAGE PUMP,WM_GETOBJECT,61
6464,0,1,MESSAGE PUMP,Unknown,356
6488,0,1,MESSAGE PUMP,WM_GETOBJECT,61
6490,0,1,MESSAGE PUMP,Unknown,356
6955,0,1,MESSAGE PUMP,WM_KEYDOWN,256
6957,0,1,MESSAGE PUMP,WM_GETOBJECT,61
6959,0,1,MESSAGE PUMP,WM_GETOBJECT,61
6960,0,1,MESSAGE PUMP,WM_KEYUP,257
6961,0,1,MESSAGE PUMP,Unknown,356
6967,0,1,MESSAGE PUMP,WM_GETOBJECT,61
6969,0,1,MESSAGE PUMP,Unknown,356
7263,0,1,MESSAGE PUMP,WM_KEYDOWN,256
7266,0,1,MESSAGE PUMP,WM_GETOBJECT,61
7268,0,1,MESSAGE PUMP,WM_GETOBJECT,61
7268,0,1,MESSAGE PUMP,WM_KEYUP,257
7269,0,1,MESSAGE PUMP,Unknown,356
7275,0,1,MESSAGE PUMP,WM_GETOBJECT,61
7277,0,1,MESSAGE PUMP,Unknown,356
7571,0,1,MESSAGE PUMP,WM_KEYDOWN,256
7575,0,1,MESSAGE PUMP,WM_SYSKEYDOWN,260
7575,0,1,MESSAGE PUMP,WM_CONTEXTMENU,123
7578,0,1,MESSAGE PUMP,WM_GETOBJECT,61
7578,0,1,MESSAGE PUMP,WM_SYSKEYUP,261
7578,0,1,MESSAGE PUMP,WM_SYSCOMMAND,274
7579,0,1,MESSAGE PUMP,WM_GETOBJECT,61
7581,0,1,MESSAGE PUMP,Unknown,356
7582,0,1,MESSAGE PUMP,WM_KEYUP,257
7598,0,1,MESSAGE PUMP,WM_GETOBJECT,61
7600,0,1,MESSAGE PUMP,Unknown,356
7606,0,1,MESSAGE PUMP,WM_GETOBJECT,61
7608,0,1,MESSAGE PUMP,Unknown,356
7616,0,1,MESSAGE PUMP,Unknown,356
7849,0,1,MESSAGE PUMP,WM_KEYDOWN,256
7851,0,1,MESSAGE PUMP,WM_GETOBJECT,61
7853,0,1,MESSAGE PUMP,WM_GETOBJECT,61
7854,0,1,MESSAGE PUMP,WM_KEYUP,257
7855,0,1,MESSAGE PUMP,Unknown,356
7858,0,1,MESSAGE PUMP,WM_KEYDOWN,256
7862,0,1,MESSAGE PUMP,WM_KEYUP,257
7865,0,1,MESSAGE PUMP,WM_GETOBJECT,61
7867,0,1,MESSAGE PUMP,Unknown,356
7867,0,1,MESSAGE PUMP,WM_KEYDOWN,256
7871,0,1,MESSAGE PUMP,WM_KEYUP,257
7876,0,1,MESSAGE PUMP,WM_KEYDOWN,256
7877,0,1,MESSAGE PUMP,WM_GETOBJECT,61
7879,0,1,MESSAGE PUMP,Unknown,356
7880,0,1,MESSAGE PUMP,WM_KEYUP,257
7884,0,1,MESSAGE PUMP,WM_KEYDOWN,256
7888,0,1,MESSAGE PUMP,WM_KEYUP,257
7889,0,1,MESSAGE PUMP,WM_GETOBJECT,61
7891,0,1,MESSAGE PUMP,Unknown,356
7892,0,1,MESSAGE PUMP,WM_KEYDOWN,256
7897,0,1,MESSAGE PUMP,WM_KEYUP,257
7902,0,1,MESSAGE PUMP,WM_GETOBJECT,61
7904,0,1,MESSAGE PUMP,Unknown,356
7916,0,1,MESSAGE PUMP,WM_GETOBJECT,61
7918,0,1,MESSAGE PUMP,Unknown,356
7922,0,1,MESSAGE PUMP,WM_GETOBJECT,61
8164,0,1,MESSAGE PUMP,WM_KEYDOWN,256
8164,0,1,MESSAGE PUMP,WM_CHAR,258
8165,0,1,MESSAGE PUMP,WM_KEYUP,257
8166,0,1,MESSAGE PUMP,WM_GETOBJECT,61
8168,0,1,MESSAGE PUMP,WM_GETOBJECT,61
8170,0,1,MESSAGE PUMP,Unknown,356
8177,0,1,MESSAGE PUMP,WM_GETOBJECT,61
8179,0,1,MESSAGE PUMP,Unknown,356
8188,0,1,MESSAGE PUMP,WM_GETOBJECT,61
8190,0,1,MESSAGE PUMP,Unknown,356
8198,0,1,MESSAGE PUMP,Unknown,356
8570,0,1,MESSAGE PUMP,WM_KEYDOWN,256
8576,0,1,MESSAGE PUMP,WM_KEYDOWN,256
8576,0,1,MESSAGE PUMP,WM_CHAR,258
8576,0,0,MESSAGE PUMP,WM_NCACTIVATE,134
8576,0,0,MESSAGE PUMP,WM_ACTIVATE,6
8576,0,0,MESSAGE PUMP,WM_KILLFOCUS,8
8576,0,0,MESSAGE PUMP,WM_IME_SETCONTEXT,641
8576,0,0,MESSAGE PUMP,WM_IME_NOTIFY,642
8576,0,0,MESSAGE PUMP,WM_MOUSELEAVE,675
8576,0,0,MESSAGE PUMP,WM_WINDOWPOSCHANGING,70
8576,0,0,MESSAGE PUMP,WM_WINDOWPOSCHANGED,71
8576,0,0,MESSAGE PUMP,WM_ACTIVATEAPP,28
8576,0,0,MESSAGE PUMP,WM_NCACTIVATE,134
8576,0,0,MESSAGE PUMP,WM_ACTIVATE,6
8576,0,0,MESSAGE PUMP,WM_IME_SETCONTEXT,641
8576,0,0,MESSAGE PUMP,WM_IME_NOTIFY,642
8576,0,0,MESSAGE PUMP,WM_SETFOCUS,7
8577,0,1,MESSAGE PUMP,WM_GETOBJECT,61
8577,0,1,MESSAGE PUMP,Unknown,49767
8577,0,1,MESSAGE PUMP,Unknown,49767
8577,0,1,MESSAGE PUMP,Unknown,49767
8577,0,1,MESSAGE PUMP,Unknown,49767
8577,0,1,MESSAGE PUMP,Unknown,49767
8577,0,1,MESSAGE PUMP,Unknown,49767
8577,0,1,MESSAGE PUMP,Unknown,49767
8577,0,1,MESSAGE PUMP,Unknown,49767
8577,0,1,MESSAGE PUMP,Unknown,49767
8577,0,1,MESSAGE PUMP,Unknown,49767
8577,0,1,MESSAGE PUMP,Unknown,49767
8577,0,1,MESSAGE PUMP,Unknown,49767
8577,0,1,MESSAGE PUMP,Unknown,49767
8577,0,1,MESSAGE PUMP,Unknown,49767
8577,0,1,MESSAGE PUMP,Unknown,49767
8577,0,1,MESSAGE PUMP,Unknown,49767
8577,0,1,MESSAGE PUMP,Unknown,49767
8577,0,1,MESSAGE PUMP,Unknown,49767
8577,0,1,MESSAGE PUMP,Unknown,49767
8577,0,1,MESSAGE PUMP,Unknown,49767
8577,0,1,MESSAGE PUMP,Unknown,49767
8577,0,1,MESSAGE PUMP,Unknown,49767
8577,0,1,MESSAGE PUMP,Unknown,49767
8577,0,1,MESSAGE PUMP,Unknown,49767
8577,0,1,MESSAGE PUMP,WM_KEYUP,257
8577,0,1,MESSAGE PUMP,WM_NCHITTEST,132
8577,0,1,MESSAGE PUMP,WM_SETCURSOR,32
8577,0,1,MESSAGE PUMP,WM_MOUSEFIRST,512
8577,0,1,MESSAGE PUMP,WM_GETOBJECT,61
8579,0,1,MESSAGE PUMP,Unknown,49766
8579,0,1,MESSAGE PUMP,Unknown,49767
8579,0,1,MESSAGE PUMP,Unknown,49767
8580,0,1,MESSAGE PUMP,Unknown,49766
8582,0,1,MESSAGE PUMP,WM_GETOBJECT,61
8584,0,1,MESSAGE PUMP,Unknown,356
8591,0,1,MESSAGE PUMP,WM_GETOBJECT,61
8593,0,1,MESSAGE PUMP,Unknown,356
8600,0,1,MESSAGE PUMP,WM_GETOBJECT,61
8602,0,1,MESSAGE PUMP,Unknown,356
8605,0,1,MESSAGE PUMP,WM_GETOBJECT,61
8608,0,1,MESSAGE PUMP,Unknown,356
8615,0,1,MESSAGE PUMP,WM_GETOBJECT,61
8618,0,1,MESSAGE PUMP,Unknown,356
8623,0,1,MESSAGE PUMP,Unknown,356
8624,0,1,MESSAGE PUMP,Unknown,356
8625,0,1,MESSAGE PUMP,WM_GETOBJECT,61
8627,0,1,MESSAGE PUMP,Unknown,356
8633,0,1,MESSAGE PUMP,Unknown,356
10344,0,1,MESSAGE PUMP,WM_KEYDOWN,256
10346,0,1,MESSAGE PUMP,WM_GETOBJECT,61
10348,0,1,MESSAGE PUMP,Unknown,356
10349,0,1,MESSAGE PUMP,WM_GETOBJECT,61
10350,0,1,MESSAGE PUMP,WM_KEYUP,257
10356,0,1,MESSAGE PUMP,WM_KEYDOWN,256
10361,0,1,MESSAGE PUMP,WM_GETOBJECT,61
10362,0,1,MESSAGE PUMP,WM_KEYUP,257
10364,0,1,MESSAGE PUMP,Unknown,356
10368,0,1,MESSAGE PUMP,WM_KEYDOWN,256
10374,0,1,MESSAGE PUMP,WM_GETOBJECT,61
10375,0,1,MESSAGE PUMP,WM_KEYUP,257
10377,0,1,MESSAGE PUMP,Unknown,356
10381,0,1,MESSAGE PUMP,WM_KEYDOWN,256
10382,0,1,MESSAGE PUMP,WM_GETOBJECT,61
10384,0,1,MESSAGE PUMP,Unknown,356
10387,0,1,MESSAGE PUMP,WM_KEYUP,257
10394,0,1,MESSAGE PUMP,WM_KEYDOWN,256
10400,0,1,MESSAGE PUMP,WM_KEYUP,257
10402,0,1,MESSAGE PUMP,WM_GETOBJECT,61
10405,0,1,MESSAGE PUMP,Unknown,356
10421,0,1,MESSAGE PUMP,WM_GETOBJECT,61
10423,0,1,MESSAGE PUMP,Unknown,356
10434,0,1,MESSAGE PUMP,WM_GETOBJECT,61
10436,0,1,MESSAGE PUMP,Unknown,356
10440,0,1,MESSAGE PUMP,WM_GETOBJECT,61
10443,0,1,MESSAGE PUMP,WM_KEYDOWN,256
10443,0,1,MESSAGE PUMP,WM_CHAR,258
10443,0,0,MESSAGE PUMP,WM_GETOBJECT,61
10443,0,0,MESSAGE PUMP,WM_GETOBJECT,61
10444,0,1,MESSAGE PUMP,WM_KEYUP,257
10444,0,1,MESSAGE PUMP,WM_KEYDOWN,256
10444,0,1,MESSAGE PUMP,WM_KEYUP,257
10444,0,1,MESSAGE PUMP,WM_KEYDOWN,256
10444,0,1,MESSAGE PUMP,WM_KEYUP,257
10445,0,1,MESSAGE PUMP,WM_GETOBJECT,61
10445,0,1,MESSAGE PUMP,WM_KEYDOWN,256
10446,0,1,MESSAGE PUMP,Unknown,356
10446,0,1,MESSAGE PUMP,WM_KEYUP,257
10446,0,1,MESSAGE PUMP,WM_KEYDOWN,256
10447,0,1,MESSAGE PUMP,WM_KEYUP,257
10447,0,1,MESSAGE PUMP,WM_GETOBJECT,61
10448,0,1,MESSAGE PUMP,WM_KEYDOWN,256
10449,0,1,MESSAGE PUMP,WM_KEYUP,257
10449,0,1,MESSAGE PUMP,WM_GETOBJECT,61
10453,0,1,MESSAGE PUMP,WM_KEYDOWN,256
10455,0,1,MESSAGE PUMP,WM_KEYUP,257
10457,0,1,MESSAGE PUMP,WM_GETOBJECT,61
10458,0,1,MESSAGE PUMP,WM_KEYDOWN,256
10458,0,1,MESSAGE PUMP,Unknown,356
10459,0,1,MESSAGE PUMP,WM_KEYUP,257
10464,0,1,MESSAGE PUMP,WM_KEYDOWN,256
10465,0,1,MESSAGE PUMP,WM_KEYUP,257
10467,0,1,MESSAGE PUMP,WM_GETOBJECT,61
10469,0,1,MESSAGE PUMP,Unknown,356
10469,0,1,MESSAGE PUMP,WM_KEYDOWN,256
10471,0,1,MESSAGE PUMP,WM_KEYUP,257
10475,0,1,MESSAGE PUMP,WM_KEYDOWN,256
10476,0,1,MESSAGE PUMP,WM_GETOBJECT,61
10478,0,1,MESSAGE PUMP,Unknown,356
10478,0,1,MESSAGE PUMP,WM_KEYUP,257
10482,0,1,MESSAGE PUMP,WM_KEYDOWN,256
10484,0,1,MESSAGE PUMP,WM_KEYUP,257
10488,0,1,MESSAGE PUMP,WM_GETOBJECT,61
10488,0,1,MESSAGE PUMP,WM_KEYDOWN,256
10490,0,1,MESSAGE PUMP,Unknown,356
10491,0,1,MESSAGE PUMP,WM_KEYUP,257
10495,0,1,MESSAGE PUMP,WM_KEYDOWN,256
10496,0,1,MESSAGE PUMP,WM_GETOBJECT,61
10497,0,1,MESSAGE PUMP,WM_KEYUP,257
10502,0,1,MESSAGE PUMP,WM_KEYDOWN,256
10505,0,1,MESSAGE PUMP,WM_KEYUP,257
10510,0,1,MESSAGE PUMP,WM_KEYDOWN,256
10511,0,1,MESSAGE PUMP,WM_GETOBJECT,61
10512,0,1,MESSAGE PUMP,WM_KEYUP,257
10514,0,1,MESSAGE PUMP,Unknown,356
10515,0,1,MESSAGE PUMP,WM_GETOBJECT,61
10517,0,1,MESSAGE PUMP,WM_KEYDOWN,256
10517,0,1,MESSAGE PUMP,Unknown,356
10520,0,1,MESSAGE PUMP,WM_KEYUP,257
10524,0,1,MESSAGE PUMP,WM_KEYDOWN,256
10527,0,1,MESSAGE PUMP,WM_GETOBJECT,61
10527,0,1,MESSAGE PUMP,WM_KEYUP,257
10528,0,1,MESSAGE PUMP,Unknown,356
10531,0,1,MESSAGE PUMP,WM_GETOBJECT,61
10531,0,1,MESSAGE PUMP,WM_KEYDOWN,256
10533,0,1,MESSAGE PUMP,Unknown,356
10534,0,1,MESSAGE PUMP,WM_KEYUP,257
10539,0,1,MESSAGE PUMP,WM_KEYDOWN,256
10541,0,1,MESSAGE PUMP,WM_KEYUP,257
10542,0,1,MESSAGE PUMP,Unknown,356
10553,0,1,MESSAGE PUMP,WM_GETOBJECT,61
10556,0,1,MESSAGE PUMP,Unknown,356
10580,0,1,MESSAGE PUMP,WM_GETOBJECT,61
10583,0,1,MESSAGE PUMP,Unknown,356
10602,0,1,MESSAGE PUMP,WM_GETOBJECT,61
10605,0,1,MESSAGE PUMP,Unknown,356
10629,0,1,MESSAGE PUMP,WM_GETOBJECT,61
10632,0,1,MESSAGE PUMP,Unknown,356
10654,0,1,MESSAGE PUMP,WM_GETOBJECT,61
10656,0,1,MESSAGE PUMP,Unknown,356
10665,0,1,MESSAGE PUMP,WM_GETOBJECT,61
10674,0,1,MESSAGE PUMP,WM_GETOBJECT,61
10677,0,1,MESSAGE PUMP,Unknown,356
10679,0,1,MESSAGE PUMP,WM_KEYDOWN,256
10679,0,1,MESSAGE PUMP,WM_KEYUP,257
10690,0,1,MESSAGE PUMP,WM_KEYDOWN,256
10690,0,1,MESSAGE PUMP,WM_KEYUP,257
10692,0,1,MESSAGE PUMP,WM_GETOBJECT,61
10695,0,1,MESSAGE PUMP,Unknown,356
10702,0,1,MESSAGE PUMP,WM_KEYDOWN,256
10702,0,1,MESSAGE PUMP,WM_KEYUP,257
10710,0,1,MESSAGE PUMP,WM_KEYDOWN,256
10710,0,1,MESSAGE PUMP,WM_KEYUP,257
10712,0,1,MESSAGE PUMP,WM_GETOBJECT,61
10714,0,1,MESSAGE PUMP,Unknown,356
10740,0,1,MESSAGE PUMP,WM_GETOBJECT,61
10743,0,1,MESSAGE PUMP,Unknown,356
10745,0,1,MESSAGE PUMP,WM_KEYDOWN,256
10745,0,1,MESSAGE PUMP,WM_KEYUP,257
10756,0,1,MESSAGE PUMP,WM_KEYDOWN,256
10756,0,1,MESSAGE PUMP,WM_KEYUP,257
10761,0,1,MESSAGE PUMP,WM_GETOBJECT,61
10763,0,1,MESSAGE PUMP,Unknown,356
10787,0,1,MESSAGE PUMP,WM_GETOBJECT,61
10789,0,1,MESSAGE PUMP,Unknown,356
10791,0,1,MESSAGE PUMP,WM_KEYDOWN,256
10791,0,1,MESSAGE PUMP,WM_KEYUP,257
10802,0,1,MESSAGE PUMP,WM_KEYDOWN,256
10802,0,1,MESSAGE PUMP,WM_KEYUP,257
10810,0,1,MESSAGE PUMP,WM_GETOBJECT,61
10810,0,1,MESSAGE PUMP,WM_KEYDOWN,256
10810,0,1,MESSAGE PUMP,WM_KEYUP,257
10811,0,1,MESSAGE PUMP,Unknown,356
10837,0,1,MESSAGE PUMP,WM_GETOBJECT,61
10840,0,1,MESSAGE PUMP,Unknown,356
10842,0,1,MESSAGE PUMP,WM_KEYDOWN,256
10842,0,1,MESSAGE PUMP,WM_KEYUP,257
10853,0,1,MESSAGE PUMP,WM_KEYDOWN,256
10853,0,1,MESSAGE PUMP,WM_KEYUP,257
10854,0,1,MESSAGE PUMP,WM_KEYDOWN,256
10859,0,1,MESSAGE PUMP,WM_GETOBJECT,61
10862,0,1,MESSAGE PUMP,Unknown,356
10885,0,1,MESSAGE PUMP,WM_GETOBJECT,61
10887,0,1,MESSAGE PUMP,Unknown,356
10904,0,1,MESSAGE PUMP,WM_GETOBJECT,61
10906,0,1,MESSAGE PUMP,WM_GETOBJECT,61
10908,0,1,MESSAGE PUMP,Unknown,356
10917,0,1,MESSAGE PUMP,WM_KEYDOWN,256
10917,0,1,MESSAGE PUMP,WM_KEYUP,257
10926,0,1,MESSAGE PUMP,WM_KEYDOWN,256
10926,0,1,MESSAGE PUMP,WM_KEYUP,257
10926,0,1,MESSAGE PUMP,WM_GETOBJECT,61
10928,0,1,MESSAGE PUMP,Unknown,356
10936,0,1,MESSAGE PUMP,WM_KEYDOWN,256
10936,0,1,MESSAGE PUMP,WM_KEYUP,257
10948,0,1,MESSAGE PUMP,WM_GETOBJECT,61
10950,0,1,MESSAGE PUMP,Unknown,356
10951,0,1,MESSAGE PUMP,WM_KEYUP,257
10973,0,1,MESSAGE PUMP,WM_GETOBJECT,61
10975,0,1,MESSAGE PUMP,Unknown,356
10984,0,1,MESSAGE PUMP,WM_KEYDOWN,256
10984,0,1,MESSAGE PUMP,WM_KEYUP,257
10994,0,1,MESSAGE PUMP,WM_KEYDOWN,256
10994,0,1,MESSAGE PUMP,WM_KEYUP,257
10995,0,1,MESSAGE PUMP,WM_GETOBJECT,61
10998,0,1,MESSAGE PUMP,Unknown,356
11009,0,1,MESSAGE PUMP,WM_KEYDOWN,256
11022,0,1,MESSAGE PUMP,WM_GETOBJECT,61
11022,0,1,MESSAGE PUMP,WM_KEYUP,257
11024,0,1,MESSAGE PUMP,Unknown,356
11042,0,1,MESSAGE PUMP,WM_KEYDOWN,256
11042,0,1,MESSAGE PUMP,WM_KEYUP,257
11043,0,1,MESSAGE PUMP,WM_GETOBJECT,61
11046,0,1,MESSAGE PUMP,Unknown,356
11053,0,1,MESSAGE PUMP,WM_KEYDOWN,256
11053,0,1,MESSAGE PUMP,WM_KEYUP,257
11063,0,1,MESSAGE PUMP,WM_KEYDOWN,256
11063,0,1,MESSAGE PUMP,WM_KEYUP,257
11065,0,1,MESSAGE PUMP,WM_GETOBJECT,61
11067,0,1,MESSAGE PUMP,Unknown,356
11091,0,1,MESSAGE PUMP,WM_GETOBJECT,61
11093,0,1,MESSAGE PUMP,Unknown,356
11102,0,1,MESSAGE PUMP,WM_KEYDOWN,256
11102,0,1,MESSAGE PUMP,WM_KEYUP,257
11103,0,1,MESSAGE PUMP,WM_KEYDOWN,256
11110,0,1,MESSAGE PUMP,WM_KEYDOWN,256
11110,0,1,MESSAGE PUMP,WM_KEYUP,257
11111,0,1,MESSAGE PUMP,WM_GETOBJECT,61
11113,0,1,MESSAGE PUMP,WM_KEYUP,257
11113,0,1,MESSAGE PUMP,Unknown,356
11120,0,1,MESSAGE PUMP,WM_KEYDOWN,256
11120,0,1,MESSAGE PUMP,WM_KEYUP,257
11132,0,1,MESSAGE PUMP,WM_GETOBJECT,61
11134,0,1,MESSAGE PUMP,Unknown,356
11152,0,1,MESSAGE PUMP,WM_KEYDOWN,256
11152,0,1,MESSAGE PUMP,WM_KEYUP,257
11154,0,1,MESSAGE PUMP,WM_GETOBJECT,61
11156,0,1,MESSAGE PUMP,Unknown,356
11164,0,1,MESSAGE PUMP,WM_KEYDOWN,256
11164,0,1,MESSAGE PUMP,WM_KEYUP,257
11172,0,1,MESSAGE PUMP,WM_KEYDOWN,256
11172,0,1,MESSAGE PUMP,WM_KEYUP,257
11174,0,1,MESSAGE PUMP,WM_GETOBJECT,61
11176,0,1,MESSAGE PUMP,Unknown,356
11193,0,1,MESSAGE PUMP,WM_KEYDOWN,256
11201,0,1,MESSAGE PUMP,WM_GETOBJECT,61
11204,0,1,MESSAGE PUMP,Unknown,356
11206,0,1,MESSAGE PUMP,WM_KEYUP,257
11211,0,1,MESSAGE PUMP,WM_KEYDOWN,256
11211,0,1,MESSAGE PUMP,WM_KEYUP,257
11220,0,1,MESSAGE PUMP,WM_KEYDOWN,256
11220,0,1,MESSAGE PUMP,WM_KEYUP,257
11222,0,1,MESSAGE PUMP,WM_GETOBJECT,61
11225,0,1,MESSAGE PUMP,Unknown,356
11232,0,1,MESSAGE PUMP,WM_KEYDOWN,256
11232,0,1,MESSAGE PUMP,WM_KEYUP,257
11244,0,1,MESSAGE PUMP,WM_GETOBJECT,61
11246,0,1,MESSAGE PUMP,Unknown,356
11264,0,1,MESSAGE PUMP,WM_KEYDOWN,256
11264,0,1,MESSAGE PUMP,WM_KEYUP,257
11266,0,1,MESSAGE PUMP,WM_GETOBJECT,61
11269,0,1,MESSAGE PUMP,Unknown,356
11274,0,1,MESSAGE PUMP,WM_KEYDOWN,256
11274,0,1,MESSAGE PUMP,WM_KEYUP,257
11284,0,1,MESSAGE PUMP,WM_KEYDOWN,256
11284,0,1,MESSAGE PUMP,WM_KEYUP,257
11287,0,1,MESSAGE PUMP,WM_GETOBJECT,61
11290,0,1,MESSAGE PUMP,Unknown,356
11311,0,1,MESSAGE PUMP,WM_KEYDOWN,256
11312,0,1,MESSAGE PUMP,WM_GETOBJECT,61
11314,0,1,MESSAGE PUMP,Unknown,356
11324,0,1,MESSAGE PUMP,WM_KEYUP,257
11338,0,1,MESSAGE PUMP,WM_GETOBJECT,61
11340,0,1,MESSAGE PUMP,Unknown,356
11359,0,1,MESSAGE PUMP,WM_GETOBJECT,61
11362,0,1,MESSAGE PUMP,Unknown,356
11371,0,1,MESSAGE PUMP,WM_KEYDOWN,256
11371,0,1,MESSAGE PUMP,WM_KEYUP,257
11371,0,1,MESSAGE PUMP,WM_KEYDOWN,256
11371,0,1,MESSAGE PUMP,WM_KEYUP,257
11371,0,1,MESSAGE PUMP,WM_KEYDOWN,256
11371,0,1,MESSAGE PUMP,WM_KEYUP,257
11381,0,1,MESSAGE PUMP,WM_GETOBJECT,61
11383,0,1,MESSAGE PUMP,Unknown,356
11394,0,1,MESSAGE PUMP,WM_GETOBJECT,61
11397,0,1,MESSAGE PUMP,WM_KEYDOWN,256
11397,0,1,MESSAGE PUMP,WM_KEYDOWN,256
11397,0,1,MESSAGE PUMP,WM_KEYUP,257
11397,0,1,MESSAGE PUMP,WM_KEYUP,257
11397,0,1,MESSAGE PUMP,WM_KEYDOWN,256
11397,0,1,MESSAGE PUMP,WM_KEYDOWN,256
11397,0,1,MESSAGE PUMP,WM_KEYUP,257
11397,0,1,MESSAGE PUMP,WM_KEYUP,257
11400,0,1,MESSAGE PUMP,WM_GETOBJECT,61
11402,0,1,MESSAGE PUMP,Unknown,356
11417,0,1,MESSAGE PUMP,WM_KEYDOWN,256
11417,0,1,MESSAGE PUMP,WM_KEYDOWN,256
11417,0,1,MESSAGE PUMP,WM_KEYUP,257
11417,0,1,MESSAGE PUMP,WM_KEYUP,257
11417,0,1,MESSAGE PUMP,WM_GETOBJECT,61
11420,0,1,MESSAGE PUMP,Unknown,356
11445,0,1,MESSAGE PUMP,WM_GETOBJECT,61
11448,0,1,MESSAGE PUMP,Unknown,356
11472,0,1,MESSAGE PUMP,WM_GETOBJECT,61
11474,0,1,MESSAGE PUMP,Unknown,356
11482,0,1,MESSAGE PUMP,WM_KEYDOWN,256
11482,0,1,MESSAGE PUMP,WM_KEYUP,257
11494,0,1,MESSAGE PUMP,WM_GETOBJECT,61
11496,0,1,MESSAGE PUMP,Unknown,356
11505,0,1,MESSAGE PUMP,WM_KEYDOWN,256
11505,0,1,MESSAGE PUMP,WM_KEYDOWN,256
11505,0,1,MESSAGE PUMP,WM_CHAR,258
11505,0,1,MESSAGE PUMP,WM_KEYUP,257
11505,0,1,MESSAGE PUMP,WM_KEYUP,257
11514,0,1,MESSAGE PUMP,WM_GETOBJECT,61
11516,0,1,MESSAGE PUMP,Unknown,356
11538,0,1,MESSAGE PUMP,WM_GETOBJECT,61
11541,0,1,MESSAGE PUMP,Unknown,356
11548,0,1,MESSAGE PUMP,WM_KEYDOWN,256
11548,0,1,MESSAGE PUMP,WM_KEYUP,257
11550,0,1,MESSAGE PUMP,WM_KEYDOWN,256
11555,0,1,MESSAGE PUMP,WM_KEYDOWN,256
11555,0,1,MESSAGE PUMP,WM_KEYUP,257
11556,0,1,MESSAGE PUMP,WM_GETOBJECT,61
11559,0,1,MESSAGE PUMP,Unknown,356
11561,0,1,MESSAGE PUMP,WM_KEYUP,257
11582,0,1,MESSAGE PUMP,WM_GETOBJECT,61
11585,0,1,MESSAGE PUMP,Unknown,356
11605,0,1,MESSAGE PUMP,WM_KEYDOWN,256
11605,0,1,MESSAGE PUMP,WM_KEYUP,257
11607,0,1,MESSAGE PUMP,WM_GETOBJECT,61
11609,0,1,MESSAGE PUMP,Unknown,356
11635,0,1,MESSAGE PUMP,WM_GETOBJECT,61
11638,0,1,MESSAGE PUMP,Unknown,356
11645,0,1,MESSAGE PUMP,WM_KEYDOWN,256
11645,0,1,MESSAGE PUMP,WM_KEYUP,257
11661,0,1,MESSAGE PUMP,WM_GETOBJECT,61
11664,0,1,MESSAGE PUMP,Unknown,356
11684,0,1,MESSAGE PUMP,WM_GETOBJECT,61
11686,0,1,MESSAGE PUMP,Unknown,356
11708,0,1,MESSAGE PUMP,WM_KEYDOWN,256
11708,0,1,MESSAGE PUMP,WM_KEYDOWN,256
11708,0,1,MESSAGE PUMP,WM_GETOBJECT,61
11708,0,1,MESSAGE PUMP,WM_KEYUP,257
11708,0,1,MESSAGE PUMP,WM_KEYUP,257
11708,0,1,MESSAGE PUMP,Unknown,356
11731,0,1,MESSAGE PUMP,WM_GETOBJECT,61
11733,0,1,MESSAGE PUMP,Unknown,356
11741,0,1,MESSAGE PUMP,WM_KEYDOWN,256
11741,0,1,MESSAGE PUMP,WM_KEYUP,257
11751,0,1,MESSAGE PUMP,WM_KEYDOWN,256
11751,0,1,MESSAGE PUMP,WM_KEYUP,257
11752,0,1,MESSAGE PUMP,WM_GETOBJECT,61
11755,0,1,MESSAGE PUMP,Unknown,356
11779,0,1,MESSAGE PUMP,WM_GETOBJECT,61
11779,0,1,MESSAGE PUMP,WM_KEYDOWN,256
11781,0,1,MESSAGE PUMP,Unknown,356
11787,0,1,MESSAGE PUMP,WM_KEYDOWN,256
11787,0,1,MESSAGE PUMP,WM_KEYUP,257
11791,0,1,MESSAGE PUMP,WM_KEYUP,257
11796,0,1,MESSAGE PUMP,WM_KEYDOWN,256
11796,0,1,MESSAGE PUMP,WM_KEYUP,257
11797,0,1,MESSAGE PUMP,WM_GETOBJECT,61
11800,0,1,MESSAGE PUMP,Unknown,356
11824,0,1,MESSAGE PUMP,WM_GETOBJECT,61
11827,0,1,MESSAGE PUMP,Unknown,356
11851,0,1,MESSAGE PUMP,WM_KEYDOWN,256
11851,0,1,MESSAGE PUMP,WM_KEYDOWN,256
11851,0,1,MESSAGE PUMP,WM_GETOBJECT,61
11851,0,1,MESSAGE PUMP,WM_CHAR,258
11851,0,1,MESSAGE PUMP,WM_KEYUP,257
11851,0,1,MESSAGE PUMP,WM_KEYUP,257
11851,0,1,MESSAGE PUMP,WM_KEYDOWN,256
11851,0,1,MESSAGE PUMP,Unknown,356
11851,0,1,MESSAGE PUMP,WM_CHAR,258
11851,0,1,MESSAGE PUMP,WM_KEYUP,257
11851,0,1,MESSAGE PUMP,WM_KEYDOWN,256
11851,0,1,MESSAGE PUMP,WM_CHAR,258
11851,0,1,MESSAGE PUMP,WM_KEYUP,257
11851,0,0,MESSAGE PUMP,WM_GETOBJECT,61
11851,0,0,MESSAGE PUMP,WM_GETOBJECT,61
11851,0,0,MESSAGE PUMP,WM_GETOBJECT,61
11851,0,0,MESSAGE PUMP,WM_GETOBJECT,61
11851,0,0,MESSAGE PUMP,WM_GETOBJECT,61
11851,0,0,MESSAGE PUMP,WM_GETOBJECT,61
11870,0,1,MESSAGE PUMP,WM_KEYDOWN,256
11870,0,1,MESSAGE PUMP,WM_CHAR,258
11870,0,1,MESSAGE PUMP,WM_KEYUP,257
11870,0,1,MESSAGE PUMP,WM_KEYDOWN,256
11870,0,1,MESSAGE PUMP,WM_GETOBJECT,61
11870,0,1,MESSAGE PUMP,WM_CHAR,258
11870,0,1,MESSAGE PUMP,WM_KEYUP,257
11870,0,1,MESSAGE PUMP,WM_KEYDOWN,256
11870,0,1,MESSAGE PUMP,Unknown,356
11870,0,1,MESSAGE PUMP,WM_CHAR,258
11870,0,1,MESSAGE PUMP,WM_KEYUP,257
11870,0,0,MESSAGE PUMP,WM_GETOBJECT,61
11870,0,0,MESSAGE PUMP,WM_GETOBJECT,61
11870,0,0,MESSAGE PUMP,WM_GETOBJECT,61
11870,0,0,MESSAGE PUMP,WM_GETOBJECT,61
11870,0,0,MESSAGE PUMP,WM_GETOBJECT,61
11870,0,0,MESSAGE PUMP,WM_GETOBJECT,61
11889,0,1,MESSAGE PUMP,WM_KEYDOWN,256
11889,0,1,MESSAGE PUMP,WM_CHAR,258
11889,0,1,MESSAGE PUMP,WM_KEYUP,257
11889,0,1,MESSAGE PUMP,WM_KEYDOWN,256
11889,0,1,MESSAGE PUMP,WM_GETOBJECT,61
11889,0,1,MESSAGE PUMP,WM_CHAR,258
11889,0,1,MESSAGE PUMP,WM_KEYUP,257
11889,0,0,MESSAGE PUMP,WM_GETOBJECT,61
11889,0,0,MESSAGE PUMP,WM_GETOBJECT,61
11889,0,0,MESSAGE PUMP,WM_GETOBJECT,61
11889,0,0,MESSAGE PUMP,WM_GETOBJECT,61
11890,0,1,MESSAGE PUMP,Unknown,356
11910,0,1,MESSAGE PUMP,WM_KEYDOWN,256
11910,0,1,MESSAGE PUMP,WM_CHAR,258
11910,0,1,MESSAGE PUMP,WM_KEYUP,257
11910,0,1,MESSAGE PUMP,WM_KEYDOWN,256
11910,0,1,MESSAGE PUMP,WM_GETOBJECT,61
11910,0,1,MESSAGE PUMP,WM_CHAR,258
11910,0,1,MESSAGE PUMP,WM_KEYUP,257
11910,0,1,MESSAGE PUMP,WM_KEYDOWN,256
11910,0,1,MESSAGE PUMP,Unknown,356
11910,0,1,MESSAGE PUMP,WM_CHAR,258
11910,0,1,MESSAGE PUMP,WM_KEYUP,257
11910,0,0,MESSAGE PUMP,WM_GETOBJECT,61
11910,0,0,MESSAGE PUMP,WM_GETOBJECT,61
11910,0,0,MESSAGE PUMP,WM_GETOBJECT,61
11910,0,0,MESSAGE PUMP,WM_GETOBJECT,61
11910,0,0,MESSAGE PUMP,WM_GETOBJECT,61
11910,0,0,MESSAGE PUMP,WM_GETOBJECT,61
11933,0,1,MESSAGE PUMP,WM_GETOBJECT,61
11936,0,1,MESSAGE PUMP,Unknown,356
11960,0,1,MESSAGE PUMP,WM_GETOBJECT,61
11962,0,1,MESSAGE PUMP,Unknown,356
11962,0,1,MESSAGE PUMP,WM_KEYDOWN,256
11962,0,1,MESSAGE PUMP,WM_KEYDOWN,256
11962,0,1,MESSAGE PUMP,WM_KEYUP,257
11962,0,1,MESSAGE PUMP,WM_KEYUP,257
11979,0,1,MESSAGE PUMP,WM_GETOBJECT,61
11982,0,1,MESSAGE PUMP,Unknown,356
12003,0,1,MESSAGE PUMP,WM_KEYDOWN,256
12003,0,1,MESSAGE PUMP,WM_CHAR,258
12003,0,1,MESSAGE PUMP,WM_KEYUP,257
12003,0,1,MESSAGE PUMP,WM_GETOBJECT,61
12003,0,0,MESSAGE PUMP,WM_GETOBJECT,61
12003,0,0,MESSAGE PUMP,WM_GETOBJECT,61
12005,0,1,MESSAGE PUMP,Unknown,356
12027,0,1,MESSAGE PUMP,WM_GETOBJECT,61
12030,0,1,MESSAGE PUMP,Unknown,356
12053,0,1,MESSAGE PUMP,WM_GETOBJECT,61
12056,0,1,MESSAGE PUMP,Unknown,356
12076,0,1,MESSAGE PUMP,WM_GETOBJECT,61
12079,0,1,MESSAGE PUMP,Unknown,356
12090,0,1,MESSAGE PUMP,WM_GETOBJECT,61
12104,0,1,MESSAGE PUMP,WM_GETOBJECT,61
12106,0,1,MESSAGE PUMP,Unknown,356
12128,0,1,MESSAGE PUMP,WM_GETOBJECT,61
12131,0,1,MESSAGE PUMP,Unknown,356
12154,0,1,MESSAGE PUMP,WM_GETOBJECT,61
12157,0,1,MESSAGE PUMP,Unknown,356
12179,0,1,MESSAGE PUMP,WM_GETOBJECT,61
12181,0,1,MESSAGE PUMP,Unknown,356
12205,0,1,MESSAGE PUMP,WM_GETOBJECT,61
12208,0,1,MESSAGE PUMP,Unknown,356
12232,0,1,MESSAGE PUMP,WM_GETOBJECT,61
12234,0,1,MESSAGE PUMP,Unknown,356
12260,0,1,MESSAGE PUMP,WM_GETOBJECT,61
12262,0,1,MESSAGE PUMP,Unknown,356
12262,0,1,MESSAGE PUMP,WM_KEYDOWN,256
12262,0,1,MESSAGE PUMP,WM_KEYDOWN,256
12262,0,1,MESSAGE PUMP,WM_KEYUP,257
12262,0,1,MESSAGE PUMP,WM_KEYUP,257
12264,0,1,MESSAGE PUMP,WM_KEYDOWN,256
12264,0,1,MESSAGE PUMP,WM_KEYDOWN,256
12264,0,1,MESSAGE PUMP,WM_KEYUP,257
12264,0,1,MESSAGE PUMP,WM_KEYUP,257
12267,0,1,MESSAGE PUMP,WM_GETOBJECT,61
12269,0,1,MESSAGE PUMP,Unknown,356
12271,0,1,MESSAGE PUMP,WM_GETOBJECT,61
12276,0,1,MESSAGE PUMP,WM_GETOBJECT,61
12281,0,1,MESSAGE PUMP,WM_KEYDOWN,256
12281,0,1,MESSAGE PUMP,WM_KEYUP,257
12287,0,1,MESSAGE PUMP,WM_GETOBJECT,61
12289,0,1,MESSAGE PUMP,Unknown,356
12300,0,1,MESSAGE PUMP,WM_GETOBJECT,61
12302,0,1,MESSAGE PUMP,Unknown,356
12314,0,1,MESSAGE PUMP,WM_GETOBJECT,61
12317,0,1,MESSAGE PUMP,Unknown,356
12323,0,1,MESSAGE PUMP,WM_GETOBJECT,61
12325,0,1,MESSAGE PUMP,Unknown,356
12333,0,1,MESSAGE PUMP,Unknown,356
12533,0,1,MESSAGE PUMP,WM_KEYDOWN,256
12535,0,1,MESSAGE PUMP,WM_GETOBJECT,61
12537,0,1,MESSAGE PUMP,WM_GETOBJECT,61
12539,0,1,MESSAGE PUMP,Unknown,356
12539,0,1,MESSAGE PUMP,WM_KEYUP,257
12544,0,1,MESSAGE PUMP,WM_GETOBJECT,61
12546,0,1,MESSAGE PUMP,Unknown,356
12883,0,1,MESSAGE PUMP,WM_KEYDOWN,256
12889,0,1,MESSAGE PUMP,WM_SYSKEYDOWN,260
12889,0,1,MESSAGE PUMP,WM_CONTEXTMENU,123
12892,0,1,MESSAGE PUMP,WM_GETOBJECT,61
12894,0,1,MESSAGE PUMP,WM_GETOBJECT,61
12894,0,1,MESSAGE PUMP,WM_SYSKEYUP,261
12894,0,1,MESSAGE PUMP,WM_SYSCOMMAND,274
12895,0,1,MESSAGE PUMP,Unknown,356
12900,0,1,MESSAGE PUMP,WM_KEYUP,257
12914,0,1,MESSAGE PUMP,WM_GETOBJECT,61
12916,0,1,MESSAGE PUMP,Unknown,356
12922,0,1,MESSAGE PUMP,WM_GETOBJECT,61
12924,0,1,MESSAGE PUMP,Unknown,356
12932,0,1,MESSAGE PUMP,Unknown,356
13246,0,1,MESSAGE PUMP,WM_KEYDOWN,256
13248,0,1,MESSAGE PUMP,WM_GETOBJECT,61
13250,0,1,MESSAGE PUMP,WM_GETOBJECT,61
13252,0,1,MESSAGE PUMP,Unknown,356
13252,0,1,MESSAGE PUMP,WM_KEYUP,257
13258,0,1,MESSAGE PUMP,WM_KEYDOWN,256
13262,0,1,MESSAGE PUMP,WM_GETOBJECT,61
13264,0,1,MESSAGE PUMP,Unknown,356
13264,0,1,MESSAGE PUMP,WM_KEYUP,257
13270,0,1,MESSAGE PUMP,WM_KEYDOWN,256
13274,0,1,MESSAGE PUMP,WM_GETOBJECT,61
13276,0,1,MESSAGE PUMP,Unknown,356
13276,0,1,MESSAGE PUMP,WM_KEYUP,257
13282,0,1,MESSAGE PUMP,WM_KEYDOWN,256
13286,0,1,MESSAGE PUMP,WM_GETOBJECT,61
13287,0,1,MESSAGE PUMP,WM_KEYUP,257
13288,0,1,MESSAGE PUMP,Unknown,356
13293,0,1,MESSAGE PUMP,WM_KEYDOWN,256
13299,0,1,MESSAGE PUMP,WM_GETOBJECT,61
13299,0,1,MESSAGE PUMP,WM_KEYUP,257
13300,0,1,MESSAGE PUMP,Unknown,356
13305,0,1,MESSAGE PUMP,WM_KEYDOWN,256
13311,0,1,MESSAGE PUMP,WM_GETOBJECT,61
13311,0,1,MESSAGE PUMP,WM_KEYUP,257
13312,0,1,MESSAGE PUMP,Unknown,356
13667,0,1,MESSAGE PUMP,WM_KEYDOWN,256
13667,0,1,MESSAGE PUMP,WM_CHAR,258
13668,0,1,MESSAGE PUMP,WM_KEYUP,257
13669,0,1,MESSAGE PUMP,WM_GETOBJECT,61
13671,0,1,MESSAGE PUMP,WM_GETOBJECT,61
13672,0,1,MESSAGE PUMP,Unknown,356
13678,0,1,MESSAGE PUMP,WM_GETOBJECT,61
13679,0,1,MESSAGE PUMP,Unknown,356
13687,0,1,MESSAGE PUMP,WM_GETOBJECT,61
13689,0,1,MESSAGE PUMP,Unknown,356
13697,0,1,MESSAGE PUMP,Unknown,356
14137,0,1,MESSAGE PUMP,WM_SYSKEYDOWN,260
14144,0,1,MESSAGE PUMP,WM_SYSKEYDOWN,260
14144,0,1,MESSAGE PUMP,WM_SYSCOMMAND,274
14144,0,1,MESSAGE PUMP,WM_CLOSE,16
14144,0,0,MESSAGE PUMP,Unknown,144
14144,0,0,MESSAGE PUMP,WM_WINDOWPOSCHANGING,70
14144,0,0,MESSAGE PUMP,WM_WINDOWPOSCHANGED,71
14144,0,0,MESSAGE PUMP,WM_NCACTIVATE,134
14144,0,0,MESSAGE PUMP,WM_ACTIVATE,6
14144,0,0,MESSAGE PUMP,WM_ACTIVATEAPP,28
14144,0,0,MESSAGE PUMP,WM_KILLFOCUS,8
14144,0,0,MESSAGE PUMP,WM_IME_SETCONTEXT,641
14144,0,0,MESSAGE PUMP,WM_IME_NOTIFY,642
14144,0,0,MESSAGE PUMP,WM_DESTROY,2
14144,0,0,MESSAGE PUMP,WM_NCDESTROY,130
