Frame,Poll Count,Is Polling,Source,Event Name,Event Code
0,0,0,MESSAGE PUMP,WM_GETMINMAXINFO,36
0,0,0,MESSAGE PUMP,WM_WINDOWPOSCHANGING,70
0,0,0,MESSAGE PUMP,WM_GETMINMAXINFO,36
0,0,0,MESSAGE PUMP,WM_NCCALCSIZE,131
0,0,0,MESSAGE PUMP,WM_WINDOWPOSCHANGING,70
0,0,0,MESSAGE PUMP,WM_ACTIVATEAPP,28
0,0,0,MESSAGE PUMP,WM_NCACTIVATE,134
0,0,0,MESSAGE PUMP,WM_ACTIVATE,6
0,0,0,MESSAGE PUMP,WM_IME_SETCONTEXT,641
0,0,0,MESSAGE PUMP,WM_IME_NOTIFY,642
0,0,0,MESSAGE PUMP,WM_SETFOCUS,7
0,0,0,MESSAGE PUMP,WM_NCPAINT,133
0,0,0,MESSAGE PUMP,WM_ERASEBKGND,20
0,0,0,MESSAGE PUMP,WM_WINDOWPOSCHANGED,71
0,0,0,MESSAGE PUMP,WM_MOVE,3
0,0,0,MESSAGE PUMP,WM_SIZE,5
0,0,0,MESSAGE PUMP,WM_WINDOWPOSCHANGING,70
0,0,0,MESSAGE PUMP,WM_GETMINMAXINFO,36
0,0,0,MESSAGE PUMP,WM_NCPAINT,133
0,0,0,MESSAGE PUMP,WM_ERASEBKGND,20
0,0,0,MESSAGE PUMP,WM_WINDOWPOSCHANGED,71
0,0,0,MESSAGE PUMP,WM_MOVE,3
0,0,0,MESSAGE PUMP,WM_SETICON,128
0,0,0,MESSAGE PUMP,Unknown,174
0,0,0,MESSAGE PUMP,WM_SETICON,128
0,0,0,MESSAGE PUMP,Unknown,174
0,0,0,MESSAGE PUMP,WM_WINDOWPOSCHANGING,70
0,0,0,MESSAGE PUMP,WM_GETOBJECT,61
0,0,0,MESSAGE PUMP,WM_GETICON,127
0,0,0,MESSAGE PUMP,WM_WINDOWPOSCHANGING,70
1,0,1,MESSAGE PUMP,Unknown,799
1,0,1,MESSAGE PUMP,Unknown,49328
1,0,1,MESSAGE PUMP,WM_GETMINMAXINFO,36
1,0,1,MESSAGE PUMP,WM_NCHITTEST,132
1,0,1,MESSAGE PUMP,WM_SETCURSOR,32
1,0,1,MESSAGE PUMP,WM_MOUSEFIRST,512
1,0,1,MESSAGE PUMP,WM_PAINT,15
1,0,1,MESSAGE PUMP,WM_GETOBJECT,61
1,0,1,MESSAGE PUMP,Unknown,356
2,0,1,MESSAGE PUMP,WM_GETOBJECT,61
3,0,1,MESSAGE PUMP,WM_GETOBJECT,61
10,0,1,MESSAGE PUMP,WM_GETOBJECT,61
21,0,1,MESSAGE PUMP,WM_GETOBJECT,61
24,0,1,MESSAGE PUMP,Unknown,356
46,0,1,MESSAGE PUMP,WM_GETOBJECT,61
63,0,1,MESSAGE PUMP,Unknown,356
64,0,1,MESSAGE PUMP,WM_GETOBJECT,61
66,0,1,MESSAGE PUMP,WM_GETOBJECT,61
68,0,1,MESSAGE PUMP,Unknown,356
69,0,1,MESSAGE PUMP,Unknown,356
71,0,1,MESSAGE PUMP,WM_GETOBJECT,61
75,0,1,MESSAGE PUMP,Unknown,356
88,0,1,MESSAGE PUMP,WM_GETOBJECT,61
92,0,1,MESSAGE PUMP,Unknown,356
97,0,1,MESSAGE PUMP,Unknown,356
107,0,1,MESSAGE PUMP,Unknown,356
108,0,1,MESSAGE PUMP,WM_GETOBJECT,61
108,0,1,MESSAGE PUMP,WM_GETOBJECT,61
109,0,1,MESSAGE PUMP,WM_GETOBJECT,61
110,0,1,MESSAGE PUMP,WM_GETOBJECT,61
110,0,1,MESSAGE PUMP,Unknown,356
111,0,1,MESSAGE PUMP,WM_GETOBJECT,61
112,0,1,MESSAGE PUMP,Unknown,356
113,0,1,MESSAGE PUMP,Unknown,356
115,0,1,MESSAGE PUMP,WM_GETOBJECT,61
116,0,1,MESSAGE PUMP,WM_GETOBJECT,61
117,0,1,MESSAGE PUMP,WM_GETOBJECT,61
120,0,1,MESSAGE PUMP,WM_GETOBJECT,61
122,0,1,MESSAGE PUMP,Unknown,356
124,0,1,MESSAGE PUMP,WM_GETOBJECT,61
126,0,1,MESSAGE PUMP,Unknown,356
129,0,1,MESSAGE PUMP,WM_GETOBJECT,61
133,0,1,MESSAGE PUMP,Unknown,356
143,0,1,MESSAGE PUMP,Unknown,356
144,0,1,MESSAGE PUMP,WM_GETOBJECT,61
146,0,1,MESSAGE PUMP,WM_GETOBJECT,61
149,0,1,MESSAGE PUMP,Unknown,356
157,0,1,MESSAGE PUMP,Unknown,356
158,0,1,MESSAGE PUMP,WM_GETOBJECT,61
159,0,1,MESSAGE PUMP,WM_GETOBJECT,61
159,0,1,MESSAGE PUMP,WM_GETOBJECT,61
160,0,1,MESSAGE PUMP,WM_GETOBJECT,61
161,0,1,MESSAGE PUMP,WM_GETOBJECT,61
163,0,1,MESSAGE PUMP,WM_GETOBJECT,61
165,0,1,MESSAGE PUMP,Unknown,356
170,0,1,MESSAGE PUMP,WM_GETOBJECT,61
174,0,1,MESSAGE PUMP,Unknown,356
182,0,1,MESSAGE PUMP,WM_GETOBJECT,61
186,0,1,MESSAGE PUMP,Unknown,356
210,0,1,MESSAGE PUMP,WM_GETOBJECT,61
213,0,1,MESSAGE PUMP,Unknown,356
237,0,1,MESSAGE PUMP,WM_GETOBJECT,61
240,0,1,MESSAGE PUMP,Unknown,356
247,0,1,MESSAGE PUMP,WM_GETOBJECT,61
259,0,1,MESSAGE PUMP,WM_GETOBJECT,61
262,0,1,MESSAGE PUMP,Unknown,356
280,0,1,MESSAGE PUMP,WM_GETOBJECT,61
282,0,1,MESSAGE PUMP,Unknown,356
300,0,1,MESSAGE PUMP,WM_GETOBJECT,61
303,0,1,MESSAGE PUMP,Unknown,356
316,0,1,MESSAGE PUMP,WM_GETOBJECT,61
319,0,1,MESSAGE PUMP,Unknown,356
329,0,1,MESSAGE PUMP,WM_GETOBJECT,61
337,0,1,MESSAGE PUMP,WM_GETOBJECT,61
340,0,1,MESSAGE PUMP,Unknown,356
355,0,1,MESSAGE PUMP,WM_GETOBJECT,61
358,0,1,MESSAGE PUMP,Unknown,356
373,0,1,MESSAGE PUMP,WM_GETOBJECT,61
376,0,1,MESSAGE PUMP,Unknown,356
391,0,1,MESSAGE PUMP,WM_GETOBJECT,61
394,0,1,MESSAGE PUMP,Unknown,356
404,0,1,MESSAGE PUMP,WM_GETOBJECT,61
412,0,1,MESSAGE PUMP,WM_GETOBJECT,61
415,0,1,MESSAGE PUMP,Unknown,356
430,0,1,MESSAGE PUMP,WM_GETOBJECT,61
433,0,1,MESSAGE PUMP,Unknown,356
448,0,1,MESSAGE PUMP,WM_GETOBJECT,61
451,0,1,MESSAGE PUMP,Unknown,356
466,0,1,MESSAGE PUMP,WM_GETOBJECT,61
469,0,1,MESSAGE PUMP,Unknown,356
479,0,1,MESSAGE PUMP,WM_GETOBJECT,61
487,0,1,MESSAGE PUMP,WM_GETOBJECT,61
490,0,1,MESSAGE PUMP,Unknown,356
504,0,1,MESSAGE PUMP,WM_GETOBJECT,61
507,0,1,MESSAGE PUMP,Unknown,356
523,0,1,MESSAGE PUMP,WM_GETOBJECT,61
526,0,1,MESSAGE PUMP,Unknown,356
541,0,1,MESSAGE PUMP,WM_GETOBJECT,61
544,0,1,MESSAGE PUMP,Unknown,356
555,0,1,MESSAGE PUMP,WM_GETOBJECT,61
561,0,1,MESSAGE PUMP,WM_GETOBJECT,61
564,0,1,MESSAGE PUMP,Unknown,356
575,0,0,MESSAGE PUMP,WM_GETOBJECT,61
575,0,0,MESSAGE PUMP,Unknown,356
575,0,0,MESSAGE PUMP,WM_GETOBJECT,61
575,0,0,MESSAGE PUMP,Unknown,356
575,0,0,MESSAGE PUMP,WM_GETOBJECT,61
575,0,0,MESSAGE PUMP,Unknown,356
575,0,0,MESSAGE PUMP,WM_GETOBJECT,61
575,0,0,MESSAGE PUMP,Unknown,356
575,0,0,MESSAGE PUMP,WM_GETOBJECT,61
575,0,0,MESSAGE PUMP,Unknown,356
575,0,0,MESSAGE PUMP,WM_GETOBJECT,61
575,0,0,MESSAGE PUMP,Unknown,356
575,0,0,MESSAGE PUMP,WM_GETOBJECT,61
575,0,0,MESSAGE PUMP,Unknown,356
575,0,0,MESSAGE PUMP,WM_GETOBJECT,61
575,0,0,MESSAGE PUMP,Unknown,356
597,0,1,MESSAGE PUMP,WM_GETOBJECT,61
599,0,1,MESSAGE PUMP,Unknown,356
606,0,1,MESSAGE PUMP,WM_GETOBJECT,61
608,0,1,MESSAGE PUMP,Unknown,356
614,0,1,MESSAGE PUMP,WM_GETOBJECT,61
616,0,1,MESSAGE PUMP,Unknown,356
623,0,1,MESSAGE PUMP,WM_GETOBJECT,61
625,0,1,MESSAGE PUMP,Unknown,356
633,0,1,MESSAGE PUMP,WM_GETOBJECT,61
635,0,1,MESSAGE PUMP,Unknown,356
643,0,1,MESSAGE PUMP,Unknown,356
1956,0,1,MESSAGE PUMP,WM_KEYDOWN,256
1962,0,1,MESSAGE PUMP,WM_KEYDOWN,256
1962,0,1,MESSAGE PUMP,WM_CHAR,258
1962,0,0,MESSAGE PUMP,WM_NCACTIVATE,134
1962,0,0,MESSAGE PUMP,WM_GETICON,127
1962,0,0,MESSAGE PUMP,WM_ACTIVATE,6
1962,0,0,MESSAGE PUMP,WM_KILLFOCUS,8
1962,0,0,MESSAGE PUMP,WM_IME_SETCONTEXT,641
1962,0,0,MESSAGE PUMP,WM_IME_NOTIFY,642
1962,0,0,MESSAGE PUMP,WM_MOUSELEAVE,675
1962,0,0,MESSAGE PUMP,WM_GETICON,127
1962,0,0,MESSAGE PUMP,WM_WINDOWPOSCHANGING,70
1962,0,0,MESSAGE PUMP,WM_WINDOWPOSCHANGED,71
1962,0,0,MESSAGE PUMP,WM_ACTIVATEAPP,28
1962,0,0,MESSAGE PUMP,WM_NCACTIVATE,134
1962,0,0,MESSAGE PUMP,WM_ACTIVATE,6
1962,0,0,MESSAGE PUMP,WM_IME_SETCONTEXT,641
1962,0,0,MESSAGE PUMP,WM_IME_NOTIFY,642
1962,0,0,MESSAGE PUMP,WM_SETFOCUS,7
1963,0,1,MESSAGE PUMP,WM_GETOBJECT,61
1963,0,1,MESSAGE PUMP,Unknown,49767
1963,0,1,MESSAGE PUMP,Unknown,49767
1963,0,1,MESSAGE PUMP,Unknown,49767
1963,0,1,MESSAGE PUMP,Unknown,49767
1963,0,1,MESSAGE PUMP,Unknown,49767
1963,0,1,MESSAGE PUMP,Unknown,49767
1963,0,1,MESSAGE PUMP,Unknown,49767
1963,0,1,MESSAGE PUMP,Unknown,49767
1963,0,1,MESSAGE PUMP,Unknown,49767
1963,0,1,MESSAGE PUMP,Unknown,49767
1963,0,1,MESSAGE PUMP,Unknown,49767
1963,0,1,MESSAGE PUMP,Unknown,49767
1963,0,1,MESSAGE PUMP,Unknown,49767
1963,0,1,MESSAGE PUMP,Unknown,49767
1963,0,1,MESSAGE PUMP,Unknown,49767
1963,0,1,MESSAGE PUMP,Unknown,49767
1963,0,1,MESSAGE PUMP,Unknown,49767
1963,0,1,MESSAGE PUMP,Unknown,49767
1963,0,1,MESSAGE PUMP,Unknown,49767
1963,0,1,MESSAGE PUMP,Unknown,49767
1963,0,1,MESSAGE PUMP,Unknown,49767
1963,0,1,MESSAGE PUMP,Unknown,49767
1963,0,1,MESSAGE PUMP,Unknown,49767
1963,0,1,MESSAGE PUMP,Unknown,49767
1963,0,1,MESSAGE PUMP,WM_KEYUP,257
1963,0,1,MESSAGE PUMP,WM_GETOBJECT,61
1963,0,1,MESSAGE PUMP,WM_NCHITTEST,132
1963,0,1,MESSAGE PUMP,WM_SETCURSOR,32
1963,0,1,MESSAGE PUMP,WM_MOUSEFIRST,512
1965,0,1,MESSAGE PUMP,Unknown,49766
1965,0,1,MESSAGE PUMP,Unknown,49767
1965,0,1,MESSAGE PUMP,Unknown,49767
1966,0,1,MESSAGE PUMP,Unknown,49766
1968,0,1,MESSAGE PUMP,WM_GETOBJECT,61
1970,0,1,MESSAGE PUMP,Unknown,356
1977,0,1,MESSAGE PUMP,WM_GETOBJECT,61
1979,0,1,MESSAGE PUMP,Unknown,356
1988,0,1,MESSAGE PUMP,WM_GETOBJECT,61
1990,0,1,MESSAGE PUMP,Unknown,356
1998,0,1,MESSAGE PUMP,Unknown,356
1999,0,1,MESSAGE PUMP,Unknown,356
2000,0,1,MESSAGE PUMP,WM_GETOBJECT,61
2002,0,1,MESSAGE PUMP,Unknown,356
2008,0,1,MESSAGE PUMP,Unknown,356
2522,0,1,MESSAGE PUMP,WM_GETOBJECT,61
2524,0,1,MESSAGE PUMP,Unknown,356
2531,0,1,MESSAGE PUMP,WM_GETOBJECT,61
2533,0,1,MESSAGE PUMP,Unknown,356
4631,0,1,MESSAGE PUMP,WM_KEYDOWN,256
4633,0,1,MESSAGE PUMP,WM_GETOBJECT,61
4635,0,1,MESSAGE PUMP,WM_GETOBJECT,61
4637,0,1,MESSAGE PUMP,Unknown,356
4637,0,1,MESSAGE PUMP,WM_KEYUP,257
4644,0,1,MESSAGE PUMP,WM_KEYDOWN,256
4647,0,1,MESSAGE PUMP,WM_GETOBJECT,61
4649,0,1,MESSAGE PUMP,WM_KEYUP,257
4650,0,1,MESSAGE PUMP,Unknown,356
4657,0,1,MESSAGE PUMP,WM_GETOBJECT,61
4660,0,1,MESSAGE PUMP,Unknown,356
4673,0,1,MESSAGE PUMP,WM_GETOBJECT,61
4676,0,1,MESSAGE PUMP,Unknown,356
4691,0,1,MESSAGE PUMP,WM_KEYDOWN,256
4697,0,1,MESSAGE PUMP,WM_GETOBJECT,61
4697,0,1,MESSAGE PUMP,WM_KEYUP,257
4698,0,1,MESSAGE PUMP,Unknown,356
4703,0,1,MESSAGE PUMP,WM_KEYDOWN,256
4709,0,1,MESSAGE PUMP,WM_GETOBJECT,61
4709,0,1,MESSAGE PUMP,WM_KEYUP,257
4710,0,1,MESSAGE PUMP,Unknown,356
4715,0,1,MESSAGE PUMP,WM_KEYDOWN,256
4719,0,1,MESSAGE PUMP,WM_GETOBJECT,61
4721,0,1,MESSAGE PUMP,WM_GETOBJECT,61
4721,0,1,MESSAGE PUMP,WM_KEYUP,257
4722,0,1,MESSAGE PUMP,Unknown,356
4733,0,1,MESSAGE PUMP,WM_GETOBJECT,61
4735,0,1,MESSAGE PUMP,Unknown,356
4745,0,1,MESSAGE PUMP,WM_GETOBJECT,61
4747,0,1,MESSAGE PUMP,Unknown,356
4758,0,1,MESSAGE PUMP,WM_GETOBJECT,61
4761,0,1,MESSAGE PUMP,Unknown,356
4763,0,1,MESSAGE PUMP,WM_KEYDOWN,256
4768,0,1,MESSAGE PUMP,WM_KEYUP,257
4774,0,1,MESSAGE PUMP,WM_KEYDOWN,256
4778,0,1,MESSAGE PUMP,WM_GETOBJECT,61
4780,0,1,MESSAGE PUMP,WM_KEYUP,257
4781,0,1,MESSAGE PUMP,Unknown,356
4786,0,1,MESSAGE PUMP,WM_KEYDOWN,256
4791,0,1,MESSAGE PUMP,WM_KEYUP,257
4797,0,1,MESSAGE PUMP,WM_KEYDOWN,256
4801,0,1,MESSAGE PUMP,WM_GETOBJECT,61
4802,0,1,MESSAGE PUMP,WM_KEYUP,257
4802,0,1,MESSAGE PUMP,WM_GETOBJECT,61
4804,0,1,MESSAGE PUMP,Unknown,356
4804,0,1,MESSAGE PUMP,Unknown,356
4808,0,1,MESSAGE PUMP,WM_KEYDOWN,256
4810,0,1,MESSAGE PUMP,WM_GETOBJECT,61
4811,0,1,MESSAGE PUMP,WM_KEYUP,257
4828,0,1,MESSAGE PUMP,WM_GETOBJECT,61
4830,0,1,MESSAGE PUMP,Unknown,356
4842,0,1,MESSAGE PUMP,WM_GETOBJECT,61
4844,0,1,MESSAGE PUMP,Unknown,356
4845,0,1,MESSAGE PUMP,WM_KEYDOWN,256
4850,0,1,MESSAGE PUMP,WM_KEYUP,257
4853,0,1,MESSAGE PUMP,WM_GETOBJECT,61
4855,0,1,MESSAGE PUMP,Unknown,356
4855,0,1,MESSAGE PUMP,WM_KEYDOWN,256
4860,0,1,MESSAGE PUMP,WM_KEYUP,257
4865,0,1,MESSAGE PUMP,WM_GETOBJECT,61
4867,0,1,MESSAGE PUMP,Unknown,356
4877,0,1,MESSAGE PUMP,WM_GETOBJECT,61
4879,0,1,MESSAGE PUMP,Unknown,356
4883,0,1,MESSAGE PUMP,WM_GETOBJECT,61
4893,0,1,MESSAGE PUMP,WM_GETOBJECT,61
4894,0,1,MESSAGE PUMP,WM_KEYDOWN,256
4894,0,1,MESSAGE PUMP,Unknown,356
4897,0,1,MESSAGE PUMP,WM_KEYUP,257
4904,0,1,MESSAGE PUMP,WM_GETOBJECT,61
4906,0,1,MESSAGE PUMP,Unknown,356
4917,0,1,MESSAGE PUMP,WM_GETOBJECT,61
4919,0,1,MESSAGE PUMP,Unknown,356
4927,0,1,MESSAGE PUMP,WM_KEYDOWN,256
4930,0,1,MESSAGE PUMP,WM_GETOBJECT,61
4931,0,1,MESSAGE PUMP,WM_KEYUP,257
4933,0,1,MESSAGE PUMP,Unknown,356
4935,0,1,MESSAGE PUMP,WM_KEYDOWN,256
4940,0,1,MESSAGE PUMP,WM_KEYUP,257
4944,0,1,MESSAGE PUMP,WM_KEYDOWN,256
4947,0,1,MESSAGE PUMP,WM_KEYUP,257
4950,0,1,MESSAGE PUMP,WM_GETOBJECT,61
4951,0,1,MESSAGE PUMP,WM_KEYDOWN,256
4952,0,1,MESSAGE PUMP,Unknown,356
4956,0,1,MESSAGE PUMP,WM_KEYUP,257
4957,0,1,MESSAGE PUMP,WM_GETOBJECT,61
4960,0,1,MESSAGE PUMP,WM_KEYDOWN,256
4965,0,1,MESSAGE PUMP,WM_KEYUP,257
4973,0,1,MESSAGE PUMP,WM_GETOBJECT,61
4976,0,1,MESSAGE PUMP,Unknown,356
4993,0,1,MESSAGE PUMP,WM_KEYDOWN,256
4995,0,1,MESSAGE PUMP,WM_GETOBJECT,61
4997,0,1,MESSAGE PUMP,WM_KEYUP,257
4998,0,1,MESSAGE PUMP,Unknown,356
5021,0,1,MESSAGE PUMP,WM_GETOBJECT,61
5023,0,1,MESSAGE PUMP,Unknown,356
5027,0,1,MESSAGE PUMP,WM_KEYDOWN,256
5029,0,1,MESSAGE PUMP,WM_GETOBJECT,61
5031,0,1,MESSAGE PUMP,WM_KEYUP,257
5034,0,1,MESSAGE PUMP,WM_GETOBJECT,61
5035,0,1,MESSAGE PUMP,WM_KEYDOWN,256
5036,0,1,MESSAGE PUMP,Unknown,356
5039,0,1,MESSAGE PUMP,WM_KEYUP,257
5047,0,1,MESSAGE PUMP,WM_GETOBJECT,61
5050,0,1,MESSAGE PUMP,Unknown,356
5066,0,1,MESSAGE PUMP,WM_GETOBJECT,61
5068,0,1,MESSAGE PUMP,Unknown,356
5068,0,1,MESSAGE PUMP,WM_KEYDOWN,256
5073,0,1,MESSAGE PUMP,WM_KEYUP,257
5078,0,1,MESSAGE PUMP,WM_GETOBJECT,61
5080,0,1,MESSAGE PUMP,Unknown,356
5091,0,1,MESSAGE PUMP,WM_GETOBJECT,61
5093,0,1,MESSAGE PUMP,Unknown,356
5097,0,1,MESSAGE PUMP,WM_GETOBJECT,61
5101,0,1,MESSAGE PUMP,WM_KEYDOWN,256
5105,0,1,MESSAGE PUMP,WM_KEYUP,257
5106,0,1,MESSAGE PUMP,WM_GETOBJECT,61
5108,0,1,MESSAGE PUMP,Unknown,356
5110,0,1,MESSAGE PUMP,WM_KEYDOWN,256
5114,0,1,MESSAGE PUMP,WM_KEYUP,257
5118,0,1,MESSAGE PUMP,WM_GETOBJECT,61
5118,0,1,MESSAGE PUMP,WM_KEYDOWN,256
5119,0,1,MESSAGE PUMP,Unknown,356
5122,0,1,MESSAGE PUMP,WM_KEYUP,257
5127,0,1,MESSAGE PUMP,WM_KEYDOWN,256
5128,0,1,MESSAGE PUMP,WM_GETOBJECT,61
5130,0,1,MESSAGE PUMP,Unknown,356
5131,0,1,MESSAGE PUMP,WM_KEYUP,257
5136,0,1,MESSAGE PUMP,WM_KEYDOWN,256
5140,0,1,MESSAGE PUMP,WM_GETOBJECT,61
5140,0,1,MESSAGE PUMP,WM_KEYUP,257
5141,0,1,MESSAGE PUMP,Unknown,356
5144,0,1,MESSAGE PUMP,WM_KEYDOWN,256
5148,0,1,MESSAGE PUMP,WM_KEYUP,257
5150,0,1,MESSAGE PUMP,WM_GETOBJECT,61
5152,0,1,MESSAGE PUMP,Unknown,356
5153,0,1,MESSAGE PUMP,WM_KEYDOWN,256
5157,0,1,MESSAGE PUMP,WM_GETOBJECT,61
5157,0,1,MESSAGE PUMP,WM_KEYUP,257
5161,0,1,MESSAGE PUMP,WM_KEYDOWN,256
5163,0,1,MESSAGE PUMP,WM_GETOBJECT,61
5164,0,1,MESSAGE PUMP,WM_KEYUP,257
5165,0,1,MESSAGE PUMP,Unknown,356
5169,0,1,MESSAGE PUMP,WM_KEYDOWN,256
5173,0,1,MESSAGE PUMP,WM_KEYUP,257
5174,0,1,MESSAGE PUMP,WM_GETOBJECT,61
5176,0,1,MESSAGE PUMP,Unknown,356
5177,0,1,MESSAGE PUMP,WM_KEYDOWN,256
5180,0,1,MESSAGE PUMP,WM_KEYUP,257
5184,0,1,MESSAGE PUMP,WM_KEYDOWN,256
5185,0,1,MESSAGE PUMP,WM_GETOBJECT,61
5187,0,1,MESSAGE PUMP,Unknown,356
5188,0,1,MESSAGE PUMP,WM_KEYUP,257
5192,0,1,MESSAGE PUMP,WM_KEYDOWN,256
5196,0,1,MESSAGE PUMP,WM_KEYUP,257
5197,0,1,MESSAGE PUMP,WM_GETOBJECT,61
5199,0,1,MESSAGE PUMP,Unknown,356
5201,0,1,MESSAGE PUMP,WM_KEYDOWN,256
5205,0,1,MESSAGE PUMP,WM_KEYUP,257
5208,0,1,MESSAGE PUMP,WM_GETOBJECT,61
5209,0,1,MESSAGE PUMP,WM_KEYDOWN,256
5209,0,1,MESSAGE PUMP,Unknown,356
5214,0,1,MESSAGE PUMP,WM_GETOBJECT,61
5214,0,1,MESSAGE PUMP,WM_KEYUP,257
5218,0,1,MESSAGE PUMP,WM_KEYDOWN,256
5222,0,1,MESSAGE PUMP,WM_GETOBJECT,61
5222,0,1,MESSAGE PUMP,WM_KEYUP,257
5223,0,1,MESSAGE PUMP,Unknown,356
5227,0,1,MESSAGE PUMP,WM_KEYDOWN,256
5228,0,1,MESSAGE PUMP,WM_KEYUP,257
5232,0,1,MESSAGE PUMP,WM_KEYDOWN,256
5232,0,1,MESSAGE PUMP,WM_GETOBJECT,61
5234,0,1,MESSAGE PUMP,Unknown,356
5237,0,1,MESSAGE PUMP,WM_KEYUP,257
5241,0,1,MESSAGE PUMP,WM_KEYDOWN,256
5243,0,1,MESSAGE PUMP,WM_GETOBJECT,61
5244,0,1,MESSAGE PUMP,WM_KEYUP,257
5245,0,1,MESSAGE PUMP,Unknown,356
5248,0,1,MESSAGE PUMP,WM_KEYDOWN,256
5252,0,1,MESSAGE PUMP,WM_KEYUP,257
5253,0,1,MESSAGE PUMP,WM_GETOBJECT,61
5255,0,1,MESSAGE PUMP,Unknown,356
5257,0,1,MESSAGE PUMP,WM_KEYDOWN,256
5261,0,1,MESSAGE PUMP,WM_KEYUP,257
5266,0,1,MESSAGE PUMP,WM_GETOBJECT,61
5266,0,1,MESSAGE PUMP,WM_KEYDOWN,256
5267,0,1,MESSAGE PUMP,Unknown,356
5270,0,1,MESSAGE PUMP,WM_KEYUP,257
5270,0,1,MESSAGE PUMP,WM_GETOBJECT,61
5274,0,1,MESSAGE PUMP,WM_KEYDOWN,256
5279,0,1,MESSAGE PUMP,WM_GETOBJECT,61
5279,0,1,MESSAGE PUMP,WM_KEYUP,257
5280,0,1,MESSAGE PUMP,Unknown,356
5283,0,1,MESSAGE PUMP,WM_KEYDOWN,256
5287,0,1,MESSAGE PUMP,WM_KEYUP,257
5289,0,1,MESSAGE PUMP,WM_GETOBJECT,61
5291,0,1,MESSAGE PUMP,Unknown,356
5292,0,1,MESSAGE PUMP,WM_KEYDOWN,256
5296,0,1,MESSAGE PUMP,WM_KEYUP,257
5300,0,1,MESSAGE PUMP,WM_GETOBJECT,61
5300,0,1,MESSAGE PUMP,WM_KEYDOWN,256
5301,0,1,MESSAGE PUMP,Unknown,356
5305,0,1,MESSAGE PUMP,WM_KEYUP,257
5309,0,1,MESSAGE PUMP,WM_KEYDOWN,256
5311,0,1,MESSAGE PUMP,WM_GETOBJECT,61
5313,0,1,MESSAGE PUMP,Unknown,356
5313,0,1,MESSAGE PUMP,WM_KEYUP,257
5318,0,1,MESSAGE PUMP,WM_KEYDOWN,256
5322,0,1,MESSAGE PUMP,WM_GETOBJECT,61
5322,0,1,MESSAGE PUMP,WM_KEYUP,257
5323,0,1,MESSAGE PUMP,Unknown,356
5326,0,1,MESSAGE PUMP,WM_KEYDOWN,256
5330,0,1,MESSAGE PUMP,WM_KEYUP,257
5332,0,1,MESSAGE PUMP,WM_GETOBJECT,61
5334,0,1,MESSAGE PUMP,Unknown,356
5335,0,1,MESSAGE PUMP,WM_KEYDOWN,256
5337,0,1,MESSAGE PUMP,WM_GETOBJECT,61
5339,0,1,MESSAGE PUMP,WM_KEYUP,257
5344,0,1,MESSAGE PUMP,WM_KEYDOWN,256
5344,0,1,MESSAGE PUMP,WM_GETOBJECT,61
5346,0,1,MESSAGE PUMP,Unknown,356
5348,0,1,MESSAGE PUMP,WM_KEYUP,257
5352,0,1,MESSAGE PUMP,WM_KEYDOWN,256
5356,0,1,MESSAGE PUMP,WM_GETOBJECT,61
5356,0,1,MESSAGE PUMP,WM_KEYUP,257
5357,0,1,MESSAGE PUMP,Unknown,356
5361,0,1,MESSAGE PUMP,WM_KEYDOWN,256
5365,0,1,MESSAGE PUMP,WM_KEYUP,257
5367,0,1,MESSAGE PUMP,WM_GETOBJECT,61
5369,0,1,MESSAGE PUMP,Unknown,356
5369,0,1,MESSAGE PUMP,WM_KEYDOWN,256
5374,0,1,MESSAGE PUMP,WM_KEYUP,257
5378,0,1,MESSAGE PUMP,WM_KEYDOWN,256
5378,0,1,MESSAGE PUMP,WM_GETOBJECT,61
5380,0,1,MESSAGE PUMP,Unknown,356
5382,0,1,MESSAGE PUMP,WM_KEYUP,257
5387,0,1,MESSAGE PUMP,WM_KEYDOWN,256
5390,0,1,MESSAGE PUMP,WM_GETOBJECT,61
5391,0,1,MESSAGE PUMP,WM_KEYUP,257
5392,0,1,MESSAGE PUMP,Unknown,356
5396,0,1,MESSAGE PUMP,WM_KEYDOWN,256
5400,0,1,MESSAGE PUMP,WM_KEYUP,257
5402,0,1,MESSAGE PUMP,WM_GETOBJECT,61
5404,0,1,MESSAGE PUMP,Unknown,356
5404,0,1,MESSAGE PUMP,WM_KEYDOWN,256
5407,0,1,MESSAGE PUMP,WM_GETOBJECT,61
5407,0,1,MESSAGE PUMP,WM_KEYUP,257
5410,0,1,MESSAGE PUMP,WM_KEYDOWN,256
5414,0,1,MESSAGE PUMP,WM_KEYUP,257
5414,0,1,MESSAGE PUMP,WM_GETOBJECT,61
5416,0,1,MESSAGE PUMP,Unknown,356
5418,0,1,MESSAGE PUMP,WM_KEYDOWN,256
5423,0,1,MESSAGE PUMP,WM_KEYUP,257
5425,0,1,MESSAGE PUMP,WM_GETOBJECT,61
5427,0,1,MESSAGE PUMP,Unknown,356
5427,0,1,MESSAGE PUMP,WM_KEYDOWN,256
5431,0,1,MESSAGE PUMP,WM_KEYUP,257
5436,0,1,MESSAGE PUMP,WM_KEYDOWN,256
5436,0,1,MESSAGE PUMP,WM_GETOBJECT,61
5438,0,1,MESSAGE PUMP,Unknown,356
5440,0,1,MESSAGE PUMP,WM_KEYUP,257
5445,0,1,MESSAGE PUMP,WM_KEYDOWN,256
5448,0,1,MESSAGE PUMP,WM_GETOBJECT,61
5449,0,1,MESSAGE PUMP,WM_KEYUP,257
5450,0,1,MESSAGE PUMP,Unknown,356
5460,0,1,MESSAGE PUMP,WM_GETOBJECT,61
5462,0,1,MESSAGE PUMP,Unknown,356
5466,0,1,MESSAGE PUMP,WM_GETOBJECT,61
5476,0,1,MESSAGE PUMP,WM_GETOBJECT,61
5477,0,1,MESSAGE PUMP,WM_KEYDOWN,256
5477,0,1,MESSAGE PUMP,Unknown,356
5482,0,1,MESSAGE PUMP,WM_KEYUP,257
5488,0,1,MESSAGE PUMP,WM_GETOBJECT,61
5490,0,1,MESSAGE PUMP,Unknown,356
5501,0,1,MESSAGE PUMP,WM_GETOBJECT,61
5503,0,1,MESSAGE PUMP,Unknown,356
5507,0,1,MESSAGE PUMP,WM_KEYDOWN,256
5509,0,1,MESSAGE PUMP,WM_KEYUP,257
5512,0,1,MESSAGE PUMP,WM_KEYDOWN,256
5512,0,1,MESSAGE PUMP,WM_GETOBJECT,61
5514,0,1,MESSAGE PUMP,Unknown,356
5514,0,1,MESSAGE PUMP,WM_KEYUP,257
5517,0,1,MESSAGE PUMP,WM_GETOBJECT,61
5527,0,1,MESSAGE PUMP,WM_GETOBJECT,61
5529,0,1,MESSAGE PUMP,Unknown,356
5540,0,1,MESSAGE PUMP,WM_GETOBJECT,61
5542,0,1,MESSAGE PUMP,Unknown,356
5542,0,1,MESSAGE PUMP,WM_KEYDOWN,256
5547,0,1,MESSAGE PUMP,WM_KEYUP,257
5551,0,1,MESSAGE PUMP,WM_KEYDOWN,256
5551,0,1,MESSAGE PUMP,WM_GETOBJECT,61
5553,0,1,MESSAGE PUMP,Unknown,356
5555,0,1,MESSAGE PUMP,WM_KEYUP,257
5560,0,1,MESSAGE PUMP,WM_KEYDOWN,256
5563,0,1,MESSAGE PUMP,WM_GETOBJECT,61
5564,0,1,MESSAGE PUMP,WM_KEYUP,257
5565,0,1,MESSAGE PUMP,Unknown,356
5568,0,1,MESSAGE PUMP,WM_KEYDOWN,256
5571,0,1,MESSAGE PUMP,WM_KEYUP,257
5573,0,1,MESSAGE PUMP,WM_KEYDOWN,256
5574,0,1,MESSAGE PUMP,WM_GETOBJECT,61
5576,0,1,MESSAGE PUMP,WM_GETOBJECT,61
5576,0,1,MESSAGE PUMP,WM_KEYUP,257
5577,0,1,MESSAGE PUMP,Unknown,356
5578,0,1,MESSAGE PUMP,WM_KEYDOWN,256
5581,0,1,MESSAGE PUMP,WM_KEYUP,257
5586,0,1,MESSAGE PUMP,WM_GETOBJECT,61
5588,0,1,MESSAGE PUMP,Unknown,356
5599,0,1,MESSAGE PUMP,WM_GETOBJECT,61
5601,0,1,MESSAGE PUMP,Unknown,356
5609,0,1,MESSAGE PUMP,WM_KEYDOWN,256
5609,0,0,MESSAGE PUMP,WM_GETOBJECT,61
5609,0,0,MESSAGE PUMP,Unknown,356
5609,0,0,MESSAGE PUMP,WM_GETOBJECT,61
5609,0,0,MESSAGE PUMP,Unknown,356
5609,0,0,MESSAGE PUMP,WM_GETOBJECT,61
5609,0,0,MESSAGE PUMP,Unknown,356
5609,0,0,MESSAGE PUMP,WM_GETOBJECT,61
5609,0,0,MESSAGE PUMP,Unknown,356
5609,0,0,MESSAGE PUMP,WM_GETOBJECT,61
5609,0,0,MESSAGE PUMP,Unknown,356
5610,0,1,MESSAGE PUMP,WM_KEYUP,257
5614,0,1,MESSAGE PUMP,WM_GETOBJECT,61
5615,0,1,MESSAGE PUMP,WM_KEYDOWN,256
5615,0,1,MESSAGE PUMP,Unknown,356
5621,0,1,MESSAGE PUMP,WM_KEYUP,257
5625,0,1,MESSAGE PUMP,WM_GETOBJECT,61
5626,0,1,MESSAGE PUMP,WM_KEYDOWN,256
5626,0,1,MESSAGE PUMP,Unknown,356
5626,0,0,MESSAGE PUMP,WM_GETOBJECT,61
5626,0,0,MESSAGE PUMP,Unknown,356
5626,0,0,MESSAGE PUMP,WM_GETOBJECT,61
5626,0,0,MESSAGE PUMP,Unknown,356
5630,0,1,MESSAGE PUMP,WM_KEYUP,257
5632,0,1,MESSAGE PUMP,WM_GETOBJECT,61
5635,0,1,MESSAGE PUMP,Unknown,356
5637,0,1,MESSAGE PUMP,WM_KEYDOWN,256
5642,0,1,MESSAGE PUMP,WM_GETOBJECT,61
5643,0,1,MESSAGE PUMP,WM_KEYUP,257
5650,0,1,MESSAGE PUMP,WM_KEYDOWN,256
5656,0,1,MESSAGE PUMP,WM_KEYUP,257
5658,0,1,MESSAGE PUMP,WM_GETOBJECT,61
5660,0,1,MESSAGE PUMP,Unknown,356
5663,0,1,MESSAGE PUMP,WM_KEYDOWN,256
5667,0,1,MESSAGE PUMP,WM_KEYUP,257
5671,0,1,MESSAGE PUMP,WM_KEYDOWN,256
5672,0,1,MESSAGE PUMP,WM_GETOBJECT,61
5674,0,1,MESSAGE PUMP,Unknown,356
5674,0,1,MESSAGE PUMP,WM_KEYUP,257
5679,0,1,MESSAGE PUMP,WM_GETOBJECT,61
5680,0,1,MESSAGE PUMP,WM_KEYDOWN,256
5680,0,1,MESSAGE PUMP,Unknown,356
5685,0,1,MESSAGE PUMP,WM_KEYUP,257
5688,0,1,MESSAGE PUMP,WM_KEYDOWN,256
5690,0,1,MESSAGE PUMP,WM_GETOBJECT,61
5692,0,1,MESSAGE PUMP,Unknown,356
5693,0,1,MESSAGE PUMP,WM_KEYUP,257
5699,0,1,MESSAGE PUMP,WM_KEYDOWN,256
5706,0,1,MESSAGE PUMP,WM_KEYUP,257
5713,0,1,MESSAGE PUMP,WM_KEYDOWN,256
5719,0,1,MESSAGE PUMP,WM_KEYUP,257
5726,0,1,MESSAGE PUMP,WM_KEYDOWN,256
5732,0,1,MESSAGE PUMP,WM_KEYUP,257
5739,0,1,MESSAGE PUMP,WM_KEYDOWN,256
5745,0,1,MESSAGE PUMP,WM_KEYUP,257
5752,0,1,MESSAGE PUMP,WM_KEYDOWN,256
5758,0,1,MESSAGE PUMP,WM_KEYUP,257
5801,0,1,MESSAGE PUMP,WM_KEYDOWN,256
5808,0,1,MESSAGE PUMP,WM_KEYUP,257
5850,0,1,MESSAGE PUMP,WM_KEYDOWN,256
5852,0,1,MESSAGE PUMP,WM_GETOBJECT,61
5854,0,1,MESSAGE PUMP,WM_GETOBJECT,61
5856,0,1,MESSAGE PUMP,Unknown,356
5856,0,1,MESSAGE PUMP,WM_KEYUP,257
5895,0,1,MESSAGE PUMP,WM_KEYDOWN,256
5898,0,1,MESSAGE PUMP,WM_GETOBJECT,61
5900,0,1,MESSAGE PUMP,Unknown,356
5900,0,1,MESSAGE PUMP,WM_KEYUP,257
5906,0,1,MESSAGE PUMP,WM_KEYDOWN,256
5909,0,1,MESSAGE PUMP,WM_GETOBJECT,61
5911,0,1,MESSAGE PUMP,Unknown,356
5911,0,1,MESSAGE PUMP,WM_KEYUP,257
5921,0,1,MESSAGE PUMP,WM_GETOBJECT,61
5923,0,1,MESSAGE PUMP,Unknown,356
5934,0,1,MESSAGE PUMP,WM_GETOBJECT,61
5937,0,1,MESSAGE PUMP,Unknown,356
5944,0,1,MESSAGE PUMP,WM_GETOBJECT,61
5950,0,1,MESSAGE PUMP,WM_KEYDOWN,256
5955,0,1,MESSAGE PUMP,WM_KEYUP,257
5980,0,1,MESSAGE PUMP,WM_GETOBJECT,61
5982,0,1,MESSAGE PUMP,Unknown,356
5993,0,1,MESSAGE PUMP,WM_KEYDOWN,256
5996,0,1,MESSAGE PUMP,WM_GETOBJECT,61
5998,0,1,MESSAGE PUMP,Unknown,356
5999,0,1,MESSAGE PUMP,WM_KEYUP,257
6005,0,1,MESSAGE PUMP,WM_KEYDOWN,256
6008,0,1,MESSAGE PUMP,WM_GETOBJECT,61
6010,0,1,MESSAGE PUMP,Unknown,356
6010,0,1,MESSAGE PUMP,WM_KEYUP,257
6016,0,1,MESSAGE PUMP,WM_KEYDOWN,256
6019,0,1,MESSAGE PUMP,WM_GETOBJECT,61
6021,0,1,MESSAGE PUMP,Unknown,356
6021,0,1,MESSAGE PUMP,WM_KEYUP,257
6024,0,1,MESSAGE PUMP,WM_GETOBJECT,61
6027,0,1,MESSAGE PUMP,WM_KEYDOWN,256
6033,0,1,MESSAGE PUMP,WM_GETOBJECT,61
6033,0,1,MESSAGE PUMP,WM_KEYUP,257
6034,0,1,MESSAGE PUMP,Unknown,356
6039,0,1,MESSAGE PUMP,WM_KEYDOWN,256
6044,0,1,MESSAGE PUMP,WM_GETOBJECT,61
6044,0,1,MESSAGE PUMP,WM_KEYUP,257
6045,0,1,MESSAGE PUMP,Unknown,356
6050,0,1,MESSAGE PUMP,WM_KEYDOWN,256
6055,0,1,MESSAGE PUMP,WM_GETOBJECT,61
6055,0,1,MESSAGE PUMP,WM_KEYUP,257
6056,0,1,MESSAGE PUMP,Unknown,356
6061,0,1,MESSAGE PUMP,WM_KEYDOWN,256
6066,0,1,MESSAGE PUMP,WM_GETOBJECT,61
6066,0,1,MESSAGE PUMP,WM_KEYUP,257
6067,0,1,MESSAGE PUMP,Unknown,356
6072,0,1,MESSAGE PUMP,WM_KEYDOWN,256
6077,0,1,MESSAGE PUMP,WM_GETOBJECT,61
6078,0,1,MESSAGE PUMP,WM_KEYUP,257
6079,0,1,MESSAGE PUMP,Unknown,356
6083,0,1,MESSAGE PUMP,WM_KEYDOWN,256
6088,0,1,MESSAGE PUMP,WM_GETOBJECT,61
6089,0,1,MESSAGE PUMP,WM_KEYUP,257
6090,0,1,MESSAGE PUMP,Unknown,356
6095,0,1,MESSAGE PUMP,WM_KEYDOWN,256
6100,0,1,MESSAGE PUMP,WM_GETOBJECT,61
6100,0,1,MESSAGE PUMP,WM_KEYUP,257
6101,0,1,MESSAGE PUMP,Unknown,356
6105,0,1,MESSAGE PUMP,WM_GETOBJECT,61
6106,0,1,MESSAGE PUMP,WM_KEYDOWN,256
6112,0,1,MESSAGE PUMP,WM_KEYUP,257
6114,0,1,MESSAGE PUMP,WM_GETOBJECT,61
6116,0,1,MESSAGE PUMP,Unknown,356
6118,0,1,MESSAGE PUMP,WM_KEYDOWN,256
6122,0,1,MESSAGE PUMP,WM_KEYUP,257
6125,0,1,MESSAGE PUMP,WM_GETOBJECT,61
6127,0,1,MESSAGE PUMP,Unknown,356
6127,0,1,MESSAGE PUMP,WM_KEYDOWN,256
6131,0,1,MESSAGE PUMP,WM_KEYUP,257
6137,0,1,MESSAGE PUMP,WM_GETOBJECT,61
6139,0,1,MESSAGE PUMP,Unknown,356
6150,0,1,MESSAGE PUMP,WM_GETOBJECT,61
6153,0,1,MESSAGE PUMP,Unknown,356
6169,0,1,MESSAGE PUMP,WM_KEYDOWN,256
6172,0,1,MESSAGE PUMP,WM_KEYUP,257
6173,0,1,MESSAGE PUMP,WM_GETOBJECT,61
6176,0,1,MESSAGE PUMP,Unknown,356
6195,0,1,MESSAGE PUMP,WM_GETOBJECT,61
6197,0,1,MESSAGE PUMP,Unknown,356
6206,0,1,MESSAGE PUMP,WM_KEYDOWN,256
6209,0,1,MESSAGE PUMP,WM_GETOBJECT,61
6211,0,1,MESSAGE PUMP,WM_GETOBJECT,61
6211,0,1,MESSAGE PUMP,WM_KEYUP,257
6212,0,1,MESSAGE PUMP,Unknown,356
6215,0,1,MESSAGE PUMP,WM_KEYDOWN,256
6220,0,1,MESSAGE PUMP,WM_KEYUP,257
6224,0,1,MESSAGE PUMP,WM_GETOBJECT,61
6226,0,1,MESSAGE PUMP,Unknown,356
6226,0,1,MESSAGE PUMP,WM_KEYDOWN,256
6230,0,1,MESSAGE PUMP,WM_KEYUP,257
6236,0,1,MESSAGE PUMP,WM_GETOBJECT,61
6238,0,1,MESSAGE PUMP,Unknown,356
6249,0,1,MESSAGE PUMP,WM_GETOBJECT,61
6251,0,1,MESSAGE PUMP,Unknown,356
6261,0,1,MESSAGE PUMP,WM_GETOBJECT,61
6263,0,1,MESSAGE PUMP,Unknown,356
6265,0,1,MESSAGE PUMP,WM_KEYDOWN,256
6270,0,1,MESSAGE PUMP,WM_KEYUP,257
6272,0,1,MESSAGE PUMP,WM_GETOBJECT,61
6274,0,1,MESSAGE PUMP,Unknown,356
6275,0,1,MESSAGE PUMP,WM_KEYDOWN,256
6278,0,1,MESSAGE PUMP,WM_GETOBJECT,61
6279,0,1,MESSAGE PUMP,WM_KEYUP,257
6284,0,1,MESSAGE PUMP,WM_KEYDOWN,256
6285,0,1,MESSAGE PUMP,WM_GETOBJECT,61
6287,0,1,MESSAGE PUMP,Unknown,356
6289,0,1,MESSAGE PUMP,WM_KEYUP,257
6294,0,1,MESSAGE PUMP,WM_KEYDOWN,256
6297,0,1,MESSAGE PUMP,WM_GETOBJECT,61
6299,0,1,MESSAGE PUMP,Unknown,356
6299,0,1,MESSAGE PUMP,WM_KEYUP,257
6303,0,1,MESSAGE PUMP,WM_KEYDOWN,256
6308,0,1,MESSAGE PUMP,WM_GETOBJECT,61
6308,0,1,MESSAGE PUMP,WM_KEYUP,257
6309,0,1,MESSAGE PUMP,Unknown,356
6314,0,1,MESSAGE PUMP,WM_KEYDOWN,256
6319,0,1,MESSAGE PUMP,WM_GETOBJECT,61
6319,0,1,MESSAGE PUMP,WM_KEYUP,257
6320,0,1,MESSAGE PUMP,Unknown,356
6324,0,1,MESSAGE PUMP,WM_KEYDOWN,256
6328,0,1,MESSAGE PUMP,WM_KEYUP,257
6330,0,1,MESSAGE PUMP,WM_GETOBJECT,61
6332,0,1,MESSAGE PUMP,Unknown,356
6333,0,1,MESSAGE PUMP,WM_KEYDOWN,256
6338,0,1,MESSAGE PUMP,WM_KEYUP,257
6343,0,1,MESSAGE PUMP,WM_GETOBJECT,61
6344,0,1,MESSAGE PUMP,WM_KEYDOWN,256
6344,0,1,MESSAGE PUMP,Unknown,356
6347,0,1,MESSAGE PUMP,WM_GETOBJECT,61
6347,0,1,MESSAGE PUMP,WM_KEYUP,257
6351,0,1,MESSAGE PUMP,WM_KEYDOWN,256
6355,0,1,MESSAGE PUMP,WM_GETOBJECT,61
6355,0,1,MESSAGE PUMP,WM_KEYUP,257
6356,0,1,MESSAGE PUMP,Unknown,356
6360,0,1,MESSAGE PUMP,WM_KEYDOWN,256
6365,0,1,MESSAGE PUMP,WM_KEYUP,257
6367,0,1,MESSAGE PUMP,WM_GETOBJECT,61
6369,0,1,MESSAGE PUMP,Unknown,356
6370,0,1,MESSAGE PUMP,WM_KEYDOWN,256
6375,0,1,MESSAGE PUMP,WM_KEYUP,257
6378,0,1,MESSAGE PUMP,WM_GETOBJECT,61
6380,0,1,MESSAGE PUMP,Unknown,356
6392,0,1,MESSAGE PUMP,WM_GETOBJECT,61
6394,0,1,MESSAGE PUMP,Unknown,356
6404,0,1,MESSAGE PUMP,WM_GETOBJECT,61
6406,0,1,MESSAGE PUMP,Unknown,356
6417,0,1,MESSAGE PUMP,WM_GETOBJECT,61
6419,0,1,MESSAGE PUMP,Unknown,356
6423,0,1,MESSAGE PUMP,WM_GETOBJECT,61
6433,0,1,MESSAGE PUMP,WM_GETOBJECT,61
6435,0,1,MESSAGE PUMP,Unknown,356
6446,0,1,MESSAGE PUMP,WM_GETOBJECT,61
6448,0,1,MESSAGE PUMP,Unknown,356
6459,0,1,MESSAGE PUMP,WM_GETOBJECT,61
6461,0,1,MESSAGE PUMP,Unknown,356
6472,0,1,MESSAGE PUMP,WM_GETOBJECT,61
6474,0,1,MESSAGE PUMP,Unknown,356
6485,0,1,MESSAGE PUMP,WM_GETOBJECT,61
6487,0,1,MESSAGE PUMP,Unknown,356
6498,0,1,MESSAGE PUMP,WM_GETOBJECT,61
6500,0,1,MESSAGE PUMP,Unknown,356
6504,0,1,MESSAGE PUMP,WM_GETOBJECT,61
6514,0,1,MESSAGE PUMP,WM_GETOBJECT,61
6516,0,1,MESSAGE PUMP,Unknown,356
6527,0,1,MESSAGE PUMP,WM_GETOBJECT,61
6529,0,1,MESSAGE PUMP,Unknown,356
6540,0,1,MESSAGE PUMP,WM_GETOBJECT,61
6542,0,1,MESSAGE PUMP,Unknown,356
6553,0,1,MESSAGE PUMP,WM_GETOBJECT,61
6555,0,1,MESSAGE PUMP,Unknown,356
6566,0,1,MESSAGE PUMP,WM_GETOBJECT,61
6568,0,1,MESSAGE PUMP,Unknown,356
6579,0,1,MESSAGE PUMP,WM_GETOBJECT,61
6581,0,1,MESSAGE PUMP,Unknown,356
6589,0,1,MESSAGE PUMP,WM_GETOBJECT,61
6610,0,1,MESSAGE PUMP,WM_GETOBJECT,61
6612,0,1,MESSAGE PUMP,Unknown,356
7110,0,1,MESSAGE PUMP,WM_KEYDOWN,256
7112,0,1,MESSAGE PUMP,WM_GETOBJECT,61
7114,0,1,MESSAGE PUMP,WM_GETOBJECT,61
7115,0,1,MESSAGE PUMP,WM_KEYUP,257
7116,0,1,MESSAGE PUMP,Unknown,356
7122,0,1,MESSAGE PUMP,WM_GETOBJECT,61
7124,0,1,MESSAGE PUMP,Unknown,356
7416,0,1,MESSAGE PUMP,WM_KEYDOWN,256
7419,0,1,MESSAGE PUMP,WM_GETOBJECT,61
7421,0,1,MESSAGE PUMP,WM_GETOBJECT,61
7421,0,1,MESSAGE PUMP,WM_KEYUP,257
7422,0,1,MESSAGE PUMP,Unknown,356
7428,0,1,MESSAGE PUMP,WM_GETOBJECT,61
7430,0,1,MESSAGE PUMP,Unknown,356
7716,0,1,MESSAGE PUMP,WM_KEYDOWN,256
7720,0,1,MESSAGE PUMP,WM_SYSKEYDOWN,260
7720,0,1,MESSAGE PUMP,WM_CONTEXTMENU,123
7722,0,1,MESSAGE PUMP,WM_SYSKEYUP,261
7722,0,1,MESSAGE PUMP,WM_SYSCOMMAND,274
7723,0,1,MESSAGE PUMP,WM_GETOBJECT,61
7725,0,1,MESSAGE PUMP,WM_GETOBJECT,61
7727,0,1,MESSAGE PUMP,Unknown,356
7727,0,1,MESSAGE PUMP,WM_KEYUP,257
7743,0,1,MESSAGE PUMP,WM_GETOBJECT,61
7745,0,1,MESSAGE PUMP,Unknown,356
7751,0,1,MESSAGE PUMP,WM_GETOBJECT,61
7753,0,1,MESSAGE PUMP,Unknown,356
7761,0,1,MESSAGE PUMP,Unknown,356
7990,0,1,MESSAGE PUMP,WM_KEYDOWN,256
7992,0,1,MESSAGE PUMP,WM_GETOBJECT,61
7994,0,1,MESSAGE PUMP,WM_GETOBJECT,61
7994,0,1,MESSAGE PUMP,WM_KEYUP,257
7995,0,1,MESSAGE PUMP,Unknown,356
7999,0,1,MESSAGE PUMP,WM_KEYDOWN,256
8003,0,1,MESSAGE PUMP,WM_KEYUP,257
8006,0,1,MESSAGE PUMP,WM_GETOBJECT,61
8007,0,1,MESSAGE PUMP,WM_KEYDOWN,256
8007,0,1,MESSAGE PUMP,Unknown,356
8011,0,1,MESSAGE PUMP,WM_KEYUP,257
8016,0,1,MESSAGE PUMP,WM_KEYDOWN,256
8018,0,1,MESSAGE PUMP,WM_GETOBJECT,61
8018,0,1,MESSAGE PUMP,WM_KEYUP,257
8019,0,1,MESSAGE PUMP,Unknown,356
8022,0,1,MESSAGE PUMP,WM_KEYDOWN,256
8026,0,1,MESSAGE PUMP,WM_KEYUP,257
8029,0,1,MESSAGE PUMP,WM_GETOBJECT,61
8030,0,1,MESSAGE PUMP,WM_KEYDOWN,256
8030,0,1,MESSAGE PUMP,Unknown,356
8035,0,1,MESSAGE PUMP,WM_KEYUP,257
8042,0,1,MESSAGE PUMP,WM_GETOBJECT,61
8044,0,1,MESSAGE PUMP,Unknown,356
8056,0,1,MESSAGE PUMP,WM_GETOBJECT,61
8058,0,1,MESSAGE PUMP,Unknown,356
8062,0,1,MESSAGE PUMP,WM_GETOBJECT,61
8300,0,1,MESSAGE PUMP,WM_KEYDOWN,256
8300,0,1,MESSAGE PUMP,WM_CHAR,258
8301,0,1,MESSAGE PUMP,WM_KEYUP,257
8302,0,1,MESSAGE PUMP,WM_GETOBJECT,61
8304,0,1,MESSAGE PUMP,WM_GETOBJECT,61
8306,0,1,MESSAGE PUMP,Unknown,356
8313,0,1,MESSAGE PUMP,WM_GETOBJECT,61
8315,0,1,MESSAGE PUMP,Unknown,356
8324,0,1,MESSAGE PUMP,WM_GETOBJECT,61
8326,0,1,MESSAGE PUMP,Unknown,356
8334,0,1,MESSAGE PUMP,Unknown,356
8613,0,1,MESSAGE PUMP,WM_KEYDOWN,256
8619,0,1,MESSAGE PUMP,WM_KEYDOWN,256
8619,0,1,MESSAGE PUMP,WM_CHAR,258
8619,0,0,MESSAGE PUMP,WM_NCACTIVATE,134
8619,0,0,MESSAGE PUMP,WM_ACTIVATE,6
8619,0,0,MESSAGE PUMP,WM_KILLFOCUS,8
8619,0,0,MESSAGE PUMP,WM_IME_SETCONTEXT,641
8619,0,0,MESSAGE PUMP,WM_IME_NOTIFY,642
8619,0,0,MESSAGE PUMP,WM_MOUSELEAVE,675
8619,0,0,MESSAGE PUMP,WM_WINDOWPOSCHANGING,70
8619,0,0,MESSAGE PUMP,WM_WINDOWPOSCHANGED,71
8619,0,0,MESSAGE PUMP,WM_ACTIVATEAPP,28
8619,0,0,MESSAGE PUMP,WM_NCACTIVATE,134
8619,0,0,MESSAGE PUMP,WM_ACTIVATE,6
8619,0,0,MESSAGE PUMP,WM_IME_SETCONTEXT,641
8619,0,0,MESSAGE PUMP,WM_IME_NOTIFY,642
8619,0,0,MESSAGE PUMP,WM_SETFOCUS,7
8620,0,1,MESSAGE PUMP,WM_GETOBJECT,61
8620,0,1,MESSAGE PUMP,Unknown,49767
8620,0,1,MESSAGE PUMP,Unknown,49767
8620,0,1,MESSAGE PUMP,Unknown,49767
8620,0,1,MESSAGE PUMP,Unknown,49767
8620,0,1,MESSAGE PUMP,Unknown,49767
8620,0,1,MESSAGE PUMP,Unknown,49767
8620,0,1,MESSAGE PUMP,Unknown,49767
8620,0,1,MESSAGE PUMP,Unknown,49767
8620,0,1,MESSAGE PUMP,Unknown,49767
8620,0,1,MESSAGE PUMP,Unknown,49767
8620,0,1,MESSAGE PUMP,Unknown,49767
8620,0,1,MESSAGE PUMP,Unknown,49767
8620,0,1,MESSAGE PUMP,Unknown,49767
8620,0,1,MESSAGE PUMP,Unknown,49767
8620,0,1,MESSAGE PUMP,Unknown,49767
8620,0,1,MESSAGE PUMP,Unknown,49767
8620,0,1,MESSAGE PUMP,Unknown,49767
8620,0,1,MESSAGE PUMP,Unknown,49767
8620,0,1,MESSAGE PUMP,Unknown,49767
8620,0,1,MESSAGE PUMP,Unknown,49767
8620,0,1,MESSAGE PUMP,Unknown,49767
8620,0,1,MESSAGE PUMP,Unknown,49767
8620,0,1,MESSAGE PUMP,Unknown,49767
8620,0,1,MESSAGE PUMP,Unknown,49767
8620,0,1,MESSAGE PUMP,Unknown,49767
8620,0,1,MESSAGE PUMP,Unknown,49767
8620,0,1,MESSAGE PUMP,WM_KEYUP,257
8620,0,1,MESSAGE PUMP,WM_NCHITTEST,132
8620,0,1,MESSAGE PUMP,WM_SETCURSOR,32
8620,0,1,MESSAGE PUMP,WM_MOUSEFIRST,512
8620,0,1,MESSAGE PUMP,WM_GETOBJECT,61
8622,0,1,MESSAGE PUMP,Unknown,49766
8622,0,1,MESSAGE PUMP,Unknown,49767
8622,0,1,MESSAGE PUMP,Unknown,49767
8623,0,1,MESSAGE PUMP,Unknown,49766
8625,0,1,MESSAGE PUMP,WM_GETOBJECT,61
8627,0,1,MESSAGE PUMP,Unknown,356
8634,0,1,MESSAGE PUMP,WM_GETOBJECT,61
8636,0,1,MESSAGE PUMP,Unknown,356
8643,0,1,MESSAGE PUMP,WM_GETOBJECT,61
8646,0,1,MESSAGE PUMP,Unknown,356
8647,0,1,MESSAGE PUMP,WM_GETOBJECT,61
8650,0,1,MESSAGE PUMP,Unknown,356
8660,0,1,MESSAGE PUMP,WM_GETOBJECT,61
8663,0,1,MESSAGE PUMP,Unknown,356
8667,0,1,MESSAGE PUMP,Unknown,356
8668,0,1,MESSAGE PUMP,Unknown,356
8670,0,1,MESSAGE PUMP,WM_GETOBJECT,61
8672,0,1,MESSAGE PUMP,Unknown,356
8678,0,1,MESSAGE PUMP,Unknown,356
10317,0,1,MESSAGE PUMP,WM_KEYDOWN,256
10319,0,1,MESSAGE PUMP,WM_GETOBJECT,61
10321,0,1,MESSAGE PUMP,WM_GETOBJECT,61
10323,0,1,MESSAGE PUMP,Unknown,356
10324,0,1,MESSAGE PUMP,WM_KEYUP,257
10330,0,1,MESSAGE PUMP,WM_KEYDOWN,256
10334,0,1,MESSAGE PUMP,WM_GETOBJECT,61
10336,0,1,MESSAGE PUMP,WM_KEYUP,257
10337,0,1,MESSAGE PUMP,Unknown,356
10342,0,1,MESSAGE PUMP,WM_KEYDOWN,256
10343,0,1,MESSAGE PUMP,WM_GETOBJECT,61
10346,0,1,MESSAGE PUMP,Unknown,356
10349,0,1,MESSAGE PUMP,WM_KEYUP,257
10355,0,1,MESSAGE PUMP,WM_KEYDOWN,256
10357,0,1,MESSAGE PUMP,WM_GETOBJECT,61
10360,0,1,MESSAGE PUMP,Unknown,356
10361,0,1,MESSAGE PUMP,WM_KEYUP,257
10367,0,1,MESSAGE PUMP,WM_KEYDOWN,256
10374,0,1,MESSAGE PUMP,WM_KEYUP,257
10383,0,1,MESSAGE PUMP,WM_GETOBJECT,61
10385,0,1,MESSAGE PUMP,Unknown,356
10398,0,1,MESSAGE PUMP,WM_GETOBJECT,61
10400,0,1,MESSAGE PUMP,Unknown,356
10411,0,1,MESSAGE PUMP,WM_GETOBJECT,61
10413,0,1,MESSAGE PUMP,Unknown,356
10417,0,1,MESSAGE PUMP,WM_GETOBJECT,61
10417,0,1,MESSAGE PUMP,WM_KEYDOWN,256
10417,0,1,MESSAGE PUMP,WM_CHAR,258
10417,0,0,MESSAGE PUMP,WM_GETOBJECT,61
10417,0,0,MESSAGE PUMP,WM_GETOBJECT,61
10418,0,1,MESSAGE PUMP,WM_KEYUP,257
10418,0,1,MESSAGE PUMP,WM_KEYDOWN,256
10418,0,1,MESSAGE PUMP,WM_KEYUP,257
10418,0,1,MESSAGE PUMP,WM_KEYDOWN,256
10418,0,1,MESSAGE PUMP,WM_KEYUP,257
10419,0,1,MESSAGE PUMP,WM_KEYDOWN,256
10420,0,1,MESSAGE PUMP,WM_KEYUP,257
10420,0,1,MESSAGE PUMP,WM_GETOBJECT,61
10420,0,1,MESSAGE PUMP,WM_KEYDOWN,256
10421,0,1,MESSAGE PUMP,Unknown,356
10421,0,1,MESSAGE PUMP,WM_KEYUP,257
10421,0,1,MESSAGE PUMP,WM_GETOBJECT,61
10421,0,1,MESSAGE PUMP,WM_KEYDOWN,256
10422,0,1,MESSAGE PUMP,WM_KEYUP,257
10425,0,1,MESSAGE PUMP,WM_KEYDOWN,256
10426,0,1,MESSAGE PUMP,WM_KEYUP,257
10430,0,1,MESSAGE PUMP,WM_GETOBJECT,61
10430,0,1,MESSAGE PUMP,WM_KEYDOWN,256
10431,0,1,MESSAGE PUMP,Unknown,356
10432,0,1,MESSAGE PUMP,WM_KEYUP,257
10436,0,1,MESSAGE PUMP,WM_KEYDOWN,256
10438,0,1,MESSAGE PUMP,WM_KEYUP,257
10440,0,1,MESSAGE PUMP,WM_GETOBJECT,61
10442,0,1,MESSAGE PUMP,Unknown,356
10442,0,1,MESSAGE PUMP,WM_KEYDOWN,256
10444,0,1,MESSAGE PUMP,WM_KEYUP,257
10449,0,1,MESSAGE PUMP,WM_KEYDOWN,256
10449,0,1,MESSAGE PUMP,WM_GETOBJECT,61
10451,0,1,MESSAGE PUMP,Unknown,356
10451,0,1,MESSAGE PUMP,WM_KEYUP,257
10455,0,1,MESSAGE PUMP,WM_KEYDOWN,256
10458,0,1,MESSAGE PUMP,WM_KEYUP,257
10460,0,1,MESSAGE PUMP,WM_GETOBJECT,61
10462,0,1,MESSAGE PUMP,WM_KEYDOWN,256
10462,0,1,MESSAGE PUMP,Unknown,356
10465,0,1,MESSAGE PUMP,WM_KEYUP,257
10469,0,1,MESSAGE PUMP,WM_GETOBJECT,61
10469,0,1,MESSAGE PUMP,WM_KEYDOWN,256
10472,0,1,MESSAGE PUMP,WM_KEYUP,257
10476,0,1,MESSAGE PUMP,WM_KEYDOWN,256
10478,0,1,MESSAGE PUMP,WM_KEYUP,257
10483,0,1,MESSAGE PUMP,WM_GETOBJECT,61
10483,0,1,MESSAGE PUMP,WM_KEYDOWN,256
10484,0,1,MESSAGE PUMP,WM_GETOBJECT,61
10485,0,1,MESSAGE PUMP,WM_KEYUP,257
10486,0,1,MESSAGE PUMP,Unknown,356
10486,0,1,MESSAGE PUMP,Unknown,356
10489,0,1,MESSAGE PUMP,WM_KEYDOWN,256
10492,0,1,MESSAGE PUMP,WM_KEYUP,257
10496,0,1,MESSAGE PUMP,WM_KEYDOWN,256
10496,0,1,MESSAGE PUMP,WM_GETOBJECT,61
10499,0,1,MESSAGE PUMP,Unknown,356
10499,0,1,MESSAGE PUMP,WM_KEYUP,257
10501,0,1,MESSAGE PUMP,WM_GETOBJECT,61
10503,0,1,MESSAGE PUMP,WM_KEYDOWN,256
10503,0,1,MESSAGE PUMP,Unknown,356
10506,0,1,MESSAGE PUMP,WM_KEYUP,257
10510,0,1,MESSAGE PUMP,WM_KEYDOWN,256
10512,0,1,MESSAGE PUMP,Unknown,356
10512,0,1,MESSAGE PUMP,WM_KEYUP,257
10521,0,1,MESSAGE PUMP,WM_GETOBJECT,61
10524,0,1,MESSAGE PUMP,Unknown,356
10545,0,1,MESSAGE PUMP,WM_GETOBJECT,61
10548,0,1,MESSAGE PUMP,Unknown,356
10567,0,1,MESSAGE PUMP,WM_GETOBJECT,61
10570,0,1,MESSAGE PUMP,Unknown,356
10594,0,1,MESSAGE PUMP,WM_GETOBJECT,61
10597,0,1,MESSAGE PUMP,Unknown,356
10619,0,1,MESSAGE PUMP,WM_GETOBJECT,61
10621,0,1,MESSAGE PUMP,Unknown,356
10630,0,1,MESSAGE PUMP,WM_GETOBJECT,61
10637,0,1,MESSAGE PUMP,WM_GETOBJECT,61
10640,0,1,MESSAGE PUMP,Unknown,356
10646,0,1,MESSAGE PUMP,WM_KEYDOWN,256
10646,0,1,MESSAGE PUMP,WM_KEYUP,257
10661,0,1,MESSAGE PUMP,WM_GETOBJECT,61
10664,0,1,MESSAGE PUMP,Unknown,356
10664,0,1,MESSAGE PUMP,WM_KEYDOWN,256
10664,0,1,MESSAGE PUMP,WM_KEYUP,257
10671,0,1,MESSAGE PUMP,WM_KEYDOWN,256
10671,0,1,MESSAGE PUMP,WM_KEYUP,257
10684,0,1,MESSAGE PUMP,WM_GETOBJECT,61
10687,0,1,MESSAGE PUMP,Unknown,356
10704,0,1,MESSAGE PUMP,WM_KEYDOWN,256
10704,0,1,MESSAGE PUMP,WM_KEYUP,257
10706,0,1,MESSAGE PUMP,WM_GETOBJECT,61
10708,0,1,MESSAGE PUMP,Unknown,356
10717,0,1,MESSAGE PUMP,WM_KEYDOWN,256
10717,0,1,MESSAGE PUMP,WM_KEYUP,257
10727,0,1,MESSAGE PUMP,WM_KEYDOWN,256
10727,0,1,MESSAGE PUMP,WM_KEYUP,257
10728,0,1,MESSAGE PUMP,WM_GETOBJECT,61
10731,0,1,MESSAGE PUMP,Unknown,356
10753,0,1,MESSAGE PUMP,WM_GETOBJECT,61
10756,0,1,MESSAGE PUMP,Unknown,356
10762,0,1,MESSAGE PUMP,WM_KEYDOWN,256
10762,0,1,MESSAGE PUMP,WM_KEYUP,257
10772,0,1,MESSAGE PUMP,WM_KEYDOWN,256
10772,0,1,MESSAGE PUMP,WM_KEYUP,257
10775,0,1,MESSAGE PUMP,WM_GETOBJECT,61
10778,0,1,MESSAGE PUMP,Unknown,356
10785,0,1,MESSAGE PUMP,WM_KEYDOWN,256
10785,0,1,MESSAGE PUMP,WM_KEYUP,257
10797,0,1,MESSAGE PUMP,WM_GETOBJECT,61
10799,0,1,MESSAGE PUMP,Unknown,356
10807,0,1,MESSAGE PUMP,WM_KEYDOWN,256
10816,0,1,MESSAGE PUMP,WM_KEYDOWN,256
10816,0,1,MESSAGE PUMP,WM_KEYUP,257
10818,0,1,MESSAGE PUMP,WM_GETOBJECT,61
10820,0,1,MESSAGE PUMP,Unknown,356
10829,0,1,MESSAGE PUMP,WM_KEYDOWN,256
10829,0,1,MESSAGE PUMP,WM_KEYUP,257
10841,0,1,MESSAGE PUMP,WM_GETOBJECT,61
10843,0,1,MESSAGE PUMP,Unknown,356
10867,0,1,MESSAGE PUMP,WM_GETOBJECT,61
10870,0,1,MESSAGE PUMP,Unknown,356
10876,0,1,MESSAGE PUMP,WM_KEYDOWN,256
10876,0,1,MESSAGE PUMP,WM_KEYUP,257
10890,0,1,MESSAGE PUMP,WM_GETOBJECT,61
10893,0,1,MESSAGE PUMP,Unknown,356
10896,0,1,MESSAGE PUMP,WM_KEYUP,257
10916,0,1,MESSAGE PUMP,WM_GETOBJECT,61
10919,0,1,MESSAGE PUMP,Unknown,356
10921,0,1,MESSAGE PUMP,WM_GETOBJECT,61
10934,0,1,MESSAGE PUMP,WM_KEYDOWN,256
10934,0,1,MESSAGE PUMP,WM_KEYUP,257
10937,0,1,MESSAGE PUMP,WM_GETOBJECT,61
10940,0,1,MESSAGE PUMP,Unknown,356
10947,0,1,MESSAGE PUMP,WM_KEYDOWN,256
10947,0,1,MESSAGE PUMP,WM_KEYUP,257
10952,0,1,MESSAGE PUMP,WM_KEYDOWN,256
10954,0,1,MESSAGE PUMP,WM_KEYDOWN,256
10954,0,1,MESSAGE PUMP,WM_KEYUP,257
10957,0,1,MESSAGE PUMP,WM_GETOBJECT,61
10960,0,1,MESSAGE PUMP,Unknown,356
10963,0,1,MESSAGE PUMP,WM_KEYUP,257
10984,0,1,MESSAGE PUMP,WM_GETOBJECT,61
10987,0,1,MESSAGE PUMP,Unknown,356
11004,0,1,MESSAGE PUMP,WM_KEYDOWN,256
11004,0,1,MESSAGE PUMP,WM_KEYUP,257
11005,0,1,MESSAGE PUMP,WM_GETOBJECT,61
11008,0,1,MESSAGE PUMP,Unknown,356
11015,0,1,MESSAGE PUMP,WM_KEYDOWN,256
11015,0,1,MESSAGE PUMP,WM_KEYUP,257
11025,0,1,MESSAGE PUMP,WM_KEYDOWN,256
11025,0,1,MESSAGE PUMP,WM_KEYUP,257
11026,0,1,MESSAGE PUMP,WM_GETOBJECT,61
11029,0,1,MESSAGE PUMP,Unknown,356
11044,0,1,MESSAGE PUMP,WM_KEYDOWN,256
11053,0,1,MESSAGE PUMP,WM_GETOBJECT,61
11056,0,1,MESSAGE PUMP,Unknown,356
11057,0,1,MESSAGE PUMP,WM_KEYUP,257
11057,0,1,MESSAGE PUMP,WM_KEYDOWN,256
11057,0,1,MESSAGE PUMP,WM_KEYUP,257
11068,0,1,MESSAGE PUMP,WM_KEYDOWN,256
11068,0,1,MESSAGE PUMP,WM_KEYUP,257
11070,0,1,MESSAGE PUMP,WM_GETOBJECT,61
11073,0,1,MESSAGE PUMP,Unknown,356
11078,0,1,MESSAGE PUMP,WM_KEYDOWN,256
11078,0,1,MESSAGE PUMP,WM_KEYUP,257
11092,0,1,MESSAGE PUMP,WM_GETOBJECT,61
11094,0,1,MESSAGE PUMP,Unknown,356
11112,0,1,MESSAGE PUMP,WM_KEYDOWN,256
11112,0,1,MESSAGE PUMP,WM_KEYUP,257
11114,0,1,MESSAGE PUMP,WM_GETOBJECT,61
11116,0,1,MESSAGE PUMP,Unknown,356
11124,0,1,MESSAGE PUMP,WM_KEYDOWN,256
11124,0,1,MESSAGE PUMP,WM_KEYUP,257
11132,0,1,MESSAGE PUMP,WM_KEYDOWN,256
11132,0,1,MESSAGE PUMP,WM_KEYUP,257
11135,0,1,MESSAGE PUMP,WM_GETOBJECT,61
11136,0,1,MESSAGE PUMP,WM_KEYDOWN,256
11137,0,1,MESSAGE PUMP,Unknown,356
11147,0,1,MESSAGE PUMP,WM_KEYUP,257
11159,0,1,MESSAGE PUMP,WM_GETOBJECT,61
11162,0,1,MESSAGE PUMP,Unknown,356
11171,0,1,MESSAGE PUMP,WM_KEYDOWN,256
11171,0,1,MESSAGE PUMP,WM_KEYUP,257
11180,0,1,MESSAGE PUMP,WM_KEYDOWN,256
11180,0,1,MESSAGE PUMP,WM_KEYUP,257
11181,0,1,MESSAGE PUMP,WM_GETOBJECT,61
11184,0,1,MESSAGE PUMP,Unknown,356
11190,0,1,MESSAGE PUMP,WM_KEYDOWN,256
11190,0,1,MESSAGE PUMP,WM_KEYUP,257
11202,0,1,MESSAGE PUMP,WM_GETOBJECT,61
11204,0,1,MESSAGE PUMP,Unknown,356
11224,0,1,MESSAGE PUMP,WM_GETOBJECT,61
11226,0,1,MESSAGE PUMP,Unknown,356
11228,0,1,MESSAGE PUMP,WM_KEYDOWN,256
11228,0,1,MESSAGE PUMP,WM_KEYUP,257
11238,0,1,MESSAGE PUMP,WM_KEYDOWN,256
11238,0,1,MESSAGE PUMP,WM_KEYUP,257
11245,0,1,MESSAGE PUMP,WM_GETOBJECT,61
11248,0,1,MESSAGE PUMP,Unknown,356
11248,0,1,MESSAGE PUMP,WM_KEYDOWN,256
11248,0,1,MESSAGE PUMP,WM_KEYUP,257
11248,0,1,MESSAGE PUMP,WM_KEYDOWN,256
11259,0,1,MESSAGE PUMP,WM_KEYUP,257
11272,0,1,MESSAGE PUMP,WM_GETOBJECT,61
11275,0,1,MESSAGE PUMP,Unknown,356
11281,0,1,MESSAGE PUMP,WM_KEYDOWN,256
11281,0,1,MESSAGE PUMP,WM_KEYUP,257
11293,0,1,MESSAGE PUMP,WM_GETOBJECT,61
11295,0,1,MESSAGE PUMP,Unknown,356
11319,0,1,MESSAGE PUMP,WM_GETOBJECT,61
11321,0,1,MESSAGE PUMP,Unknown,356
11333,0,1,MESSAGE PUMP,WM_KEYDOWN,256
11333,0,1,MESSAGE PUMP,WM_KEYDOWN,256
11333,0,1,MESSAGE PUMP,WM_KEYUP,257
11333,0,1,MESSAGE PUMP,WM_KEYUP,257
11333,0,1,MESSAGE PUMP,WM_KEYDOWN,256
11333,0,1,MESSAGE PUMP,WM_KEYDOWN,256
11333,0,1,MESSAGE PUMP,WM_KEYUP,257
11333,0,1,MESSAGE PUMP,WM_KEYUP,257
11338,0,1,MESSAGE PUMP,WM_GETOBJECT,61
11340,0,1,MESSAGE PUMP,Unknown,356
11354,0,1,MESSAGE PUMP,WM_KEYDOWN,256
11354,0,1,MESSAGE PUMP,WM_KEYDOWN,256
11354,0,1,MESSAGE PUMP,WM_KEYUP,257
11354,0,1,MESSAGE PUMP,WM_KEYUP,257
11354,0,1,MESSAGE PUMP,WM_GETOBJECT,61
11354,0,1,MESSAGE PUMP,WM_KEYDOWN,256
11354,0,1,MESSAGE PUMP,WM_KEYDOWN,256
11354,0,1,MESSAGE PUMP,WM_KEYUP,257
11354,0,1,MESSAGE PUMP,WM_KEYUP,257
11354,0,1,MESSAGE PUMP,Unknown,356
11372,0,1,MESSAGE PUMP,WM_KEYDOWN,256
11372,0,1,MESSAGE PUMP,WM_KEYDOWN,256
11372,0,1,MESSAGE PUMP,WM_KEYUP,257
11372,0,1,MESSAGE PUMP,WM_KEYUP,257
11372,0,1,MESSAGE PUMP,WM_KEYDOWN,256
11372,0,1,MESSAGE PUMP,WM_GETOBJECT,61
11372,0,1,MESSAGE PUMP,WM_KEYDOWN,256
11372,0,1,MESSAGE PUMP,WM_KEYUP,257
11372,0,1,MESSAGE PUMP,WM_KEYUP,257
11373,0,1,MESSAGE PUMP,Unknown,356
11395,0,1,MESSAGE PUMP,WM_GETOBJECT,61
11398,0,1,MESSAGE PUMP,Unknown,356
11421,0,1,MESSAGE PUMP,WM_GETOBJECT,61
11423,0,1,MESSAGE PUMP,Unknown,356
11426,0,1,MESSAGE PUMP,WM_GETOBJECT,61
11439,0,1,MESSAGE PUMP,WM_KEYDOWN,256
11439,0,1,MESSAGE PUMP,WM_KEYUP,257
11440,0,1,MESSAGE PUMP,WM_GETOBJECT,61
11443,0,1,MESSAGE PUMP,Unknown,356
11466,0,1,MESSAGE PUMP,WM_GETOBJECT,61
11469,0,1,MESSAGE PUMP,Unknown,356
11494,0,1,MESSAGE PUMP,WM_GETOBJECT,61
11496,0,1,MESSAGE PUMP,Unknown,356
11496,0,1,MESSAGE PUMP,WM_KEYDOWN,256
11496,0,1,MESSAGE PUMP,WM_KEYDOWN,256
11496,0,1,MESSAGE PUMP,WM_CHAR,258
11496,0,1,MESSAGE PUMP,WM_KEYUP,257
11496,0,1,MESSAGE PUMP,WM_KEYUP,257
11501,0,1,MESSAGE PUMP,WM_KEYDOWN,256
11501,0,1,MESSAGE PUMP,WM_KEYUP,257
11503,0,1,MESSAGE PUMP,WM_KEYDOWN,256
11508,0,1,MESSAGE PUMP,WM_KEYDOWN,256
11508,0,1,MESSAGE PUMP,WM_KEYDOWN,256
11508,0,1,MESSAGE PUMP,WM_KEYUP,257
11508,0,1,MESSAGE PUMP,WM_GETOBJECT,61
11508,0,0,MESSAGE PUMP,Unknown,356
11509,0,1,MESSAGE PUMP,WM_KEYDOWN,256
11509,0,1,MESSAGE PUMP,WM_KEYUP,257
11509,0,1,MESSAGE PUMP,WM_KEYDOWN,256
11509,0,1,MESSAGE PUMP,WM_KEYUP,257
11510,0,1,MESSAGE PUMP,WM_GETOBJECT,61
11510,0,1,MESSAGE PUMP,WM_KEYDOWN,256
11510,0,1,MESSAGE PUMP,WM_KEYDOWN,256
11510,0,1,MESSAGE PUMP,WM_KEYUP,257
11510,0,1,MESSAGE PUMP,WM_KEYUP,257
11510,0,1,MESSAGE PUMP,WM_KEYDOWN,256
11510,0,1,MESSAGE PUMP,WM_KEYUP,257
11510,0,1,MESSAGE PUMP,WM_KEYDOWN,256
11510,0,1,MESSAGE PUMP,WM_KEYUP,257
11510,0,1,MESSAGE PUMP,WM_KEYDOWN,256
11510,0,1,MESSAGE PUMP,WM_KEYUP,257
11510,0,1,MESSAGE PUMP,WM_KEYUP,257
11510,0,1,MESSAGE PUMP,WM_KEYDOWN,256
11510,0,1,MESSAGE PUMP,WM_KEYUP,257
11510,0,1,MESSAGE PUMP,WM_KEYDOWN,256
11510,0,1,MESSAGE PUMP,WM_KEYDOWN,256
11510,0,1,MESSAGE PUMP,WM_CHAR,258
11510,0,1,MESSAGE PUMP,WM_KEYUP,257
11510,0,1,MESSAGE PUMP,WM_KEYUP,257
11510,0,1,MESSAGE PUMP,WM_KEYDOWN,256
11510,0,1,MESSAGE PUMP,WM_CHAR,258
11510,0,1,MESSAGE PUMP,WM_KEYUP,257
11510,0,1,MESSAGE PUMP,WM_KEYDOWN,256
11510,0,1,MESSAGE PUMP,WM_CHAR,258
11510,0,1,MESSAGE PUMP,WM_KEYUP,257
11510,0,1,MESSAGE PUMP,WM_KEYDOWN,256
11510,0,1,MESSAGE PUMP,WM_CHAR,258
11510,0,1,MESSAGE PUMP,WM_KEYUP,257
11510,0,1,MESSAGE PUMP,WM_KEYDOWN,256
11510,0,1,MESSAGE PUMP,WM_CHAR,258
11510,0,1,MESSAGE PUMP,WM_KEYUP,257
11510,0,1,MESSAGE PUMP,WM_KEYDOWN,256
11510,0,1,MESSAGE PUMP,WM_CHAR,258
11510,0,1,MESSAGE PUMP,WM_KEYUP,257
11510,0,1,MESSAGE PUMP,WM_KEYDOWN,256
11510,0,1,MESSAGE PUMP,WM_CHAR,258
11510,0,1,MESSAGE PUMP,WM_KEYUP,257
11510,0,1,MESSAGE PUMP,WM_KEYDOWN,256
11510,0,1,MESSAGE PUMP,WM_CHAR,258
11510,0,1,MESSAGE PUMP,WM_KEYUP,257
11510,0,1,MESSAGE PUMP,WM_KEYDOWN,256
11510,0,1,MESSAGE PUMP,WM_CHAR,258
11510,0,1,MESSAGE PUMP,WM_KEYUP,257
11510,0,1,MESSAGE PUMP,WM_KEYDOWN,256
11510,0,1,MESSAGE PUMP,WM_CHAR,258
11510,0,1,MESSAGE PUMP,WM_KEYUP,257
11510,0,1,MESSAGE PUMP,WM_KEYDOWN,256
11510,0,1,MESSAGE PUMP,WM_CHAR,258
11510,0,1,MESSAGE PUMP,WM_KEYUP,257
11510,0,1,MESSAGE PUMP,WM_KEYDOWN,256
11510,0,1,MESSAGE PUMP,WM_KEYDOWN,256
11510,0,1,MESSAGE PUMP,WM_KEYUP,257
11510,0,1,MESSAGE PUMP,WM_KEYUP,257
11510,0,1,MESSAGE PUMP,WM_KEYDOWN,256
11510,0,1,MESSAGE PUMP,WM_CHAR,258
11510,0,1,MESSAGE PUMP,WM_KEYUP,257
11510,0,1,MESSAGE PUMP,WM_KEYUP,257
11861,0,1,MESSAGE PUMP,WM_KEYDOWN,256
11867,0,1,MESSAGE PUMP,WM_KEYDOWN,256
11869,0,1,MESSAGE PUMP,WM_GETOBJECT,61
11871,0,1,MESSAGE PUMP,WM_GETOBJECT,61
11873,0,1,MESSAGE PUMP,Unknown,356
11874,0,1,MESSAGE PUMP,WM_KEYUP,257
11881,0,1,MESSAGE PUMP,WM_KEYUP,257
11905,0,1,MESSAGE PUMP,WM_GETOBJECT,61
11907,0,1,MESSAGE PUMP,Unknown,356
11913,0,1,MESSAGE PUMP,WM_GETOBJECT,61
11915,0,1,MESSAGE PUMP,Unknown,356
11923,0,1,MESSAGE PUMP,Unknown,356
12744,0,1,MESSAGE PUMP,WM_KEYDOWN,256
12746,0,1,MESSAGE PUMP,WM_GETOBJECT,61
12748,0,1,MESSAGE PUMP,Unknown,356
12750,0,1,MESSAGE PUMP,WM_GETOBJECT,61
12750,0,1,MESSAGE PUMP,WM_KEYUP,257
12760,0,1,MESSAGE PUMP,WM_GETOBJECT,61
12763,0,1,MESSAGE PUMP,Unknown,356
12787,0,1,MESSAGE PUMP,WM_GETOBJECT,61
12789,0,1,MESSAGE PUMP,Unknown,356
13118,0,1,MESSAGE PUMP,WM_KEYDOWN,256
13120,0,1,MESSAGE PUMP,WM_GETOBJECT,61
13122,0,1,MESSAGE PUMP,Unknown,356
13123,0,1,MESSAGE PUMP,WM_GETOBJECT,61
13124,0,1,MESSAGE PUMP,WM_KEYUP,257
13131,0,1,MESSAGE PUMP,WM_GETOBJECT,61
13133,0,1,MESSAGE PUMP,Unknown,356
13491,0,1,MESSAGE PUMP,WM_KEYDOWN,256
13497,0,1,MESSAGE PUMP,WM_SYSKEYDOWN,260
13497,0,1,MESSAGE PUMP,WM_CONTEXTMENU,123
13500,0,1,MESSAGE PUMP,WM_GETOBJECT,61
13502,0,1,MESSAGE PUMP,WM_GETOBJECT,61
13502,0,1,MESSAGE PUMP,WM_SYSKEYUP,261
13502,0,1,MESSAGE PUMP,WM_SYSCOMMAND,274
13503,0,1,MESSAGE PUMP,Unknown,356
13508,0,1,MESSAGE PUMP,WM_KEYUP,257
13522,0,1,MESSAGE PUMP,WM_GETOBJECT,61
13524,0,1,MESSAGE PUMP,Unknown,356
13530,0,1,MESSAGE PUMP,WM_GETOBJECT,61
13532,0,1,MESSAGE PUMP,Unknown,356
13540,0,1,MESSAGE PUMP,Unknown,356
13857,0,1,MESSAGE PUMP,WM_KEYDOWN,256
13859,0,1,MESSAGE PUMP,WM_GETOBJECT,61
13861,0,1,MESSAGE PUMP,WM_GETOBJECT,61
13862,0,1,MESSAGE PUMP,WM_KEYUP,257
13863,0,1,MESSAGE PUMP,Unknown,356
13868,0,1,MESSAGE PUMP,WM_KEYDOWN,256
13874,0,1,MESSAGE PUMP,WM_GETOBJECT,61
13874,0,1,MESSAGE PUMP,WM_KEYUP,257
13875,0,1,MESSAGE PUMP,Unknown,356
13880,0,1,MESSAGE PUMP,WM_KEYDOWN,256
13886,0,1,MESSAGE PUMP,WM_GETOBJECT,61
13886,0,1,MESSAGE PUMP,WM_KEYUP,257
13887,0,1,MESSAGE PUMP,Unknown,356
13892,0,1,MESSAGE PUMP,WM_KEYDOWN,256
13898,0,1,MESSAGE PUMP,WM_GETOBJECT,61
13898,0,1,MESSAGE PUMP,WM_KEYUP,257
13899,0,1,MESSAGE PUMP,Unknown,356
13904,0,1,MESSAGE PUMP,WM_KEYDOWN,256
13910,0,1,MESSAGE PUMP,WM_GETOBJECT,61
13910,0,1,MESSAGE PUMP,WM_KEYUP,257
13911,0,1,MESSAGE PUMP,Unknown,356
13915,0,1,MESSAGE PUMP,WM_KEYDOWN,256
13921,0,1,MESSAGE PUMP,WM_KEYUP,257
13922,0,1,MESSAGE PUMP,WM_GETOBJECT,61
13924,0,1,MESSAGE PUMP,Unknown,356
14250,0,1,MESSAGE PUMP,WM_KEYDOWN,256
14250,0,1,MESSAGE PUMP,WM_CHAR,258
14251,0,1,MESSAGE PUMP,WM_KEYUP,257
14252,0,1,MESSAGE PUMP,WM_GETOBJECT,61
14254,0,1,MESSAGE PUMP,WM_GETOBJECT,61
14256,0,1,MESSAGE PUMP,Unknown,356
14263,0,1,MESSAGE PUMP,WM_GETOBJECT,61
14265,0,1,MESSAGE PUMP,Unknown,356
14273,0,1,MESSAGE PUMP,WM_GETOBJECT,61
14275,0,1,MESSAGE PUMP,Unknown,356
14283,0,1,MESSAGE PUMP,Unknown,356
14658,0,1,MESSAGE PUMP,WM_SYSKEYDOWN,260
14664,0,1,MESSAGE PUMP,WM_SYSKEYDOWN,260
14664,0,1,MESSAGE PUMP,WM_SYSCOMMAND,274
14664,0,1,MESSAGE PUMP,WM_CLOSE,16
14664,0,0,MESSAGE PUMP,Unknown,144
14664,0,0,MESSAGE PUMP,WM_WINDOWPOSCHANGING,70
14664,0,0,MESSAGE PUMP,WM_WINDOWPOSCHANGED,71
14664,0,0,MESSAGE PUMP,WM_NCACTIVATE,134
14664,0,0,MESSAGE PUMP,WM_ACTIVATE,6
14664,0,0,MESSAGE PUMP,WM_ACTIVATEAPP,28
14664,0,0,MESSAGE PUMP,WM_KILLFOCUS,8
14664,0,0,MESSAGE PUMP,WM_IME_SETCONTEXT,641
14664,0,0,MESSAGE PUMP,WM_IME_NOTIFY,642
14664,0,0,MESSAGE PUMP,WM_DESTROY,2
14664,0,0,MESSAGE PUMP,WM_NCDESTROY,130
