Frame,Poll Count,Is Polling,Source,Event Name,Event Code
0,0,0,MESSAGE PUMP,WM_GETMINMAXINFO,36
0,0,0,MESSAGE PUMP,WM_WINDOWPOSCHANGING,70
0,0,0,MESSAGE PUMP,WM_GETMINMAXINFO,36
0,0,0,MESSAGE PUMP,WM_NCCALCSIZE,131
0,0,0,MESSAGE PUMP,WM_WINDOWPOSCHANGING,70
0,0,0,MESSAGE PUMP,WM_ACTIVATEAPP,28
0,0,0,MESSAGE PUMP,WM_NCACTIVATE,134
0,0,0,MESSAGE PUMP,WM_ACTIVATE,6
0,0,0,MESSAGE PUMP,WM_IME_SETCONTEXT,641
0,0,0,MESSAGE PUMP,WM_IME_NOTIFY,642
0,0,0,MESSAGE PUMP,WM_SETFOCUS,7
0,0,0,MESSAGE PUMP,WM_NCPAINT,133
0,0,0,MESSAGE PUMP,WM_ERASEBKGND,20
0,0,0,MESSAGE PUMP,WM_WINDOWPOSCHANGED,71
0,0,0,MESSAGE PUMP,WM_MOVE,3
0,0,0,MESSAGE PUMP,WM_SIZE,5
0,0,0,MESSAGE PUMP,WM_WINDOWPOSCHANGING,70
0,0,0,MESSAGE PUMP,WM_GETMINMAXINFO,36
0,0,0,MESSAGE PUMP,WM_NCPAINT,133
0,0,0,MESSAGE PUMP,WM_ERASEBKGND,20
0,0,0,MESSAGE PUMP,WM_WINDOWPOSCHANGED,71
0,0,0,MESSAGE PUMP,WM_MOVE,3
0,0,0,MESSAGE PUMP,WM_SETICON,128
0,0,0,MESSAGE PUMP,Unknown,174
0,0,0,MESSAGE PUMP,WM_SETICON,128
0,0,0,MESSAGE PUMP,Unknown,174
0,0,0,MESSAGE PUMP,WM_WINDOWPOSCHANGING,70
0,0,0,MESSAGE PUMP,WM_GETOBJECT,61
0,0,0,MESSAGE PUMP,WM_GETICON,127
0,0,0,MESSAGE PUMP,WM_WINDOWPOSCHANGING,70
1,0,1,MESSAGE PUMP,WM_GETICON,127
1,0,1,MESSAGE PUMP,Unknown,799
1,0,1,MESSAGE PUMP,Unknown,49322
1,0,1,MESSAGE PUMP,WM_GETMINMAXINFO,36
1,0,1,MESSAGE PUMP,WM_NCHITTEST,132
1,0,1,MESSAGE PUMP,WM_SETCURSOR,32
1,0,1,MESSAGE PUMP,WM_MOUSEFIRST,512
1,0,1,MESSAGE PUMP,WM_PAINT,15
1,0,1,MESSAGE PUMP,WM_GETOBJECT,61
1,0,1,MESSAGE PUMP,Unknown,356
1,0,1,MESSAGE PUMP,WM_GETOBJECT,61
1,0,1,MESSAGE PUMP,WM_GETOBJECT,61
9,0,1,MESSAGE PUMP,WM_GETOBJECT,61
20,0,1,MESSAGE PUMP,WM_GETOBJECT,61
23,0,1,MESSAGE PUMP,Unknown,356
35,0,1,MESSAGE PUMP,WM_GETOBJECT,61
62,0,1,MESSAGE PUMP,Unknown,356
62,0,1,MESSAGE PUMP,WM_GETOBJECT,61
64,0,1,MESSAGE PUMP,WM_GETOBJECT,61
66,0,1,MESSAGE PUMP,Unknown,356
66,0,1,MESSAGE PUMP,Unknown,356
70,0,1,MESSAGE PUMP,WM_GETOBJECT,61
74,0,1,MESSAGE PUMP,Unknown,356
85,0,1,MESSAGE PUMP,WM_GETOBJECT,61
89,0,1,MESSAGE PUMP,Unknown,356
91,0,1,MESSAGE PUMP,WM_GETOBJECT,61
102,0,1,MESSAGE PUMP,Unknown,356
108,0,1,MESSAGE PUMP,WM_GETOBJECT,61
112,0,1,MESSAGE PUMP,Unknown,356
112,0,1,MESSAGE PUMP,Unknown,356
113,0,1,MESSAGE PUMP,Unknown,356
114,0,1,MESSAGE PUMP,Unknown,356
115,0,1,MESSAGE PUMP,WM_GETOBJECT,61
115,0,1,MESSAGE PUMP,WM_GETOBJECT,61
116,0,1,MESSAGE PUMP,WM_GETOBJECT,61
116,0,1,MESSAGE PUMP,Unknown,356
116,0,1,MESSAGE PUMP,WM_GETOBJECT,61
117,0,1,MESSAGE PUMP,WM_GETOBJECT,61
122,0,1,MESSAGE PUMP,WM_GETOBJECT,61
125,0,1,MESSAGE PUMP,WM_GETOBJECT,61
127,0,1,MESSAGE PUMP,Unknown,356
128,0,1,MESSAGE PUMP,Unknown,356
132,0,1,MESSAGE PUMP,WM_GETOBJECT,61
136,0,1,MESSAGE PUMP,Unknown,356
140,0,1,MESSAGE PUMP,WM_GETOBJECT,61
144,0,1,MESSAGE PUMP,Unknown,356
151,0,1,MESSAGE PUMP,WM_GETOBJECT,61
162,0,1,MESSAGE PUMP,Unknown,356
163,0,1,MESSAGE PUMP,WM_GETOBJECT,61
163,0,1,MESSAGE PUMP,WM_GETOBJECT,61
163,0,1,MESSAGE PUMP,WM_GETOBJECT,61
163,0,1,MESSAGE PUMP,WM_GETOBJECT,61
164,0,1,MESSAGE PUMP,WM_GETOBJECT,61
167,0,1,MESSAGE PUMP,WM_GETOBJECT,61
169,0,1,MESSAGE PUMP,WM_GETOBJECT,61
169,0,1,MESSAGE PUMP,Unknown,356
172,0,1,MESSAGE PUMP,Unknown,356
174,0,1,MESSAGE PUMP,WM_GETOBJECT,61
178,0,1,MESSAGE PUMP,Unknown,356
202,0,1,MESSAGE PUMP,WM_GETOBJECT,61
205,0,1,MESSAGE PUMP,Unknown,356
229,0,1,MESSAGE PUMP,WM_GETOBJECT,61
232,0,1,MESSAGE PUMP,Unknown,356
239,0,1,MESSAGE PUMP,WM_GETOBJECT,61
256,0,1,MESSAGE PUMP,WM_GETOBJECT,61
258,0,1,MESSAGE PUMP,Unknown,356
278,0,1,MESSAGE PUMP,WM_GETOBJECT,61
281,0,1,MESSAGE PUMP,Unknown,356
299,0,1,MESSAGE PUMP,WM_GETOBJECT,61
301,0,1,MESSAGE PUMP,WM_GETOBJECT,61
303,0,1,MESSAGE PUMP,Unknown,356
314,0,1,MESSAGE PUMP,WM_GETOBJECT,61
317,0,1,MESSAGE PUMP,Unknown,356
332,0,1,MESSAGE PUMP,WM_GETOBJECT,61
335,0,1,MESSAGE PUMP,Unknown,356
350,0,1,MESSAGE PUMP,WM_GETOBJECT,61
353,0,1,MESSAGE PUMP,Unknown,356
365,0,1,MESSAGE PUMP,WM_GETOBJECT,61
370,0,1,MESSAGE PUMP,WM_GETOBJECT,61
373,0,1,MESSAGE PUMP,Unknown,356
387,0,1,MESSAGE PUMP,WM_GETOBJECT,61
390,0,1,MESSAGE PUMP,Unknown,356
405,0,1,MESSAGE PUMP,WM_GETOBJECT,61
408,0,1,MESSAGE PUMP,Unknown,356
423,0,1,MESSAGE PUMP,WM_GETOBJECT,61
426,0,1,MESSAGE PUMP,Unknown,356
438,0,1,MESSAGE PUMP,WM_GETOBJECT,61
444,0,1,MESSAGE PUMP,WM_GETOBJECT,61
447,0,1,MESSAGE PUMP,Unknown,356
462,0,1,MESSAGE PUMP,WM_GETOBJECT,61
465,0,1,MESSAGE PUMP,Unknown,356
480,0,1,MESSAGE PUMP,WM_GETOBJECT,61
483,0,1,MESSAGE PUMP,Unknown,356
498,0,1,MESSAGE PUMP,WM_GETOBJECT,61
501,0,1,MESSAGE PUMP,Unknown,356
513,0,1,MESSAGE PUMP,WM_GETOBJECT,61
518,0,1,MESSAGE PUMP,WM_GETOBJECT,61
521,0,1,MESSAGE PUMP,Unknown,356
536,0,1,MESSAGE PUMP,WM_GETOBJECT,61
539,0,1,MESSAGE PUMP,Unknown,356
554,0,1,MESSAGE PUMP,WM_GETOBJECT,61
557,0,1,MESSAGE PUMP,Unknown,356
567,0,0,MESSAGE PUMP,WM_GETOBJECT,61
567,0,0,MESSAGE PUMP,Unknown,356
567,0,0,MESSAGE PUMP,WM_GETOBJECT,61
567,0,0,MESSAGE PUMP,Unknown,356
567,0,0,MESSAGE PUMP,WM_GETOBJECT,61
567,0,0,MESSAGE PUMP,Unknown,356
567,0,0,MESSAGE PUMP,WM_GETOBJECT,61
567,0,0,MESSAGE PUMP,Unknown,356
567,0,0,MESSAGE PUMP,WM_GETOBJECT,61
567,0,0,MESSAGE PUMP,Unknown,356
567,0,0,MESSAGE PUMP,WM_GETOBJECT,61
567,0,0,MESSAGE PUMP,Unknown,356
567,0,0,MESSAGE PUMP,WM_GETOBJECT,61
567,0,0,MESSAGE PUMP,Unknown,356
591,0,1,MESSAGE PUMP,WM_GETOBJECT,61
593,0,1,MESSAGE PUMP,Unknown,356
597,0,1,MESSAGE PUMP,WM_GETOBJECT,61
607,0,1,MESSAGE PUMP,WM_GETOBJECT,61
609,0,1,MESSAGE PUMP,Unknown,356
620,0,1,MESSAGE PUMP,WM_GETOBJECT,61
622,0,1,MESSAGE PUMP,Unknown,356
629,0,1,MESSAGE PUMP,WM_GETOBJECT,61
631,0,1,MESSAGE PUMP,Unknown,356
639,0,1,MESSAGE PUMP,WM_GETOBJECT,61
641,0,1,MESSAGE PUMP,Unknown,356
652,0,1,MESSAGE PUMP,WM_GETOBJECT,61
655,0,1,MESSAGE PUMP,Unknown,356
684,0,1,MESSAGE PUMP,WM_GETOBJECT,61
686,0,1,MESSAGE PUMP,Unknown,356
692,0,1,MESSAGE PUMP,WM_GETOBJECT,61
694,0,1,MESSAGE PUMP,Unknown,356
702,0,1,MESSAGE PUMP,Unknown,356
1024,0,1,MESSAGE PUMP,WM_KEYDOWN,256
1024,0,1,MESSAGE PUMP,WM_CHAR,258
1025,0,1,MESSAGE PUMP,WM_KEYUP,257
1026,0,1,MESSAGE PUMP,WM_GETOBJECT,61
1028,0,1,MESSAGE PUMP,Unknown,356
1030,0,1,MESSAGE PUMP,WM_GETOBJECT,61
1043,0,1,MESSAGE PUMP,WM_GETOBJECT,61
1045,0,1,MESSAGE PUMP,Unknown,356
1070,0,1,MESSAGE PUMP,WM_GETOBJECT,61
1072,0,1,MESSAGE PUMP,Unknown,356
1078,0,1,MESSAGE PUMP,WM_GETOBJECT,61
1080,0,1,MESSAGE PUMP,Unknown,356
1088,0,1,MESSAGE PUMP,Unknown,356
1187,0,1,MESSAGE PUMP,WM_KEYDOWN,256
1262,0,1,MESSAGE PUMP,WM_KEYDOWN,256
1264,0,1,MESSAGE PUMP,WM_GETOBJECT,61
1266,0,1,MESSAGE PUMP,WM_GETOBJECT,61
1266,0,1,MESSAGE PUMP,WM_KEYUP,257
1267,0,1,MESSAGE PUMP,Unknown,356
1301,0,1,MESSAGE PUMP,WM_GETOBJECT,61
1303,0,1,MESSAGE PUMP,Unknown,356
1309,0,1,MESSAGE PUMP,WM_GETOBJECT,61
1311,0,1,MESSAGE PUMP,Unknown,356
1319,0,1,MESSAGE PUMP,Unknown,356
1333,0,1,MESSAGE PUMP,WM_KEYUP,257
1536,0,1,MESSAGE PUMP,WM_KEYDOWN,256
1598,0,1,MESSAGE PUMP,WM_KEYDOWN,256
1600,0,1,MESSAGE PUMP,WM_GETOBJECT,61
1601,0,1,MESSAGE PUMP,WM_KEYUP,257
1601,0,1,MESSAGE PUMP,WM_GETOBJECT,61
1603,0,1,MESSAGE PUMP,Unknown,356
1610,0,1,MESSAGE PUMP,WM_GETOBJECT,61
1612,0,1,MESSAGE PUMP,Unknown,356
1620,0,1,MESSAGE PUMP,WM_GETOBJECT,61
1622,0,1,MESSAGE PUMP,Unknown,356
1633,0,1,MESSAGE PUMP,WM_GETOBJECT,61
1636,0,1,MESSAGE PUMP,Unknown,356
1647,0,1,MESSAGE PUMP,WM_GETOBJECT,61
1650,0,1,MESSAGE PUMP,Unknown,356
1658,0,1,MESSAGE PUMP,WM_GETOBJECT,61
1660,0,1,MESSAGE PUMP,Unknown,356
1668,0,1,MESSAGE PUMP,Unknown,356
1677,0,1,MESSAGE PUMP,WM_KEYUP,257
1891,0,1,MESSAGE PUMP,WM_KEYDOWN,256
1962,0,1,MESSAGE PUMP,WM_KEYDOWN,256
1964,0,1,MESSAGE PUMP,WM_GETOBJECT,61
1966,0,1,MESSAGE PUMP,WM_GETOBJECT,61
1966,0,1,MESSAGE PUMP,WM_KEYUP,257
1967,0,1,MESSAGE PUMP,Unknown,356
1978,0,1,MESSAGE PUMP,WM_GETOBJECT,61
1980,0,1,MESSAGE PUMP,Unknown,356
2006,0,1,MESSAGE PUMP,WM_GETOBJECT,61
2008,0,1,MESSAGE PUMP,Unknown,356
2014,0,1,MESSAGE PUMP,WM_GETOBJECT,61
2016,0,1,MESSAGE PUMP,Unknown,356
2024,0,1,MESSAGE PUMP,Unknown,356
2042,0,1,MESSAGE PUMP,WM_KEYUP,257
4269,0,1,MESSAGE PUMP,WM_KEYDOWN,256
4271,0,1,MESSAGE PUMP,WM_GETOBJECT,61
4273,0,1,MESSAGE PUMP,Unknown,356
4274,0,1,MESSAGE PUMP,WM_GETOBJECT,61
4274,0,1,MESSAGE PUMP,WM_KEYUP,257
4349,0,1,MESSAGE PUMP,WM_KEYDOWN,256
4351,0,1,MESSAGE PUMP,WM_GETOBJECT,61
4353,0,1,MESSAGE PUMP,WM_GETOBJECT,61
4353,0,1,MESSAGE PUMP,WM_KEYUP,257
4354,0,1,MESSAGE PUMP,Unknown,356
4429,0,1,MESSAGE PUMP,WM_KEYDOWN,256
4431,0,1,MESSAGE PUMP,WM_GETOBJECT,61
4433,0,1,MESSAGE PUMP,WM_GETOBJECT,61
4434,0,1,MESSAGE PUMP,WM_KEYUP,257
4435,0,1,MESSAGE PUMP,Unknown,356
4512,0,1,MESSAGE PUMP,WM_KEYDOWN,256
4514,0,1,MESSAGE PUMP,WM_GETOBJECT,61
4516,0,1,MESSAGE PUMP,WM_GETOBJECT,61
4517,0,1,MESSAGE PUMP,WM_KEYUP,257
4518,0,1,MESSAGE PUMP,Unknown,356
4596,0,1,MESSAGE PUMP,WM_KEYDOWN,256
4598,0,1,MESSAGE PUMP,WM_GETOBJECT,61
4600,0,1,MESSAGE PUMP,WM_GETOBJECT,61
4600,0,1,MESSAGE PUMP,WM_KEYUP,257
4601,0,1,MESSAGE PUMP,Unknown,356
4677,0,1,MESSAGE PUMP,WM_KEYDOWN,256
4679,0,1,MESSAGE PUMP,WM_GETOBJECT,61
4681,0,1,MESSAGE PUMP,WM_GETOBJECT,61
4682,0,1,MESSAGE PUMP,WM_KEYUP,257
4683,0,1,MESSAGE PUMP,Unknown,356
4811,0,1,MESSAGE PUMP,WM_KEYDOWN,256
4811,0,1,MESSAGE PUMP,WM_CHAR,258
4811,0,0,MESSAGE PUMP,WM_GETOBJECT,61
4811,0,0,MESSAGE PUMP,WM_GETOBJECT,61
4811,0,0,MESSAGE PUMP,WM_GETOBJECT,61
4811,0,0,MESSAGE PUMP,WM_GETOBJECT,61
4811,0,0,MESSAGE PUMP,WM_GETOBJECT,61
4811,0,0,MESSAGE PUMP,WM_GETOBJECT,61
4811,0,0,MESSAGE PUMP,WM_GETOBJECT,61
4811,0,0,MESSAGE PUMP,WM_GETOBJECT,61
4811,0,0,MESSAGE PUMP,WM_GETOBJECT,61
4811,0,0,MESSAGE PUMP,WM_GETOBJECT,61
4811,0,0,MESSAGE PUMP,WM_GETOBJECT,61
4811,0,0,MESSAGE PUMP,WM_GETOBJECT,61
4811,0,0,MESSAGE PUMP,WM_GETOBJECT,61
4811,0,0,MESSAGE PUMP,WM_GETOBJECT,61
4811,0,0,MESSAGE PUMP,WM_GETOBJECT,61
4811,0,0,MESSAGE PUMP,WM_GETOBJECT,61
4811,0,0,MESSAGE PUMP,WM_GETOBJECT,61
4811,0,0,MESSAGE PUMP,WM_GETOBJECT,61
4811,0,0,MESSAGE PUMP,WM_GETOBJECT,61
4811,0,0,MESSAGE PUMP,WM_GETOBJECT,61
4811,0,0,MESSAGE PUMP,WM_GETOBJECT,61
4811,0,0,MESSAGE PUMP,WM_GETOBJECT,61
4811,0,0,MESSAGE PUMP,WM_GETOBJECT,61
4811,0,0,MESSAGE PUMP,WM_GETOBJECT,61
4811,0,0,MESSAGE PUMP,WM_GETOBJECT,61
4811,0,0,MESSAGE PUMP,WM_GETOBJECT,61
4811,0,0,MESSAGE PUMP,WM_GETOBJECT,61
4811,0,0,MESSAGE PUMP,WM_GETOBJECT,61
4811,0,0,MESSAGE PUMP,WM_GETOBJECT,61
4811,0,0,MESSAGE PUMP,WM_GETOBJECT,61
4811,0,0,MESSAGE PUMP,WM_GETOBJECT,61
4811,0,0,MESSAGE PUMP,WM_GETOBJECT,61
4811,0,0,MESSAGE PUMP,WM_GETOBJECT,61
4811,0,0,MESSAGE PUMP,WM_GETOBJECT,61
4811,0,0,MESSAGE PUMP,WM_GETOBJECT,61
4812,0,1,MESSAGE PUMP,WM_KEYUP,257
4815,0,1,MESSAGE PUMP,WM_GETOBJECT,61
4817,0,1,MESSAGE PUMP,WM_GETOBJECT,61
4819,0,1,MESSAGE PUMP,Unknown,356
4826,0,1,MESSAGE PUMP,WM_GETOBJECT,61
4828,0,1,MESSAGE PUMP,Unknown,356
4835,0,1,MESSAGE PUMP,WM_GETOBJECT,61
4837,0,1,MESSAGE PUMP,Unknown,356
4844,0,1,MESSAGE PUMP,WM_GETOBJECT,61
4846,0,1,MESSAGE PUMP,Unknown,356
4852,0,1,MESSAGE PUMP,WM_GETOBJECT,61
4854,0,1,MESSAGE PUMP,Unknown,356
4865,0,1,MESSAGE PUMP,WM_GETOBJECT,61
4867,0,1,MESSAGE PUMP,Unknown,356
4879,0,1,MESSAGE PUMP,WM_GETOBJECT,61
4881,0,1,MESSAGE PUMP,Unknown,356
4885,0,1,MESSAGE PUMP,WM_GETOBJECT,61
4896,0,1,MESSAGE PUMP,WM_GETOBJECT,61
4898,0,1,MESSAGE PUMP,Unknown,356
4908,0,1,MESSAGE PUMP,WM_GETOBJECT,61
4910,0,1,MESSAGE PUMP,Unknown,356
4922,0,1,MESSAGE PUMP,WM_GETOBJECT,61
4924,0,1,MESSAGE PUMP,Unknown,356
4934,0,1,MESSAGE PUMP,WM_GETOBJECT,61
4934,0,1,MESSAGE PUMP,WM_KEYDOWN,256
4935,0,1,MESSAGE PUMP,Unknown,356
4938,0,1,MESSAGE PUMP,WM_KEYUP,257
4948,0,1,MESSAGE PUMP,WM_GETOBJECT,61
4950,0,1,MESSAGE PUMP,Unknown,356
4954,0,1,MESSAGE PUMP,WM_GETOBJECT,61
4965,0,1,MESSAGE PUMP,WM_GETOBJECT,61
4967,0,1,MESSAGE PUMP,Unknown,356
4978,0,1,MESSAGE PUMP,WM_GETOBJECT,61
4980,0,1,MESSAGE PUMP,Unknown,356
4992,0,1,MESSAGE PUMP,WM_GETOBJECT,61
4994,0,1,MESSAGE PUMP,Unknown,356
5002,0,1,MESSAGE PUMP,WM_KEYDOWN,256
5003,0,1,MESSAGE PUMP,WM_GETOBJECT,61
5005,0,1,MESSAGE PUMP,Unknown,356
5006,0,1,MESSAGE PUMP,WM_KEYUP,257
5015,0,1,MESSAGE PUMP,WM_GETOBJECT,61
5017,0,1,MESSAGE PUMP,Unknown,356
5022,0,1,MESSAGE PUMP,WM_GETOBJECT,61
5033,0,1,MESSAGE PUMP,WM_GETOBJECT,61
5035,0,1,MESSAGE PUMP,Unknown,356
5045,0,1,MESSAGE PUMP,WM_GETOBJECT,61
5047,0,1,MESSAGE PUMP,Unknown,356
5059,0,1,MESSAGE PUMP,WM_GETOBJECT,61
5061,0,1,MESSAGE PUMP,Unknown,356
5070,0,1,MESSAGE PUMP,WM_KEYDOWN,256
5071,0,1,MESSAGE PUMP,WM_GETOBJECT,61
5073,0,1,MESSAGE PUMP,Unknown,356
5074,0,1,MESSAGE PUMP,WM_KEYUP,257
5080,0,1,MESSAGE PUMP,WM_GETOBJECT,61
5082,0,1,MESSAGE PUMP,Unknown,356
5089,0,1,MESSAGE PUMP,WM_GETOBJECT,61
5092,0,1,MESSAGE PUMP,Unknown,356
5093,0,1,MESSAGE PUMP,WM_GETOBJECT,61
5096,0,1,MESSAGE PUMP,Unknown,356
5106,0,1,MESSAGE PUMP,WM_GETOBJECT,61
5109,0,1,MESSAGE PUMP,Unknown,356
5111,0,1,MESSAGE PUMP,Unknown,356
5117,0,1,MESSAGE PUMP,WM_GETOBJECT,61
5120,0,1,MESSAGE PUMP,Unknown,356
5134,0,1,MESSAGE PUMP,WM_GETOBJECT,61
5137,0,1,MESSAGE PUMP,Unknown,356
5138,0,1,MESSAGE PUMP,WM_KEYDOWN,256
5142,0,1,MESSAGE PUMP,WM_KEYUP,257
5148,0,1,MESSAGE PUMP,WM_GETOBJECT,61
5151,0,1,MESSAGE PUMP,Unknown,356
5158,0,1,MESSAGE PUMP,WM_GETOBJECT,61
5160,0,1,MESSAGE PUMP,Unknown,356
5167,0,1,MESSAGE PUMP,WM_GETOBJECT,61
5169,0,1,MESSAGE PUMP,Unknown,356
5176,0,1,MESSAGE PUMP,WM_GETOBJECT,61
5178,0,1,MESSAGE PUMP,Unknown,356
5206,0,1,MESSAGE PUMP,WM_KEYDOWN,256
5211,0,1,MESSAGE PUMP,WM_KEYUP,257
5213,0,1,MESSAGE PUMP,WM_GETOBJECT,61
5215,0,1,MESSAGE PUMP,Unknown,356
5222,0,1,MESSAGE PUMP,WM_GETOBJECT,61
5224,0,1,MESSAGE PUMP,Unknown,356
5275,0,1,MESSAGE PUMP,WM_KEYDOWN,256
5279,0,1,MESSAGE PUMP,WM_KEYUP,257
5281,0,1,MESSAGE PUMP,WM_GETOBJECT,61
5283,0,1,MESSAGE PUMP,Unknown,356
5290,0,1,MESSAGE PUMP,WM_GETOBJECT,61
5292,0,1,MESSAGE PUMP,Unknown,356
5403,0,1,MESSAGE PUMP,WM_KEYDOWN,256
5403,0,1,MESSAGE PUMP,WM_CHAR,258
5404,0,1,MESSAGE PUMP,WM_KEYUP,257
5405,0,1,MESSAGE PUMP,WM_GETOBJECT,61
5407,0,1,MESSAGE PUMP,WM_GETOBJECT,61
5409,0,1,MESSAGE PUMP,Unknown,356
5421,0,1,MESSAGE PUMP,WM_GETOBJECT,61
5423,0,1,MESSAGE PUMP,Unknown,356
5448,0,1,MESSAGE PUMP,WM_GETOBJECT,61
5450,0,1,MESSAGE PUMP,Unknown,356
5456,0,1,MESSAGE PUMP,WM_GETOBJECT,61
5458,0,1,MESSAGE PUMP,Unknown,356
5466,0,1,MESSAGE PUMP,Unknown,356
5553,0,1,MESSAGE PUMP,WM_KEYDOWN,256
5555,0,1,MESSAGE PUMP,WM_GETOBJECT,61
5557,0,1,MESSAGE PUMP,WM_GETOBJECT,61
5558,0,1,MESSAGE PUMP,WM_KEYUP,257
5559,0,1,MESSAGE PUMP,Unknown,356
5636,0,1,MESSAGE PUMP,WM_KEYDOWN,256
5638,0,1,MESSAGE PUMP,WM_GETOBJECT,61
5640,0,1,MESSAGE PUMP,WM_GETOBJECT,61
5641,0,1,MESSAGE PUMP,WM_KEYUP,257
5642,0,1,MESSAGE PUMP,Unknown,356
5789,0,1,MESSAGE PUMP,WM_KEYDOWN,256
5789,0,1,MESSAGE PUMP,WM_CHAR,258
5789,0,0,MESSAGE PUMP,WM_GETOBJECT,61
5789,0,0,MESSAGE PUMP,WM_GETOBJECT,61
5789,0,0,MESSAGE PUMP,WM_GETOBJECT,61
5789,0,0,MESSAGE PUMP,WM_GETOBJECT,61
5789,0,0,MESSAGE PUMP,WM_GETOBJECT,61
5789,0,0,MESSAGE PUMP,WM_GETOBJECT,61
5789,0,0,MESSAGE PUMP,WM_GETOBJECT,61
5789,0,0,MESSAGE PUMP,WM_GETOBJECT,61
5789,0,0,MESSAGE PUMP,WM_GETOBJECT,61
5789,0,0,MESSAGE PUMP,WM_GETOBJECT,61
5789,0,0,MESSAGE PUMP,WM_GETOBJECT,61
5789,0,0,MESSAGE PUMP,WM_GETOBJECT,61
5789,0,0,MESSAGE PUMP,WM_GETOBJECT,61
5789,0,0,MESSAGE PUMP,WM_GETOBJECT,61
5789,0,0,MESSAGE PUMP,WM_GETOBJECT,61
5789,0,0,MESSAGE PUMP,WM_GETOBJECT,61
5789,0,0,MESSAGE PUMP,WM_GETOBJECT,61
5789,0,0,MESSAGE PUMP,WM_GETOBJECT,61
5789,0,0,MESSAGE PUMP,WM_GETOBJECT,61
5789,0,0,MESSAGE PUMP,WM_GETOBJECT,61
5789,0,0,MESSAGE PUMP,WM_GETOBJECT,61
5789,0,0,MESSAGE PUMP,WM_GETOBJECT,61
5789,0,0,MESSAGE PUMP,WM_GETOBJECT,61
5789,0,0,MESSAGE PUMP,WM_GETOBJECT,61
5789,0,0,MESSAGE PUMP,WM_GETOBJECT,61
5789,0,0,MESSAGE PUMP,WM_GETOBJECT,61
5789,0,0,MESSAGE PUMP,WM_GETOBJECT,61
5789,0,0,MESSAGE PUMP,WM_GETOBJECT,61
5789,0,0,MESSAGE PUMP,WM_GETOBJECT,61
5789,0,0,MESSAGE PUMP,WM_GETOBJECT,61
5789,0,0,MESSAGE PUMP,WM_GETOBJECT,61
5789,0,0,MESSAGE PUMP,WM_GETOBJECT,61
5789,0,0,MESSAGE PUMP,WM_GETOBJECT,61
5789,0,0,MESSAGE PUMP,WM_GETOBJECT,61
5789,0,0,MESSAGE PUMP,WM_GETOBJECT,61
5791,0,1,MESSAGE PUMP,WM_GETOBJECT,61
5792,0,1,MESSAGE PUMP,WM_KEYUP,257
5793,0,1,MESSAGE PUMP,WM_GETOBJECT,61
5795,0,1,MESSAGE PUMP,Unknown,356
5804,0,1,MESSAGE PUMP,WM_GETOBJECT,61
5806,0,1,MESSAGE PUMP,Unknown,356
5812,0,1,MESSAGE PUMP,WM_GETOBJECT,61
5814,0,1,MESSAGE PUMP,Unknown,356
5821,0,1,MESSAGE PUMP,WM_GETOBJECT,61
5823,0,1,MESSAGE PUMP,Unknown,356
5830,0,1,MESSAGE PUMP,WM_GETOBJECT,61
5832,0,1,MESSAGE PUMP,Unknown,356
5843,0,1,MESSAGE PUMP,WM_GETOBJECT,61
5845,0,1,MESSAGE PUMP,Unknown,356
5849,0,1,MESSAGE PUMP,WM_GETOBJECT,61
5860,0,1,MESSAGE PUMP,WM_GETOBJECT,61
5862,0,1,MESSAGE PUMP,Unknown,356
5874,0,1,MESSAGE PUMP,WM_GETOBJECT,61
5876,0,1,MESSAGE PUMP,Unknown,356
5888,0,1,MESSAGE PUMP,WM_GETOBJECT,61
5890,0,1,MESSAGE PUMP,Unknown,356
5900,0,1,MESSAGE PUMP,WM_KEYDOWN,256
5901,0,1,MESSAGE PUMP,WM_GETOBJECT,61
5903,0,1,MESSAGE PUMP,Unknown,356
5904,0,1,MESSAGE PUMP,WM_KEYUP,257
5915,0,1,MESSAGE PUMP,WM_GETOBJECT,61
5917,0,1,MESSAGE PUMP,Unknown,356
5921,0,1,MESSAGE PUMP,WM_GETOBJECT,61
5932,0,1,MESSAGE PUMP,WM_GETOBJECT,61
5934,0,1,MESSAGE PUMP,Unknown,356
5946,0,1,MESSAGE PUMP,WM_GETOBJECT,61
5948,0,1,MESSAGE PUMP,Unknown,356
5960,0,1,MESSAGE PUMP,WM_GETOBJECT,61
5962,0,1,MESSAGE PUMP,Unknown,356
5968,0,1,MESSAGE PUMP,WM_KEYDOWN,256
5973,0,1,MESSAGE PUMP,WM_GETOBJECT,61
5973,0,1,MESSAGE PUMP,WM_KEYUP,257
5974,0,1,MESSAGE PUMP,Unknown,356
5986,0,1,MESSAGE PUMP,WM_GETOBJECT,61
5988,0,1,MESSAGE PUMP,Unknown,356
5992,0,1,MESSAGE PUMP,WM_GETOBJECT,61
6001,0,1,MESSAGE PUMP,WM_GETOBJECT,61
6003,0,1,MESSAGE PUMP,Unknown,356
6014,0,1,MESSAGE PUMP,WM_GETOBJECT,61
6016,0,1,MESSAGE PUMP,Unknown,356
6028,0,1,MESSAGE PUMP,WM_GETOBJECT,61
6030,0,1,MESSAGE PUMP,Unknown,356
6042,0,1,MESSAGE PUMP,WM_GETOBJECT,61
6044,0,1,MESSAGE PUMP,Unknown,356
6056,0,1,MESSAGE PUMP,WM_GETOBJECT,61
6058,0,1,MESSAGE PUMP,Unknown,356
6062,0,1,MESSAGE PUMP,WM_GETOBJECT,61
6068,0,1,MESSAGE PUMP,WM_GETOBJECT,61
6070,0,1,MESSAGE PUMP,Unknown,356
6078,0,1,MESSAGE PUMP,WM_GETOBJECT,61
6080,0,1,MESSAGE PUMP,Unknown,356
6088,0,1,MESSAGE PUMP,Unknown,356
6097,0,1,MESSAGE PUMP,WM_KEYDOWN,256
6100,0,1,MESSAGE PUMP,WM_KEYUP,257
6104,0,1,MESSAGE PUMP,WM_GETOBJECT,61
6107,0,1,MESSAGE PUMP,Unknown,356
6116,0,1,MESSAGE PUMP,WM_GETOBJECT,61
6118,0,1,MESSAGE PUMP,Unknown,356
6164,0,1,MESSAGE PUMP,WM_KEYDOWN,256
6169,0,1,MESSAGE PUMP,WM_KEYUP,257
6171,0,1,MESSAGE PUMP,WM_GETOBJECT,61
6173,0,1,MESSAGE PUMP,Unknown,356
6180,0,1,MESSAGE PUMP,WM_GETOBJECT,61
6182,0,1,MESSAGE PUMP,Unknown,356
6233,0,1,MESSAGE PUMP,WM_KEYDOWN,256
6238,0,1,MESSAGE PUMP,WM_KEYUP,257
6240,0,1,MESSAGE PUMP,WM_GETOBJECT,61
6242,0,1,MESSAGE PUMP,Unknown,356
6249,0,1,MESSAGE PUMP,WM_GETOBJECT,61
6251,0,1,MESSAGE PUMP,Unknown,356
6294,0,1,MESSAGE PUMP,WM_KEYDOWN,256
6298,0,1,MESSAGE PUMP,WM_KEYUP,257
6300,0,1,MESSAGE PUMP,WM_GETOBJECT,61
6302,0,1,MESSAGE PUMP,Unknown,356
6309,0,1,MESSAGE PUMP,WM_GETOBJECT,61
6311,0,1,MESSAGE PUMP,Unknown,356
6363,0,1,MESSAGE PUMP,WM_KEYDOWN,256
6367,0,1,MESSAGE PUMP,WM_KEYUP,257
6369,0,1,MESSAGE PUMP,WM_GETOBJECT,61
6371,0,1,MESSAGE PUMP,Unknown,356
6378,0,1,MESSAGE PUMP,WM_GETOBJECT,61
6380,0,1,MESSAGE PUMP,Unknown,356
6432,0,1,MESSAGE PUMP,WM_KEYDOWN,256
6437,0,1,MESSAGE PUMP,WM_KEYUP,257
6439,0,1,MESSAGE PUMP,WM_GETOBJECT,61
6441,0,1,MESSAGE PUMP,Unknown,356
6448,0,1,MESSAGE PUMP,WM_GETOBJECT,61
6450,0,1,MESSAGE PUMP,Unknown,356
6500,0,1,MESSAGE PUMP,WM_KEYDOWN,256
6504,0,1,MESSAGE PUMP,WM_KEYUP,257
6506,0,1,MESSAGE PUMP,WM_GETOBJECT,61
6508,0,1,MESSAGE PUMP,Unknown,356
6515,0,1,MESSAGE PUMP,WM_GETOBJECT,61
6517,0,1,MESSAGE PUMP,Unknown,356
6627,0,1,MESSAGE PUMP,WM_KEYDOWN,256
6627,0,1,MESSAGE PUMP,WM_CHAR,258
6629,0,1,MESSAGE PUMP,WM_GETOBJECT,61
6629,0,1,MESSAGE PUMP,WM_KEYUP,257
6630,0,1,MESSAGE PUMP,WM_GETOBJECT,61
6632,0,1,MESSAGE PUMP,Unknown,356
6643,0,1,MESSAGE PUMP,WM_GETOBJECT,61
6645,0,1,MESSAGE PUMP,Unknown,356
6670,0,1,MESSAGE PUMP,WM_GETOBJECT,61
6672,0,1,MESSAGE PUMP,Unknown,356
6678,0,1,MESSAGE PUMP,WM_GETOBJECT,61
6680,0,1,MESSAGE PUMP,Unknown,356
6688,0,1,MESSAGE PUMP,Unknown,356
6782,0,1,MESSAGE PUMP,WM_KEYDOWN,256
6784,0,1,MESSAGE PUMP,WM_GETOBJECT,61
6786,0,1,MESSAGE PUMP,WM_GETOBJECT,61
6786,0,1,MESSAGE PUMP,WM_KEYUP,257
6787,0,1,MESSAGE PUMP,Unknown,356
6866,0,1,MESSAGE PUMP,WM_KEYDOWN,256
6868,0,1,MESSAGE PUMP,WM_GETOBJECT,61
6870,0,1,MESSAGE PUMP,WM_GETOBJECT,61
6871,0,1,MESSAGE PUMP,WM_KEYUP,257
6872,0,1,MESSAGE PUMP,Unknown,356
7024,0,1,MESSAGE PUMP,WM_KEYDOWN,256
7024,0,1,MESSAGE PUMP,WM_CHAR,258
7024,0,0,MESSAGE PUMP,WM_GETOBJECT,61
7024,0,0,MESSAGE PUMP,WM_GETOBJECT,61
7024,0,0,MESSAGE PUMP,WM_GETOBJECT,61
7024,0,0,MESSAGE PUMP,WM_GETOBJECT,61
7024,0,0,MESSAGE PUMP,WM_GETOBJECT,61
7024,0,0,MESSAGE PUMP,WM_GETOBJECT,61
7024,0,0,MESSAGE PUMP,WM_GETOBJECT,61
7024,0,0,MESSAGE PUMP,WM_GETOBJECT,61
7024,0,0,MESSAGE PUMP,WM_GETOBJECT,61
7024,0,0,MESSAGE PUMP,WM_GETOBJECT,61
7024,0,0,MESSAGE PUMP,WM_GETOBJECT,61
7024,0,0,MESSAGE PUMP,WM_GETOBJECT,61
7024,0,0,MESSAGE PUMP,WM_GETOBJECT,61
7024,0,0,MESSAGE PUMP,WM_GETOBJECT,61
7024,0,0,MESSAGE PUMP,WM_GETOBJECT,61
7024,0,0,MESSAGE PUMP,WM_GETOBJECT,61
7024,0,0,MESSAGE PUMP,WM_GETOBJECT,61
7024,0,0,MESSAGE PUMP,WM_GETOBJECT,61
7024,0,0,MESSAGE PUMP,WM_GETOBJECT,61
7024,0,0,MESSAGE PUMP,WM_GETOBJECT,61
7024,0,0,MESSAGE PUMP,WM_GETOBJECT,61
7024,0,0,MESSAGE PUMP,WM_GETOBJECT,61
7024,0,0,MESSAGE PUMP,WM_GETOBJECT,61
7024,0,0,MESSAGE PUMP,WM_GETOBJECT,61
7024,0,0,MESSAGE PUMP,WM_GETOBJECT,61
7024,0,0,MESSAGE PUMP,WM_GETOBJECT,61
7024,0,0,MESSAGE PUMP,WM_GETOBJECT,61
7024,0,0,MESSAGE PUMP,WM_GETOBJECT,61
7024,0,0,MESSAGE PUMP,WM_GETOBJECT,61
7024,0,0,MESSAGE PUMP,WM_GETOBJECT,61
7024,0,0,MESSAGE PUMP,WM_GETOBJECT,61
7024,0,0,MESSAGE PUMP,WM_GETOBJECT,61
7024,0,0,MESSAGE PUMP,WM_GETOBJECT,61
7024,0,0,MESSAGE PUMP,WM_GETOBJECT,61
7024,0,0,MESSAGE PUMP,WM_GETOBJECT,61
7026,0,1,MESSAGE PUMP,WM_GETOBJECT,61
7026,0,1,MESSAGE PUMP,WM_KEYUP,257
7027,0,1,MESSAGE PUMP,WM_GETOBJECT,61
7029,0,1,MESSAGE PUMP,Unknown,356
7038,0,1,MESSAGE PUMP,WM_GETOBJECT,61
7040,0,1,MESSAGE PUMP,Unknown,356
7047,0,1,MESSAGE PUMP,WM_GETOBJECT,61
7049,0,1,MESSAGE PUMP,Unknown,356
7056,0,1,MESSAGE PUMP,WM_GETOBJECT,61
7058,0,1,MESSAGE PUMP,Unknown,356
7065,0,1,MESSAGE PUMP,WM_GETOBJECT,61
7067,0,1,MESSAGE PUMP,Unknown,356
7079,0,1,MESSAGE PUMP,WM_GETOBJECT,61
7081,0,1,MESSAGE PUMP,Unknown,356
7085,0,1,MESSAGE PUMP,WM_GETOBJECT,61
7096,0,1,MESSAGE PUMP,WM_GETOBJECT,61
7098,0,1,MESSAGE PUMP,Unknown,356
7110,0,1,MESSAGE PUMP,WM_GETOBJECT,61
7112,0,1,MESSAGE PUMP,Unknown,356
7123,0,1,MESSAGE PUMP,WM_GETOBJECT,61
7125,0,1,MESSAGE PUMP,Unknown,356
7137,0,1,MESSAGE PUMP,WM_GETOBJECT,61
7139,0,1,MESSAGE PUMP,Unknown,356
7151,0,1,MESSAGE PUMP,WM_GETOBJECT,61
7151,0,1,MESSAGE PUMP,WM_KEYDOWN,256
7152,0,1,MESSAGE PUMP,Unknown,356
7155,0,1,MESSAGE PUMP,WM_KEYUP,257
7155,0,1,MESSAGE PUMP,WM_GETOBJECT,61
7166,0,1,MESSAGE PUMP,WM_GETOBJECT,61
7168,0,1,MESSAGE PUMP,Unknown,356
7180,0,1,MESSAGE PUMP,WM_GETOBJECT,61
7182,0,1,MESSAGE PUMP,Unknown,356
7194,0,1,MESSAGE PUMP,WM_GETOBJECT,61
7196,0,1,MESSAGE PUMP,Unknown,356
7208,0,1,MESSAGE PUMP,WM_GETOBJECT,61
7210,0,1,MESSAGE PUMP,Unknown,356
7214,0,1,MESSAGE PUMP,WM_GETOBJECT,61
7215,0,1,MESSAGE PUMP,WM_KEYDOWN,256
7219,0,1,MESSAGE PUMP,WM_KEYUP,257
7224,0,1,MESSAGE PUMP,WM_GETOBJECT,61
7226,0,1,MESSAGE PUMP,Unknown,356
7238,0,1,MESSAGE PUMP,WM_GETOBJECT,61
7240,0,1,MESSAGE PUMP,Unknown,356
7252,0,1,MESSAGE PUMP,WM_GETOBJECT,61
7254,0,1,MESSAGE PUMP,Unknown,356
7266,0,1,MESSAGE PUMP,WM_GETOBJECT,61
7268,0,1,MESSAGE PUMP,Unknown,356
7279,0,1,MESSAGE PUMP,WM_GETOBJECT,61
7281,0,1,MESSAGE PUMP,Unknown,356
7285,0,1,MESSAGE PUMP,WM_GETOBJECT,61
7296,0,1,MESSAGE PUMP,WM_GETOBJECT,61
7298,0,1,MESSAGE PUMP,Unknown,356
7305,0,1,MESSAGE PUMP,WM_GETOBJECT,61
7307,0,1,MESSAGE PUMP,Unknown,356
7315,0,1,MESSAGE PUMP,WM_GETOBJECT,61
7317,0,1,MESSAGE PUMP,Unknown,356
7325,0,1,MESSAGE PUMP,Unknown,356
7343,0,1,MESSAGE PUMP,WM_KEYDOWN,256
7347,0,1,MESSAGE PUMP,WM_KEYUP,257
7349,0,1,MESSAGE PUMP,WM_GETOBJECT,61
7351,0,1,MESSAGE PUMP,Unknown,356
7358,0,1,MESSAGE PUMP,WM_GETOBJECT,61
7360,0,1,MESSAGE PUMP,Unknown,356
7408,0,1,MESSAGE PUMP,WM_KEYDOWN,256
7412,0,1,MESSAGE PUMP,WM_KEYUP,257
7414,0,1,MESSAGE PUMP,WM_GETOBJECT,61
7416,0,1,MESSAGE PUMP,Unknown,356
7423,0,1,MESSAGE PUMP,WM_GETOBJECT,61
7425,0,1,MESSAGE PUMP,Unknown,356
7477,0,1,MESSAGE PUMP,WM_KEYDOWN,256
7481,0,1,MESSAGE PUMP,WM_KEYUP,257
7483,0,1,MESSAGE PUMP,WM_GETOBJECT,61
7485,0,1,MESSAGE PUMP,Unknown,356
7492,0,1,MESSAGE PUMP,WM_GETOBJECT,61
7494,0,1,MESSAGE PUMP,Unknown,356
7606,0,1,MESSAGE PUMP,WM_KEYDOWN,256
7606,0,1,MESSAGE PUMP,WM_CHAR,258
7606,0,1,MESSAGE PUMP,WM_KEYUP,257
7608,0,1,MESSAGE PUMP,WM_GETOBJECT,61
7610,0,1,MESSAGE PUMP,WM_GETOBJECT,61
7612,0,1,MESSAGE PUMP,Unknown,356
7623,0,1,MESSAGE PUMP,WM_GETOBJECT,61
7625,0,1,MESSAGE PUMP,Unknown,356
7650,0,1,MESSAGE PUMP,WM_GETOBJECT,61
7652,0,1,MESSAGE PUMP,Unknown,356
7658,0,1,MESSAGE PUMP,WM_GETOBJECT,61
7660,0,1,MESSAGE PUMP,Unknown,356
7668,0,1,MESSAGE PUMP,Unknown,356
7749,0,1,MESSAGE PUMP,WM_KEYDOWN,256
7751,0,1,MESSAGE PUMP,WM_GETOBJECT,61
7753,0,1,MESSAGE PUMP,WM_GETOBJECT,61
7753,0,1,MESSAGE PUMP,WM_KEYUP,257
7754,0,1,MESSAGE PUMP,Unknown,356
7832,0,1,MESSAGE PUMP,WM_KEYDOWN,256
7834,0,1,MESSAGE PUMP,WM_GETOBJECT,61
7836,0,1,MESSAGE PUMP,WM_GETOBJECT,61
7837,0,1,MESSAGE PUMP,WM_KEYUP,257
7838,0,1,MESSAGE PUMP,Unknown,356
7983,0,1,MESSAGE PUMP,WM_KEYDOWN,256
7985,0,1,MESSAGE PUMP,WM_GETOBJECT,61
7987,0,1,MESSAGE PUMP,WM_GETOBJECT,61
7988,0,1,MESSAGE PUMP,WM_KEYUP,257
7989,0,1,MESSAGE PUMP,Unknown,356
8067,0,1,MESSAGE PUMP,WM_KEYDOWN,256
8069,0,1,MESSAGE PUMP,WM_GETOBJECT,61
8071,0,1,MESSAGE PUMP,WM_GETOBJECT,61
8071,0,1,MESSAGE PUMP,WM_KEYUP,257
8072,0,1,MESSAGE PUMP,Unknown,356
8149,0,1,MESSAGE PUMP,WM_KEYDOWN,256
8151,0,1,MESSAGE PUMP,WM_GETOBJECT,61
8153,0,1,MESSAGE PUMP,WM_GETOBJECT,61
8153,0,1,MESSAGE PUMP,WM_KEYUP,257
8154,0,1,MESSAGE PUMP,Unknown,356
8232,0,1,MESSAGE PUMP,WM_KEYDOWN,256
8234,0,1,MESSAGE PUMP,WM_GETOBJECT,61
8236,0,1,MESSAGE PUMP,WM_GETOBJECT,61
8237,0,1,MESSAGE PUMP,WM_KEYUP,257
8238,0,1,MESSAGE PUMP,Unknown,356
8316,0,1,MESSAGE PUMP,WM_KEYDOWN,256
8318,0,1,MESSAGE PUMP,WM_GETOBJECT,61
8320,0,1,MESSAGE PUMP,WM_GETOBJECT,61
8320,0,1,MESSAGE PUMP,WM_KEYUP,257
8321,0,1,MESSAGE PUMP,Unknown,356
8399,0,1,MESSAGE PUMP,WM_KEYDOWN,256
8401,0,1,MESSAGE PUMP,WM_GETOBJECT,61
8403,0,1,MESSAGE PUMP,WM_GETOBJECT,61
8404,0,1,MESSAGE PUMP,WM_KEYUP,257
8405,0,1,MESSAGE PUMP,Unknown,356
8484,0,1,MESSAGE PUMP,WM_KEYDOWN,256
8486,0,1,MESSAGE PUMP,WM_GETOBJECT,61
8488,0,1,MESSAGE PUMP,WM_GETOBJECT,61
8488,0,1,MESSAGE PUMP,WM_KEYUP,257
8489,0,1,MESSAGE PUMP,Unknown,356
8566,0,1,MESSAGE PUMP,WM_KEYDOWN,256
8568,0,1,MESSAGE PUMP,WM_GETOBJECT,61
8570,0,1,MESSAGE PUMP,WM_GETOBJECT,61
8571,0,1,MESSAGE PUMP,WM_KEYUP,257
8572,0,1,MESSAGE PUMP,Unknown,356
8726,0,1,MESSAGE PUMP,WM_KEYDOWN,256
8728,0,1,MESSAGE PUMP,WM_GETOBJECT,61
8729,0,1,MESSAGE PUMP,WM_KEYUP,257
8730,0,1,MESSAGE PUMP,WM_GETOBJECT,61
8732,0,1,MESSAGE PUMP,Unknown,356
8857,0,1,MESSAGE PUMP,WM_KEYDOWN,256
8857,0,1,MESSAGE PUMP,WM_CHAR,258
8857,0,0,MESSAGE PUMP,WM_GETOBJECT,61
8857,0,0,MESSAGE PUMP,WM_GETOBJECT,61
8857,0,0,MESSAGE PUMP,WM_GETOBJECT,61
8857,0,0,MESSAGE PUMP,WM_GETOBJECT,61
8857,0,0,MESSAGE PUMP,WM_GETOBJECT,61
8857,0,0,MESSAGE PUMP,WM_GETOBJECT,61
8857,0,0,MESSAGE PUMP,WM_GETOBJECT,61
8857,0,0,MESSAGE PUMP,WM_GETOBJECT,61
8857,0,0,MESSAGE PUMP,WM_GETOBJECT,61
8857,0,0,MESSAGE PUMP,WM_GETOBJECT,61
8857,0,0,MESSAGE PUMP,WM_GETOBJECT,61
8857,0,0,MESSAGE PUMP,WM_GETOBJECT,61
8857,0,0,MESSAGE PUMP,WM_GETOBJECT,61
8857,0,0,MESSAGE PUMP,WM_GETOBJECT,61
8857,0,0,MESSAGE PUMP,WM_GETOBJECT,61
8857,0,0,MESSAGE PUMP,WM_GETOBJECT,61
8857,0,0,MESSAGE PUMP,WM_GETOBJECT,61
8857,0,0,MESSAGE PUMP,WM_GETOBJECT,61
8857,0,0,MESSAGE PUMP,WM_GETOBJECT,61
8857,0,0,MESSAGE PUMP,WM_GETOBJECT,61
8857,0,0,MESSAGE PUMP,WM_GETOBJECT,61
8857,0,0,MESSAGE PUMP,WM_GETOBJECT,61
8857,0,0,MESSAGE PUMP,WM_GETOBJECT,61
8857,0,0,MESSAGE PUMP,WM_GETOBJECT,61
8857,0,0,MESSAGE PUMP,WM_GETOBJECT,61
8857,0,0,MESSAGE PUMP,WM_GETOBJECT,61
8857,0,0,MESSAGE PUMP,WM_GETOBJECT,61
8857,0,0,MESSAGE PUMP,WM_GETOBJECT,61
8857,0,0,MESSAGE PUMP,WM_GETOBJECT,61
8857,0,0,MESSAGE PUMP,WM_GETOBJECT,61
8857,0,0,MESSAGE PUMP,WM_GETOBJECT,61
8857,0,0,MESSAGE PUMP,WM_GETOBJECT,61
8857,0,0,MESSAGE PUMP,WM_GETOBJECT,61
8857,0,0,MESSAGE PUMP,WM_GETOBJECT,61
8857,0,0,MESSAGE PUMP,WM_GETOBJECT,61
8859,0,1,MESSAGE PUMP,WM_KEYUP,257
8861,0,1,MESSAGE PUMP,WM_GETOBJECT,61
8863,0,1,MESSAGE PUMP,WM_GETOBJECT,61
8865,0,1,MESSAGE PUMP,Unknown,356
8872,0,1,MESSAGE PUMP,WM_GETOBJECT,61
8874,0,1,MESSAGE PUMP,Unknown,356
8881,0,1,MESSAGE PUMP,WM_GETOBJECT,61
8883,0,1,MESSAGE PUMP,Unknown,356
8890,0,1,MESSAGE PUMP,WM_GETOBJECT,61
8892,0,1,MESSAGE PUMP,Unknown,356
8899,0,1,MESSAGE PUMP,WM_GETOBJECT,61
8901,0,1,MESSAGE PUMP,Unknown,356
8913,0,1,MESSAGE PUMP,WM_GETOBJECT,61
8915,0,1,MESSAGE PUMP,Unknown,356
8925,0,1,MESSAGE PUMP,WM_GETOBJECT,61
8927,0,1,MESSAGE PUMP,Unknown,356
8932,0,1,MESSAGE PUMP,WM_GETOBJECT,61
8942,0,1,MESSAGE PUMP,WM_GETOBJECT,61
8944,0,1,MESSAGE PUMP,Unknown,356
8956,0,1,MESSAGE PUMP,WM_GETOBJECT,61
8958,0,1,MESSAGE PUMP,Unknown,356
8969,0,1,MESSAGE PUMP,WM_GETOBJECT,61
8971,0,1,MESSAGE PUMP,Unknown,356
8982,0,1,MESSAGE PUMP,WM_KEYDOWN,256
8982,0,1,MESSAGE PUMP,WM_GETOBJECT,61
8984,0,1,MESSAGE PUMP,Unknown,356
8987,0,1,MESSAGE PUMP,WM_KEYUP,257
8995,0,1,MESSAGE PUMP,WM_GETOBJECT,61
8997,0,1,MESSAGE PUMP,Unknown,356
9001,0,1,MESSAGE PUMP,WM_GETOBJECT,61
9011,0,1,MESSAGE PUMP,WM_GETOBJECT,61
9013,0,1,MESSAGE PUMP,Unknown,356
9025,0,1,MESSAGE PUMP,WM_GETOBJECT,61
9027,0,1,MESSAGE PUMP,Unknown,356
9037,0,1,MESSAGE PUMP,WM_GETOBJECT,61
9039,0,1,MESSAGE PUMP,Unknown,356
9052,0,1,MESSAGE PUMP,WM_GETOBJECT,61
9054,0,1,MESSAGE PUMP,Unknown,356
9065,0,1,MESSAGE PUMP,WM_GETOBJECT,61
9067,0,1,MESSAGE PUMP,Unknown,356
9071,0,1,MESSAGE PUMP,WM_GETOBJECT,61
9080,0,1,MESSAGE PUMP,WM_GETOBJECT,61
9082,0,1,MESSAGE PUMP,Unknown,356
9095,0,1,MESSAGE PUMP,WM_GETOBJECT,61
9097,0,1,MESSAGE PUMP,Unknown,356
9109,0,1,MESSAGE PUMP,WM_GETOBJECT,61
9110,0,1,MESSAGE PUMP,WM_KEYDOWN,256
9110,0,1,MESSAGE PUMP,Unknown,356
9115,0,1,MESSAGE PUMP,WM_KEYUP,257
9122,0,1,MESSAGE PUMP,WM_GETOBJECT,61
9124,0,1,MESSAGE PUMP,Unknown,356
9131,0,1,MESSAGE PUMP,WM_GETOBJECT,61
9133,0,1,MESSAGE PUMP,Unknown,356
9140,0,1,MESSAGE PUMP,WM_GETOBJECT,61
9143,0,1,MESSAGE PUMP,Unknown,356
9144,0,1,MESSAGE PUMP,WM_GETOBJECT,61
9147,0,1,MESSAGE PUMP,Unknown,356
9157,0,1,MESSAGE PUMP,WM_GETOBJECT,61
9160,0,1,MESSAGE PUMP,Unknown,356
9164,0,1,MESSAGE PUMP,Unknown,356
9178,0,1,MESSAGE PUMP,WM_KEYDOWN,256
9183,0,1,MESSAGE PUMP,WM_KEYUP,257
9185,0,1,MESSAGE PUMP,WM_GETOBJECT,61
9187,0,1,MESSAGE PUMP,Unknown,356
9194,0,1,MESSAGE PUMP,WM_GETOBJECT,61
9196,0,1,MESSAGE PUMP,Unknown,356
9247,0,1,MESSAGE PUMP,WM_KEYDOWN,256
9251,0,1,MESSAGE PUMP,WM_KEYUP,257
9253,0,1,MESSAGE PUMP,WM_GETOBJECT,61
9255,0,1,MESSAGE PUMP,Unknown,356
9262,0,1,MESSAGE PUMP,WM_GETOBJECT,61
9264,0,1,MESSAGE PUMP,Unknown,356
9316,0,1,MESSAGE PUMP,WM_KEYDOWN,256
9320,0,1,MESSAGE PUMP,WM_KEYUP,257
9322,0,1,MESSAGE PUMP,WM_GETOBJECT,61
9324,0,1,MESSAGE PUMP,Unknown,356
9331,0,1,MESSAGE PUMP,WM_GETOBJECT,61
9333,0,1,MESSAGE PUMP,Unknown,356
9384,0,1,MESSAGE PUMP,WM_KEYDOWN,256
9389,0,1,MESSAGE PUMP,WM_KEYUP,257
9391,0,1,MESSAGE PUMP,WM_GETOBJECT,61
9393,0,1,MESSAGE PUMP,Unknown,356
9400,0,1,MESSAGE PUMP,WM_GETOBJECT,61
9402,0,1,MESSAGE PUMP,Unknown,356
9511,0,1,MESSAGE PUMP,WM_KEYDOWN,256
9575,0,1,MESSAGE PUMP,WM_KEYDOWN,256
9579,0,1,MESSAGE PUMP,WM_KEYUP,257
9581,0,1,MESSAGE PUMP,WM_GETOBJECT,61
9583,0,1,MESSAGE PUMP,Unknown,356
9590,0,1,MESSAGE PUMP,WM_GETOBJECT,61
9592,0,1,MESSAGE PUMP,Unknown,356
9642,0,1,MESSAGE PUMP,WM_KEYUP,257
9762,0,1,MESSAGE PUMP,WM_KEYDOWN,256
9762,0,1,MESSAGE PUMP,WM_CHAR,258
9764,0,1,MESSAGE PUMP,WM_GETOBJECT,61
9764,0,1,MESSAGE PUMP,WM_KEYUP,257
9765,0,1,MESSAGE PUMP,WM_GETOBJECT,61
9767,0,1,MESSAGE PUMP,Unknown,356
9779,0,1,MESSAGE PUMP,WM_GETOBJECT,61
9781,0,1,MESSAGE PUMP,Unknown,356
9806,0,1,MESSAGE PUMP,WM_GETOBJECT,61
9808,0,1,MESSAGE PUMP,Unknown,356
9814,0,1,MESSAGE PUMP,WM_GETOBJECT,61
9816,0,1,MESSAGE PUMP,Unknown,356
9824,0,1,MESSAGE PUMP,Unknown,356
9917,0,1,MESSAGE PUMP,WM_KEYDOWN,256
9919,0,1,MESSAGE PUMP,WM_GETOBJECT,61
9921,0,1,MESSAGE PUMP,WM_GETOBJECT,61
9922,0,1,MESSAGE PUMP,WM_KEYUP,257
9923,0,1,MESSAGE PUMP,Unknown,356
9989,0,1,MESSAGE PUMP,WM_KEYDOWN,256
9991,0,1,MESSAGE PUMP,WM_GETOBJECT,61
9993,0,1,MESSAGE PUMP,WM_GETOBJECT,61
9994,0,1,MESSAGE PUMP,WM_KEYUP,257
9995,0,1,MESSAGE PUMP,Unknown,356
10121,0,1,MESSAGE PUMP,WM_KEYDOWN,256
10121,0,1,MESSAGE PUMP,WM_CHAR,258
10121,0,0,MESSAGE PUMP,WM_GETOBJECT,61
10121,0,0,MESSAGE PUMP,WM_GETOBJECT,61
10121,0,0,MESSAGE PUMP,WM_GETOBJECT,61
10121,0,0,MESSAGE PUMP,WM_GETOBJECT,61
10121,0,0,MESSAGE PUMP,WM_GETOBJECT,61
10121,0,0,MESSAGE PUMP,WM_GETOBJECT,61
10121,0,0,MESSAGE PUMP,WM_GETOBJECT,61
10121,0,0,MESSAGE PUMP,WM_GETOBJECT,61
10121,0,0,MESSAGE PUMP,WM_GETOBJECT,61
10121,0,0,MESSAGE PUMP,WM_GETOBJECT,61
10121,0,0,MESSAGE PUMP,WM_GETOBJECT,61
10121,0,0,MESSAGE PUMP,WM_GETOBJECT,61
10121,0,0,MESSAGE PUMP,WM_GETOBJECT,61
10121,0,0,MESSAGE PUMP,WM_GETOBJECT,61
10121,0,0,MESSAGE PUMP,WM_GETOBJECT,61
10121,0,0,MESSAGE PUMP,WM_GETOBJECT,61
10121,0,0,MESSAGE PUMP,WM_GETOBJECT,61
10121,0,0,MESSAGE PUMP,WM_GETOBJECT,61
10121,0,0,MESSAGE PUMP,WM_GETOBJECT,61
10121,0,0,MESSAGE PUMP,WM_GETOBJECT,61
10121,0,0,MESSAGE PUMP,WM_GETOBJECT,61
10121,0,0,MESSAGE PUMP,WM_GETOBJECT,61
10121,0,0,MESSAGE PUMP,WM_GETOBJECT,61
10121,0,0,MESSAGE PUMP,WM_GETOBJECT,61
10121,0,0,MESSAGE PUMP,WM_GETOBJECT,61
10121,0,0,MESSAGE PUMP,WM_GETOBJECT,61
10121,0,0,MESSAGE PUMP,WM_GETOBJECT,61
10121,0,0,MESSAGE PUMP,WM_GETOBJECT,61
10121,0,0,MESSAGE PUMP,WM_GETOBJECT,61
10121,0,0,MESSAGE PUMP,WM_GETOBJECT,61
10121,0,0,MESSAGE PUMP,WM_GETOBJECT,61
10121,0,0,MESSAGE PUMP,WM_GETOBJECT,61
10121,0,0,MESSAGE PUMP,WM_GETOBJECT,61
10121,0,0,MESSAGE PUMP,WM_GETOBJECT,61
10121,0,0,MESSAGE PUMP,WM_GETOBJECT,61
10123,0,1,MESSAGE PUMP,WM_KEYUP,257
10124,0,1,MESSAGE PUMP,WM_GETOBJECT,61
10126,0,1,MESSAGE PUMP,Unknown,356
10129,0,1,MESSAGE PUMP,WM_GETOBJECT,61
10136,0,1,MESSAGE PUMP,WM_GETOBJECT,61
10138,0,1,MESSAGE PUMP,Unknown,356
10144,0,1,MESSAGE PUMP,WM_GETOBJECT,61
10146,0,1,MESSAGE PUMP,Unknown,356
10153,0,1,MESSAGE PUMP,WM_GETOBJECT,61
10155,0,1,MESSAGE PUMP,Unknown,356
10162,0,1,MESSAGE PUMP,WM_GETOBJECT,61
10164,0,1,MESSAGE PUMP,Unknown,356
10176,0,1,MESSAGE PUMP,WM_GETOBJECT,61
10178,0,1,MESSAGE PUMP,Unknown,356
10190,0,1,MESSAGE PUMP,WM_GETOBJECT,61
10192,0,1,MESSAGE PUMP,Unknown,356
10196,0,1,MESSAGE PUMP,WM_GETOBJECT,61
10207,0,1,MESSAGE PUMP,WM_GETOBJECT,61
10209,0,1,MESSAGE PUMP,Unknown,356
10221,0,1,MESSAGE PUMP,WM_GETOBJECT,61
10223,0,1,MESSAGE PUMP,Unknown,356
10235,0,1,MESSAGE PUMP,WM_GETOBJECT,61
10237,0,1,MESSAGE PUMP,Unknown,356
10237,0,1,MESSAGE PUMP,WM_KEYDOWN,256
10248,0,1,MESSAGE PUMP,WM_GETOBJECT,61
10250,0,1,MESSAGE PUMP,Unknown,356
10254,0,1,MESSAGE PUMP,WM_GETOBJECT,61
10265,0,1,MESSAGE PUMP,WM_GETOBJECT,61
10267,0,1,MESSAGE PUMP,Unknown,356
10279,0,1,MESSAGE PUMP,WM_GETOBJECT,61
10281,0,1,MESSAGE PUMP,Unknown,356
10292,0,1,MESSAGE PUMP,WM_GETOBJECT,61
10294,0,1,MESSAGE PUMP,Unknown,356
10295,0,1,MESSAGE PUMP,WM_KEYDOWN,256
10298,0,1,MESSAGE PUMP,WM_KEYUP,257
10305,0,1,MESSAGE PUMP,WM_GETOBJECT,61
10307,0,1,MESSAGE PUMP,Unknown,356
10311,0,1,MESSAGE PUMP,WM_GETOBJECT,61
10321,0,1,MESSAGE PUMP,WM_GETOBJECT,61
10323,0,1,MESSAGE PUMP,Unknown,356
10335,0,1,MESSAGE PUMP,WM_GETOBJECT,61
10337,0,1,MESSAGE PUMP,Unknown,356
10349,0,1,MESSAGE PUMP,WM_GETOBJECT,61
10351,0,1,MESSAGE PUMP,Unknown,356
10361,0,1,MESSAGE PUMP,WM_GETOBJECT,61
10362,0,1,MESSAGE PUMP,WM_KEYUP,257
10363,0,1,MESSAGE PUMP,Unknown,356
10375,0,1,MESSAGE PUMP,WM_GETOBJECT,61
10377,0,1,MESSAGE PUMP,Unknown,356
10381,0,1,MESSAGE PUMP,WM_GETOBJECT,61
10392,0,1,MESSAGE PUMP,WM_GETOBJECT,61
10394,0,1,MESSAGE PUMP,Unknown,356
10401,0,1,MESSAGE PUMP,WM_GETOBJECT,61
10403,0,1,MESSAGE PUMP,Unknown,356
10411,0,1,MESSAGE PUMP,WM_GETOBJECT,61
10413,0,1,MESSAGE PUMP,WM_GETOBJECT,61
10415,0,1,MESSAGE PUMP,Unknown,356
10415,0,1,MESSAGE PUMP,Unknown,356
10428,0,1,MESSAGE PUMP,WM_GETOBJECT,61
10431,0,1,MESSAGE PUMP,Unknown,356
10431,0,1,MESSAGE PUMP,Unknown,356
10488,0,1,MESSAGE PUMP,WM_KEYDOWN,256
10492,0,1,MESSAGE PUMP,WM_KEYUP,257
10616,0,1,MESSAGE PUMP,WM_KEYDOWN,256
10620,0,1,MESSAGE PUMP,WM_KEYUP,257
10622,0,1,MESSAGE PUMP,WM_GETOBJECT,61
10624,0,1,MESSAGE PUMP,Unknown,356
10631,0,1,MESSAGE PUMP,WM_GETOBJECT,61
10633,0,1,MESSAGE PUMP,Unknown,356
10681,0,1,MESSAGE PUMP,WM_KEYDOWN,256
10686,0,1,MESSAGE PUMP,WM_KEYUP,257
10688,0,1,MESSAGE PUMP,WM_GETOBJECT,61
10690,0,1,MESSAGE PUMP,Unknown,356
10697,0,1,MESSAGE PUMP,WM_GETOBJECT,61
10699,0,1,MESSAGE PUMP,Unknown,356
10750,0,1,MESSAGE PUMP,WM_KEYDOWN,256
10754,0,1,MESSAGE PUMP,WM_KEYUP,257
10756,0,1,MESSAGE PUMP,WM_GETOBJECT,61
10758,0,1,MESSAGE PUMP,Unknown,356
10765,0,1,MESSAGE PUMP,WM_GETOBJECT,61
10767,0,1,MESSAGE PUMP,Unknown,356
10873,0,1,MESSAGE PUMP,WM_KEYDOWN,256
10873,0,1,MESSAGE PUMP,WM_CHAR,258
10875,0,1,MESSAGE PUMP,WM_GETOBJECT,61
10875,0,1,MESSAGE PUMP,WM_KEYUP,257
10876,0,1,MESSAGE PUMP,Unknown,356
10877,0,1,MESSAGE PUMP,WM_GETOBJECT,61
10890,0,1,MESSAGE PUMP,WM_GETOBJECT,61
10892,0,1,MESSAGE PUMP,Unknown,356
10917,0,1,MESSAGE PUMP,WM_GETOBJECT,61
10919,0,1,MESSAGE PUMP,Unknown,356
10925,0,1,MESSAGE PUMP,WM_GETOBJECT,61
10927,0,1,MESSAGE PUMP,Unknown,356
10935,0,1,MESSAGE PUMP,Unknown,356
11026,0,1,MESSAGE PUMP,WM_KEYDOWN,256
11028,0,1,MESSAGE PUMP,WM_GETOBJECT,61
11030,0,1,MESSAGE PUMP,WM_GETOBJECT,61
11031,0,1,MESSAGE PUMP,WM_KEYUP,257
11032,0,1,MESSAGE PUMP,Unknown,356
11183,0,1,MESSAGE PUMP,WM_KEYDOWN,256
11185,0,1,MESSAGE PUMP,WM_GETOBJECT,61
11187,0,1,MESSAGE PUMP,WM_GETOBJECT,61
11188,0,1,MESSAGE PUMP,WM_KEYUP,257
11189,0,1,MESSAGE PUMP,Unknown,356
11267,0,1,MESSAGE PUMP,WM_KEYDOWN,256
11269,0,1,MESSAGE PUMP,WM_GETOBJECT,61
11271,0,1,MESSAGE PUMP,WM_GETOBJECT,61
11271,0,1,MESSAGE PUMP,WM_KEYUP,257
11272,0,1,MESSAGE PUMP,Unknown,356
11349,0,1,MESSAGE PUMP,WM_KEYDOWN,256
11351,0,1,MESSAGE PUMP,WM_GETOBJECT,61
11353,0,1,MESSAGE PUMP,WM_GETOBJECT,61
11354,0,1,MESSAGE PUMP,WM_KEYUP,257
11355,0,1,MESSAGE PUMP,Unknown,356
11433,0,1,MESSAGE PUMP,WM_KEYDOWN,256
11435,0,1,MESSAGE PUMP,WM_GETOBJECT,61
11437,0,1,MESSAGE PUMP,WM_GETOBJECT,61
11437,0,1,MESSAGE PUMP,WM_KEYUP,257
11438,0,1,MESSAGE PUMP,Unknown,356
11516,0,1,MESSAGE PUMP,WM_KEYDOWN,256
11518,0,1,MESSAGE PUMP,WM_GETOBJECT,61
11520,0,1,MESSAGE PUMP,Unknown,356
11520,0,1,MESSAGE PUMP,WM_KEYUP,257
11520,0,1,MESSAGE PUMP,WM_GETOBJECT,61
11674,0,1,MESSAGE PUMP,WM_KEYDOWN,256
11674,0,1,MESSAGE PUMP,WM_CHAR,258
11674,0,0,MESSAGE PUMP,WM_GETOBJECT,61
11674,0,0,MESSAGE PUMP,WM_GETOBJECT,61
11674,0,0,MESSAGE PUMP,WM_GETOBJECT,61
11674,0,0,MESSAGE PUMP,WM_GETOBJECT,61
11674,0,0,MESSAGE PUMP,WM_GETOBJECT,61
11674,0,0,MESSAGE PUMP,WM_GETOBJECT,61
11674,0,0,MESSAGE PUMP,WM_GETOBJECT,61
11674,0,0,MESSAGE PUMP,WM_GETOBJECT,61
11674,0,0,MESSAGE PUMP,WM_GETOBJECT,61
11674,0,0,MESSAGE PUMP,WM_GETOBJECT,61
11674,0,0,MESSAGE PUMP,WM_GETOBJECT,61
11674,0,0,MESSAGE PUMP,WM_GETOBJECT,61
11674,0,0,MESSAGE PUMP,WM_GETOBJECT,61
11674,0,0,MESSAGE PUMP,WM_GETOBJECT,61
11674,0,0,MESSAGE PUMP,WM_GETOBJECT,61
11674,0,0,MESSAGE PUMP,WM_GETOBJECT,61
11674,0,0,MESSAGE PUMP,WM_GETOBJECT,61
11674,0,0,MESSAGE PUMP,WM_GETOBJECT,61
11674,0,0,MESSAGE PUMP,WM_GETOBJECT,61
11674,0,0,MESSAGE PUMP,WM_GETOBJECT,61
11674,0,0,MESSAGE PUMP,WM_GETOBJECT,61
11674,0,0,MESSAGE PUMP,WM_GETOBJECT,61
11674,0,0,MESSAGE PUMP,WM_GETOBJECT,61
11674,0,0,MESSAGE PUMP,WM_GETOBJECT,61
11674,0,0,MESSAGE PUMP,WM_GETOBJECT,61
11674,0,0,MESSAGE PUMP,WM_GETOBJECT,61
11674,0,0,MESSAGE PUMP,WM_GETOBJECT,61
11674,0,0,MESSAGE PUMP,WM_GETOBJECT,61
11674,0,0,MESSAGE PUMP,WM_GETOBJECT,61
11674,0,0,MESSAGE PUMP,WM_GETOBJECT,61
11674,0,0,MESSAGE PUMP,WM_GETOBJECT,61
11674,0,0,MESSAGE PUMP,WM_GETOBJECT,61
11674,0,0,MESSAGE PUMP,WM_GETOBJECT,61
11674,0,0,MESSAGE PUMP,WM_GETOBJECT,61
11674,0,0,MESSAGE PUMP,WM_GETOBJECT,61
11676,0,1,MESSAGE PUMP,WM_GETOBJECT,61
11676,0,1,MESSAGE PUMP,WM_KEYUP,257
11677,0,1,MESSAGE PUMP,WM_GETOBJECT,61
11679,0,1,MESSAGE PUMP,Unknown,356
11688,0,1,MESSAGE PUMP,WM_GETOBJECT,61
11690,0,1,MESSAGE PUMP,Unknown,356
11697,0,1,MESSAGE PUMP,WM_GETOBJECT,61
11699,0,1,MESSAGE PUMP,Unknown,356
11706,0,1,MESSAGE PUMP,WM_GETOBJECT,61
11708,0,1,MESSAGE PUMP,Unknown,356
11715,0,1,MESSAGE PUMP,WM_GETOBJECT,61
11717,0,1,MESSAGE PUMP,Unknown,356
11727,0,1,MESSAGE PUMP,WM_GETOBJECT,61
11729,0,1,MESSAGE PUMP,Unknown,356
11741,0,1,MESSAGE PUMP,WM_GETOBJECT,61
11743,0,1,MESSAGE PUMP,Unknown,356
11747,0,1,MESSAGE PUMP,WM_GETOBJECT,61
11758,0,1,MESSAGE PUMP,WM_GETOBJECT,61
11760,0,1,MESSAGE PUMP,Unknown,356
11772,0,1,MESSAGE PUMP,WM_GETOBJECT,61
11774,0,1,MESSAGE PUMP,Unknown,356
11786,0,1,MESSAGE PUMP,WM_GETOBJECT,61
11788,0,1,MESSAGE PUMP,Unknown,356
11799,0,1,MESSAGE PUMP,WM_GETOBJECT,61
11800,0,1,MESSAGE PUMP,WM_KEYDOWN,256
11800,0,1,MESSAGE PUMP,Unknown,356
11804,0,1,MESSAGE PUMP,WM_KEYUP,257
11812,0,1,MESSAGE PUMP,WM_GETOBJECT,61
11814,0,1,MESSAGE PUMP,Unknown,356
11818,0,1,MESSAGE PUMP,WM_GETOBJECT,61
11829,0,1,MESSAGE PUMP,WM_GETOBJECT,61
11831,0,1,MESSAGE PUMP,Unknown,356
11843,0,1,MESSAGE PUMP,WM_GETOBJECT,61
11845,0,1,MESSAGE PUMP,Unknown,356
11857,0,1,MESSAGE PUMP,WM_GETOBJECT,61
11859,0,1,MESSAGE PUMP,Unknown,356
11871,0,1,MESSAGE PUMP,WM_GETOBJECT,61
11873,0,1,MESSAGE PUMP,Unknown,356
11877,0,1,MESSAGE PUMP,WM_GETOBJECT,61
11888,0,1,MESSAGE PUMP,WM_GETOBJECT,61
11890,0,1,MESSAGE PUMP,Unknown,356
11902,0,1,MESSAGE PUMP,WM_GETOBJECT,61
11904,0,1,MESSAGE PUMP,Unknown,356
11916,0,1,MESSAGE PUMP,WM_GETOBJECT,61
11918,0,1,MESSAGE PUMP,Unknown,356
11929,0,1,MESSAGE PUMP,WM_KEYDOWN,256
11929,0,1,MESSAGE PUMP,WM_GETOBJECT,61
11930,0,1,MESSAGE PUMP,Unknown,356
11942,0,1,MESSAGE PUMP,WM_GETOBJECT,61
11944,0,1,MESSAGE PUMP,Unknown,356
11948,0,1,MESSAGE PUMP,WM_GETOBJECT,61
11954,0,1,MESSAGE PUMP,WM_GETOBJECT,61
11956,0,1,MESSAGE PUMP,Unknown,356
11964,0,1,MESSAGE PUMP,WM_GETOBJECT,61
11966,0,1,MESSAGE PUMP,WM_GETOBJECT,61
11968,0,1,MESSAGE PUMP,Unknown,356
11968,0,1,MESSAGE PUMP,Unknown,356
11981,0,1,MESSAGE PUMP,WM_GETOBJECT,61
11984,0,1,MESSAGE PUMP,Unknown,356
11984,0,1,MESSAGE PUMP,Unknown,356
11993,0,1,MESSAGE PUMP,WM_KEYDOWN,256
11997,0,1,MESSAGE PUMP,WM_KEYUP,257
12001,0,1,MESSAGE PUMP,WM_GETOBJECT,61
12004,0,1,MESSAGE PUMP,Unknown,356
12017,0,1,MESSAGE PUMP,WM_GETOBJECT,61
12019,0,1,MESSAGE PUMP,Unknown,356
12061,0,1,MESSAGE PUMP,WM_KEYUP,257
12186,0,1,MESSAGE PUMP,WM_KEYDOWN,256
12190,0,1,MESSAGE PUMP,WM_KEYUP,257
12255,0,1,MESSAGE PUMP,WM_KEYDOWN,256
12259,0,1,MESSAGE PUMP,WM_KEYUP,257
12377,0,1,MESSAGE PUMP,WM_KEYDOWN,256
12377,0,1,MESSAGE PUMP,WM_CHAR,258
12379,0,1,MESSAGE PUMP,WM_GETOBJECT,61
12379,0,1,MESSAGE PUMP,WM_KEYUP,257
12380,0,1,MESSAGE PUMP,Unknown,356
12382,0,1,MESSAGE PUMP,WM_GETOBJECT,61
12393,0,1,MESSAGE PUMP,WM_GETOBJECT,61
12395,0,1,MESSAGE PUMP,Unknown,356
12420,0,1,MESSAGE PUMP,WM_GETOBJECT,61
12422,0,1,MESSAGE PUMP,Unknown,356
12428,0,1,MESSAGE PUMP,WM_GETOBJECT,61
12430,0,1,MESSAGE PUMP,Unknown,356
12438,0,1,MESSAGE PUMP,Unknown,356
14754,0,1,MESSAGE PUMP,WM_KEYDOWN,256
14825,0,1,MESSAGE PUMP,WM_KEYDOWN,256
14830,0,1,MESSAGE PUMP,WM_KEYUP,257
14928,0,1,MESSAGE PUMP,WM_KEYUP,257
15302,0,1,MESSAGE PUMP,WM_SYSKEYDOWN,260
15399,0,1,MESSAGE PUMP,WM_SYSKEYDOWN,260
15399,0,1,MESSAGE PUMP,WM_SYSCOMMAND,274
15399,0,1,MESSAGE PUMP,WM_CLOSE,16
15399,0,0,MESSAGE PUMP,Unknown,144
15399,0,0,MESSAGE PUMP,WM_WINDOWPOSCHANGING,70
15399,0,0,MESSAGE PUMP,WM_WINDOWPOSCHANGED,71
15399,0,0,MESSAGE PUMP,WM_NCACTIVATE,134
15399,0,0,MESSAGE PUMP,WM_GETICON,127
15399,0,0,MESSAGE PUMP,WM_ACTIVATE,6
15399,0,0,MESSAGE PUMP,WM_ACTIVATEAPP,28
15399,0,0,MESSAGE PUMP,WM_KILLFOCUS,8
15399,0,0,MESSAGE PUMP,WM_IME_SETCONTEXT,641
15399,0,0,MESSAGE PUMP,WM_IME_NOTIFY,642
15399,0,0,MESSAGE PUMP,WM_DESTROY,2
15399,0,0,MESSAGE PUMP,WM_NCDESTROY,130
