Frame,Poll Count,Is Polling,Source,Event Name,Event Code
0,0,0,MESSAGE PUMP,WM_GETMINMAXINFO,36
0,0,0,MESSAGE PUMP,WM_WINDOWPOSCHANGING,70
0,0,0,MESSAGE PUMP,WM_GETMINMAXINFO,36
0,0,0,MESSAGE PUMP,WM_NCCALCSIZE,131
0,0,0,MESSAGE PUMP,WM_WINDOWPOSCHANGING,70
0,0,0,MESSAGE PUMP,WM_ACTIVATEAPP,28
0,0,0,MESSAGE PUMP,WM_NCACTIVATE,134
0,0,0,MESSAGE PUMP,WM_ACTIVATE,6
0,0,0,MESSAGE PUMP,WM_IME_SETCONTEXT,641
0,0,0,MESSAGE PUMP,WM_IME_NOTIFY,642
0,0,0,MESSAGE PUMP,WM_SETFOCUS,7
0,0,0,MESSAGE PUMP,WM_NCPAINT,133
0,0,0,MESSAGE PUMP,WM_ERASEBKGND,20
0,0,0,MESSAGE PUMP,WM_WINDOWPOSCHANGED,71
0,0,0,MESSAGE PUMP,WM_MOVE,3
0,0,0,MESSAGE PUMP,WM_SIZE,5
0,0,0,MESSAGE PUMP,WM_WINDOWPOSCHANGING,70
0,0,0,MESSAGE PUMP,WM_GETMINMAXINFO,36
0,0,0,MESSAGE PUMP,WM_NCPAINT,133
0,0,0,MESSAGE PUMP,WM_ERASEBKGND,20
0,0,0,MESSAGE PUMP,WM_WINDOWPOSCHANGED,71
0,0,0,MESSAGE PUMP,WM_MOVE,3
0,0,0,MESSAGE PUMP,WM_SETICON,128
0,0,0,MESSAGE PUMP,Unknown,174
0,0,0,MESSAGE PUMP,WM_SETICON,128
0,0,0,MESSAGE PUMP,Unknown,174
0,0,0,MESSAGE PUMP,WM_WINDOWPOSCHANGING,70
0,0,0,MESSAGE PUMP,WM_GETICON,127
0,0,0,MESSAGE PUMP,WM_WINDOWPOSCHANGING,70
1,0,1,MESSAGE PUMP,WM_GETICON,127
1,0,1,MESSAGE PUMP,Unknown,799
1,0,1,MESSAGE PUMP,Unknown,49375
1,0,1,MESSAGE PUMP,WM_GETMINMAXINFO,36
1,0,1,MESSAGE PUMP,WM_NCHITTEST,132
1,0,1,MESSAGE PUMP,WM_SETCURSOR,32
1,0,1,MESSAGE PUMP,WM_MOUSEFIRST,512
1,0,1,MESSAGE PUMP,WM_PAINT,15
721,0,1,MESSAGE PUMP,WM_KEYDOWN,256
724,0,1,MESSAGE PUMP,WM_KEYDOWN,256
724,0,1,MESSAGE PUMP,WM_CHAR,258
724,0,0,MESSAGE PUMP,WM_NCACTIVATE,134
724,0,0,MESSAGE PUMP,WM_GETICON,127
724,0,0,MESSAGE PUMP,WM_ACTIVATE,6
724,0,0,MESSAGE PUMP,WM_KILLFOCUS,8
724,0,0,MESSAGE PUMP,WM_IME_SETCONTEXT,641
724,0,0,MESSAGE PUMP,WM_IME_NOTIFY,642
724,0,0,MESSAGE PUMP,WM_MOUSELEAVE,675
724,0,0,MESSAGE PUMP,WM_GETICON,127
724,0,0,MESSAGE PUMP,WM_WINDOWPOSCHANGING,70
724,0,0,MESSAGE PUMP,WM_WINDOWPOSCHANGED,71
724,0,0,MESSAGE PUMP,WM_ACTIVATEAPP,28
724,0,0,MESSAGE PUMP,WM_NCACTIVATE,134
724,0,0,MESSAGE PUMP,WM_ACTIVATE,6
724,0,0,MESSAGE PUMP,WM_IME_SETCONTEXT,641
724,0,0,MESSAGE PUMP,WM_IME_NOTIFY,642
724,0,0,MESSAGE PUMP,WM_SETFOCUS,7
725,0,1,MESSAGE PUMP,WM_KEYUP,257
725,0,1,MESSAGE PUMP,WM_NCHITTEST,132
725,0,1,MESSAGE PUMP,WM_SETCURSOR,32
725,0,1,MESSAGE PUMP,WM_MOUSEFIRST,512
1617,1,1,MESSAGE PUMP,WM_KEYDOWN,256
1620,0,1,MESSAGE PUMP,WM_KEYUP,257
1622,0,1,MESSAGE PUMP,WM_KEYDOWN,256
1625,0,1,MESSAGE PUMP,WM_KEYUP,257
1639,1,1,MESSAGE PUMP,WM_KEYDOWN,256
1642,0,1,MESSAGE PUMP,WM_KEYUP,257
1644,0,1,MESSAGE PUMP,WM_KEYDOWN,256
1647,0,1,MESSAGE PUMP,WM_KEYUP,257
1649,0,1,MESSAGE PUMP,WM_KEYDOWN,256
1651,1,1,MESSAGE PUMP,WM_KEYUP,257
1666,1,1,MESSAGE PUMP,WM_KEYDOWN,256
1668,1,1,MESSAGE PUMP,WM_KEYUP,257
1671,0,1,MESSAGE PUMP,WM_KEYDOWN,256
1673,1,1,MESSAGE PUMP,WM_KEYUP,257
1675,1,1,MESSAGE PUMP,WM_KEYDOWN,256
1678,0,1,MESSAGE PUMP,WM_KEYUP,257
1680,0,1,MESSAGE PUMP,WM_KEYDOWN,256
1683,0,1,MESSAGE PUMP,WM_KEYUP,257
1685,1,1,MESSAGE PUMP,WM_KEYDOWN,256
1688,0,1,MESSAGE PUMP,WM_KEYUP,257
1702,1,1,MESSAGE PUMP,WM_KEYDOWN,256
1705,0,1,MESSAGE PUMP,WM_KEYUP,257
1707,0,1,MESSAGE PUMP,WM_KEYDOWN,256
1710,0,1,MESSAGE PUMP,WM_KEYUP,257
1724,0,1,MESSAGE PUMP,WM_KEYDOWN,256
1725,0,1,MESSAGE PUMP,WM_KEYUP,257
1739,1,1,MESSAGE PUMP,WM_KEYDOWN,256
1742,0,1,MESSAGE PUMP,WM_KEYUP,257
1744,0,1,MESSAGE PUMP,WM_KEYDOWN,256
1747,0,1,MESSAGE PUMP,WM_KEYUP,257
1749,0,1,MESSAGE PUMP,WM_KEYDOWN,256
1751,1,1,MESSAGE PUMP,WM_KEYUP,257
1753,1,1,MESSAGE PUMP,WM_KEYDOWN,256
1755,0,1,MESSAGE PUMP,WM_KEYUP,257
1758,0,1,MESSAGE PUMP,WM_KEYDOWN,256
1760,0,1,MESSAGE PUMP,WM_KEYUP,257
1774,1,1,MESSAGE PUMP,WM_KEYDOWN,256
1775,0,1,MESSAGE PUMP,WM_KEYUP,257
1788,0,1,MESSAGE PUMP,WM_KEYDOWN,256
1790,0,1,MESSAGE PUMP,WM_KEYUP,257
1792,0,1,MESSAGE PUMP,WM_KEYDOWN,256
1794,1,1,MESSAGE PUMP,WM_KEYUP,257
1809,0,1,MESSAGE PUMP,WM_KEYDOWN,256
1810,0,1,MESSAGE PUMP,WM_KEYUP,257
1820,0,1,MESSAGE PUMP,WM_KEYDOWN,256
1822,0,1,MESSAGE PUMP,WM_KEYUP,257
1824,0,1,MESSAGE PUMP,WM_KEYDOWN,256
1826,0,1,MESSAGE PUMP,WM_KEYUP,257
1828,0,1,MESSAGE PUMP,WM_KEYDOWN,256
1830,0,1,MESSAGE PUMP,WM_KEYUP,257
1832,0,1,MESSAGE PUMP,WM_KEYDOWN,256
1834,0,1,MESSAGE PUMP,WM_KEYUP,257
1837,0,1,MESSAGE PUMP,WM_KEYDOWN,256
1839,0,1,MESSAGE PUMP,WM_KEYUP,257
1841,0,1,MESSAGE PUMP,WM_KEYDOWN,256
1843,0,1,MESSAGE PUMP,WM_KEYUP,257
1845,0,1,MESSAGE PUMP,WM_KEYDOWN,256
1847,0,1,MESSAGE PUMP,WM_KEYUP,257
1850,0,1,MESSAGE PUMP,WM_KEYDOWN,256
1851,0,1,MESSAGE PUMP,WM_KEYUP,257
1853,0,1,MESSAGE PUMP,WM_KEYDOWN,256
1855,0,1,MESSAGE PUMP,WM_KEYUP,257
1857,0,1,MESSAGE PUMP,WM_KEYDOWN,256
1859,0,1,MESSAGE PUMP,WM_KEYUP,257
1861,0,1,MESSAGE PUMP,WM_KEYDOWN,256
1863,0,1,MESSAGE PUMP,WM_KEYUP,257
1865,0,1,MESSAGE PUMP,WM_KEYDOWN,256
1867,0,1,MESSAGE PUMP,WM_KEYUP,257
1869,0,1,MESSAGE PUMP,WM_KEYDOWN,256
1871,0,1,MESSAGE PUMP,WM_KEYUP,257
1873,0,1,MESSAGE PUMP,WM_KEYDOWN,256
1875,0,1,MESSAGE PUMP,WM_KEYUP,257
1877,0,1,MESSAGE PUMP,WM_KEYDOWN,256
1879,0,1,MESSAGE PUMP,WM_KEYUP,257
1881,0,1,MESSAGE PUMP,WM_KEYDOWN,256
1883,0,1,MESSAGE PUMP,WM_KEYUP,257
1885,0,1,MESSAGE PUMP,WM_KEYDOWN,256
1887,0,1,MESSAGE PUMP,WM_KEYUP,257
1889,0,1,MESSAGE PUMP,WM_KEYDOWN,256
1891,0,1,MESSAGE PUMP,WM_KEYUP,257
1892,0,1,MESSAGE PUMP,WM_KEYDOWN,256
1895,0,1,MESSAGE PUMP,WM_KEYUP,257
1897,0,1,MESSAGE PUMP,WM_KEYDOWN,256
1898,0,1,MESSAGE PUMP,WM_KEYUP,257
1900,0,1,MESSAGE PUMP,WM_KEYDOWN,256
1902,0,1,MESSAGE PUMP,WM_KEYUP,257
1904,0,1,MESSAGE PUMP,WM_KEYDOWN,256
1906,0,1,MESSAGE PUMP,WM_KEYUP,257
1909,0,1,MESSAGE PUMP,WM_KEYDOWN,256
1911,0,1,MESSAGE PUMP,WM_KEYUP,257
1913,0,1,MESSAGE PUMP,WM_KEYDOWN,256
1915,0,1,MESSAGE PUMP,WM_KEYUP,257
1917,0,1,MESSAGE PUMP,WM_KEYDOWN,256
1919,0,1,MESSAGE PUMP,WM_KEYUP,257
1921,0,1,MESSAGE PUMP,WM_KEYDOWN,256
1924,0,1,MESSAGE PUMP,WM_KEYUP,257
1926,0,1,MESSAGE PUMP,WM_KEYDOWN,256
1928,0,1,MESSAGE PUMP,WM_KEYUP,257
1930,0,1,MESSAGE PUMP,WM_KEYDOWN,256
1932,0,1,MESSAGE PUMP,WM_KEYUP,257
1934,0,1,MESSAGE PUMP,WM_KEYDOWN,256
1936,0,1,MESSAGE PUMP,WM_KEYUP,257
1939,0,1,MESSAGE PUMP,WM_KEYDOWN,256
1941,0,1,MESSAGE PUMP,WM_KEYUP,257
1943,0,1,MESSAGE PUMP,WM_KEYDOWN,256
1945,0,1,MESSAGE PUMP,WM_KEYUP,257
1947,0,1,MESSAGE PUMP,WM_KEYDOWN,256
1949,0,1,MESSAGE PUMP,WM_KEYUP,257
1951,0,1,MESSAGE PUMP,WM_KEYDOWN,256
1953,0,1,MESSAGE PUMP,WM_KEYUP,257
1955,0,1,MESSAGE PUMP,WM_KEYDOWN,256
1957,0,1,MESSAGE PUMP,WM_KEYUP,257
1959,0,1,MESSAGE PUMP,WM_KEYDOWN,256
1961,0,1,MESSAGE PUMP,WM_KEYUP,257
1963,0,1,MESSAGE PUMP,WM_KEYDOWN,256
1965,0,1,MESSAGE PUMP,WM_KEYUP,257
1967,0,1,MESSAGE PUMP,WM_KEYDOWN,256
1970,0,1,MESSAGE PUMP,WM_KEYUP,257
1972,0,1,MESSAGE PUMP,WM_KEYDOWN,256
1974,0,1,MESSAGE PUMP,WM_KEYUP,257
1976,0,1,MESSAGE PUMP,WM_KEYDOWN,256
1978,0,1,MESSAGE PUMP,WM_KEYUP,257
1980,0,1,MESSAGE PUMP,WM_KEYDOWN,256
1982,0,1,MESSAGE PUMP,WM_KEYUP,257
1984,0,1,MESSAGE PUMP,WM_KEYDOWN,256
1987,0,1,MESSAGE PUMP,WM_KEYUP,257
1989,0,1,MESSAGE PUMP,WM_KEYDOWN,256
1991,0,1,MESSAGE PUMP,WM_KEYUP,257
2005,0,1,MESSAGE PUMP,WM_KEYDOWN,256
2007,0,1,MESSAGE PUMP,WM_KEYUP,257
2022,0,1,MESSAGE PUMP,WM_KEYDOWN,256
2024,0,1,MESSAGE PUMP,WM_KEYUP,257
2026,0,1,MESSAGE PUMP,WM_KEYDOWN,256
2027,0,1,MESSAGE PUMP,WM_KEYUP,257
2037,0,1,MESSAGE PUMP,WM_KEYDOWN,256
2038,0,1,MESSAGE PUMP,WM_KEYUP,257
2040,0,1,MESSAGE PUMP,WM_KEYDOWN,256
2042,0,1,MESSAGE PUMP,WM_KEYUP,257
2043,0,1,MESSAGE PUMP,WM_KEYDOWN,256
2045,0,1,MESSAGE PUMP,WM_KEYUP,257
2046,0,1,MESSAGE PUMP,WM_KEYDOWN,256
2048,0,1,MESSAGE PUMP,WM_KEYUP,257
2050,0,1,MESSAGE PUMP,WM_KEYDOWN,256
2051,0,1,MESSAGE PUMP,WM_KEYUP,257
2053,0,1,MESSAGE PUMP,WM_KEYDOWN,256
2054,0,1,MESSAGE PUMP,WM_KEYUP,257
2066,0,1,MESSAGE PUMP,WM_KEYDOWN,256
2067,0,1,MESSAGE PUMP,WM_KEYUP,257
2069,0,1,MESSAGE PUMP,WM_KEYDOWN,256
2070,0,1,MESSAGE PUMP,WM_KEYUP,257
2072,0,1,MESSAGE PUMP,WM_KEYDOWN,256
2074,0,1,MESSAGE PUMP,WM_KEYUP,257
2076,0,1,MESSAGE PUMP,WM_KEYDOWN,256
2078,0,1,MESSAGE PUMP,WM_KEYUP,257
2081,0,1,MESSAGE PUMP,WM_KEYDOWN,256
2083,0,1,MESSAGE PUMP,WM_KEYUP,257
2085,0,1,MESSAGE PUMP,WM_KEYDOWN,256
2087,1,1,MESSAGE PUMP,WM_KEYUP,257
2089,1,1,MESSAGE PUMP,WM_KEYDOWN,256
2092,0,1,MESSAGE PUMP,WM_KEYUP,257
2094,0,1,MESSAGE PUMP,WM_KEYDOWN,256
2096,2,1,MESSAGE PUMP,WM_KEYUP,257
2099,0,1,MESSAGE PUMP,WM_KEYDOWN,256
2101,1,1,MESSAGE PUMP,WM_KEYUP,257
2103,2,1,MESSAGE PUMP,WM_KEYDOWN,256
2106,0,1,MESSAGE PUMP,WM_KEYUP,257
2108,1,1,MESSAGE PUMP,WM_KEYDOWN,256
2111,0,1,MESSAGE PUMP,WM_KEYUP,257
2113,1,1,MESSAGE PUMP,WM_KEYDOWN,256
2116,0,1,MESSAGE PUMP,WM_KEYUP,257
2118,0,1,MESSAGE PUMP,WM_KEYDOWN,256
2121,0,1,MESSAGE PUMP,WM_KEYUP,257
2123,0,1,MESSAGE PUMP,WM_KEYDOWN,256
2125,0,1,MESSAGE PUMP,WM_KEYUP,257
2139,1,1,MESSAGE PUMP,WM_KEYDOWN,256
2142,0,1,MESSAGE PUMP,WM_KEYUP,257
2157,0,1,MESSAGE PUMP,WM_KEYDOWN,256
2159,1,1,MESSAGE PUMP,WM_KEYUP,257
2174,1,1,MESSAGE PUMP,WM_KEYDOWN,256
2177,0,1,MESSAGE PUMP,WM_KEYUP,257
2179,0,1,MESSAGE PUMP,WM_KEYDOWN,256
2181,1,1,MESSAGE PUMP,WM_KEYUP,257
2196,1,1,MESSAGE PUMP,WM_KEYDOWN,256
2199,0,1,MESSAGE PUMP,WM_KEYUP,257
2214,0,1,MESSAGE PUMP,WM_KEYDOWN,256
2217,0,1,MESSAGE PUMP,WM_KEYUP,257
2219,0,1,MESSAGE PUMP,WM_KEYDOWN,256
2221,1,1,MESSAGE PUMP,WM_KEYUP,257
2223,1,1,MESSAGE PUMP,WM_KEYDOWN,256
2225,1,1,MESSAGE PUMP,WM_KEYUP,257
2228,0,1,MESSAGE PUMP,WM_KEYDOWN,256
2230,1,1,MESSAGE PUMP,WM_KEYUP,257
2232,1,1,MESSAGE PUMP,WM_KEYDOWN,256
2235,0,1,MESSAGE PUMP,WM_KEYUP,257
2237,1,1,MESSAGE PUMP,WM_KEYDOWN,256
2240,0,1,MESSAGE PUMP,WM_KEYUP,257
2242,1,1,MESSAGE PUMP,WM_KEYDOWN,256
2245,0,1,MESSAGE PUMP,WM_KEYUP,257
2247,0,1,MESSAGE PUMP,WM_KEYDOWN,256
2249,1,1,MESSAGE PUMP,WM_KEYUP,257
2251,1,1,MESSAGE PUMP,WM_KEYDOWN,256
2254,0,1,MESSAGE PUMP,WM_KEYUP,257
2256,0,1,MESSAGE PUMP,WM_KEYDOWN,256
2259,0,1,MESSAGE PUMP,WM_KEYUP,257
2261,0,1,MESSAGE PUMP,WM_KEYDOWN,256
2263,1,1,MESSAGE PUMP,WM_KEYUP,257
2266,0,1,MESSAGE PUMP,WM_KEYDOWN,256
2268,1,1,MESSAGE PUMP,WM_KEYUP,257
2270,2,1,MESSAGE PUMP,WM_KEYDOWN,256
2273,0,1,MESSAGE PUMP,WM_KEYUP,257
2288,0,1,MESSAGE PUMP,WM_KEYDOWN,256
2289,0,1,MESSAGE PUMP,WM_KEYUP,257
2303,0,1,MESSAGE PUMP,WM_KEYDOWN,256
2305,0,1,MESSAGE PUMP,WM_KEYUP,257
2307,0,1,MESSAGE PUMP,WM_KEYDOWN,256
2310,0,1,MESSAGE PUMP,WM_KEYUP,257
2312,0,1,MESSAGE PUMP,WM_KEYDOWN,256
2314,0,1,MESSAGE PUMP,WM_KEYUP,257
2329,0,1,MESSAGE PUMP,WM_KEYDOWN,256
2331,0,1,MESSAGE PUMP,WM_KEYUP,257
2333,0,1,MESSAGE PUMP,WM_KEYDOWN,256
2336,0,1,MESSAGE PUMP,WM_KEYUP,257
2338,0,1,MESSAGE PUMP,WM_KEYDOWN,256
2341,0,1,MESSAGE PUMP,WM_KEYUP,257
2343,0,1,MESSAGE PUMP,WM_KEYDOWN,256
2345,0,1,MESSAGE PUMP,WM_KEYUP,257
2347,0,1,MESSAGE PUMP,WM_KEYDOWN,256
2350,0,1,MESSAGE PUMP,WM_KEYUP,257
2352,0,1,MESSAGE PUMP,WM_KEYDOWN,256
2354,4,1,MESSAGE PUMP,WM_KEYUP,257
2357,0,1,MESSAGE PUMP,WM_KEYDOWN,256
2359,0,1,MESSAGE PUMP,WM_KEYUP,257
2362,0,1,MESSAGE PUMP,WM_KEYDOWN,256
2364,0,1,MESSAGE PUMP,WM_KEYUP,257
2366,0,1,MESSAGE PUMP,WM_KEYDOWN,256
2368,0,1,MESSAGE PUMP,WM_KEYUP,257
2370,0,1,MESSAGE PUMP,WM_KEYDOWN,256
2373,0,1,MESSAGE PUMP,WM_KEYUP,257
2375,0,1,MESSAGE PUMP,WM_KEYDOWN,256
2378,0,1,MESSAGE PUMP,WM_KEYUP,257
2380,0,1,MESSAGE PUMP,WM_KEYDOWN,256
2382,0,1,MESSAGE PUMP,WM_KEYUP,257
2705,0,1,MESSAGE PUMP,WM_KEYDOWN,256
2708,0,1,MESSAGE PUMP,WM_KEYUP,257
2838,0,1,MESSAGE PUMP,WM_KEYDOWN,256
2840,0,1,MESSAGE PUMP,WM_KEYUP,257
2971,0,1,MESSAGE PUMP,WM_KEYDOWN,256
2972,0,1,MESSAGE PUMP,WM_SYSKEYDOWN,260
2972,0,1,MESSAGE PUMP,WM_CONTEXTMENU,123
2974,0,1,MESSAGE PUMP,WM_SYSKEYUP,261
2974,0,1,MESSAGE PUMP,WM_SYSCOMMAND,274
2976,0,1,MESSAGE PUMP,WM_KEYUP,257
3104,0,1,MESSAGE PUMP,WM_KEYDOWN,256
3106,0,1,MESSAGE PUMP,WM_KEYUP,257
3108,0,1,MESSAGE PUMP,WM_KEYDOWN,256
3111,0,1,MESSAGE PUMP,WM_KEYUP,257
3113,0,1,MESSAGE PUMP,WM_KEYDOWN,256
3115,0,1,MESSAGE PUMP,WM_KEYUP,257
3117,0,1,MESSAGE PUMP,WM_KEYDOWN,256
3119,0,1,MESSAGE PUMP,WM_KEYUP,257
3121,0,1,MESSAGE PUMP,WM_KEYDOWN,256
3123,0,1,MESSAGE PUMP,WM_KEYUP,257
3126,0,1,MESSAGE PUMP,WM_KEYDOWN,256
3128,0,1,MESSAGE PUMP,WM_KEYUP,257
3255,0,1,MESSAGE PUMP,WM_KEYDOWN,256
3255,0,1,MESSAGE PUMP,WM_CHAR,258
3256,0,1,MESSAGE PUMP,WM_KEYUP,257
3391,0,1,MESSAGE PUMP,WM_KEYDOWN,256
3394,0,1,MESSAGE PUMP,WM_KEYDOWN,256
3394,0,1,MESSAGE PUMP,WM_CHAR,258
3394,0,0,MESSAGE PUMP,WM_NCACTIVATE,134
3394,0,0,MESSAGE PUMP,WM_ACTIVATE,6
3394,0,0,MESSAGE PUMP,WM_KILLFOCUS,8
3394,0,0,MESSAGE PUMP,WM_IME_SETCONTEXT,641
3394,0,0,MESSAGE PUMP,WM_IME_NOTIFY,642
3394,0,0,MESSAGE PUMP,WM_MOUSELEAVE,675
3394,0,0,MESSAGE PUMP,WM_WINDOWPOSCHANGING,70
3394,0,0,MESSAGE PUMP,WM_WINDOWPOSCHANGED,71
3394,0,0,MESSAGE PUMP,WM_ACTIVATEAPP,28
3394,0,0,MESSAGE PUMP,WM_NCACTIVATE,134
3394,0,0,MESSAGE PUMP,WM_ACTIVATE,6
3394,0,0,MESSAGE PUMP,WM_IME_SETCONTEXT,641
3394,0,0,MESSAGE PUMP,WM_IME_NOTIFY,642
3394,0,0,MESSAGE PUMP,WM_SETFOCUS,7
3395,0,1,MESSAGE PUMP,WM_NCHITTEST,132
3395,0,1,MESSAGE PUMP,WM_SETCURSOR,32
3395,0,1,MESSAGE PUMP,WM_MOUSEFIRST,512
3395,0,1,MESSAGE PUMP,WM_KEYUP,257
3395,0,1,MESSAGE PUMP,WM_NCHITTEST,132
3395,0,1,MESSAGE PUMP,WM_SETCURSOR,32
3395,0,1,MESSAGE PUMP,WM_MOUSEFIRST,512
3995,1,1,MESSAGE PUMP,WM_KEYDOWN,256
3998,0,1,MESSAGE PUMP,WM_KEYUP,257
4000,0,1,MESSAGE PUMP,WM_KEYDOWN,256
4002,1,1,MESSAGE PUMP,WM_KEYUP,257
4005,0,1,MESSAGE PUMP,WM_KEYDOWN,256
4007,1,1,MESSAGE PUMP,WM_KEYUP,257
4010,0,1,MESSAGE PUMP,WM_KEYDOWN,256
4012,1,1,MESSAGE PUMP,WM_KEYUP,257
4015,0,1,MESSAGE PUMP,WM_KEYDOWN,256
4017,1,1,MESSAGE PUMP,WM_KEYUP,257
4032,0,1,MESSAGE PUMP,WM_KEYDOWN,256
4032,0,1,MESSAGE PUMP,WM_CHAR,258
4033,0,1,MESSAGE PUMP,WM_KEYUP,257
4033,0,1,MESSAGE PUMP,WM_KEYDOWN,256
4033,0,1,MESSAGE PUMP,WM_KEYUP,257
4033,0,1,MESSAGE PUMP,WM_KEYDOWN,256
4033,0,1,MESSAGE PUMP,WM_KEYUP,257
4034,0,1,MESSAGE PUMP,WM_KEYDOWN,256
4035,0,1,MESSAGE PUMP,WM_KEYUP,257
4037,0,1,MESSAGE PUMP,WM_KEYDOWN,256
4038,0,1,MESSAGE PUMP,WM_KEYUP,257
4040,0,1,MESSAGE PUMP,WM_KEYDOWN,256
4042,0,1,MESSAGE PUMP,WM_KEYUP,257
4044,0,1,MESSAGE PUMP,WM_KEYDOWN,256
4045,0,1,MESSAGE PUMP,WM_KEYUP,257
4048,0,1,MESSAGE PUMP,WM_KEYDOWN,256
4049,0,1,MESSAGE PUMP,WM_KEYUP,257
4052,0,1,MESSAGE PUMP,WM_KEYDOWN,256
4054,0,1,MESSAGE PUMP,WM_KEYUP,257
4056,0,1,MESSAGE PUMP,WM_KEYDOWN,256
4058,0,1,MESSAGE PUMP,WM_KEYUP,257
4060,1,1,MESSAGE PUMP,WM_KEYDOWN,256
4062,1,1,MESSAGE PUMP,WM_KEYUP,257
4064,1,1,MESSAGE PUMP,WM_KEYDOWN,256
4066,0,1,MESSAGE PUMP,WM_KEYUP,257
4068,1,1,MESSAGE PUMP,WM_KEYDOWN,256
4070,0,1,MESSAGE PUMP,WM_KEYUP,257
4072,1,1,MESSAGE PUMP,WM_KEYDOWN,256
4074,1,1,MESSAGE PUMP,WM_KEYUP,257
4077,0,1,MESSAGE PUMP,WM_KEYDOWN,256
4079,0,1,MESSAGE PUMP,WM_KEYUP,257
4081,1,1,MESSAGE PUMP,WM_KEYDOWN,256
4083,1,1,MESSAGE PUMP,WM_KEYUP,257
4085,1,1,MESSAGE PUMP,WM_KEYDOWN,256
4087,0,1,MESSAGE PUMP,WM_KEYUP,257
4089,1,1,MESSAGE PUMP,WM_KEYDOWN,256
4091,1,1,MESSAGE PUMP,WM_KEYUP,257
4094,0,1,MESSAGE PUMP,WM_KEYDOWN,256
4096,1,1,MESSAGE PUMP,WM_KEYUP,257
4098,1,1,MESSAGE PUMP,WM_KEYDOWN,256
4100,1,1,MESSAGE PUMP,WM_KEYUP,257
4102,1,1,MESSAGE PUMP,WM_KEYDOWN,256
4104,1,1,MESSAGE PUMP,WM_KEYUP,257
4107,0,1,MESSAGE PUMP,WM_KEYDOWN,256
4109,0,1,MESSAGE PUMP,WM_KEYUP,257
4111,0,1,MESSAGE PUMP,WM_KEYDOWN,256
4113,1,1,MESSAGE PUMP,WM_KEYUP,257
4115,1,1,MESSAGE PUMP,WM_KEYDOWN,256
4117,1,1,MESSAGE PUMP,WM_KEYUP,257
4119,4,1,MESSAGE PUMP,WM_KEYDOWN,256
4122,0,1,MESSAGE PUMP,WM_KEYUP,257
4124,0,1,MESSAGE PUMP,WM_KEYDOWN,256
4126,1,1,MESSAGE PUMP,WM_KEYUP,257
4128,1,1,MESSAGE PUMP,WM_KEYDOWN,256
4130,1,1,MESSAGE PUMP,WM_KEYUP,257
4132,1,1,MESSAGE PUMP,WM_KEYDOWN,256
4134,1,1,MESSAGE PUMP,WM_KEYUP,257
4137,0,1,MESSAGE PUMP,WM_KEYDOWN,256
4138,0,1,MESSAGE PUMP,WM_KEYUP,257
4141,0,1,MESSAGE PUMP,WM_KEYDOWN,256
4143,0,1,MESSAGE PUMP,WM_KEYUP,257
4145,0,1,MESSAGE PUMP,WM_KEYDOWN,256
4147,1,1,MESSAGE PUMP,WM_KEYUP,257
4162,1,1,MESSAGE PUMP,WM_KEYDOWN,256
4164,1,1,MESSAGE PUMP,WM_KEYUP,257
4167,0,1,MESSAGE PUMP,WM_KEYDOWN,256
4169,0,1,MESSAGE PUMP,WM_KEYUP,257
4171,0,1,MESSAGE PUMP,WM_KEYDOWN,256
4173,1,1,MESSAGE PUMP,WM_KEYUP,257
4175,1,1,MESSAGE PUMP,WM_KEYDOWN,256
4177,1,1,MESSAGE PUMP,WM_KEYUP,257
4180,0,1,MESSAGE PUMP,WM_KEYDOWN,256
4182,1,1,MESSAGE PUMP,WM_KEYUP,257
4185,0,1,MESSAGE PUMP,WM_KEYDOWN,256
4187,0,1,MESSAGE PUMP,WM_KEYUP,257
4189,0,1,MESSAGE PUMP,WM_KEYDOWN,256
4191,1,1,MESSAGE PUMP,WM_KEYUP,257
4194,0,1,MESSAGE PUMP,WM_KEYDOWN,256
4196,0,1,MESSAGE PUMP,WM_KEYUP,257
4198,1,1,MESSAGE PUMP,WM_KEYDOWN,256
4200,1,1,MESSAGE PUMP,WM_KEYUP,257
4203,0,1,MESSAGE PUMP,WM_KEYDOWN,256
4205,0,1,MESSAGE PUMP,WM_KEYUP,257
4207,1,1,MESSAGE PUMP,WM_KEYDOWN,256
4209,1,1,MESSAGE PUMP,WM_KEYUP,257
4212,0,1,MESSAGE PUMP,WM_KEYDOWN,256
4214,0,1,MESSAGE PUMP,WM_KEYUP,257
4216,1,1,MESSAGE PUMP,WM_KEYDOWN,256
4218,1,1,MESSAGE PUMP,WM_KEYUP,257
4221,0,1,MESSAGE PUMP,WM_KEYDOWN,256
4223,0,1,MESSAGE PUMP,WM_KEYUP,257
4225,0,1,MESSAGE PUMP,WM_KEYDOWN,256
4227,0,1,MESSAGE PUMP,WM_KEYUP,257
4229,0,1,MESSAGE PUMP,WM_KEYDOWN,256
4231,5,1,MESSAGE PUMP,WM_KEYUP,257
4234,0,1,MESSAGE PUMP,WM_KEYDOWN,256
4235,0,1,MESSAGE PUMP,WM_KEYUP,257
4236,1,1,MESSAGE PUMP,WM_KEYDOWN,256
4238,1,1,MESSAGE PUMP,WM_KEYUP,257
4240,1,1,MESSAGE PUMP,WM_KEYDOWN,256
4242,1,1,MESSAGE PUMP,WM_KEYUP,257
4245,0,1,MESSAGE PUMP,WM_KEYDOWN,256
4247,0,1,MESSAGE PUMP,WM_KEYUP,257
4262,0,1,MESSAGE PUMP,WM_KEYDOWN,256
4277,0,1,MESSAGE PUMP,WM_KEYDOWN,256
4278,0,1,MESSAGE PUMP,WM_KEYUP,257
4280,1,1,MESSAGE PUMP,WM_KEYDOWN,256
4282,0,1,MESSAGE PUMP,WM_KEYUP,257
4284,0,1,MESSAGE PUMP,WM_KEYDOWN,256
4285,0,1,MESSAGE PUMP,WM_KEYUP,257
4286,0,1,MESSAGE PUMP,WM_KEYDOWN,256
4287,0,1,MESSAGE PUMP,WM_KEYUP,257
4289,1,1,MESSAGE PUMP,WM_KEYDOWN,256
4290,0,1,MESSAGE PUMP,WM_KEYUP,257
4293,0,1,MESSAGE PUMP,WM_KEYDOWN,256
4294,0,1,MESSAGE PUMP,WM_KEYUP,257
4308,0,1,MESSAGE PUMP,WM_KEYUP,257
4323,1,1,MESSAGE PUMP,WM_KEYDOWN,256
4325,0,1,MESSAGE PUMP,WM_KEYUP,257
4339,0,1,MESSAGE PUMP,WM_KEYDOWN,256
4341,1,1,MESSAGE PUMP,WM_KEYDOWN,256
4341,1,1,MESSAGE PUMP,WM_CHAR,258
4342,0,1,MESSAGE PUMP,WM_KEYUP,257
4342,0,1,MESSAGE PUMP,WM_KEYUP,257
4342,0,1,MESSAGE PUMP,WM_KEYDOWN,256
4343,0,1,MESSAGE PUMP,WM_KEYUP,257
4343,0,1,MESSAGE PUMP,WM_KEYDOWN,256
4343,0,1,MESSAGE PUMP,WM_KEYUP,257
4345,0,1,MESSAGE PUMP,WM_KEYDOWN,256
4347,0,1,MESSAGE PUMP,WM_KEYUP,257
4362,0,1,MESSAGE PUMP,WM_KEYDOWN,256
4364,0,1,MESSAGE PUMP,WM_KEYUP,257
4378,0,1,MESSAGE PUMP,WM_KEYDOWN,256
4380,1,1,MESSAGE PUMP,WM_KEYDOWN,256
4382,1,1,MESSAGE PUMP,WM_KEYUP,257
4384,0,1,MESSAGE PUMP,WM_KEYUP,257
4397,0,1,MESSAGE PUMP,WM_KEYDOWN,256
4398,0,1,MESSAGE PUMP,WM_KEYUP,257
4399,1,1,MESSAGE PUMP,WM_KEYDOWN,256
4401,1,1,MESSAGE PUMP,WM_KEYUP,257
4403,1,1,MESSAGE PUMP,WM_KEYDOWN,256
4405,1,1,MESSAGE PUMP,WM_KEYUP,257
4407,1,1,MESSAGE PUMP,WM_KEYDOWN,256
4409,0,1,MESSAGE PUMP,WM_KEYUP,257
4424,0,1,MESSAGE PUMP,WM_KEYDOWN,256
4426,0,1,MESSAGE PUMP,WM_KEYDOWN,256
4426,0,1,MESSAGE PUMP,WM_CHAR,258
4428,0,1,MESSAGE PUMP,WM_KEYUP,257
4430,0,1,MESSAGE PUMP,WM_KEYUP,257
4432,1,1,MESSAGE PUMP,WM_KEYDOWN,256
4432,1,1,MESSAGE PUMP,WM_CHAR,258
4434,1,1,MESSAGE PUMP,WM_KEYUP,257
4436,1,1,MESSAGE PUMP,WM_KEYDOWN,256
4436,1,1,MESSAGE PUMP,WM_CHAR,258
4438,0,1,MESSAGE PUMP,WM_KEYUP,257
4440,1,1,MESSAGE PUMP,WM_KEYDOWN,256
4440,1,1,MESSAGE PUMP,WM_CHAR,258
4442,1,1,MESSAGE PUMP,WM_KEYUP,257
4445,0,1,MESSAGE PUMP,WM_KEYDOWN,256
4445,0,1,MESSAGE PUMP,WM_CHAR,258
4447,0,1,MESSAGE PUMP,WM_KEYUP,257
4449,0,1,MESSAGE PUMP,WM_KEYDOWN,256
4449,0,1,MESSAGE PUMP,WM_CHAR,258
4451,1,1,MESSAGE PUMP,WM_KEYUP,257
4453,1,1,MESSAGE PUMP,WM_KEYDOWN,256
4453,1,1,MESSAGE PUMP,WM_CHAR,258
4454,0,1,MESSAGE PUMP,WM_KEYUP,257
4456,1,1,MESSAGE PUMP,WM_KEYDOWN,256
4456,1,1,MESSAGE PUMP,WM_CHAR,258
4458,1,1,MESSAGE PUMP,WM_KEYUP,257
4460,1,1,MESSAGE PUMP,WM_KEYDOWN,256
4460,1,1,MESSAGE PUMP,WM_CHAR,258
4461,0,1,MESSAGE PUMP,WM_KEYUP,257
4463,0,1,MESSAGE PUMP,WM_KEYDOWN,256
4463,0,1,MESSAGE PUMP,WM_CHAR,258
4465,1,1,MESSAGE PUMP,WM_KEYUP,257
4468,0,1,MESSAGE PUMP,WM_KEYDOWN,256
4468,0,1,MESSAGE PUMP,WM_CHAR,258
4470,0,1,MESSAGE PUMP,WM_KEYUP,257
4482,0,1,MESSAGE PUMP,WM_KEYDOWN,256
4484,0,1,MESSAGE PUMP,WM_KEYDOWN,256
4485,0,1,MESSAGE PUMP,WM_KEYUP,257
4488,0,1,MESSAGE PUMP,WM_KEYUP,257
4502,1,1,MESSAGE PUMP,WM_KEYDOWN,256
4502,1,1,MESSAGE PUMP,WM_CHAR,258
4503,0,1,MESSAGE PUMP,WM_KEYUP,257
4619,0,1,MESSAGE PUMP,WM_KEYDOWN,256
4621,1,1,MESSAGE PUMP,WM_KEYDOWN,256
4624,0,1,MESSAGE PUMP,WM_KEYUP,257
4626,0,1,MESSAGE PUMP,WM_KEYUP,257
4749,0,1,MESSAGE PUMP,WM_KEYDOWN,256
4751,3,1,MESSAGE PUMP,WM_KEYDOWN,256
4753,2,1,MESSAGE PUMP,WM_KEYUP,257
4756,0,1,MESSAGE PUMP,WM_KEYUP,257
5059,0,1,MESSAGE PUMP,WM_KEYDOWN,256
5061,1,1,MESSAGE PUMP,WM_KEYUP,257
5184,1,1,MESSAGE PUMP,WM_KEYDOWN,256
5186,1,1,MESSAGE PUMP,WM_KEYUP,257
5309,0,1,MESSAGE PUMP,WM_KEYDOWN,256
5312,0,1,MESSAGE PUMP,WM_SYSKEYDOWN,260
5312,0,1,MESSAGE PUMP,WM_CONTEXTMENU,123
5314,0,1,MESSAGE PUMP,WM_SYSKEYUP,261
5314,0,1,MESSAGE PUMP,WM_SYSCOMMAND,274
5316,1,1,MESSAGE PUMP,WM_KEYUP,257
5439,0,1,MESSAGE PUMP,WM_KEYDOWN,256
5442,0,1,MESSAGE PUMP,WM_KEYUP,257
5444,0,1,MESSAGE PUMP,WM_KEYDOWN,256
5447,0,1,MESSAGE PUMP,WM_KEYUP,257
5449,1,1,MESSAGE PUMP,WM_KEYDOWN,256
5452,0,1,MESSAGE PUMP,WM_KEYUP,257
5454,0,1,MESSAGE PUMP,WM_KEYDOWN,256
5457,0,1,MESSAGE PUMP,WM_KEYUP,257
5459,0,1,MESSAGE PUMP,WM_KEYDOWN,256
5462,0,1,MESSAGE PUMP,WM_KEYUP,257
5464,0,1,MESSAGE PUMP,WM_KEYDOWN,256
5467,0,1,MESSAGE PUMP,WM_KEYUP,257
5589,1,1,MESSAGE PUMP,WM_KEYDOWN,256
5589,1,1,MESSAGE PUMP,WM_CHAR,258
5590,0,1,MESSAGE PUMP,WM_KEYUP,257
5729,0,1,MESSAGE PUMP,WM_SYSKEYDOWN,260
5731,0,1,MESSAGE PUMP,WM_SYSKEYDOWN,260
5731,0,1,MESSAGE PUMP,WM_SYSCOMMAND,274
5731,0,1,MESSAGE PUMP,WM_CLOSE,16
5731,69,0,MESSAGE PUMP,Unknown,144
5731,69,0,MESSAGE PUMP,WM_WINDOWPOSCHANGING,70
5731,69,0,MESSAGE PUMP,WM_WINDOWPOSCHANGED,71
5731,69,0,MESSAGE PUMP,WM_NCACTIVATE,134
5731,69,0,MESSAGE PUMP,WM_ACTIVATE,6
5731,69,0,MESSAGE PUMP,WM_ACTIVATEAPP,28
5731,69,0,MESSAGE PUMP,WM_KILLFOCUS,8
5731,69,0,MESSAGE PUMP,WM_IME_SETCONTEXT,641
5731,69,0,MESSAGE PUMP,WM_IME_NOTIFY,642
5731,69,0,MESSAGE PUMP,WM_DESTROY,2
5731,69,0,MESSAGE PUMP,WM_NCDESTROY,130
