Frame,Poll Count,Is Polling,Source,Event Name,Event Code
0,0,0,MESSAGE PUMP,WM_GETMINMAXINFO,36
0,0,0,MESSAGE PUMP,WM_WINDOWPOSCHANGING,70
0,0,0,MESSAGE PUMP,WM_GETMINMAXINFO,36
0,0,0,MESSAGE PUMP,WM_NCCALCSIZE,131
0,0,0,MESSAGE PUMP,WM_WINDOWPOSCHANGING,70
0,0,0,MESSAGE PUMP,WM_ACTIVATEAPP,28
0,0,0,MESSAGE PUMP,WM_NCACTIVATE,134
0,0,0,MESSAGE PUMP,WM_ACTIVATE,6
0,0,0,MESSAGE PUMP,WM_IME_SETCONTEXT,641
0,0,0,MESSAGE PUMP,WM_IME_NOTIFY,642
0,0,0,MESSAGE PUMP,WM_SETFOCUS,7
0,0,0,MESSAGE PUMP,WM_NCPAINT,133
0,0,0,MESSAGE PUMP,WM_ERASEBKGND,20
0,0,0,MESSAGE PUMP,WM_WINDOWPOSCHANGED,71
0,0,0,MESSAGE PUMP,WM_MOVE,3
0,0,0,MESSAGE PUMP,WM_SIZE,5
0,0,0,MESSAGE PUMP,WM_WINDOWPOSCHANGING,70
0,0,0,MESSAGE PUMP,WM_GETMINMAXINFO,36
0,0,0,MESSAGE PUMP,WM_NCPAINT,133
0,0,0,MESSAGE PUMP,WM_ERASEBKGND,20
0,0,0,MESSAGE PUMP,WM_WINDOWPOSCHANGED,71
0,0,0,MESSAGE PUMP,WM_MOVE,3
0,0,0,MESSAGE PUMP,WM_SETICON,128
0,0,0,MESSAGE PUMP,Unknown,174
0,0,0,MESSAGE PUMP,WM_SETICON,128
0,0,0,MESSAGE PUMP,Unknown,174
0,0,0,MESSAGE PUMP,WM_WINDOWPOSCHANGING,70
0,0,0,MESSAGE PUMP,WM_GETICON,127
0,0,0,MESSAGE PUMP,WM_WINDOWPOSCHANGING,70
1,0,1,MESSAGE PUMP,WM_GETICON,127
1,0,1,MESSAGE PUMP,Unknown,799
1,0,1,MESSAGE PUMP,Unknown,49322
1,0,1,MESSAGE PUMP,WM_GETMINMAXINFO,36
1,0,1,MESSAGE PUMP,WM_NCHITTEST,132
1,0,1,MESSAGE PUMP,WM_SETCURSOR,32
1,0,1,MESSAGE PUMP,WM_MOUSEFIRST,512
1,0,1,MESSAGE PUMP,WM_PAINT,15
1066,0,1,MESSAGE PUMP,WM_KEYDOWN,256
1066,0,1,MESSAGE PUMP,WM_CHAR,258
1067,0,1,MESSAGE PUMP,WM_KEYUP,257
1216,0,1,MESSAGE PUMP,WM_KEYDOWN,256
1282,0,1,MESSAGE PUMP,WM_KEYDOWN,256
1287,0,1,MESSAGE PUMP,WM_KEYUP,257
1356,0,1,MESSAGE PUMP,WM_KEYUP,257
1541,0,1,MESSAGE PUMP,WM_KEYDOWN,256
1613,0,1,MESSAGE PUMP,WM_KEYDOWN,256
1616,0,1,MESSAGE PUMP,WM_KEYUP,257
1693,0,1,MESSAGE PUMP,WM_KEYUP,257
1899,0,1,MESSAGE PUMP,WM_KEYDOWN,256
1974,0,1,MESSAGE PUMP,WM_KEYDOWN,256
1976,0,1,MESSAGE PUMP,WM_KEYUP,257
2053,0,1,MESSAGE PUMP,WM_KEYUP,257
4246,0,1,MESSAGE PUMP,WM_KEYDOWN,256
4250,0,1,MESSAGE PUMP,WM_KEYUP,257
4325,0,1,MESSAGE PUMP,WM_KEYDOWN,256
4330,0,1,MESSAGE PUMP,WM_KEYUP,257
4409,0,1,MESSAGE PUMP,WM_KEYDOWN,256
4414,0,1,MESSAGE PUMP,WM_KEYUP,257
4493,0,1,MESSAGE PUMP,WM_KEYDOWN,256
4498,0,1,MESSAGE PUMP,WM_KEYUP,257
4571,0,1,MESSAGE PUMP,WM_KEYDOWN,256
4576,0,1,MESSAGE PUMP,WM_KEYUP,257
4649,0,1,MESSAGE PUMP,WM_KEYDOWN,256
4651,0,1,MESSAGE PUMP,WM_KEYUP,257
4795,0,1,MESSAGE PUMP,WM_KEYDOWN,256
4795,0,1,MESSAGE PUMP,WM_CHAR,258
4796,0,1,MESSAGE PUMP,WM_KEYUP,257
4904,0,1,MESSAGE PUMP,WM_KEYDOWN,256
4908,0,1,MESSAGE PUMP,WM_KEYUP,257
4966,0,1,MESSAGE PUMP,WM_KEYDOWN,256
4970,0,1,MESSAGE PUMP,WM_KEYUP,257
5035,0,1,MESSAGE PUMP,WM_KEYDOWN,256
5039,0,1,MESSAGE PUMP,WM_KEYUP,257
5104,0,1,MESSAGE PUMP,WM_KEYDOWN,256
5109,0,1,MESSAGE PUMP,WM_KEYUP,257
5174,0,1,MESSAGE PUMP,WM_KEYDOWN,256
5178,0,1,MESSAGE PUMP,WM_KEYUP,257
5242,0,1,MESSAGE PUMP,WM_KEYDOWN,256
5247,0,1,MESSAGE PUMP,WM_KEYUP,257
5371,0,1,MESSAGE PUMP,WM_KEYDOWN,256
5371,0,1,MESSAGE PUMP,WM_CHAR,258
5375,0,1,MESSAGE PUMP,WM_KEYUP,257
5528,0,1,MESSAGE PUMP,WM_KEYDOWN,256
5533,0,1,MESSAGE PUMP,WM_KEYUP,257
5614,0,1,MESSAGE PUMP,WM_KEYDOWN,256
5617,0,1,MESSAGE PUMP,WM_KEYUP,257
5760,0,1,MESSAGE PUMP,WM_KEYDOWN,256
5760,0,1,MESSAGE PUMP,WM_CHAR,258
5763,0,1,MESSAGE PUMP,WM_KEYUP,257
5888,0,1,MESSAGE PUMP,WM_KEYDOWN,256
5893,0,1,MESSAGE PUMP,WM_KEYUP,257
5958,0,1,MESSAGE PUMP,WM_KEYDOWN,256
5962,0,1,MESSAGE PUMP,WM_KEYUP,257
6075,0,1,MESSAGE PUMP,WM_KEYDOWN,256
6080,0,1,MESSAGE PUMP,WM_KEYUP,257
6143,0,1,MESSAGE PUMP,WM_KEYDOWN,256
6147,0,1,MESSAGE PUMP,WM_KEYUP,257
6205,0,1,MESSAGE PUMP,WM_KEYDOWN,256
6209,0,1,MESSAGE PUMP,WM_KEYUP,257
6272,0,1,MESSAGE PUMP,WM_KEYDOWN,256
6276,0,1,MESSAGE PUMP,WM_KEYUP,257
6340,0,1,MESSAGE PUMP,WM_KEYDOWN,256
6342,0,1,MESSAGE PUMP,WM_KEYUP,257
6404,0,1,MESSAGE PUMP,WM_KEYDOWN,256
6408,0,1,MESSAGE PUMP,WM_KEYUP,257
6472,0,1,MESSAGE PUMP,WM_KEYDOWN,256
6476,0,1,MESSAGE PUMP,WM_KEYUP,257
6600,0,1,MESSAGE PUMP,WM_KEYDOWN,256
6600,0,1,MESSAGE PUMP,WM_CHAR,258
6605,0,1,MESSAGE PUMP,WM_KEYUP,257
6759,0,1,MESSAGE PUMP,WM_KEYDOWN,256
6764,0,1,MESSAGE PUMP,WM_KEYUP,257
6840,0,1,MESSAGE PUMP,WM_KEYDOWN,256
6845,0,1,MESSAGE PUMP,WM_KEYUP,257
6995,0,1,MESSAGE PUMP,WM_KEYDOWN,256
6995,0,1,MESSAGE PUMP,WM_CHAR,258
6998,0,1,MESSAGE PUMP,WM_KEYUP,257
7122,0,1,MESSAGE PUMP,WM_KEYDOWN,256
7126,0,1,MESSAGE PUMP,WM_KEYUP,257
7190,0,1,MESSAGE PUMP,WM_KEYDOWN,256
7194,0,1,MESSAGE PUMP,WM_KEYUP,257
7322,0,1,MESSAGE PUMP,WM_KEYDOWN,256
7327,0,1,MESSAGE PUMP,WM_KEYUP,257
7391,0,1,MESSAGE PUMP,WM_KEYDOWN,256
7395,0,1,MESSAGE PUMP,WM_KEYUP,257
7460,0,1,MESSAGE PUMP,WM_KEYDOWN,256
7464,0,1,MESSAGE PUMP,WM_KEYUP,257
7588,0,1,MESSAGE PUMP,WM_KEYDOWN,256
7588,0,1,MESSAGE PUMP,WM_CHAR,258
7593,0,1,MESSAGE PUMP,WM_KEYUP,257
7744,0,1,MESSAGE PUMP,WM_KEYDOWN,256
7749,0,1,MESSAGE PUMP,WM_KEYUP,257
7829,0,1,MESSAGE PUMP,WM_KEYDOWN,256
7834,0,1,MESSAGE PUMP,WM_KEYUP,257
7978,0,1,MESSAGE PUMP,WM_KEYDOWN,256
7983,0,1,MESSAGE PUMP,WM_KEYUP,257
8063,0,1,MESSAGE PUMP,WM_KEYDOWN,256
8068,0,1,MESSAGE PUMP,WM_KEYUP,257
8146,0,1,MESSAGE PUMP,WM_KEYDOWN,256
8148,0,1,MESSAGE PUMP,WM_KEYUP,257
8219,0,1,MESSAGE PUMP,WM_KEYDOWN,256
8224,0,1,MESSAGE PUMP,WM_KEYUP,257
8304,0,1,MESSAGE PUMP,WM_KEYDOWN,256
8309,0,1,MESSAGE PUMP,WM_KEYUP,257
8388,0,1,MESSAGE PUMP,WM_KEYDOWN,256
8393,0,1,MESSAGE PUMP,WM_KEYUP,257
8468,0,1,MESSAGE PUMP,WM_KEYDOWN,256
8472,0,1,MESSAGE PUMP,WM_KEYUP,257
8552,0,1,MESSAGE PUMP,WM_KEYDOWN,256
8556,0,1,MESSAGE PUMP,WM_KEYUP,257
8703,0,1,MESSAGE PUMP,WM_KEYDOWN,256
8708,0,1,MESSAGE PUMP,WM_KEYUP,257
8862,0,1,MESSAGE PUMP,WM_KEYDOWN,256
8862,0,1,MESSAGE PUMP,WM_CHAR,258
8865,0,1,MESSAGE PUMP,WM_KEYUP,257
8983,0,1,MESSAGE PUMP,WM_KEYDOWN,256
8987,0,1,MESSAGE PUMP,WM_KEYUP,257
9112,0,1,MESSAGE PUMP,WM_KEYDOWN,256
9116,0,1,MESSAGE PUMP,WM_KEYUP,257
9181,0,1,MESSAGE PUMP,WM_KEYDOWN,256
9185,0,1,MESSAGE PUMP,WM_KEYUP,257
9251,0,1,MESSAGE PUMP,WM_KEYDOWN,256
9254,0,1,MESSAGE PUMP,WM_KEYUP,257
9317,0,1,MESSAGE PUMP,WM_KEYDOWN,256
9321,0,1,MESSAGE PUMP,WM_KEYUP,257
9386,0,1,MESSAGE PUMP,WM_KEYDOWN,256
9390,0,1,MESSAGE PUMP,WM_KEYUP,257
9515,0,1,MESSAGE PUMP,WM_KEYDOWN,256
9580,0,1,MESSAGE PUMP,WM_KEYDOWN,256
9584,0,1,MESSAGE PUMP,WM_KEYUP,257
9648,0,1,MESSAGE PUMP,WM_KEYUP,257
9770,0,1,MESSAGE PUMP,WM_KEYDOWN,256
9770,0,1,MESSAGE PUMP,WM_CHAR,258
9775,0,1,MESSAGE PUMP,WM_KEYUP,257
9929,0,1,MESSAGE PUMP,WM_KEYDOWN,256
9934,0,1,MESSAGE PUMP,WM_KEYUP,257
10014,0,1,MESSAGE PUMP,WM_KEYDOWN,256
10019,0,1,MESSAGE PUMP,WM_KEYUP,257
10168,0,1,MESSAGE PUMP,WM_KEYDOWN,256
10168,0,1,MESSAGE PUMP,WM_CHAR,258
10171,0,1,MESSAGE PUMP,WM_KEYUP,257
10290,0,1,MESSAGE PUMP,WM_KEYDOWN,256
10355,0,1,MESSAGE PUMP,WM_KEYDOWN,256
10360,0,1,MESSAGE PUMP,WM_KEYUP,257
10424,0,1,MESSAGE PUMP,WM_KEYUP,257
10550,0,1,MESSAGE PUMP,WM_KEYDOWN,256
10554,0,1,MESSAGE PUMP,WM_KEYUP,257
10677,0,1,MESSAGE PUMP,WM_KEYDOWN,256
10681,0,1,MESSAGE PUMP,WM_KEYUP,257
10746,0,1,MESSAGE PUMP,WM_KEYDOWN,256
10750,0,1,MESSAGE PUMP,WM_KEYUP,257
10815,0,1,MESSAGE PUMP,WM_KEYDOWN,256
10819,0,1,MESSAGE PUMP,WM_KEYUP,257
10943,0,1,MESSAGE PUMP,WM_KEYDOWN,256
10943,0,1,MESSAGE PUMP,WM_CHAR,258
10949,0,1,MESSAGE PUMP,WM_KEYUP,257
11103,0,1,MESSAGE PUMP,WM_KEYDOWN,256
11108,0,1,MESSAGE PUMP,WM_KEYUP,257
11263,0,1,MESSAGE PUMP,WM_KEYDOWN,256
11268,0,1,MESSAGE PUMP,WM_KEYUP,257
11349,0,1,MESSAGE PUMP,WM_KEYDOWN,256
11354,0,1,MESSAGE PUMP,WM_KEYUP,257
11429,0,1,MESSAGE PUMP,WM_KEYDOWN,256
11434,0,1,MESSAGE PUMP,WM_KEYUP,257
11514,0,1,MESSAGE PUMP,WM_KEYDOWN,256
11519,0,1,MESSAGE PUMP,WM_KEYUP,257
11597,0,1,MESSAGE PUMP,WM_KEYDOWN,256
11602,0,1,MESSAGE PUMP,WM_KEYUP,257
11756,0,1,MESSAGE PUMP,WM_KEYDOWN,256
11756,0,1,MESSAGE PUMP,WM_CHAR,258
11759,0,1,MESSAGE PUMP,WM_KEYUP,257
11880,0,1,MESSAGE PUMP,WM_KEYDOWN,256
11884,0,1,MESSAGE PUMP,WM_KEYUP,257
12008,0,1,MESSAGE PUMP,WM_KEYDOWN,256
12073,0,1,MESSAGE PUMP,WM_KEYDOWN,256
12077,0,1,MESSAGE PUMP,WM_KEYUP,257
12142,0,1,MESSAGE PUMP,WM_KEYUP,257
12266,0,1,MESSAGE PUMP,WM_KEYDOWN,256
12271,0,1,MESSAGE PUMP,WM_KEYUP,257
12334,0,1,MESSAGE PUMP,WM_KEYDOWN,256
12338,0,1,MESSAGE PUMP,WM_KEYUP,257
12463,0,1,MESSAGE PUMP,WM_KEYDOWN,256
12463,0,1,MESSAGE PUMP,WM_CHAR,258
12468,0,1,MESSAGE PUMP,WM_KEYUP,257
14868,0,1,MESSAGE PUMP,WM_KEYDOWN,256
14949,0,1,MESSAGE PUMP,WM_KEYDOWN,256
14954,0,1,MESSAGE PUMP,WM_KEYUP,257
15051,0,1,MESSAGE PUMP,WM_KEYUP,257
15418,0,1,MESSAGE PUMP,WM_SYSKEYDOWN,260
15516,0,1,MESSAGE PUMP,WM_SYSKEYDOWN,260
15516,0,1,MESSAGE PUMP,WM_SYSCOMMAND,274
15516,0,1,MESSAGE PUMP,WM_CLOSE,16
15516,0,0,MESSAGE PUMP,Unknown,144
15516,0,0,MESSAGE PUMP,WM_WINDOWPOSCHANGING,70
15516,0,0,MESSAGE PUMP,WM_WINDOWPOSCHANGED,71
15516,0,0,MESSAGE PUMP,WM_NCACTIVATE,134
15516,0,0,MESSAGE PUMP,WM_GETICON,127
15516,0,0,MESSAGE PUMP,WM_ACTIVATE,6
15516,0,0,MESSAGE PUMP,WM_ACTIVATEAPP,28
15516,0,0,MESSAGE PUMP,WM_KILLFOCUS,8
15516,0,0,MESSAGE PUMP,WM_IME_SETCONTEXT,641
15516,0,0,MESSAGE PUMP,WM_IME_NOTIFY,642
15516,0,0,MESSAGE PUMP,WM_DESTROY,2
15516,0,0,MESSAGE PUMP,WM_NCDESTROY,130
