Frame,Poll Count,Is Polling,Source,Event Name,Event Code
0,0,0,MESSAGE PUMP,WM_GETMINMAXINFO,36
0,0,0,MESSAGE PUMP,WM_WINDOWPOSCHANGING,70
0,0,0,MESSAGE PUMP,WM_GETMINMAXINFO,36
0,0,0,MESSAGE PUMP,WM_NCCALCSIZE,131
0,0,0,MESSAGE PUMP,WM_WINDOWPOSCHANGING,70
0,0,0,MESSAGE PUMP,WM_ACTIVATEAPP,28
0,0,0,MESSAGE PUMP,WM_NCACTIVATE,134
0,0,0,MESSAGE PUMP,WM_ACTIVATE,6
0,0,0,MESSAGE PUMP,WM_IME_SETCONTEXT,641
0,0,0,MESSAGE PUMP,WM_IME_NOTIFY,642
0,0,0,MESSAGE PUMP,WM_SETFOCUS,7
0,0,0,MESSAGE PUMP,WM_NCPAINT,133
0,0,0,MESSAGE PUMP,WM_ERASEBKGND,20
0,0,0,MESSAGE PUMP,WM_WINDOWPOSCHANGED,71
0,0,0,MESSAGE PUMP,WM_MOVE,3
0,0,0,MESSAGE PUMP,WM_SIZE,5
0,0,0,MESSAGE PUMP,WM_WINDOWPOSCHANGING,70
0,0,0,MESSAGE PUMP,WM_GETMINMAXINFO,36
0,0,0,MESSAGE PUMP,WM_NCPAINT,133
0,0,0,MESSAGE PUMP,WM_ERASEBKGND,20
0,0,0,MESSAGE PUMP,WM_WINDOWPOSCHANGED,71
0,0,0,MESSAGE PUMP,WM_MOVE,3
0,0,0,MESSAGE PUMP,WM_SETICON,128
0,0,0,MESSAGE PUMP,Unknown,174
0,0,0,MESSAGE PUMP,WM_SETICON,128
0,0,0,MESSAGE PUMP,Unknown,174
0,0,0,MESSAGE PUMP,WM_WINDOWPOSCHANGING,70
0,0,0,MESSAGE PUMP,WM_GETICON,127
0,0,0,MESSAGE PUMP,WM_WINDOWPOSCHANGING,70
1,0,1,MESSAGE PUMP,WM_GETICON,127
1,0,1,MESSAGE PUMP,Unknown,799
1,0,1,MESSAGE PUMP,Unknown,49322
1,0,1,MESSAGE PUMP,WM_GETMINMAXINFO,36
1,0,1,MESSAGE PUMP,WM_NCHITTEST,132
1,0,1,MESSAGE PUMP,WM_SETCURSOR,32
1,0,1,MESSAGE PUMP,WM_MOUSEFIRST,512
1,0,1,MESSAGE PUMP,WM_PAINT,15
1052,0,1,MESSAGE PUMP,WM_KEYDOWN,256
1052,0,1,MESSAGE PUMP,WM_CHAR,258
1053,0,1,MESSAGE PUMP,WM_KEYUP,257
1203,0,1,MESSAGE PUMP,WM_KEYDOWN,256
1276,0,1,MESSAGE PUMP,WM_KEYDOWN,256
1279,0,1,MESSAGE PUMP,WM_KEYUP,257
1333,0,1,MESSAGE PUMP,WM_KEYUP,257
1548,0,1,MESSAGE PUMP,WM_KEYDOWN,256
1615,0,1,MESSAGE PUMP,WM_KEYDOWN,256
1619,0,1,MESSAGE PUMP,WM_KEYUP,257
1697,0,1,MESSAGE PUMP,WM_KEYUP,257
1906,0,1,MESSAGE PUMP,WM_KEYDOWN,256
1974,0,1,MESSAGE PUMP,WM_KEYDOWN,256
1978,0,1,MESSAGE PUMP,WM_KEYUP,257
2053,0,1,MESSAGE PUMP,WM_KEYUP,257
4223,0,1,MESSAGE PUMP,WM_KEYDOWN,256
4228,0,1,MESSAGE PUMP,WM_KEYUP,257
4307,0,1,MESSAGE PUMP,WM_KEYDOWN,256
4312,0,1,MESSAGE PUMP,WM_KEYUP,257
4389,0,1,MESSAGE PUMP,WM_KEYDOWN,256
4394,0,1,MESSAGE PUMP,WM_KEYUP,257
4474,0,1,MESSAGE PUMP,WM_KEYDOWN,256
4479,0,1,MESSAGE PUMP,WM_KEYUP,257
4558,0,1,MESSAGE PUMP,WM_KEYDOWN,256
4562,0,1,MESSAGE PUMP,WM_KEYUP,257
4636,0,1,MESSAGE PUMP,WM_KEYDOWN,256
4639,0,1,MESSAGE PUMP,WM_KEYUP,257
4787,0,1,MESSAGE PUMP,WM_KEYDOWN,256
4787,0,1,MESSAGE PUMP,WM_CHAR,258
4788,0,1,MESSAGE PUMP,WM_KEYUP,257
4907,0,1,MESSAGE PUMP,WM_KEYDOWN,256
4911,0,1,MESSAGE PUMP,WM_KEYUP,257
4976,0,1,MESSAGE PUMP,WM_KEYDOWN,256
4980,0,1,MESSAGE PUMP,WM_KEYUP,257
5045,0,1,MESSAGE PUMP,WM_KEYDOWN,256
5049,0,1,MESSAGE PUMP,WM_KEYUP,257
5114,0,1,MESSAGE PUMP,WM_KEYDOWN,256
5118,0,1,MESSAGE PUMP,WM_KEYUP,257
5173,0,1,MESSAGE PUMP,WM_KEYDOWN,256
5177,0,1,MESSAGE PUMP,WM_KEYUP,257
5242,0,1,MESSAGE PUMP,WM_KEYDOWN,256
5247,0,1,MESSAGE PUMP,WM_KEYUP,257
5369,0,1,MESSAGE PUMP,WM_KEYDOWN,256
5369,0,1,MESSAGE PUMP,WM_CHAR,258
5374,0,1,MESSAGE PUMP,WM_KEYUP,257
5523,0,1,MESSAGE PUMP,WM_KEYDOWN,256
5528,0,1,MESSAGE PUMP,WM_KEYUP,257
5608,0,1,MESSAGE PUMP,WM_KEYDOWN,256
5611,0,1,MESSAGE PUMP,WM_KEYUP,257
5765,0,1,MESSAGE PUMP,WM_KEYDOWN,256
5765,0,1,MESSAGE PUMP,WM_CHAR,258
5769,0,1,MESSAGE PUMP,WM_KEYUP,257
5894,0,1,MESSAGE PUMP,WM_KEYDOWN,256
5898,0,1,MESSAGE PUMP,WM_KEYUP,257
5953,0,1,MESSAGE PUMP,WM_KEYDOWN,256
5957,0,1,MESSAGE PUMP,WM_KEYUP,257
6081,0,1,MESSAGE PUMP,WM_KEYDOWN,256
6086,0,1,MESSAGE PUMP,WM_KEYUP,257
6150,0,1,MESSAGE PUMP,WM_KEYDOWN,256
6155,0,1,MESSAGE PUMP,WM_KEYUP,257
6219,0,1,MESSAGE PUMP,WM_KEYDOWN,256
6223,0,1,MESSAGE PUMP,WM_KEYUP,257
6288,0,1,MESSAGE PUMP,WM_KEYDOWN,256
6292,0,1,MESSAGE PUMP,WM_KEYUP,257
6357,0,1,MESSAGE PUMP,WM_KEYDOWN,256
6362,0,1,MESSAGE PUMP,WM_KEYUP,257
6427,0,1,MESSAGE PUMP,WM_KEYDOWN,256
6431,0,1,MESSAGE PUMP,WM_KEYUP,257
6495,0,1,MESSAGE PUMP,WM_KEYDOWN,256
6499,0,1,MESSAGE PUMP,WM_KEYUP,257
6625,0,1,MESSAGE PUMP,WM_KEYDOWN,256
6625,0,1,MESSAGE PUMP,WM_CHAR,258
6629,0,1,MESSAGE PUMP,WM_KEYUP,257
6783,0,1,MESSAGE PUMP,WM_KEYDOWN,256
6788,0,1,MESSAGE PUMP,WM_KEYUP,257
6859,0,1,MESSAGE PUMP,WM_KEYDOWN,256
6863,0,1,MESSAGE PUMP,WM_KEYUP,257
7006,0,1,MESSAGE PUMP,WM_KEYDOWN,256
7006,0,1,MESSAGE PUMP,WM_CHAR,258
7009,0,1,MESSAGE PUMP,WM_KEYUP,257
7130,0,1,MESSAGE PUMP,WM_KEYDOWN,256
7134,0,1,MESSAGE PUMP,WM_KEYUP,257
7199,0,1,MESSAGE PUMP,WM_KEYDOWN,256
7203,0,1,MESSAGE PUMP,WM_KEYUP,257
7328,0,1,MESSAGE PUMP,WM_KEYDOWN,256
7332,0,1,MESSAGE PUMP,WM_KEYUP,257
7397,0,1,MESSAGE PUMP,WM_KEYDOWN,256
7401,0,1,MESSAGE PUMP,WM_KEYUP,257
7460,0,1,MESSAGE PUMP,WM_KEYDOWN,256
7462,0,1,MESSAGE PUMP,WM_KEYUP,257
7586,0,1,MESSAGE PUMP,WM_KEYDOWN,256
7586,0,1,MESSAGE PUMP,WM_CHAR,258
7590,0,1,MESSAGE PUMP,WM_KEYUP,257
7738,0,1,MESSAGE PUMP,WM_KEYDOWN,256
7743,0,1,MESSAGE PUMP,WM_KEYUP,257
7818,0,1,MESSAGE PUMP,WM_KEYDOWN,256
7823,0,1,MESSAGE PUMP,WM_KEYUP,257
7974,0,1,MESSAGE PUMP,WM_KEYDOWN,256
7979,0,1,MESSAGE PUMP,WM_KEYUP,257
8059,0,1,MESSAGE PUMP,WM_KEYDOWN,256
8064,0,1,MESSAGE PUMP,WM_KEYUP,257
8144,0,1,MESSAGE PUMP,WM_KEYDOWN,256
8149,0,1,MESSAGE PUMP,WM_KEYUP,257
8229,0,1,MESSAGE PUMP,WM_KEYDOWN,256
8234,0,1,MESSAGE PUMP,WM_KEYUP,257
8314,0,1,MESSAGE PUMP,WM_KEYDOWN,256
8319,0,1,MESSAGE PUMP,WM_KEYUP,257
8398,0,1,MESSAGE PUMP,WM_KEYDOWN,256
8403,0,1,MESSAGE PUMP,WM_KEYUP,257
8475,0,1,MESSAGE PUMP,WM_KEYDOWN,256
8479,0,1,MESSAGE PUMP,WM_KEYUP,257
8560,0,1,MESSAGE PUMP,WM_KEYDOWN,256
8565,0,1,MESSAGE PUMP,WM_KEYUP,257
8716,0,1,MESSAGE PUMP,WM_KEYDOWN,256
8721,0,1,MESSAGE PUMP,WM_KEYUP,257
8871,0,1,MESSAGE PUMP,WM_KEYDOWN,256
8871,0,1,MESSAGE PUMP,WM_CHAR,258
8874,0,1,MESSAGE PUMP,WM_KEYUP,257
8994,0,1,MESSAGE PUMP,WM_KEYDOWN,256
8999,0,1,MESSAGE PUMP,WM_KEYUP,257
9124,0,1,MESSAGE PUMP,WM_KEYDOWN,256
9128,0,1,MESSAGE PUMP,WM_KEYUP,257
9194,0,1,MESSAGE PUMP,WM_KEYDOWN,256
9198,0,1,MESSAGE PUMP,WM_KEYUP,257
9254,0,1,MESSAGE PUMP,WM_KEYDOWN,256
9258,0,1,MESSAGE PUMP,WM_KEYUP,257
9323,0,1,MESSAGE PUMP,WM_KEYDOWN,256
9328,0,1,MESSAGE PUMP,WM_KEYUP,257
9392,0,1,MESSAGE PUMP,WM_KEYDOWN,256
9396,0,1,MESSAGE PUMP,WM_KEYUP,257
9521,0,1,MESSAGE PUMP,WM_KEYDOWN,256
9586,0,1,MESSAGE PUMP,WM_KEYDOWN,256
9590,0,1,MESSAGE PUMP,WM_KEYUP,257
9655,0,1,MESSAGE PUMP,WM_KEYUP,257
9779,0,1,MESSAGE PUMP,WM_KEYDOWN,256
9779,0,1,MESSAGE PUMP,WM_CHAR,258
9784,0,1,MESSAGE PUMP,WM_KEYUP,257
9936,0,1,MESSAGE PUMP,WM_KEYDOWN,256
9940,0,1,MESSAGE PUMP,WM_KEYUP,257
10019,0,1,MESSAGE PUMP,WM_KEYDOWN,256
10024,0,1,MESSAGE PUMP,WM_KEYUP,257
10179,0,1,MESSAGE PUMP,WM_KEYDOWN,256
10179,0,1,MESSAGE PUMP,WM_CHAR,258
10182,0,1,MESSAGE PUMP,WM_KEYUP,257
10306,0,1,MESSAGE PUMP,WM_KEYDOWN,256
10371,0,1,MESSAGE PUMP,WM_KEYDOWN,256
10375,0,1,MESSAGE PUMP,WM_KEYUP,257
10440,0,1,MESSAGE PUMP,WM_KEYUP,257
10565,0,1,MESSAGE PUMP,WM_KEYDOWN,256
10569,0,1,MESSAGE PUMP,WM_KEYUP,257
10694,0,1,MESSAGE PUMP,WM_KEYDOWN,256
10698,0,1,MESSAGE PUMP,WM_KEYUP,257
10761,0,1,MESSAGE PUMP,WM_KEYDOWN,256
10765,0,1,MESSAGE PUMP,WM_KEYUP,257
10826,0,1,MESSAGE PUMP,WM_KEYDOWN,256
10830,0,1,MESSAGE PUMP,WM_KEYUP,257
10956,0,1,MESSAGE PUMP,WM_KEYDOWN,256
10956,0,1,MESSAGE PUMP,WM_CHAR,258
10960,0,1,MESSAGE PUMP,WM_KEYUP,257
11116,0,1,MESSAGE PUMP,WM_KEYDOWN,256
11121,0,1,MESSAGE PUMP,WM_KEYUP,257
11276,0,1,MESSAGE PUMP,WM_KEYDOWN,256
11281,0,1,MESSAGE PUMP,WM_KEYUP,257
11361,0,1,MESSAGE PUMP,WM_KEYDOWN,256
11366,0,1,MESSAGE PUMP,WM_KEYUP,257
11445,0,1,MESSAGE PUMP,WM_KEYDOWN,256
11449,0,1,MESSAGE PUMP,WM_KEYUP,257
11529,0,1,MESSAGE PUMP,WM_KEYDOWN,256
11534,0,1,MESSAGE PUMP,WM_KEYUP,257
11614,0,1,MESSAGE PUMP,WM_KEYDOWN,256
11619,0,1,MESSAGE PUMP,WM_KEYUP,257
11774,0,1,MESSAGE PUMP,WM_KEYDOWN,256
11774,0,1,MESSAGE PUMP,WM_CHAR,258
11777,0,1,MESSAGE PUMP,WM_KEYUP,257
11898,0,1,MESSAGE PUMP,WM_KEYDOWN,256
11902,0,1,MESSAGE PUMP,WM_KEYUP,257
12024,0,1,MESSAGE PUMP,WM_KEYDOWN,256
12089,0,1,MESSAGE PUMP,WM_KEYDOWN,256
12093,0,1,MESSAGE PUMP,WM_KEYUP,257
12158,0,1,MESSAGE PUMP,WM_KEYUP,257
12269,0,1,MESSAGE PUMP,WM_KEYDOWN,256
12273,0,1,MESSAGE PUMP,WM_KEYUP,257
12338,0,1,MESSAGE PUMP,WM_KEYDOWN,256
12342,0,1,MESSAGE PUMP,WM_KEYUP,257
12468,0,1,MESSAGE PUMP,WM_KEYDOWN,256
12468,0,1,MESSAGE PUMP,WM_CHAR,258
12472,0,1,MESSAGE PUMP,WM_KEYUP,257
14870,0,1,MESSAGE PUMP,WM_KEYDOWN,256
14950,0,1,MESSAGE PUMP,WM_KEYDOWN,256
14955,0,1,MESSAGE PUMP,WM_KEYUP,257
15053,0,1,MESSAGE PUMP,WM_KEYUP,257
15421,0,1,MESSAGE PUMP,WM_SYSKEYDOWN,260
15519,0,1,MESSAGE PUMP,WM_SYSKEYDOWN,260
15519,0,1,MESSAGE PUMP,WM_SYSCOMMAND,274
15519,0,1,MESSAGE PUMP,WM_CLOSE,16
15519,0,0,MESSAGE PUMP,Unknown,144
15519,0,0,MESSAGE PUMP,WM_WINDOWPOSCHANGING,70
15519,0,0,MESSAGE PUMP,WM_WINDOWPOSCHANGED,71
15519,0,0,MESSAGE PUMP,WM_NCACTIVATE,134
15519,0,0,MESSAGE PUMP,WM_GETICON,127
15519,0,0,MESSAGE PUMP,WM_ACTIVATE,6
15519,0,0,MESSAGE PUMP,WM_ACTIVATEAPP,28
15519,0,0,MESSAGE PUMP,WM_KILLFOCUS,8
15519,0,0,MESSAGE PUMP,WM_IME_SETCONTEXT,641
15519,0,0,MESSAGE PUMP,WM_IME_NOTIFY,642
15519,0,0,MESSAGE PUMP,WM_DESTROY,2
15519,0,0,MESSAGE PUMP,WM_NCDESTROY,130
