Frame,Poll Count,Is Polling,Source,Event Name,Event Code
0,0,0,MESSAGE PUMP,WM_GETMINMAXINFO,36
0,0,0,MESSAGE PUMP,WM_WINDOWPOSCHANGING,70
0,0,0,MESSAGE PUMP,WM_GETMINMAXINFO,36
0,0,0,MESSAGE PUMP,WM_NCCALCSIZE,131
0,0,0,MESSAGE PUMP,WM_WINDOWPOSCHANGING,70
0,0,0,MESSAGE PUMP,WM_ACTIVATEAPP,28
0,0,0,MESSAGE PUMP,WM_NCACTIVATE,134
0,0,0,MESSAGE PUMP,WM_ACTIVATE,6
0,0,0,MESSAGE PUMP,WM_IME_SETCONTEXT,641
0,0,0,MESSAGE PUMP,WM_IME_NOTIFY,642
0,0,0,MESSAGE PUMP,WM_SETFOCUS,7
0,0,0,MESSAGE PUMP,WM_NCPAINT,133
0,0,0,MESSAGE PUMP,WM_ERASEBKGND,20
0,0,0,MESSAGE PUMP,WM_WINDOWPOSCHANGED,71
0,0,0,MESSAGE PUMP,WM_MOVE,3
0,0,0,MESSAGE PUMP,WM_SIZE,5
0,0,0,MESSAGE PUMP,WM_WINDOWPOSCHANGING,70
0,0,0,MESSAGE PUMP,WM_GETMINMAXINFO,36
0,0,0,MESSAGE PUMP,WM_NCPAINT,133
0,0,0,MESSAGE PUMP,WM_ERASEBKGND,20
0,0,0,MESSAGE PUMP,WM_WINDOWPOSCHANGED,71
0,0,0,MESSAGE PUMP,WM_MOVE,3
0,0,0,MESSAGE PUMP,WM_SETICON,128
0,0,0,MESSAGE PUMP,Unknown,174
0,0,0,MESSAGE PUMP,WM_SETICON,128
0,0,0,MESSAGE PUMP,Unknown,174
0,0,0,MESSAGE PUMP,WM_WINDOWPOSCHANGING,70
0,0,0,MESSAGE PUMP,WM_GETICON,127
0,0,0,MESSAGE PUMP,WM_WINDOWPOSCHANGING,70
1,0,1,MESSAGE PUMP,WM_GETICON,127
1,0,1,MESSAGE PUMP,Unknown,799
1,0,1,MESSAGE PUMP,Unknown,49328
1,0,1,MESSAGE PUMP,WM_GETMINMAXINFO,36
1,0,1,MESSAGE PUMP,WM_NCHITTEST,132
1,0,1,MESSAGE PUMP,WM_SETCURSOR,32
1,0,1,MESSAGE PUMP,WM_MOUSEFIRST,512
1,0,1,MESSAGE PUMP,WM_PAINT,15
2015,0,1,MESSAGE PUMP,WM_KEYDOWN,256
2021,0,1,MESSAGE PUMP,WM_KEYDOWN,256
2021,0,1,MESSAGE PUMP,WM_CHAR,258
2021,0,0,MESSAGE PUMP,WM_NCACTIVATE,134
2021,0,0,MESSAGE PUMP,WM_GETICON,127
2021,0,0,MESSAGE PUMP,WM_ACTIVATE,6
2021,0,0,MESSAGE PUMP,WM_KILLFOCUS,8
2021,0,0,MESSAGE PUMP,WM_IME_SETCONTEXT,641
2021,0,0,MESSAGE PUMP,WM_IME_NOTIFY,642
2021,0,0,MESSAGE PUMP,WM_MOUSELEAVE,675
2021,0,0,MESSAGE PUMP,WM_GETICON,127
2021,0,0,MESSAGE PUMP,WM_WINDOWPOSCHANGING,70
2021,0,0,MESSAGE PUMP,WM_WINDOWPOSCHANGED,71
2021,0,0,MESSAGE PUMP,WM_ACTIVATEAPP,28
2021,0,0,MESSAGE PUMP,WM_NCACTIVATE,134
2021,0,0,MESSAGE PUMP,WM_ACTIVATE,6
2021,0,0,MESSAGE PUMP,WM_IME_SETCONTEXT,641
2021,0,0,MESSAGE PUMP,WM_IME_NOTIFY,642
2021,0,0,MESSAGE PUMP,WM_SETFOCUS,7
2022,0,1,MESSAGE PUMP,WM_KEYUP,257
2022,0,1,MESSAGE PUMP,WM_NCHITTEST,132
2022,0,1,MESSAGE PUMP,WM_SETCURSOR,32
2022,0,1,MESSAGE PUMP,WM_MOUSEFIRST,512
4714,0,1,MESSAGE PUMP,WM_KEYDOWN,256
4721,0,1,MESSAGE PUMP,WM_KEYUP,257
4727,0,1,MESSAGE PUMP,WM_KEYDOWN,256
4732,0,1,MESSAGE PUMP,WM_KEYUP,257
4775,0,1,MESSAGE PUMP,WM_KEYDOWN,256
4781,0,1,MESSAGE PUMP,WM_KEYUP,257
4787,0,1,MESSAGE PUMP,WM_KEYDOWN,256
4793,0,1,MESSAGE PUMP,WM_KEYUP,257
4799,0,1,MESSAGE PUMP,WM_KEYDOWN,256
4806,0,1,MESSAGE PUMP,WM_KEYUP,257
4850,0,1,MESSAGE PUMP,WM_KEYDOWN,256
4855,0,1,MESSAGE PUMP,WM_KEYUP,257
4861,0,1,MESSAGE PUMP,WM_KEYDOWN,256
4867,0,1,MESSAGE PUMP,WM_KEYUP,257
4873,0,1,MESSAGE PUMP,WM_KEYDOWN,256
4879,0,1,MESSAGE PUMP,WM_KEYUP,257
4885,0,1,MESSAGE PUMP,WM_KEYDOWN,256
4890,0,1,MESSAGE PUMP,WM_KEYUP,257
4897,0,1,MESSAGE PUMP,WM_KEYDOWN,256
4899,0,1,MESSAGE PUMP,WM_KEYUP,257
4934,0,1,MESSAGE PUMP,WM_KEYDOWN,256
4939,0,1,MESSAGE PUMP,WM_KEYUP,257
4945,0,1,MESSAGE PUMP,WM_KEYDOWN,256
4950,0,1,MESSAGE PUMP,WM_KEYUP,257
4985,0,1,MESSAGE PUMP,WM_KEYDOWN,256
4987,0,1,MESSAGE PUMP,WM_KEYUP,257
5016,0,1,MESSAGE PUMP,WM_KEYDOWN,256
5020,0,1,MESSAGE PUMP,WM_KEYUP,257
5025,0,1,MESSAGE PUMP,WM_KEYDOWN,256
5029,0,1,MESSAGE PUMP,WM_KEYUP,257
5033,0,1,MESSAGE PUMP,WM_KEYDOWN,256
5037,0,1,MESSAGE PUMP,WM_KEYUP,257
5042,0,1,MESSAGE PUMP,WM_KEYDOWN,256
5046,0,1,MESSAGE PUMP,WM_KEYUP,257
5050,0,1,MESSAGE PUMP,WM_KEYDOWN,256
5055,0,1,MESSAGE PUMP,WM_KEYUP,257
5083,0,1,MESSAGE PUMP,WM_KEYDOWN,256
5087,0,1,MESSAGE PUMP,WM_KEYUP,257
5115,0,1,MESSAGE PUMP,WM_KEYDOWN,256
5120,0,1,MESSAGE PUMP,WM_KEYUP,257
5124,0,1,MESSAGE PUMP,WM_KEYDOWN,256
5128,0,1,MESSAGE PUMP,WM_KEYUP,257
5157,0,1,MESSAGE PUMP,WM_KEYDOWN,256
5161,0,1,MESSAGE PUMP,WM_KEYUP,257
5190,0,1,MESSAGE PUMP,WM_KEYDOWN,256
5195,0,1,MESSAGE PUMP,WM_KEYUP,257
5199,0,1,MESSAGE PUMP,WM_KEYDOWN,256
5203,0,1,MESSAGE PUMP,WM_KEYUP,257
5207,0,1,MESSAGE PUMP,WM_KEYDOWN,256
5212,0,1,MESSAGE PUMP,WM_KEYUP,257
5216,0,1,MESSAGE PUMP,WM_KEYDOWN,256
5220,0,1,MESSAGE PUMP,WM_KEYUP,257
5225,0,1,MESSAGE PUMP,WM_KEYDOWN,256
5229,0,1,MESSAGE PUMP,WM_KEYUP,257
5233,0,1,MESSAGE PUMP,WM_KEYDOWN,256
5237,0,1,MESSAGE PUMP,WM_KEYUP,257
5242,0,1,MESSAGE PUMP,WM_KEYDOWN,256
5246,0,1,MESSAGE PUMP,WM_KEYUP,257
5250,0,1,MESSAGE PUMP,WM_KEYDOWN,256
5253,0,1,MESSAGE PUMP,WM_KEYUP,257
5258,0,1,MESSAGE PUMP,WM_KEYDOWN,256
5262,0,1,MESSAGE PUMP,WM_KEYUP,257
5266,0,1,MESSAGE PUMP,WM_KEYDOWN,256
5270,0,1,MESSAGE PUMP,WM_KEYUP,257
5274,0,1,MESSAGE PUMP,WM_KEYDOWN,256
5278,0,1,MESSAGE PUMP,WM_KEYUP,257
5282,0,1,MESSAGE PUMP,WM_KEYDOWN,256
5287,0,1,MESSAGE PUMP,WM_KEYUP,257
5291,0,1,MESSAGE PUMP,WM_KEYDOWN,256
5295,0,1,MESSAGE PUMP,WM_KEYUP,257
5299,0,1,MESSAGE PUMP,WM_KEYDOWN,256
5304,0,1,MESSAGE PUMP,WM_KEYUP,257
5308,0,1,MESSAGE PUMP,WM_KEYDOWN,256
5312,0,1,MESSAGE PUMP,WM_KEYUP,257
5317,0,1,MESSAGE PUMP,WM_KEYDOWN,256
5321,0,1,MESSAGE PUMP,WM_KEYUP,257
5325,0,1,MESSAGE PUMP,WM_KEYDOWN,256
5330,0,1,MESSAGE PUMP,WM_KEYUP,257
5334,0,1,MESSAGE PUMP,WM_KEYDOWN,256
5338,0,1,MESSAGE PUMP,WM_KEYUP,257
5342,0,1,MESSAGE PUMP,WM_KEYDOWN,256
5347,0,1,MESSAGE PUMP,WM_KEYUP,257
5351,0,1,MESSAGE PUMP,WM_KEYDOWN,256
5356,0,1,MESSAGE PUMP,WM_KEYUP,257
5360,0,1,MESSAGE PUMP,WM_KEYDOWN,256
5365,0,1,MESSAGE PUMP,WM_KEYUP,257
5369,0,1,MESSAGE PUMP,WM_KEYDOWN,256
5373,0,1,MESSAGE PUMP,WM_KEYUP,257
5377,0,1,MESSAGE PUMP,WM_KEYDOWN,256
5382,0,1,MESSAGE PUMP,WM_KEYUP,257
5386,0,1,MESSAGE PUMP,WM_KEYDOWN,256
5390,0,1,MESSAGE PUMP,WM_KEYUP,257
5394,0,1,MESSAGE PUMP,WM_KEYDOWN,256
5399,0,1,MESSAGE PUMP,WM_KEYUP,257
5403,0,1,MESSAGE PUMP,WM_KEYDOWN,256
5407,0,1,MESSAGE PUMP,WM_KEYUP,257
5411,0,1,MESSAGE PUMP,WM_KEYDOWN,256
5416,0,1,MESSAGE PUMP,WM_KEYUP,257
5420,0,1,MESSAGE PUMP,WM_KEYDOWN,256
5424,0,1,MESSAGE PUMP,WM_KEYUP,257
5429,0,1,MESSAGE PUMP,WM_KEYDOWN,256
5433,0,1,MESSAGE PUMP,WM_KEYUP,257
5437,0,1,MESSAGE PUMP,WM_KEYDOWN,256
5442,0,1,MESSAGE PUMP,WM_KEYUP,257
5446,0,1,MESSAGE PUMP,WM_KEYDOWN,256
5450,0,1,MESSAGE PUMP,WM_KEYUP,257
5454,0,1,MESSAGE PUMP,WM_KEYDOWN,256
5458,0,1,MESSAGE PUMP,WM_KEYUP,257
5463,0,1,MESSAGE PUMP,WM_KEYDOWN,256
5467,0,1,MESSAGE PUMP,WM_KEYUP,257
5471,0,1,MESSAGE PUMP,WM_KEYDOWN,256
5476,0,1,MESSAGE PUMP,WM_KEYUP,257
5480,0,1,MESSAGE PUMP,WM_KEYDOWN,256
5484,0,1,MESSAGE PUMP,WM_KEYUP,257
5488,0,1,MESSAGE PUMP,WM_KEYDOWN,256
5493,0,1,MESSAGE PUMP,WM_KEYUP,257
5497,0,1,MESSAGE PUMP,WM_KEYDOWN,256
5501,0,1,MESSAGE PUMP,WM_KEYUP,257
5506,0,1,MESSAGE PUMP,WM_KEYDOWN,256
5510,0,1,MESSAGE PUMP,WM_KEYUP,257
5514,0,1,MESSAGE PUMP,WM_KEYDOWN,256
5518,0,1,MESSAGE PUMP,WM_KEYUP,257
5523,0,1,MESSAGE PUMP,WM_KEYDOWN,256
5527,0,1,MESSAGE PUMP,WM_KEYUP,257
5531,0,1,MESSAGE PUMP,WM_KEYDOWN,256
5536,0,1,MESSAGE PUMP,WM_KEYUP,257
5540,0,1,MESSAGE PUMP,WM_KEYDOWN,256
5544,0,1,MESSAGE PUMP,WM_KEYUP,257
5573,0,1,MESSAGE PUMP,WM_KEYDOWN,256
5577,0,1,MESSAGE PUMP,WM_KEYUP,257
5605,0,1,MESSAGE PUMP,WM_KEYDOWN,256
5609,0,1,MESSAGE PUMP,WM_KEYUP,257
5614,0,1,MESSAGE PUMP,WM_KEYDOWN,256
5617,0,1,MESSAGE PUMP,WM_KEYUP,257
5645,0,1,MESSAGE PUMP,WM_KEYDOWN,256
5649,0,1,MESSAGE PUMP,WM_KEYUP,257
5654,0,1,MESSAGE PUMP,WM_KEYDOWN,256
5658,0,1,MESSAGE PUMP,WM_KEYUP,257
5662,0,1,MESSAGE PUMP,WM_KEYDOWN,256
5667,0,1,MESSAGE PUMP,WM_KEYUP,257
5671,0,1,MESSAGE PUMP,WM_KEYDOWN,256
5675,0,1,MESSAGE PUMP,WM_KEYUP,257
5679,0,1,MESSAGE PUMP,WM_KEYDOWN,256
5684,0,1,MESSAGE PUMP,WM_KEYUP,257
5688,0,1,MESSAGE PUMP,WM_KEYDOWN,256
5692,0,1,MESSAGE PUMP,WM_KEYUP,257
5719,0,1,MESSAGE PUMP,WM_KEYDOWN,256
5724,0,1,MESSAGE PUMP,WM_KEYUP,257
5731,0,1,MESSAGE PUMP,WM_KEYDOWN,256
5736,0,1,MESSAGE PUMP,WM_KEYUP,257
5742,0,1,MESSAGE PUMP,WM_KEYDOWN,256
5748,0,1,MESSAGE PUMP,WM_KEYUP,257
5755,0,1,MESSAGE PUMP,WM_KEYDOWN,256
5761,0,1,MESSAGE PUMP,WM_KEYUP,257
5768,0,1,MESSAGE PUMP,WM_KEYDOWN,256
5774,0,1,MESSAGE PUMP,WM_KEYUP,257
5781,0,1,MESSAGE PUMP,WM_KEYDOWN,256
5788,0,1,MESSAGE PUMP,WM_KEYUP,257
5794,0,1,MESSAGE PUMP,WM_KEYDOWN,256
5801,0,1,MESSAGE PUMP,WM_KEYUP,257
5807,0,1,MESSAGE PUMP,WM_KEYDOWN,256
5814,0,1,MESSAGE PUMP,WM_KEYUP,257
5820,0,1,MESSAGE PUMP,WM_KEYDOWN,256
5826,0,1,MESSAGE PUMP,WM_KEYUP,257
5833,0,1,MESSAGE PUMP,WM_KEYDOWN,256
5839,0,1,MESSAGE PUMP,WM_KEYUP,257
5845,0,1,MESSAGE PUMP,WM_KEYDOWN,256
5852,0,1,MESSAGE PUMP,WM_KEYUP,257
5858,0,1,MESSAGE PUMP,WM_KEYDOWN,256
5865,0,1,MESSAGE PUMP,WM_KEYUP,257
5871,0,1,MESSAGE PUMP,WM_KEYDOWN,256
5877,0,1,MESSAGE PUMP,WM_KEYUP,257
5884,0,1,MESSAGE PUMP,WM_KEYDOWN,256
5890,0,1,MESSAGE PUMP,WM_KEYUP,257
5933,0,1,MESSAGE PUMP,WM_KEYDOWN,256
5940,0,1,MESSAGE PUMP,WM_KEYUP,257
5982,0,1,MESSAGE PUMP,WM_KEYDOWN,256
5987,0,1,MESSAGE PUMP,WM_KEYUP,257
6028,0,1,MESSAGE PUMP,WM_KEYDOWN,256
6033,0,1,MESSAGE PUMP,WM_KEYUP,257
6040,0,1,MESSAGE PUMP,WM_KEYDOWN,256
6045,0,1,MESSAGE PUMP,WM_KEYUP,257
6086,0,1,MESSAGE PUMP,WM_KEYDOWN,256
6092,0,1,MESSAGE PUMP,WM_KEYUP,257
6133,0,1,MESSAGE PUMP,WM_KEYDOWN,256
6138,0,1,MESSAGE PUMP,WM_KEYUP,257
6144,0,1,MESSAGE PUMP,WM_KEYDOWN,256
6150,0,1,MESSAGE PUMP,WM_KEYUP,257
6156,0,1,MESSAGE PUMP,WM_KEYDOWN,256
6161,0,1,MESSAGE PUMP,WM_KEYUP,257
6167,0,1,MESSAGE PUMP,WM_KEYDOWN,256
6173,0,1,MESSAGE PUMP,WM_KEYUP,257
6179,0,1,MESSAGE PUMP,WM_KEYDOWN,256
6185,0,1,MESSAGE PUMP,WM_KEYUP,257
6191,0,1,MESSAGE PUMP,WM_KEYDOWN,256
6196,0,1,MESSAGE PUMP,WM_KEYUP,257
6202,0,1,MESSAGE PUMP,WM_KEYDOWN,256
6208,0,1,MESSAGE PUMP,WM_KEYUP,257
6214,0,1,MESSAGE PUMP,WM_KEYDOWN,256
6219,0,1,MESSAGE PUMP,WM_KEYUP,257
6226,0,1,MESSAGE PUMP,WM_KEYDOWN,256
6231,0,1,MESSAGE PUMP,WM_KEYUP,257
6237,0,1,MESSAGE PUMP,WM_KEYDOWN,256
6243,0,1,MESSAGE PUMP,WM_KEYUP,257
6249,0,1,MESSAGE PUMP,WM_KEYDOWN,256
6255,0,1,MESSAGE PUMP,WM_KEYUP,257
6261,0,1,MESSAGE PUMP,WM_KEYDOWN,256
6267,0,1,MESSAGE PUMP,WM_KEYUP,257
6272,0,1,MESSAGE PUMP,WM_KEYDOWN,256
6278,0,1,MESSAGE PUMP,WM_KEYUP,257
6315,0,1,MESSAGE PUMP,WM_KEYDOWN,256
6318,0,1,MESSAGE PUMP,WM_KEYUP,257
6354,0,1,MESSAGE PUMP,WM_KEYDOWN,256
6359,0,1,MESSAGE PUMP,WM_KEYUP,257
6364,0,1,MESSAGE PUMP,WM_KEYDOWN,256
6369,0,1,MESSAGE PUMP,WM_KEYUP,257
6375,0,1,MESSAGE PUMP,WM_KEYDOWN,256
6380,0,1,MESSAGE PUMP,WM_KEYUP,257
6417,0,1,MESSAGE PUMP,WM_KEYDOWN,256
6422,0,1,MESSAGE PUMP,WM_KEYUP,257
6427,0,1,MESSAGE PUMP,WM_KEYDOWN,256
6432,0,1,MESSAGE PUMP,WM_KEYUP,257
6438,0,1,MESSAGE PUMP,WM_KEYDOWN,256
6442,0,1,MESSAGE PUMP,WM_KEYUP,257
6447,0,1,MESSAGE PUMP,WM_KEYDOWN,256
6452,0,1,MESSAGE PUMP,WM_KEYUP,257
6457,0,1,MESSAGE PUMP,WM_KEYDOWN,256
6462,0,1,MESSAGE PUMP,WM_KEYUP,257
6467,0,1,MESSAGE PUMP,WM_KEYDOWN,256
6472,0,1,MESSAGE PUMP,WM_KEYUP,257
6478,0,1,MESSAGE PUMP,WM_KEYDOWN,256
6483,0,1,MESSAGE PUMP,WM_KEYUP,257
6488,0,1,MESSAGE PUMP,WM_KEYDOWN,256
6493,0,1,MESSAGE PUMP,WM_KEYUP,257
6498,0,1,MESSAGE PUMP,WM_KEYDOWN,256
6503,0,1,MESSAGE PUMP,WM_KEYUP,257
6509,0,1,MESSAGE PUMP,WM_KEYDOWN,256
6514,0,1,MESSAGE PUMP,WM_KEYUP,257
6519,0,1,MESSAGE PUMP,WM_KEYDOWN,256
6524,0,1,MESSAGE PUMP,WM_KEYUP,257
6530,0,1,MESSAGE PUMP,WM_KEYDOWN,256
6535,0,1,MESSAGE PUMP,WM_KEYUP,257
7287,0,1,MESSAGE PUMP,WM_KEYDOWN,256
7293,0,1,MESSAGE PUMP,WM_KEYUP,257
7598,0,1,MESSAGE PUMP,WM_KEYDOWN,256
7604,0,1,MESSAGE PUMP,WM_KEYUP,257
7907,0,1,MESSAGE PUMP,WM_KEYDOWN,256
7911,0,1,MESSAGE PUMP,WM_SYSKEYDOWN,260
7911,0,1,MESSAGE PUMP,WM_CONTEXTMENU,123
7912,0,1,MESSAGE PUMP,WM_SYSKEYUP,261
7912,0,1,MESSAGE PUMP,WM_SYSCOMMAND,274
7915,0,1,MESSAGE PUMP,WM_KEYUP,257
8177,0,1,MESSAGE PUMP,WM_KEYDOWN,256
8181,0,1,MESSAGE PUMP,WM_KEYUP,257
8186,0,1,MESSAGE PUMP,WM_KEYDOWN,256
8191,0,1,MESSAGE PUMP,WM_KEYUP,257
8195,0,1,MESSAGE PUMP,WM_KEYDOWN,256
8199,0,1,MESSAGE PUMP,WM_KEYUP,257
8204,0,1,MESSAGE PUMP,WM_KEYDOWN,256
8208,0,1,MESSAGE PUMP,WM_KEYUP,257
8213,0,1,MESSAGE PUMP,WM_KEYDOWN,256
8218,0,1,MESSAGE PUMP,WM_KEYUP,257
8223,0,1,MESSAGE PUMP,WM_KEYDOWN,256
8227,0,1,MESSAGE PUMP,WM_KEYUP,257
8496,0,1,MESSAGE PUMP,WM_KEYDOWN,256
8496,0,1,MESSAGE PUMP,WM_CHAR,258
8497,0,1,MESSAGE PUMP,WM_KEYUP,257
8872,0,1,MESSAGE PUMP,WM_KEYDOWN,256
8878,0,1,MESSAGE PUMP,WM_KEYDOWN,256
8878,0,1,MESSAGE PUMP,WM_CHAR,258
8878,0,0,MESSAGE PUMP,WM_NCACTIVATE,134
8878,0,0,MESSAGE PUMP,WM_ACTIVATE,6
8878,0,0,MESSAGE PUMP,WM_KILLFOCUS,8
8878,0,0,MESSAGE PUMP,WM_IME_SETCONTEXT,641
8878,0,0,MESSAGE PUMP,WM_IME_NOTIFY,642
8878,0,0,MESSAGE PUMP,WM_MOUSELEAVE,675
8878,0,0,MESSAGE PUMP,WM_WINDOWPOSCHANGING,70
8878,0,0,MESSAGE PUMP,WM_WINDOWPOSCHANGED,71
8878,0,0,MESSAGE PUMP,WM_ACTIVATEAPP,28
8878,0,0,MESSAGE PUMP,WM_NCACTIVATE,134
8878,0,0,MESSAGE PUMP,WM_ACTIVATE,6
8878,0,0,MESSAGE PUMP,WM_IME_SETCONTEXT,641
8878,0,0,MESSAGE PUMP,WM_IME_NOTIFY,642
8878,0,0,MESSAGE PUMP,WM_SETFOCUS,7
8879,0,1,MESSAGE PUMP,WM_KEYUP,257
8879,0,1,MESSAGE PUMP,WM_NCHITTEST,132
8879,0,1,MESSAGE PUMP,WM_SETCURSOR,32
8879,0,1,MESSAGE PUMP,WM_MOUSEFIRST,512
8879,0,1,MESSAGE PUMP,WM_NCHITTEST,132
8879,0,1,MESSAGE PUMP,WM_SETCURSOR,32
8879,0,1,MESSAGE PUMP,WM_MOUSEFIRST,512
10674,0,1,MESSAGE PUMP,WM_KEYDOWN,256
10680,0,1,MESSAGE PUMP,WM_KEYUP,257
10687,0,1,MESSAGE PUMP,WM_KEYDOWN,256
10693,0,1,MESSAGE PUMP,WM_KEYUP,257
10700,0,1,MESSAGE PUMP,WM_KEYDOWN,256
10706,0,1,MESSAGE PUMP,WM_KEYUP,257
10713,0,1,MESSAGE PUMP,WM_KEYDOWN,256
10718,0,1,MESSAGE PUMP,WM_KEYUP,257
10724,0,1,MESSAGE PUMP,WM_KEYDOWN,256
10731,0,1,MESSAGE PUMP,WM_KEYUP,257
10773,0,1,MESSAGE PUMP,WM_KEYDOWN,256
10773,0,1,MESSAGE PUMP,WM_CHAR,258
10774,0,1,MESSAGE PUMP,WM_KEYUP,257
10774,0,1,MESSAGE PUMP,WM_KEYDOWN,256
10774,0,1,MESSAGE PUMP,WM_KEYUP,257
10774,0,1,MESSAGE PUMP,WM_KEYDOWN,256
10774,0,1,MESSAGE PUMP,WM_KEYUP,257
10775,0,1,MESSAGE PUMP,WM_KEYDOWN,256
10776,0,1,MESSAGE PUMP,WM_KEYUP,257
10776,0,1,MESSAGE PUMP,WM_KEYDOWN,256
10777,0,1,MESSAGE PUMP,WM_KEYUP,257
10778,0,1,MESSAGE PUMP,WM_KEYDOWN,256
10779,0,1,MESSAGE PUMP,WM_KEYUP,257
10782,0,1,MESSAGE PUMP,WM_KEYDOWN,256
10784,0,1,MESSAGE PUMP,WM_KEYUP,257
10787,0,1,MESSAGE PUMP,WM_KEYDOWN,256
10788,0,1,MESSAGE PUMP,WM_KEYUP,257
10792,0,1,MESSAGE PUMP,WM_KEYDOWN,256
10794,0,1,MESSAGE PUMP,WM_KEYUP,257
10799,0,1,MESSAGE PUMP,WM_KEYDOWN,256
10801,0,1,MESSAGE PUMP,WM_KEYUP,257
10806,0,1,MESSAGE PUMP,WM_KEYDOWN,256
10808,0,1,MESSAGE PUMP,WM_KEYUP,257
10812,0,1,MESSAGE PUMP,WM_KEYDOWN,256
10815,0,1,MESSAGE PUMP,WM_KEYUP,257
10819,0,1,MESSAGE PUMP,WM_KEYDOWN,256
10821,0,1,MESSAGE PUMP,WM_KEYUP,257
10826,0,1,MESSAGE PUMP,WM_KEYDOWN,256
10829,0,1,MESSAGE PUMP,WM_KEYUP,257
10833,0,1,MESSAGE PUMP,WM_KEYDOWN,256
10835,0,1,MESSAGE PUMP,WM_KEYUP,257
10840,0,1,MESSAGE PUMP,WM_KEYDOWN,256
10843,0,1,MESSAGE PUMP,WM_KEYUP,257
10848,0,1,MESSAGE PUMP,WM_KEYDOWN,256
10850,0,1,MESSAGE PUMP,WM_KEYUP,257
10854,0,1,MESSAGE PUMP,WM_KEYDOWN,256
10857,0,1,MESSAGE PUMP,WM_KEYUP,257
10862,0,1,MESSAGE PUMP,WM_KEYDOWN,256
10865,0,1,MESSAGE PUMP,WM_KEYUP,257
10869,0,1,MESSAGE PUMP,WM_KEYDOWN,256
10872,0,1,MESSAGE PUMP,WM_KEYUP,257
10876,0,1,MESSAGE PUMP,WM_KEYDOWN,256
10879,0,1,MESSAGE PUMP,WM_KEYUP,257
10883,0,1,MESSAGE PUMP,WM_KEYDOWN,256
10886,0,1,MESSAGE PUMP,WM_KEYUP,257
10890,0,1,MESSAGE PUMP,WM_KEYDOWN,256
10893,0,1,MESSAGE PUMP,WM_KEYUP,257
10897,0,1,MESSAGE PUMP,WM_KEYDOWN,256
10900,0,1,MESSAGE PUMP,WM_KEYUP,257
10905,0,1,MESSAGE PUMP,WM_KEYDOWN,256
10907,0,1,MESSAGE PUMP,WM_KEYUP,257
10912,0,1,MESSAGE PUMP,WM_KEYDOWN,256
10915,0,1,MESSAGE PUMP,WM_KEYUP,257
10919,0,1,MESSAGE PUMP,WM_KEYDOWN,256
10922,0,1,MESSAGE PUMP,WM_KEYUP,257
10927,0,1,MESSAGE PUMP,WM_KEYDOWN,256
10929,0,1,MESSAGE PUMP,WM_KEYUP,257
10934,0,1,MESSAGE PUMP,WM_KEYDOWN,256
10937,0,1,MESSAGE PUMP,WM_KEYUP,257
10941,0,1,MESSAGE PUMP,WM_KEYDOWN,256
10945,0,1,MESSAGE PUMP,WM_KEYUP,257
10949,0,1,MESSAGE PUMP,WM_KEYDOWN,256
10953,0,1,MESSAGE PUMP,WM_KEYUP,257
10984,0,1,MESSAGE PUMP,WM_KEYDOWN,256
10987,0,1,MESSAGE PUMP,WM_KEYUP,257
10991,0,1,MESSAGE PUMP,WM_KEYDOWN,256
10993,0,1,MESSAGE PUMP,WM_KEYUP,257
10998,0,1,MESSAGE PUMP,WM_KEYDOWN,256
11001,0,1,MESSAGE PUMP,WM_KEYUP,257
11005,0,1,MESSAGE PUMP,WM_KEYDOWN,256
11007,0,1,MESSAGE PUMP,WM_KEYUP,257
11011,0,1,MESSAGE PUMP,WM_KEYDOWN,256
11013,0,1,MESSAGE PUMP,WM_KEYUP,257
11017,0,1,MESSAGE PUMP,WM_KEYDOWN,256
11020,0,1,MESSAGE PUMP,WM_KEYUP,257
11024,0,1,MESSAGE PUMP,WM_KEYDOWN,256
11026,0,1,MESSAGE PUMP,WM_KEYUP,257
11031,0,1,MESSAGE PUMP,WM_KEYDOWN,256
11033,0,1,MESSAGE PUMP,WM_KEYUP,257
11037,0,1,MESSAGE PUMP,WM_KEYDOWN,256
11040,0,1,MESSAGE PUMP,WM_KEYUP,257
11045,0,1,MESSAGE PUMP,WM_KEYDOWN,256
11047,0,1,MESSAGE PUMP,WM_KEYUP,257
11052,0,1,MESSAGE PUMP,WM_KEYDOWN,256
11054,0,1,MESSAGE PUMP,WM_KEYUP,257
11059,0,1,MESSAGE PUMP,WM_KEYDOWN,256
11062,0,1,MESSAGE PUMP,WM_KEYUP,257
11065,0,1,MESSAGE PUMP,WM_KEYDOWN,256
11068,0,1,MESSAGE PUMP,WM_KEYUP,257
11071,0,1,MESSAGE PUMP,WM_KEYDOWN,256
11074,0,1,MESSAGE PUMP,WM_KEYUP,257
11078,0,1,MESSAGE PUMP,WM_KEYDOWN,256
11081,0,1,MESSAGE PUMP,WM_KEYUP,257
11085,0,1,MESSAGE PUMP,WM_KEYDOWN,256
11087,0,1,MESSAGE PUMP,WM_KEYUP,257
11093,0,1,MESSAGE PUMP,WM_KEYDOWN,256
11095,0,1,MESSAGE PUMP,WM_KEYUP,257
11100,0,1,MESSAGE PUMP,WM_KEYDOWN,256
11103,0,1,MESSAGE PUMP,WM_KEYUP,257
11107,0,1,MESSAGE PUMP,WM_KEYDOWN,256
11110,0,1,MESSAGE PUMP,WM_KEYUP,257
11115,0,1,MESSAGE PUMP,WM_KEYDOWN,256
11118,0,1,MESSAGE PUMP,WM_KEYUP,257
11145,0,1,MESSAGE PUMP,WM_KEYDOWN,256
11173,0,1,MESSAGE PUMP,WM_KEYDOWN,256
11174,0,1,MESSAGE PUMP,WM_KEYUP,257
11177,0,1,MESSAGE PUMP,WM_KEYDOWN,256
11178,0,1,MESSAGE PUMP,WM_KEYUP,257
11181,0,1,MESSAGE PUMP,WM_KEYDOWN,256
11182,0,1,MESSAGE PUMP,WM_KEYUP,257
11185,0,1,MESSAGE PUMP,WM_KEYDOWN,256
11186,0,1,MESSAGE PUMP,WM_KEYUP,257
11187,0,1,MESSAGE PUMP,WM_KEYDOWN,256
11188,0,1,MESSAGE PUMP,WM_KEYUP,257
11191,0,1,MESSAGE PUMP,WM_KEYDOWN,256
11192,0,1,MESSAGE PUMP,WM_KEYUP,257
11218,0,1,MESSAGE PUMP,WM_KEYUP,257
11247,0,1,MESSAGE PUMP,WM_KEYDOWN,256
11249,0,1,MESSAGE PUMP,WM_KEYUP,257
11279,0,1,MESSAGE PUMP,WM_KEYDOWN,256
11283,0,1,MESSAGE PUMP,WM_KEYDOWN,256
11283,0,1,MESSAGE PUMP,WM_CHAR,258
11284,0,1,MESSAGE PUMP,WM_KEYUP,257
11284,0,1,MESSAGE PUMP,WM_KEYUP,257
11284,0,1,MESSAGE PUMP,WM_KEYDOWN,256
11285,0,1,MESSAGE PUMP,WM_KEYUP,257
11285,0,1,MESSAGE PUMP,WM_KEYDOWN,256
11285,0,1,MESSAGE PUMP,WM_KEYUP,257
11287,0,1,MESSAGE PUMP,WM_KEYDOWN,256
11289,0,1,MESSAGE PUMP,WM_KEYUP,257
11318,0,1,MESSAGE PUMP,WM_KEYDOWN,256
11320,0,1,MESSAGE PUMP,WM_KEYUP,257
11349,0,1,MESSAGE PUMP,WM_KEYDOWN,256
11352,0,1,MESSAGE PUMP,WM_KEYDOWN,256
11354,0,1,MESSAGE PUMP,WM_KEYUP,257
11359,0,1,MESSAGE PUMP,WM_KEYUP,257
11387,0,1,MESSAGE PUMP,WM_KEYDOWN,256
11389,0,1,MESSAGE PUMP,WM_KEYUP,257
11393,0,1,MESSAGE PUMP,WM_KEYDOWN,256
11396,0,1,MESSAGE PUMP,WM_KEYUP,257
11400,0,1,MESSAGE PUMP,WM_KEYDOWN,256
11402,0,1,MESSAGE PUMP,WM_KEYUP,257
11406,0,1,MESSAGE PUMP,WM_KEYDOWN,256
11408,0,1,MESSAGE PUMP,WM_KEYUP,257
11436,0,1,MESSAGE PUMP,WM_KEYDOWN,256
11440,0,1,MESSAGE PUMP,WM_KEYDOWN,256
11440,0,1,MESSAGE PUMP,WM_CHAR,258
11442,0,1,MESSAGE PUMP,WM_KEYUP,257
11446,0,1,MESSAGE PUMP,WM_KEYUP,257
11450,0,1,MESSAGE PUMP,WM_KEYDOWN,256
11450,0,1,MESSAGE PUMP,WM_CHAR,258
11453,0,1,MESSAGE PUMP,WM_KEYUP,257
11457,0,1,MESSAGE PUMP,WM_KEYDOWN,256
11457,0,1,MESSAGE PUMP,WM_CHAR,258
11459,0,1,MESSAGE PUMP,WM_KEYUP,257
11463,0,1,MESSAGE PUMP,WM_KEYDOWN,256
11463,0,1,MESSAGE PUMP,WM_CHAR,258
11466,0,1,MESSAGE PUMP,WM_KEYUP,257
11470,0,1,MESSAGE PUMP,WM_KEYDOWN,256
11470,0,1,MESSAGE PUMP,WM_CHAR,258
11472,0,1,MESSAGE PUMP,WM_KEYUP,257
11476,0,1,MESSAGE PUMP,WM_KEYDOWN,256
11476,0,1,MESSAGE PUMP,WM_CHAR,258
11478,0,1,MESSAGE PUMP,WM_KEYUP,257
11482,0,1,MESSAGE PUMP,WM_KEYDOWN,256
11482,0,1,MESSAGE PUMP,WM_CHAR,258
11484,0,1,MESSAGE PUMP,WM_KEYUP,257
11488,0,1,MESSAGE PUMP,WM_KEYDOWN,256
11488,0,1,MESSAGE PUMP,WM_CHAR,258
11490,0,1,MESSAGE PUMP,WM_KEYUP,257
11495,0,1,MESSAGE PUMP,WM_KEYDOWN,256
11495,0,1,MESSAGE PUMP,WM_CHAR,258
11497,0,1,MESSAGE PUMP,WM_KEYUP,257
11501,0,1,MESSAGE PUMP,WM_KEYDOWN,256
11501,0,1,MESSAGE PUMP,WM_CHAR,258
11503,0,1,MESSAGE PUMP,WM_KEYUP,257
11507,0,1,MESSAGE PUMP,WM_KEYDOWN,256
11507,0,1,MESSAGE PUMP,WM_CHAR,258
11509,0,1,MESSAGE PUMP,WM_KEYUP,257
11532,0,1,MESSAGE PUMP,WM_KEYDOWN,256
11537,0,1,MESSAGE PUMP,WM_KEYDOWN,256
11539,0,1,MESSAGE PUMP,WM_KEYUP,257
11542,0,1,MESSAGE PUMP,WM_KEYUP,257
11569,0,1,MESSAGE PUMP,WM_KEYDOWN,256
11569,0,1,MESSAGE PUMP,WM_CHAR,258
11570,0,1,MESSAGE PUMP,WM_KEYUP,257
11802,0,1,MESSAGE PUMP,WM_KEYDOWN,256
11806,0,1,MESSAGE PUMP,WM_KEYDOWN,256
11810,0,1,MESSAGE PUMP,WM_KEYUP,257
11817,0,1,MESSAGE PUMP,WM_KEYUP,257
12165,0,1,MESSAGE PUMP,WM_KEYDOWN,256
12172,0,1,MESSAGE PUMP,WM_KEYDOWN,256
12178,0,1,MESSAGE PUMP,WM_KEYUP,257
12185,0,1,MESSAGE PUMP,WM_KEYUP,257
13090,0,1,MESSAGE PUMP,WM_KEYDOWN,256
13096,0,1,MESSAGE PUMP,WM_KEYUP,257
13465,0,1,MESSAGE PUMP,WM_KEYDOWN,256
13471,0,1,MESSAGE PUMP,WM_KEYUP,257
13852,0,1,MESSAGE PUMP,WM_KEYDOWN,256
13858,0,1,MESSAGE PUMP,WM_SYSKEYDOWN,260
13858,0,1,MESSAGE PUMP,WM_CONTEXTMENU,123
13863,0,1,MESSAGE PUMP,WM_SYSKEYUP,261
13863,0,1,MESSAGE PUMP,WM_SYSCOMMAND,274
13869,0,1,MESSAGE PUMP,WM_KEYUP,257
14211,0,1,MESSAGE PUMP,WM_KEYDOWN,256
14217,0,1,MESSAGE PUMP,WM_KEYUP,257
14223,0,1,MESSAGE PUMP,WM_KEYDOWN,256
14229,0,1,MESSAGE PUMP,WM_KEYUP,257
14235,0,1,MESSAGE PUMP,WM_KEYDOWN,256
14241,0,1,MESSAGE PUMP,WM_KEYUP,257
14247,0,1,MESSAGE PUMP,WM_KEYDOWN,256
14253,0,1,MESSAGE PUMP,WM_KEYUP,257
14260,0,1,MESSAGE PUMP,WM_KEYDOWN,256
14265,0,1,MESSAGE PUMP,WM_KEYUP,257
14271,0,1,MESSAGE PUMP,WM_KEYDOWN,256
14277,0,1,MESSAGE PUMP,WM_KEYUP,257
14630,0,1,MESSAGE PUMP,WM_KEYDOWN,256
14630,0,1,MESSAGE PUMP,WM_CHAR,258
14631,0,1,MESSAGE PUMP,WM_KEYUP,257
15051,0,1,MESSAGE PUMP,WM_SYSKEYDOWN,260
15058,0,1,MESSAGE PUMP,WM_SYSKEYDOWN,260
15058,0,1,MESSAGE PUMP,WM_SYSCOMMAND,274
15058,0,1,MESSAGE PUMP,WM_CLOSE,16
15058,0,0,MESSAGE PUMP,Unknown,144
15058,0,0,MESSAGE PUMP,WM_WINDOWPOSCHANGING,70
15058,0,0,MESSAGE PUMP,WM_WINDOWPOSCHANGED,71
15058,0,0,MESSAGE PUMP,WM_NCACTIVATE,134
15058,0,0,MESSAGE PUMP,WM_ACTIVATE,6
15058,0,0,MESSAGE PUMP,WM_ACTIVATEAPP,28
15058,0,0,MESSAGE PUMP,WM_KILLFOCUS,8
15058,0,0,MESSAGE PUMP,WM_IME_SETCONTEXT,641
15058,0,0,MESSAGE PUMP,WM_IME_NOTIFY,642
15058,0,0,MESSAGE PUMP,WM_DESTROY,2
15058,0,0,MESSAGE PUMP,WM_NCDESTROY,130
