Frame,Poll Count,Is Polling,Source,Event Name,Event Code
0,0,0,MESSAGE PUMP,WM_GETMINMAXINFO,36
0,0,0,MESSAGE PUMP,WM_WINDOWPOSCHANGING,70
0,0,0,MESSAGE PUMP,WM_GETMINMAXINFO,36
0,0,0,MESSAGE PUMP,WM_NCCALCSIZE,131
0,0,0,MESSAGE PUMP,WM_WINDOWPOSCHANGING,70
0,0,0,MESSAGE PUMP,WM_ACTIVATEAPP,28
0,0,0,MESSAGE PUMP,WM_NCACTIVATE,134
0,0,0,MESSAGE PUMP,WM_ACTIVATE,6
0,0,0,MESSAGE PUMP,WM_IME_SETCONTEXT,641
0,0,0,MESSAGE PUMP,WM_IME_NOTIFY,642
0,0,0,MESSAGE PUMP,WM_SETFOCUS,7
0,0,0,MESSAGE PUMP,WM_NCPAINT,133
0,0,0,MESSAGE PUMP,WM_ERASEBKGND,20
0,0,0,MESSAGE PUMP,WM_WINDOWPOSCHANGED,71
0,0,0,MESSAGE PUMP,WM_MOVE,3
0,0,0,MESSAGE PUMP,WM_SIZE,5
0,0,0,MESSAGE PUMP,WM_WINDOWPOSCHANGING,70
0,0,0,MESSAGE PUMP,WM_GETMINMAXINFO,36
0,0,0,MESSAGE PUMP,WM_NCPAINT,133
0,0,0,MESSAGE PUMP,WM_ERASEBKGND,20
0,0,0,MESSAGE PUMP,WM_WINDOWPOSCHANGED,71
0,0,0,MESSAGE PUMP,WM_MOVE,3
0,0,0,MESSAGE PUMP,WM_SETICON,128
0,0,0,MESSAGE PUMP,Unknown,174
0,0,0,MESSAGE PUMP,WM_SETICON,128
0,0,0,MESSAGE PUMP,Unknown,174
0,0,0,MESSAGE PUMP,WM_WINDOWPOSCHANGING,70
0,0,0,MESSAGE PUMP,WM_GETOBJECT,61
0,0,0,MESSAGE PUMP,WM_GETICON,127
0,0,0,MESSAGE PUMP,WM_WINDOWPOSCHANGING,70
1,0,1,MESSAGE PUMP,WM_GETICON,127
1,0,1,MESSAGE PUMP,Unknown,799
1,0,1,MESSAGE PUMP,Unknown,49369
1,0,1,MESSAGE PUMP,WM_GETMINMAXINFO,36
1,0,1,MESSAGE PUMP,WM_NCHITTEST,132
1,0,1,MESSAGE PUMP,WM_SETCURSOR,32
1,0,1,MESSAGE PUMP,WM_MOUSEFIRST,512
1,0,1,MESSAGE PUMP,WM_PAINT,15
1,0,1,MESSAGE PUMP,WM_GETOBJECT,61
1,0,1,MESSAGE PUMP,Unknown,356
2,0,1,MESSAGE PUMP,WM_GETOBJECT,61
4,0,1,MESSAGE PUMP,Unknown,356
5,0,1,MESSAGE PUMP,Unknown,356
6,0,1,MESSAGE PUMP,Unknown,356
7,0,1,MESSAGE PUMP,Unknown,356
8,0,1,MESSAGE PUMP,Unknown,356
9,0,1,MESSAGE PUMP,Unknown,356
9,0,1,MESSAGE PUMP,Unknown,356
10,0,1,MESSAGE PUMP,Unknown,356
11,0,1,MESSAGE PUMP,Unknown,356
12,0,1,MESSAGE PUMP,Unknown,356
13,0,1,MESSAGE PUMP,Unknown,356
14,0,1,MESSAGE PUMP,Unknown,356
15,0,1,MESSAGE PUMP,Unknown,356
16,0,1,MESSAGE PUMP,Unknown,356
17,0,1,MESSAGE PUMP,Unknown,356
18,0,1,MESSAGE PUMP,Unknown,356
19,0,1,MESSAGE PUMP,Unknown,356
20,0,1,MESSAGE PUMP,Unknown,356
21,0,1,MESSAGE PUMP,Unknown,356
22,0,1,MESSAGE PUMP,Unknown,356
23,0,1,MESSAGE PUMP,Unknown,356
24,0,1,MESSAGE PUMP,Unknown,356
25,0,1,MESSAGE PUMP,Unknown,356
26,0,1,MESSAGE PUMP,Unknown,356
27,0,1,MESSAGE PUMP,Unknown,356
28,0,1,MESSAGE PUMP,Unknown,356
29,0,1,MESSAGE PUMP,Unknown,356
32,0,1,MESSAGE PUMP,WM_GETOBJECT,61
35,0,1,MESSAGE PUMP,Unknown,356
43,0,1,MESSAGE PUMP,WM_GETOBJECT,61
46,0,1,MESSAGE PUMP,Unknown,356
61,0,1,MESSAGE PUMP,Unknown,356
62,0,1,MESSAGE PUMP,Unknown,356
98,0,1,MESSAGE PUMP,Unknown,356
99,0,1,MESSAGE PUMP,WM_NCHITTEST,132
99,0,1,MESSAGE PUMP,WM_SETCURSOR,32
99,0,1,MESSAGE PUMP,WM_MOUSEFIRST,512
101,0,1,MESSAGE PUMP,Unknown,356
103,0,1,MESSAGE PUMP,WM_GETOBJECT,61
105,0,1,MESSAGE PUMP,Unknown,356
117,0,1,MESSAGE PUMP,Unknown,356
118,0,1,MESSAGE PUMP,WM_GETOBJECT,61
119,0,1,MESSAGE PUMP,WM_GETOBJECT,61
119,0,1,MESSAGE PUMP,WM_GETOBJECT,61
120,0,1,MESSAGE PUMP,WM_GETOBJECT,61
121,0,1,MESSAGE PUMP,WM_GETOBJECT,61
122,0,1,MESSAGE PUMP,WM_GETOBJECT,61
124,0,1,MESSAGE PUMP,WM_GETOBJECT,61
124,0,1,MESSAGE PUMP,Unknown,356
126,0,1,MESSAGE PUMP,Unknown,356
127,0,1,MESSAGE PUMP,WM_GETOBJECT,61
130,0,1,MESSAGE PUMP,Unknown,356
134,0,1,MESSAGE PUMP,WM_GETOBJECT,61
137,0,1,MESSAGE PUMP,Unknown,356
139,0,1,MESSAGE PUMP,WM_GETOBJECT,61
148,0,1,MESSAGE PUMP,Unknown,356
149,0,1,MESSAGE PUMP,Unknown,356
150,0,1,MESSAGE PUMP,WM_GETOBJECT,61
150,0,1,MESSAGE PUMP,WM_GETOBJECT,61
151,0,1,MESSAGE PUMP,WM_GETOBJECT,61
152,0,1,MESSAGE PUMP,WM_GETOBJECT,61
153,0,1,MESSAGE PUMP,WM_GETOBJECT,61
155,0,1,MESSAGE PUMP,WM_GETOBJECT,61
157,0,1,MESSAGE PUMP,Unknown,356
160,0,1,MESSAGE PUMP,WM_GETOBJECT,61
163,0,1,MESSAGE PUMP,Unknown,356
195,0,1,MESSAGE PUMP,WM_GETOBJECT,61
197,0,1,MESSAGE PUMP,Unknown,356
220,0,1,MESSAGE PUMP,WM_GETOBJECT,61
223,0,1,MESSAGE PUMP,Unknown,356
564,0,0,MESSAGE PUMP,WM_GETOBJECT,61
564,0,0,MESSAGE PUMP,Unknown,356
602,0,1,MESSAGE PUMP,WM_GETOBJECT,61
604,0,1,MESSAGE PUMP,Unknown,356
608,0,1,MESSAGE PUMP,WM_GETOBJECT,61
610,0,1,MESSAGE PUMP,Unknown,356
614,0,1,MESSAGE PUMP,Unknown,356
632,0,1,MESSAGE PUMP,Unknown,356
633,0,1,MESSAGE PUMP,WM_GETOBJECT,61
634,0,1,MESSAGE PUMP,WM_GETOBJECT,61
635,0,1,MESSAGE PUMP,WM_GETOBJECT,61
636,0,1,MESSAGE PUMP,WM_GETOBJECT,61
637,0,1,MESSAGE PUMP,WM_GETOBJECT,61
638,0,1,MESSAGE PUMP,WM_GETOBJECT,61
639,0,1,MESSAGE PUMP,WM_GETOBJECT,61
640,0,1,MESSAGE PUMP,WM_GETOBJECT,61
641,0,1,MESSAGE PUMP,WM_GETOBJECT,61
642,0,1,MESSAGE PUMP,WM_GETOBJECT,61
643,0,1,MESSAGE PUMP,WM_GETOBJECT,61
644,0,1,MESSAGE PUMP,WM_GETOBJECT,61
645,0,1,MESSAGE PUMP,WM_GETOBJECT,61
646,0,1,MESSAGE PUMP,WM_GETOBJECT,61
647,0,1,MESSAGE PUMP,WM_GETOBJECT,61
648,0,1,MESSAGE PUMP,WM_GETOBJECT,61
649,0,1,MESSAGE PUMP,WM_GETOBJECT,61
650,0,1,MESSAGE PUMP,WM_GETOBJECT,61
651,0,1,MESSAGE PUMP,WM_GETOBJECT,61
652,0,1,MESSAGE PUMP,WM_GETOBJECT,61
653,0,1,MESSAGE PUMP,WM_GETOBJECT,61
654,0,1,MESSAGE PUMP,WM_GETOBJECT,61
659,0,1,MESSAGE PUMP,WM_NCHITTEST,132
659,0,1,MESSAGE PUMP,WM_SETCURSOR,32
659,0,1,MESSAGE PUMP,WM_MOUSEFIRST,512
1014,0,1,MESSAGE PUMP,WM_KEYDOWN,256
1014,0,1,MESSAGE PUMP,WM_CHAR,258
1015,0,1,MESSAGE PUMP,WM_KEYUP,257
1039,0,1,MESSAGE PUMP,WM_GETOBJECT,61
1041,0,1,MESSAGE PUMP,Unknown,356
1044,0,1,MESSAGE PUMP,WM_GETOBJECT,61
1046,0,1,MESSAGE PUMP,Unknown,356
1050,0,1,MESSAGE PUMP,Unknown,356
1072,0,1,MESSAGE PUMP,WM_NCHITTEST,132
1072,0,1,MESSAGE PUMP,WM_SETCURSOR,32
1072,0,1,MESSAGE PUMP,WM_MOUSEFIRST,512
1180,0,1,MESSAGE PUMP,WM_KEYDOWN,256
1254,0,1,MESSAGE PUMP,WM_KEYDOWN,256
1258,0,1,MESSAGE PUMP,WM_KEYUP,257
1285,0,1,MESSAGE PUMP,WM_NCHITTEST,132
1285,0,1,MESSAGE PUMP,WM_SETCURSOR,32
1285,0,1,MESSAGE PUMP,WM_MOUSEFIRST,512
1327,0,1,MESSAGE PUMP,WM_KEYUP,257
1542,0,1,MESSAGE PUMP,WM_KEYDOWN,256
1616,0,1,MESSAGE PUMP,WM_KEYDOWN,256
1617,0,1,MESSAGE PUMP,WM_GETOBJECT,61
1619,0,1,MESSAGE PUMP,WM_KEYUP,257
1620,0,1,MESSAGE PUMP,Unknown,356
1638,0,1,MESSAGE PUMP,WM_GETOBJECT,61
1640,0,1,MESSAGE PUMP,Unknown,356
1644,0,1,MESSAGE PUMP,WM_GETOBJECT,61
1646,0,1,MESSAGE PUMP,Unknown,356
1650,0,1,MESSAGE PUMP,Unknown,356
1672,0,1,MESSAGE PUMP,WM_NCHITTEST,132
1672,0,1,MESSAGE PUMP,WM_SETCURSOR,32
1672,0,1,MESSAGE PUMP,WM_MOUSEFIRST,512
1682,0,1,MESSAGE PUMP,WM_KEYUP,257
1894,0,1,MESSAGE PUMP,WM_KEYDOWN,256
1968,0,1,MESSAGE PUMP,WM_KEYDOWN,256
1972,0,1,MESSAGE PUMP,WM_KEYUP,257
1990,0,1,MESSAGE PUMP,WM_GETOBJECT,61
1992,0,1,MESSAGE PUMP,Unknown,356
1997,0,1,MESSAGE PUMP,WM_GETOBJECT,61
1999,0,1,MESSAGE PUMP,Unknown,356
2003,0,1,MESSAGE PUMP,WM_GETOBJECT,61
2005,0,1,MESSAGE PUMP,Unknown,356
2009,0,1,MESSAGE PUMP,Unknown,356
2034,0,1,MESSAGE PUMP,WM_NCHITTEST,132
2034,0,1,MESSAGE PUMP,WM_SETCURSOR,32
2034,0,1,MESSAGE PUMP,WM_MOUSEFIRST,512
2044,0,1,MESSAGE PUMP,WM_KEYUP,257
4217,0,1,MESSAGE PUMP,WM_KEYDOWN,256
4222,0,1,MESSAGE PUMP,WM_KEYUP,257
4252,0,1,MESSAGE PUMP,WM_NCHITTEST,132
4252,0,1,MESSAGE PUMP,WM_SETCURSOR,32
4252,0,1,MESSAGE PUMP,WM_MOUSEFIRST,512
4279,0,1,MESSAGE PUMP,WM_KEYDOWN,256
4283,0,1,MESSAGE PUMP,WM_KEYUP,257
4308,0,1,MESSAGE PUMP,WM_NCHITTEST,132
4308,0,1,MESSAGE PUMP,WM_SETCURSOR,32
4308,0,1,MESSAGE PUMP,WM_MOUSEFIRST,512
4360,0,1,MESSAGE PUMP,WM_KEYDOWN,256
4364,0,1,MESSAGE PUMP,WM_KEYUP,257
4391,0,1,MESSAGE PUMP,WM_NCHITTEST,132
4391,0,1,MESSAGE PUMP,WM_SETCURSOR,32
4391,0,1,MESSAGE PUMP,WM_MOUSEFIRST,512
4441,0,1,MESSAGE PUMP,WM_KEYDOWN,256
4444,0,1,MESSAGE PUMP,WM_KEYUP,257
4470,0,1,MESSAGE PUMP,WM_NCHITTEST,132
4470,0,1,MESSAGE PUMP,WM_SETCURSOR,32
4470,0,1,MESSAGE PUMP,WM_MOUSEFIRST,512
4522,0,1,MESSAGE PUMP,WM_KEYDOWN,256
4527,0,1,MESSAGE PUMP,WM_KEYUP,257
4553,0,1,MESSAGE PUMP,WM_NCHITTEST,132
4553,0,1,MESSAGE PUMP,WM_SETCURSOR,32
4553,0,1,MESSAGE PUMP,WM_MOUSEFIRST,512
4598,0,1,MESSAGE PUMP,WM_KEYDOWN,256
4602,0,1,MESSAGE PUMP,WM_KEYUP,257
4627,0,1,MESSAGE PUMP,WM_NCHITTEST,132
4627,0,1,MESSAGE PUMP,WM_SETCURSOR,32
4627,0,1,MESSAGE PUMP,WM_MOUSEFIRST,512
4746,0,1,MESSAGE PUMP,WM_KEYDOWN,256
4746,0,1,MESSAGE PUMP,WM_CHAR,258
4747,0,1,MESSAGE PUMP,WM_GETOBJECT,61
4747,0,1,MESSAGE PUMP,WM_KEYUP,257
4748,0,1,MESSAGE PUMP,Unknown,356
4752,0,1,MESSAGE PUMP,WM_GETOBJECT,61
4754,0,1,MESSAGE PUMP,Unknown,356
4758,0,1,MESSAGE PUMP,WM_GETOBJECT,61
4760,0,1,MESSAGE PUMP,Unknown,356
4764,0,1,MESSAGE PUMP,WM_GETOBJECT,61
4766,0,1,MESSAGE PUMP,Unknown,356
4770,0,1,MESSAGE PUMP,WM_GETOBJECT,61
4772,0,1,MESSAGE PUMP,Unknown,356
4776,0,1,MESSAGE PUMP,WM_GETOBJECT,61
4778,0,1,MESSAGE PUMP,Unknown,356
4782,0,1,MESSAGE PUMP,WM_GETOBJECT,61
4784,0,1,MESSAGE PUMP,Unknown,356
4788,0,1,MESSAGE PUMP,WM_GETOBJECT,61
4790,0,1,MESSAGE PUMP,Unknown,356
4794,0,1,MESSAGE PUMP,WM_GETOBJECT,61
4796,0,1,MESSAGE PUMP,Unknown,356
4800,0,1,MESSAGE PUMP,WM_GETOBJECT,61
4802,0,1,MESSAGE PUMP,Unknown,356
4806,0,1,MESSAGE PUMP,WM_GETOBJECT,61
4808,0,1,MESSAGE PUMP,Unknown,356
4812,0,1,MESSAGE PUMP,WM_GETOBJECT,61
4814,0,1,MESSAGE PUMP,Unknown,356
4817,0,1,MESSAGE PUMP,WM_GETOBJECT,61
4819,0,1,MESSAGE PUMP,Unknown,356
4823,0,1,MESSAGE PUMP,WM_GETOBJECT,61
4825,0,1,MESSAGE PUMP,Unknown,356
4829,0,1,MESSAGE PUMP,WM_GETOBJECT,61
4831,0,1,MESSAGE PUMP,Unknown,356
4835,0,1,MESSAGE PUMP,WM_GETOBJECT,61
4837,0,1,MESSAGE PUMP,Unknown,356
4846,0,1,MESSAGE PUMP,WM_GETOBJECT,61
4848,0,1,MESSAGE PUMP,Unknown,356
4851,0,1,MESSAGE PUMP,WM_GETOBJECT,61
4853,0,1,MESSAGE PUMP,Unknown,356
4853,0,1,MESSAGE PUMP,WM_KEYDOWN,256
4856,0,1,MESSAGE PUMP,Unknown,356
4857,0,1,MESSAGE PUMP,WM_KEYUP,257
4861,0,1,MESSAGE PUMP,WM_GETOBJECT,61
4863,0,1,MESSAGE PUMP,Unknown,356
4872,0,1,MESSAGE PUMP,WM_GETOBJECT,61
4874,0,1,MESSAGE PUMP,Unknown,356
4880,0,1,MESSAGE PUMP,WM_GETOBJECT,61
4882,0,1,MESSAGE PUMP,Unknown,356
4890,0,1,MESSAGE PUMP,WM_NCHITTEST,132
4890,0,1,MESSAGE PUMP,WM_SETCURSOR,32
4890,0,1,MESSAGE PUMP,WM_MOUSEFIRST,512
4923,0,1,MESSAGE PUMP,WM_KEYDOWN,256
4927,0,1,MESSAGE PUMP,WM_KEYUP,257
4929,0,1,MESSAGE PUMP,WM_GETOBJECT,61
4931,0,1,MESSAGE PUMP,Unknown,356
4992,0,1,MESSAGE PUMP,WM_KEYDOWN,256
4997,0,1,MESSAGE PUMP,WM_KEYUP,257
4999,0,1,MESSAGE PUMP,WM_GETOBJECT,61
5001,0,1,MESSAGE PUMP,Unknown,356
5059,0,1,MESSAGE PUMP,WM_KEYDOWN,256
5063,0,1,MESSAGE PUMP,WM_KEYUP,257
5065,0,1,MESSAGE PUMP,WM_GETOBJECT,61
5067,0,1,MESSAGE PUMP,Unknown,356
5123,0,1,MESSAGE PUMP,WM_KEYDOWN,256
5127,0,1,MESSAGE PUMP,WM_KEYUP,257
5129,0,1,MESSAGE PUMP,WM_GETOBJECT,61
5131,0,1,MESSAGE PUMP,Unknown,356
5192,0,1,MESSAGE PUMP,WM_KEYDOWN,256
5196,0,1,MESSAGE PUMP,WM_KEYUP,257
5198,0,1,MESSAGE PUMP,WM_GETOBJECT,61
5200,0,1,MESSAGE PUMP,Unknown,356
5316,0,1,MESSAGE PUMP,WM_KEYDOWN,256
5316,0,1,MESSAGE PUMP,WM_CHAR,258
5318,0,1,MESSAGE PUMP,WM_KEYUP,257
5346,0,1,MESSAGE PUMP,WM_NCHITTEST,132
5346,0,1,MESSAGE PUMP,WM_SETCURSOR,32
5346,0,1,MESSAGE PUMP,WM_MOUSEFIRST,512
5442,0,1,MESSAGE PUMP,WM_KEYDOWN,256
5445,0,1,MESSAGE PUMP,WM_KEYUP,257
5475,0,1,MESSAGE PUMP,WM_NCHITTEST,132
5475,0,1,MESSAGE PUMP,WM_SETCURSOR,32
5475,0,1,MESSAGE PUMP,WM_MOUSEFIRST,512
5523,0,1,MESSAGE PUMP,WM_KEYDOWN,256
5527,0,1,MESSAGE PUMP,WM_KEYUP,257
5552,0,1,MESSAGE PUMP,WM_NCHITTEST,132
5552,0,1,MESSAGE PUMP,WM_SETCURSOR,32
5552,0,1,MESSAGE PUMP,WM_MOUSEFIRST,512
5646,0,1,MESSAGE PUMP,WM_KEYDOWN,256
5646,0,1,MESSAGE PUMP,WM_CHAR,258
5647,0,1,MESSAGE PUMP,WM_GETOBJECT,61
5647,0,1,MESSAGE PUMP,WM_KEYUP,257
5648,0,1,MESSAGE PUMP,Unknown,356
5652,0,1,MESSAGE PUMP,WM_GETOBJECT,61
5654,0,1,MESSAGE PUMP,Unknown,356
5658,0,1,MESSAGE PUMP,WM_GETOBJECT,61
5660,0,1,MESSAGE PUMP,Unknown,356
5664,0,1,MESSAGE PUMP,WM_GETOBJECT,61
5666,0,1,MESSAGE PUMP,Unknown,356
5670,0,1,MESSAGE PUMP,WM_GETOBJECT,61
5672,0,1,MESSAGE PUMP,Unknown,356
5676,0,1,MESSAGE PUMP,WM_GETOBJECT,61
5678,0,1,MESSAGE PUMP,Unknown,356
5682,0,1,MESSAGE PUMP,WM_GETOBJECT,61
5684,0,1,MESSAGE PUMP,Unknown,356
5688,0,1,MESSAGE PUMP,WM_GETOBJECT,61
5690,0,1,MESSAGE PUMP,Unknown,356
5694,0,1,MESSAGE PUMP,WM_GETOBJECT,61
5696,0,1,MESSAGE PUMP,Unknown,356
5700,0,1,MESSAGE PUMP,WM_GETOBJECT,61
5702,0,1,MESSAGE PUMP,Unknown,356
5706,0,1,MESSAGE PUMP,WM_GETOBJECT,61
5708,0,1,MESSAGE PUMP,Unknown,356
5712,0,1,MESSAGE PUMP,WM_GETOBJECT,61
5714,0,1,MESSAGE PUMP,Unknown,356
5718,0,1,MESSAGE PUMP,WM_GETOBJECT,61
5720,0,1,MESSAGE PUMP,Unknown,356
5724,0,1,MESSAGE PUMP,WM_GETOBJECT,61
5726,0,1,MESSAGE PUMP,Unknown,356
5730,0,1,MESSAGE PUMP,WM_GETOBJECT,61
5732,0,1,MESSAGE PUMP,Unknown,356
5736,0,1,MESSAGE PUMP,WM_GETOBJECT,61
5738,0,1,MESSAGE PUMP,Unknown,356
5748,0,1,MESSAGE PUMP,WM_GETOBJECT,61
5750,0,1,MESSAGE PUMP,Unknown,356
5753,0,1,MESSAGE PUMP,WM_GETOBJECT,61
5755,0,1,MESSAGE PUMP,Unknown,356
5759,0,1,MESSAGE PUMP,Unknown,356
5770,0,1,MESSAGE PUMP,WM_KEYDOWN,256
5771,0,1,MESSAGE PUMP,WM_GETOBJECT,61
5773,0,1,MESSAGE PUMP,Unknown,356
5774,0,1,MESSAGE PUMP,WM_KEYUP,257
5778,0,1,MESSAGE PUMP,WM_GETOBJECT,61
5780,0,1,MESSAGE PUMP,Unknown,356
5789,0,1,MESSAGE PUMP,WM_NCHITTEST,132
5789,0,1,MESSAGE PUMP,WM_SETCURSOR,32
5789,0,1,MESSAGE PUMP,WM_MOUSEFIRST,512
5835,0,1,MESSAGE PUMP,WM_KEYDOWN,256
5839,0,1,MESSAGE PUMP,WM_KEYUP,257
5956,0,1,MESSAGE PUMP,WM_KEYDOWN,256
5960,0,1,MESSAGE PUMP,WM_KEYUP,257
5962,0,1,MESSAGE PUMP,WM_GETOBJECT,61
5964,0,1,MESSAGE PUMP,Unknown,356
6026,0,1,MESSAGE PUMP,WM_KEYDOWN,256
6030,0,1,MESSAGE PUMP,WM_KEYUP,257
6032,0,1,MESSAGE PUMP,WM_GETOBJECT,61
6034,0,1,MESSAGE PUMP,Unknown,356
6095,0,1,MESSAGE PUMP,WM_KEYDOWN,256
6096,0,1,MESSAGE PUMP,WM_KEYUP,257
6098,0,1,MESSAGE PUMP,WM_GETOBJECT,61
6100,0,1,MESSAGE PUMP,Unknown,356
6161,0,1,MESSAGE PUMP,WM_KEYDOWN,256
6165,0,1,MESSAGE PUMP,WM_KEYUP,257
6167,0,1,MESSAGE PUMP,WM_GETOBJECT,61
6169,0,1,MESSAGE PUMP,Unknown,356
6230,0,1,MESSAGE PUMP,WM_KEYDOWN,256
6235,0,1,MESSAGE PUMP,WM_KEYUP,257
6237,0,1,MESSAGE PUMP,WM_GETOBJECT,61
6239,0,1,MESSAGE PUMP,Unknown,356
6295,0,1,MESSAGE PUMP,WM_KEYDOWN,256
6297,0,1,MESSAGE PUMP,WM_KEYUP,257
6299,0,1,MESSAGE PUMP,WM_GETOBJECT,61
6301,0,1,MESSAGE PUMP,Unknown,356
6361,0,1,MESSAGE PUMP,WM_KEYDOWN,256
6365,0,1,MESSAGE PUMP,WM_KEYUP,257
6367,0,1,MESSAGE PUMP,WM_GETOBJECT,61
6369,0,1,MESSAGE PUMP,Unknown,356
6490,0,1,MESSAGE PUMP,WM_KEYDOWN,256
6490,0,1,MESSAGE PUMP,WM_CHAR,258
6492,0,1,MESSAGE PUMP,WM_KEYUP,257
6519,0,1,MESSAGE PUMP,WM_NCHITTEST,132
6519,0,1,MESSAGE PUMP,WM_SETCURSOR,32
6519,0,1,MESSAGE PUMP,WM_MOUSEFIRST,512
6646,0,1,MESSAGE PUMP,WM_KEYDOWN,256
6649,0,1,MESSAGE PUMP,WM_KEYUP,257
6683,0,1,MESSAGE PUMP,WM_NCHITTEST,132
6683,0,1,MESSAGE PUMP,WM_SETCURSOR,32
6683,0,1,MESSAGE PUMP,WM_MOUSEFIRST,512
6684,0,1,MESSAGE PUMP,WM_NCHITTEST,132
6684,0,1,MESSAGE PUMP,WM_SETCURSOR,32
6684,0,1,MESSAGE PUMP,WM_MOUSEFIRST,512
6715,0,1,MESSAGE PUMP,WM_KEYDOWN,256
6719,0,1,MESSAGE PUMP,WM_KEYUP,257
6742,0,1,MESSAGE PUMP,WM_NCHITTEST,132
6742,0,1,MESSAGE PUMP,WM_SETCURSOR,32
6742,0,1,MESSAGE PUMP,WM_MOUSEFIRST,512
6849,0,1,MESSAGE PUMP,WM_KEYDOWN,256
6849,0,1,MESSAGE PUMP,WM_CHAR,258
6850,0,1,MESSAGE PUMP,WM_GETOBJECT,61
6852,0,1,MESSAGE PUMP,Unknown,356
6852,0,1,MESSAGE PUMP,WM_KEYUP,257
6855,0,1,MESSAGE PUMP,WM_GETOBJECT,61
6857,0,1,MESSAGE PUMP,Unknown,356
6861,0,1,MESSAGE PUMP,WM_GETOBJECT,61
6863,0,1,MESSAGE PUMP,Unknown,356
6866,0,1,MESSAGE PUMP,WM_GETOBJECT,61
6868,0,1,MESSAGE PUMP,Unknown,356
6872,0,1,MESSAGE PUMP,WM_GETOBJECT,61
6874,0,1,MESSAGE PUMP,Unknown,356
6878,0,1,MESSAGE PUMP,WM_GETOBJECT,61
6880,0,1,MESSAGE PUMP,Unknown,356
6884,0,1,MESSAGE PUMP,WM_GETOBJECT,61
6886,0,1,MESSAGE PUMP,Unknown,356
6890,0,1,MESSAGE PUMP,WM_GETOBJECT,61
6892,0,1,MESSAGE PUMP,Unknown,356
6895,0,1,MESSAGE PUMP,WM_GETOBJECT,61
6897,0,1,MESSAGE PUMP,Unknown,356
6901,0,1,MESSAGE PUMP,WM_GETOBJECT,61
6903,0,1,MESSAGE PUMP,Unknown,356
6907,0,1,MESSAGE PUMP,WM_GETOBJECT,61
6909,0,1,MESSAGE PUMP,Unknown,356
6913,0,1,MESSAGE PUMP,WM_GETOBJECT,61
6915,0,1,MESSAGE PUMP,Unknown,356
6919,0,1,MESSAGE PUMP,WM_GETOBJECT,61
6921,0,1,MESSAGE PUMP,Unknown,356
6925,0,1,MESSAGE PUMP,WM_GETOBJECT,61
6927,0,1,MESSAGE PUMP,Unknown,356
6931,0,1,MESSAGE PUMP,WM_GETOBJECT,61
6933,0,1,MESSAGE PUMP,Unknown,356
6937,0,1,MESSAGE PUMP,WM_GETOBJECT,61
6939,0,1,MESSAGE PUMP,Unknown,356
6949,0,1,MESSAGE PUMP,WM_GETOBJECT,61
6951,0,1,MESSAGE PUMP,Unknown,356
6954,0,1,MESSAGE PUMP,WM_GETOBJECT,61
6956,0,1,MESSAGE PUMP,Unknown,356
6960,0,1,MESSAGE PUMP,Unknown,356
6969,0,1,MESSAGE PUMP,WM_KEYDOWN,256
6972,0,1,MESSAGE PUMP,WM_GETOBJECT,61
6973,0,1,MESSAGE PUMP,WM_KEYUP,257
6974,0,1,MESSAGE PUMP,Unknown,356
6979,0,1,MESSAGE PUMP,WM_GETOBJECT,61
6981,0,1,MESSAGE PUMP,Unknown,356
6989,0,1,MESSAGE PUMP,WM_NCHITTEST,132
6989,0,1,MESSAGE PUMP,WM_SETCURSOR,32
6989,0,1,MESSAGE PUMP,WM_MOUSEFIRST,512
7037,0,1,MESSAGE PUMP,WM_KEYDOWN,256
7042,0,1,MESSAGE PUMP,WM_KEYUP,257
7159,0,1,MESSAGE PUMP,WM_KEYDOWN,256
7164,0,1,MESSAGE PUMP,WM_KEYUP,257
7166,0,1,MESSAGE PUMP,WM_GETOBJECT,61
7168,0,1,MESSAGE PUMP,Unknown,356
7228,0,1,MESSAGE PUMP,WM_KEYDOWN,256
7233,0,1,MESSAGE PUMP,WM_KEYUP,257
7235,0,1,MESSAGE PUMP,WM_GETOBJECT,61
7237,0,1,MESSAGE PUMP,Unknown,356
7298,0,1,MESSAGE PUMP,WM_KEYDOWN,256
7302,0,1,MESSAGE PUMP,WM_KEYUP,257
7304,0,1,MESSAGE PUMP,WM_GETOBJECT,61
7306,0,1,MESSAGE PUMP,Unknown,356
7427,0,1,MESSAGE PUMP,WM_KEYDOWN,256
7427,0,1,MESSAGE PUMP,WM_CHAR,258
7429,0,1,MESSAGE PUMP,WM_KEYUP,257
7455,0,1,MESSAGE PUMP,WM_NCHITTEST,132
7455,0,1,MESSAGE PUMP,WM_SETCURSOR,32
7455,0,1,MESSAGE PUMP,WM_MOUSEFIRST,512
7576,0,1,MESSAGE PUMP,WM_KEYDOWN,256
7581,0,1,MESSAGE PUMP,WM_KEYUP,257
7610,0,1,MESSAGE PUMP,WM_NCHITTEST,132
7610,0,1,MESSAGE PUMP,WM_SETCURSOR,32
7610,0,1,MESSAGE PUMP,WM_MOUSEFIRST,512
7660,0,1,MESSAGE PUMP,WM_KEYDOWN,256
7662,0,1,MESSAGE PUMP,WM_KEYUP,257
7691,0,1,MESSAGE PUMP,WM_NCHITTEST,132
7691,0,1,MESSAGE PUMP,WM_SETCURSOR,32
7691,0,1,MESSAGE PUMP,WM_MOUSEFIRST,512
7804,0,1,MESSAGE PUMP,WM_KEYDOWN,256
7806,0,1,MESSAGE PUMP,WM_KEYUP,257
7833,0,1,MESSAGE PUMP,WM_NCHITTEST,132
7833,0,1,MESSAGE PUMP,WM_SETCURSOR,32
7833,0,1,MESSAGE PUMP,WM_MOUSEFIRST,512
7876,0,1,MESSAGE PUMP,WM_KEYDOWN,256
7880,0,1,MESSAGE PUMP,WM_KEYUP,257
7903,0,1,MESSAGE PUMP,WM_NCHITTEST,132
7903,0,1,MESSAGE PUMP,WM_SETCURSOR,32
7903,0,1,MESSAGE PUMP,WM_MOUSEFIRST,512
7946,0,1,MESSAGE PUMP,WM_KEYDOWN,256
7950,0,1,MESSAGE PUMP,WM_KEYUP,257
7975,0,1,MESSAGE PUMP,WM_NCHITTEST,132
7975,0,1,MESSAGE PUMP,WM_SETCURSOR,32
7975,0,1,MESSAGE PUMP,WM_MOUSEFIRST,512
8020,0,1,MESSAGE PUMP,WM_KEYDOWN,256
8023,0,1,MESSAGE PUMP,WM_KEYUP,257
8046,0,1,MESSAGE PUMP,WM_NCHITTEST,132
8046,0,1,MESSAGE PUMP,WM_SETCURSOR,32
8046,0,1,MESSAGE PUMP,WM_MOUSEFIRST,512
8097,0,1,MESSAGE PUMP,WM_KEYDOWN,256
8102,0,1,MESSAGE PUMP,WM_KEYUP,257
8124,0,1,MESSAGE PUMP,WM_NCHITTEST,132
8124,0,1,MESSAGE PUMP,WM_SETCURSOR,32
8124,0,1,MESSAGE PUMP,WM_MOUSEFIRST,512
8179,0,1,MESSAGE PUMP,WM_KEYDOWN,256
8182,0,1,MESSAGE PUMP,WM_KEYUP,257
8210,0,1,MESSAGE PUMP,WM_NCHITTEST,132
8210,0,1,MESSAGE PUMP,WM_SETCURSOR,32
8210,0,1,MESSAGE PUMP,WM_MOUSEFIRST,512
8261,0,1,MESSAGE PUMP,WM_KEYDOWN,256
8265,0,1,MESSAGE PUMP,WM_KEYUP,257
8290,0,1,MESSAGE PUMP,WM_NCHITTEST,132
8290,0,1,MESSAGE PUMP,WM_SETCURSOR,32
8290,0,1,MESSAGE PUMP,WM_MOUSEFIRST,512
8345,0,1,MESSAGE PUMP,WM_KEYDOWN,256
8350,0,1,MESSAGE PUMP,WM_KEYUP,257
8373,0,1,MESSAGE PUMP,WM_NCHITTEST,132
8373,0,1,MESSAGE PUMP,WM_SETCURSOR,32
8373,0,1,MESSAGE PUMP,WM_MOUSEFIRST,512
8486,0,1,MESSAGE PUMP,WM_KEYDOWN,256
8491,0,1,MESSAGE PUMP,WM_KEYUP,257
8518,0,1,MESSAGE PUMP,WM_NCHITTEST,132
8518,0,1,MESSAGE PUMP,WM_SETCURSOR,32
8518,0,1,MESSAGE PUMP,WM_MOUSEFIRST,512
8623,0,1,MESSAGE PUMP,WM_KEYDOWN,256
8623,0,1,MESSAGE PUMP,WM_CHAR,258
8624,0,1,MESSAGE PUMP,WM_GETOBJECT,61
8624,0,1,MESSAGE PUMP,WM_KEYUP,257
8625,0,1,MESSAGE PUMP,Unknown,356
8629,0,1,MESSAGE PUMP,WM_GETOBJECT,61
8631,0,1,MESSAGE PUMP,Unknown,356
8635,0,1,MESSAGE PUMP,WM_GETOBJECT,61
8637,0,1,MESSAGE PUMP,Unknown,356
8641,0,1,MESSAGE PUMP,WM_GETOBJECT,61
8643,0,1,MESSAGE PUMP,Unknown,356
8647,0,1,MESSAGE PUMP,WM_GETOBJECT,61
8649,0,1,MESSAGE PUMP,Unknown,356
8653,0,1,MESSAGE PUMP,WM_GETOBJECT,61
8655,0,1,MESSAGE PUMP,Unknown,356
8659,0,1,MESSAGE PUMP,WM_GETOBJECT,61
8661,0,1,MESSAGE PUMP,Unknown,356
8665,0,1,MESSAGE PUMP,WM_GETOBJECT,61
8667,0,1,MESSAGE PUMP,Unknown,356
8671,0,1,MESSAGE PUMP,WM_GETOBJECT,61
8673,0,1,MESSAGE PUMP,Unknown,356
8677,0,1,MESSAGE PUMP,WM_GETOBJECT,61
8679,0,1,MESSAGE PUMP,Unknown,356
8683,0,1,MESSAGE PUMP,WM_GETOBJECT,61
8685,0,1,MESSAGE PUMP,Unknown,356
8689,0,1,MESSAGE PUMP,WM_GETOBJECT,61
8691,0,1,MESSAGE PUMP,Unknown,356
8695,0,1,MESSAGE PUMP,WM_GETOBJECT,61
8697,0,1,MESSAGE PUMP,Unknown,356
8701,0,1,MESSAGE PUMP,WM_GETOBJECT,61
8703,0,1,MESSAGE PUMP,Unknown,356
8707,0,1,MESSAGE PUMP,WM_GETOBJECT,61
8709,0,1,MESSAGE PUMP,Unknown,356
8712,0,1,MESSAGE PUMP,WM_GETOBJECT,61
8714,0,1,MESSAGE PUMP,Unknown,356
8724,0,1,MESSAGE PUMP,WM_GETOBJECT,61
8726,0,1,MESSAGE PUMP,Unknown,356
8730,0,1,MESSAGE PUMP,WM_GETOBJECT,61
8732,0,1,MESSAGE PUMP,Unknown,356
8736,0,1,MESSAGE PUMP,Unknown,356
8738,0,1,MESSAGE PUMP,WM_KEYDOWN,256
8743,0,1,MESSAGE PUMP,WM_KEYUP,257
8748,0,1,MESSAGE PUMP,WM_GETOBJECT,61
8750,0,1,MESSAGE PUMP,Unknown,356
8756,0,1,MESSAGE PUMP,WM_GETOBJECT,61
8758,0,1,MESSAGE PUMP,Unknown,356
8766,0,1,MESSAGE PUMP,WM_NCHITTEST,132
8766,0,1,MESSAGE PUMP,WM_SETCURSOR,32
8766,0,1,MESSAGE PUMP,WM_MOUSEFIRST,512
8867,0,1,MESSAGE PUMP,WM_KEYDOWN,256
8872,0,1,MESSAGE PUMP,WM_KEYUP,257
8874,0,1,MESSAGE PUMP,WM_GETOBJECT,61
8876,0,1,MESSAGE PUMP,Unknown,356
8937,0,1,MESSAGE PUMP,WM_KEYDOWN,256
8941,0,1,MESSAGE PUMP,WM_KEYUP,257
8943,0,1,MESSAGE PUMP,WM_GETOBJECT,61
8945,0,1,MESSAGE PUMP,Unknown,356
9006,0,1,MESSAGE PUMP,WM_KEYDOWN,256
9011,0,1,MESSAGE PUMP,WM_KEYUP,257
9013,0,1,MESSAGE PUMP,WM_GETOBJECT,61
9015,0,1,MESSAGE PUMP,Unknown,356
9076,0,1,MESSAGE PUMP,WM_KEYDOWN,256
9080,0,1,MESSAGE PUMP,WM_KEYUP,257
9082,0,1,MESSAGE PUMP,WM_GETOBJECT,61
9084,0,1,MESSAGE PUMP,Unknown,356
9145,0,1,MESSAGE PUMP,WM_KEYDOWN,256
9149,0,1,MESSAGE PUMP,WM_KEYUP,257
9151,0,1,MESSAGE PUMP,WM_GETOBJECT,61
9153,0,1,MESSAGE PUMP,Unknown,356
9274,0,1,MESSAGE PUMP,WM_KEYDOWN,256
9333,0,1,MESSAGE PUMP,WM_KEYDOWN,256
9338,0,1,MESSAGE PUMP,WM_KEYUP,257
9340,0,1,MESSAGE PUMP,WM_GETOBJECT,61
9342,0,1,MESSAGE PUMP,Unknown,356
9396,0,1,MESSAGE PUMP,WM_KEYUP,257
9520,0,1,MESSAGE PUMP,WM_KEYDOWN,256
9520,0,1,MESSAGE PUMP,WM_CHAR,258
9522,0,1,MESSAGE PUMP,WM_KEYUP,257
9555,0,1,MESSAGE PUMP,WM_NCHITTEST,132
9555,0,1,MESSAGE PUMP,WM_SETCURSOR,32
9555,0,1,MESSAGE PUMP,WM_MOUSEFIRST,512
9676,0,1,MESSAGE PUMP,WM_KEYDOWN,256
9680,0,1,MESSAGE PUMP,WM_KEYUP,257
9711,0,1,MESSAGE PUMP,WM_NCHITTEST,132
9711,0,1,MESSAGE PUMP,WM_SETCURSOR,32
9711,0,1,MESSAGE PUMP,WM_MOUSEFIRST,512
9760,0,1,MESSAGE PUMP,WM_KEYDOWN,256
9765,0,1,MESSAGE PUMP,WM_KEYUP,257
9789,0,1,MESSAGE PUMP,WM_NCHITTEST,132
9789,0,1,MESSAGE PUMP,WM_SETCURSOR,32
9789,0,1,MESSAGE PUMP,WM_MOUSEFIRST,512
9918,0,1,MESSAGE PUMP,WM_KEYDOWN,256
9918,0,1,MESSAGE PUMP,WM_CHAR,258
9919,0,1,MESSAGE PUMP,WM_GETOBJECT,61
9921,0,1,MESSAGE PUMP,Unknown,356
9921,0,1,MESSAGE PUMP,WM_KEYUP,257
9923,0,1,MESSAGE PUMP,WM_GETOBJECT,61
9925,0,1,MESSAGE PUMP,Unknown,356
9929,0,1,MESSAGE PUMP,WM_GETOBJECT,61
9931,0,1,MESSAGE PUMP,Unknown,356
9935,0,1,MESSAGE PUMP,WM_GETOBJECT,61
9937,0,1,MESSAGE PUMP,Unknown,356
9941,0,1,MESSAGE PUMP,WM_GETOBJECT,61
9943,0,1,MESSAGE PUMP,Unknown,356
9947,0,1,MESSAGE PUMP,WM_GETOBJECT,61
9949,0,1,MESSAGE PUMP,Unknown,356
9953,0,1,MESSAGE PUMP,WM_GETOBJECT,61
9955,0,1,MESSAGE PUMP,Unknown,356
9959,0,1,MESSAGE PUMP,WM_GETOBJECT,61
9961,0,1,MESSAGE PUMP,Unknown,356
9965,0,1,MESSAGE PUMP,WM_GETOBJECT,61
9967,0,1,MESSAGE PUMP,Unknown,356
9971,0,1,MESSAGE PUMP,WM_GETOBJECT,61
9973,0,1,MESSAGE PUMP,Unknown,356
9977,0,1,MESSAGE PUMP,WM_GETOBJECT,61
9979,0,1,MESSAGE PUMP,Unknown,356
9983,0,1,MESSAGE PUMP,WM_GETOBJECT,61
9985,0,1,MESSAGE PUMP,Unknown,356
9989,0,1,MESSAGE PUMP,WM_GETOBJECT,61
9991,0,1,MESSAGE PUMP,Unknown,356
9995,0,1,MESSAGE PUMP,WM_GETOBJECT,61
9997,0,1,MESSAGE PUMP,Unknown,356
10001,0,1,MESSAGE PUMP,WM_GETOBJECT,61
10003,0,1,MESSAGE PUMP,Unknown,356
10007,0,1,MESSAGE PUMP,WM_GETOBJECT,61
10009,0,1,MESSAGE PUMP,Unknown,356
10018,0,1,MESSAGE PUMP,WM_GETOBJECT,61
10020,0,1,MESSAGE PUMP,Unknown,356
10023,0,1,MESSAGE PUMP,WM_GETOBJECT,61
10025,0,1,MESSAGE PUMP,Unknown,356
10029,0,1,MESSAGE PUMP,Unknown,356
10042,0,1,MESSAGE PUMP,WM_GETOBJECT,61
10044,0,1,MESSAGE PUMP,Unknown,356
10046,0,1,MESSAGE PUMP,WM_KEYDOWN,256
10048,0,1,MESSAGE PUMP,WM_GETOBJECT,61
10050,0,1,MESSAGE PUMP,Unknown,356
10058,0,1,MESSAGE PUMP,WM_NCHITTEST,132
10058,0,1,MESSAGE PUMP,WM_SETCURSOR,32
10058,0,1,MESSAGE PUMP,WM_MOUSEFIRST,512
10110,0,1,MESSAGE PUMP,WM_KEYDOWN,256
10114,0,1,MESSAGE PUMP,WM_KEYUP,257
10116,0,1,MESSAGE PUMP,WM_GETOBJECT,61
10118,0,1,MESSAGE PUMP,Unknown,356
10180,0,1,MESSAGE PUMP,WM_KEYUP,257
10305,0,1,MESSAGE PUMP,WM_KEYDOWN,256
10309,0,1,MESSAGE PUMP,WM_KEYUP,257
10434,0,1,MESSAGE PUMP,WM_KEYDOWN,256
10437,0,1,MESSAGE PUMP,WM_KEYUP,257
10439,0,1,MESSAGE PUMP,WM_GETOBJECT,61
10441,0,1,MESSAGE PUMP,Unknown,356
10495,0,1,MESSAGE PUMP,WM_KEYDOWN,256
10500,0,1,MESSAGE PUMP,WM_KEYUP,257
10502,0,1,MESSAGE PUMP,WM_GETOBJECT,61
10504,0,1,MESSAGE PUMP,Unknown,356
10565,0,1,MESSAGE PUMP,WM_KEYDOWN,256
10569,0,1,MESSAGE PUMP,WM_KEYUP,257
10571,0,1,MESSAGE PUMP,WM_GETOBJECT,61
10573,0,1,MESSAGE PUMP,Unknown,356
10694,0,1,MESSAGE PUMP,WM_KEYDOWN,256
10694,0,1,MESSAGE PUMP,WM_CHAR,258
10696,0,1,MESSAGE PUMP,WM_KEYUP,257
10728,0,1,MESSAGE PUMP,WM_NCHITTEST,132
10728,0,1,MESSAGE PUMP,WM_SETCURSOR,32
10728,0,1,MESSAGE PUMP,WM_MOUSEFIRST,512
10821,0,1,MESSAGE PUMP,WM_KEYDOWN,256
10825,0,1,MESSAGE PUMP,WM_KEYUP,257
10855,0,1,MESSAGE PUMP,WM_NCHITTEST,132
10855,0,1,MESSAGE PUMP,WM_SETCURSOR,32
10855,0,1,MESSAGE PUMP,WM_MOUSEFIRST,512
10960,0,1,MESSAGE PUMP,WM_KEYDOWN,256
10963,0,1,MESSAGE PUMP,WM_KEYUP,257
10989,0,1,MESSAGE PUMP,WM_NCHITTEST,132
10989,0,1,MESSAGE PUMP,WM_SETCURSOR,32
10989,0,1,MESSAGE PUMP,WM_MOUSEFIRST,512
11033,0,1,MESSAGE PUMP,WM_KEYDOWN,256
11038,0,1,MESSAGE PUMP,WM_KEYUP,257
11065,0,1,MESSAGE PUMP,WM_NCHITTEST,132
11065,0,1,MESSAGE PUMP,WM_SETCURSOR,32
11065,0,1,MESSAGE PUMP,WM_MOUSEFIRST,512
11118,0,1,MESSAGE PUMP,WM_KEYDOWN,256
11123,0,1,MESSAGE PUMP,WM_KEYUP,257
11146,0,1,MESSAGE PUMP,WM_NCHITTEST,132
11146,0,1,MESSAGE PUMP,WM_SETCURSOR,32
11146,0,1,MESSAGE PUMP,WM_MOUSEFIRST,512
11199,0,1,MESSAGE PUMP,WM_KEYDOWN,256
11203,0,1,MESSAGE PUMP,WM_KEYUP,257
11226,0,1,MESSAGE PUMP,WM_NCHITTEST,132
11226,0,1,MESSAGE PUMP,WM_SETCURSOR,32
11226,0,1,MESSAGE PUMP,WM_MOUSEFIRST,512
11274,0,1,MESSAGE PUMP,WM_KEYDOWN,256
11277,0,1,MESSAGE PUMP,WM_KEYUP,257
11303,0,1,MESSAGE PUMP,WM_NCHITTEST,132
11303,0,1,MESSAGE PUMP,WM_SETCURSOR,32
11303,0,1,MESSAGE PUMP,WM_MOUSEFIRST,512
11429,0,1,MESSAGE PUMP,WM_KEYDOWN,256
11429,0,1,MESSAGE PUMP,WM_CHAR,258
11430,0,1,MESSAGE PUMP,WM_GETOBJECT,61
11432,0,1,MESSAGE PUMP,Unknown,356
11432,0,1,MESSAGE PUMP,WM_KEYUP,257
11435,0,1,MESSAGE PUMP,WM_GETOBJECT,61
11437,0,1,MESSAGE PUMP,Unknown,356
11441,0,1,MESSAGE PUMP,WM_GETOBJECT,61
11443,0,1,MESSAGE PUMP,Unknown,356
11447,0,1,MESSAGE PUMP,WM_GETOBJECT,61
11449,0,1,MESSAGE PUMP,Unknown,356
11453,0,1,MESSAGE PUMP,WM_GETOBJECT,61
11455,0,1,MESSAGE PUMP,Unknown,356
11458,0,1,MESSAGE PUMP,WM_GETOBJECT,61
11460,0,1,MESSAGE PUMP,Unknown,356
11464,0,1,MESSAGE PUMP,WM_GETOBJECT,61
11466,0,1,MESSAGE PUMP,Unknown,356
11470,0,1,MESSAGE PUMP,WM_GETOBJECT,61
11472,0,1,MESSAGE PUMP,Unknown,356
11476,0,1,MESSAGE PUMP,WM_GETOBJECT,61
11478,0,1,MESSAGE PUMP,Unknown,356
11482,0,1,MESSAGE PUMP,WM_GETOBJECT,61
11484,0,1,MESSAGE PUMP,Unknown,356
11488,0,1,MESSAGE PUMP,WM_GETOBJECT,61
11490,0,1,MESSAGE PUMP,Unknown,356
11494,0,1,MESSAGE PUMP,WM_GETOBJECT,61
11496,0,1,MESSAGE PUMP,Unknown,356
11500,0,1,MESSAGE PUMP,WM_GETOBJECT,61
11502,0,1,MESSAGE PUMP,Unknown,356
11506,0,1,MESSAGE PUMP,WM_GETOBJECT,61
11508,0,1,MESSAGE PUMP,Unknown,356
11512,0,1,MESSAGE PUMP,WM_GETOBJECT,61
11514,0,1,MESSAGE PUMP,Unknown,356
11518,0,1,MESSAGE PUMP,WM_GETOBJECT,61
11520,0,1,MESSAGE PUMP,Unknown,356
11531,0,1,MESSAGE PUMP,WM_GETOBJECT,61
11533,0,1,MESSAGE PUMP,Unknown,356
11536,0,1,MESSAGE PUMP,WM_GETOBJECT,61
11538,0,1,MESSAGE PUMP,Unknown,356
11542,0,1,MESSAGE PUMP,Unknown,356
11556,0,1,MESSAGE PUMP,WM_GETOBJECT,61
11556,0,1,MESSAGE PUMP,WM_KEYDOWN,256
11557,0,1,MESSAGE PUMP,Unknown,356
11561,0,1,MESSAGE PUMP,WM_KEYUP,257
11562,0,1,MESSAGE PUMP,WM_GETOBJECT,61
11564,0,1,MESSAGE PUMP,Unknown,356
11566,0,1,MESSAGE PUMP,WM_GETOBJECT,61
11569,0,1,MESSAGE PUMP,Unknown,356
11578,0,1,MESSAGE PUMP,WM_NCHITTEST,132
11578,0,1,MESSAGE PUMP,WM_SETCURSOR,32
11578,0,1,MESSAGE PUMP,WM_MOUSEFIRST,512
11684,0,1,MESSAGE PUMP,WM_KEYDOWN,256
11746,0,1,MESSAGE PUMP,WM_KEYDOWN,256
11748,0,1,MESSAGE PUMP,WM_KEYUP,257
11750,0,1,MESSAGE PUMP,WM_GETOBJECT,61
11752,0,1,MESSAGE PUMP,Unknown,356
11807,0,1,MESSAGE PUMP,WM_KEYUP,257
11932,0,1,MESSAGE PUMP,WM_KEYDOWN,256
11936,0,1,MESSAGE PUMP,WM_KEYUP,257
12002,0,1,MESSAGE PUMP,WM_KEYDOWN,256
12006,0,1,MESSAGE PUMP,WM_KEYUP,257
12131,0,1,MESSAGE PUMP,WM_KEYDOWN,256
12131,0,1,MESSAGE PUMP,WM_CHAR,258
12133,0,1,MESSAGE PUMP,WM_KEYUP,257
12162,0,1,MESSAGE PUMP,WM_NCHITTEST,132
12162,0,1,MESSAGE PUMP,WM_SETCURSOR,32
12162,0,1,MESSAGE PUMP,WM_MOUSEFIRST,512
14501,0,1,MESSAGE PUMP,WM_KEYDOWN,256
14581,0,1,MESSAGE PUMP,WM_KEYDOWN,256
14584,0,1,MESSAGE PUMP,WM_KEYUP,257
14681,0,1,MESSAGE PUMP,WM_KEYUP,257
15144,0,1,MESSAGE PUMP,WM_SYSKEYDOWN,260
15144,0,1,MESSAGE PUMP,WM_SYSKEYDOWN,260
15144,0,1,MESSAGE PUMP,WM_SYSCOMMAND,274
15144,0,1,MESSAGE PUMP,WM_CLOSE,16
15144,0,0,MESSAGE PUMP,Unknown,144
15144,0,0,MESSAGE PUMP,WM_WINDOWPOSCHANGING,70
15144,0,0,MESSAGE PUMP,WM_WINDOWPOSCHANGED,71
15144,0,0,MESSAGE PUMP,WM_NCACTIVATE,134
15144,0,0,MESSAGE PUMP,WM_GETICON,127
15144,0,0,MESSAGE PUMP,WM_ACTIVATE,6
15144,0,0,MESSAGE PUMP,WM_ACTIVATEAPP,28
15144,0,0,MESSAGE PUMP,WM_KILLFOCUS,8
15144,0,0,MESSAGE PUMP,WM_IME_SETCONTEXT,641
15144,0,0,MESSAGE PUMP,WM_IME_NOTIFY,642
15144,0,0,MESSAGE PUMP,WM_DESTROY,2
15144,0,0,MESSAGE PUMP,WM_NCDESTROY,130
