Frame,Poll Count,Is Polling,Source,Event Name,Event Code
0,0,0,MESSAGE PUMP,WM_GETMINMAXINFO,36
0,0,0,MESSAGE PUMP,WM_WINDOWPOSCHANGING,70
0,0,0,MESSAGE PUMP,WM_GETMINMAXINFO,36
0,0,0,MESSAGE PUMP,WM_NCCALCSIZE,131
0,0,0,MESSAGE PUMP,WM_WINDOWPOSCHANGING,70
0,0,0,MESSAGE PUMP,WM_ACTIVATEAPP,28
0,0,0,MESSAGE PUMP,WM_NCACTIVATE,134
0,0,0,MESSAGE PUMP,WM_ACTIVATE,6
0,0,0,MESSAGE PUMP,WM_IME_SETCONTEXT,641
0,0,0,MESSAGE PUMP,WM_IME_NOTIFY,642
0,0,0,MESSAGE PUMP,WM_SETFOCUS,7
0,0,0,MESSAGE PUMP,WM_NCPAINT,133
0,0,0,MESSAGE PUMP,WM_ERASEBKGND,20
0,0,0,MESSAGE PUMP,WM_WINDOWPOSCHANGED,71
0,0,0,MESSAGE PUMP,WM_MOVE,3
0,0,0,MESSAGE PUMP,WM_SIZE,5
0,0,0,MESSAGE PUMP,WM_WINDOWPOSCHANGING,70
0,0,0,MESSAGE PUMP,WM_GETMINMAXINFO,36
0,0,0,MESSAGE PUMP,WM_NCPAINT,133
0,0,0,MESSAGE PUMP,WM_ERASEBKGND,20
0,0,0,MESSAGE PUMP,WM_WINDOWPOSCHANGED,71
0,0,0,MESSAGE PUMP,WM_MOVE,3
0,0,0,MESSAGE PUMP,WM_SETICON,128
0,0,0,MESSAGE PUMP,Unknown,174
0,0,0,MESSAGE PUMP,WM_SETICON,128
0,0,0,MESSAGE PUMP,Unknown,174
0,0,0,MESSAGE PUMP,WM_WINDOWPOSCHANGING,70
0,0,0,MESSAGE PUMP,WM_GETICON,127
0,0,0,MESSAGE PUMP,WM_WINDOWPOSCHANGING,70
1,0,1,MESSAGE PUMP,WM_GETICON,127
1,0,1,MESSAGE PUMP,Unknown,799
1,0,1,MESSAGE PUMP,Unknown,49322
1,0,1,MESSAGE PUMP,WM_GETMINMAXINFO,36
1,0,1,MESSAGE PUMP,WM_NCHITTEST,132
1,0,1,MESSAGE PUMP,WM_SETCURSOR,32
1,0,1,MESSAGE PUMP,WM_MOUSEFIRST,512
1,0,1,MESSAGE PUMP,WM_PAINT,15
1020,0,1,MESSAGE PUMP,WM_KEYDOWN,256
1020,0,1,MESSAGE PUMP,WM_CHAR,258
1021,0,1,MESSAGE PUMP,WM_KEYUP,257
1166,0,1,MESSAGE PUMP,WM_KEYDOWN,256
1237,0,1,MESSAGE PUMP,WM_KEYDOWN,256
1241,0,1,MESSAGE PUMP,WM_KEYUP,257
1312,0,1,MESSAGE PUMP,WM_KEYUP,257
1511,0,1,MESSAGE PUMP,WM_KEYDOWN,256
1573,0,1,MESSAGE PUMP,WM_KEYDOWN,256
1577,0,1,MESSAGE PUMP,WM_KEYUP,257
1657,0,1,MESSAGE PUMP,WM_KEYUP,257
1854,0,1,MESSAGE PUMP,WM_KEYDOWN,256
1920,0,1,MESSAGE PUMP,WM_KEYDOWN,256
1925,0,1,MESSAGE PUMP,WM_KEYUP,257
1999,0,1,MESSAGE PUMP,WM_KEYUP,257
4133,0,1,MESSAGE PUMP,WM_KEYDOWN,256
4138,0,1,MESSAGE PUMP,WM_KEYUP,257
4218,0,1,MESSAGE PUMP,WM_KEYDOWN,256
4223,0,1,MESSAGE PUMP,WM_KEYUP,257
4301,0,1,MESSAGE PUMP,WM_KEYDOWN,256
4305,0,1,MESSAGE PUMP,WM_KEYUP,257
4385,0,1,MESSAGE PUMP,WM_KEYDOWN,256
4390,0,1,MESSAGE PUMP,WM_KEYUP,257
4470,0,1,MESSAGE PUMP,WM_KEYDOWN,256
4474,0,1,MESSAGE PUMP,WM_KEYUP,257
4545,0,1,MESSAGE PUMP,WM_KEYDOWN,256
4550,0,1,MESSAGE PUMP,WM_KEYUP,257
4699,0,1,MESSAGE PUMP,WM_KEYDOWN,256
4699,0,1,MESSAGE PUMP,WM_CHAR,258
4700,0,1,MESSAGE PUMP,WM_KEYUP,257
4825,0,1,MESSAGE PUMP,WM_KEYDOWN,256
4829,0,1,MESSAGE PUMP,WM_KEYUP,257
4893,0,1,MESSAGE PUMP,WM_KEYDOWN,256
4897,0,1,MESSAGE PUMP,WM_KEYUP,257
4962,0,1,MESSAGE PUMP,WM_KEYDOWN,256
4966,0,1,MESSAGE PUMP,WM_KEYUP,257
5029,0,1,MESSAGE PUMP,WM_KEYDOWN,256
5034,0,1,MESSAGE PUMP,WM_KEYUP,257
5099,0,1,MESSAGE PUMP,WM_KEYDOWN,256
5103,0,1,MESSAGE PUMP,WM_KEYUP,257
5167,0,1,MESSAGE PUMP,WM_KEYDOWN,256
5171,0,1,MESSAGE PUMP,WM_KEYUP,257
5296,0,1,MESSAGE PUMP,WM_KEYDOWN,256
5296,0,1,MESSAGE PUMP,WM_CHAR,258
5301,0,1,MESSAGE PUMP,WM_KEYUP,257
5456,0,1,MESSAGE PUMP,WM_KEYDOWN,256
5460,0,1,MESSAGE PUMP,WM_KEYUP,257
5542,0,1,MESSAGE PUMP,WM_KEYDOWN,256
5546,0,1,MESSAGE PUMP,WM_KEYUP,257
5699,0,1,MESSAGE PUMP,WM_KEYDOWN,256
5699,0,1,MESSAGE PUMP,WM_CHAR,258
5701,0,1,MESSAGE PUMP,WM_KEYUP,257
5825,0,1,MESSAGE PUMP,WM_KEYDOWN,256
5829,0,1,MESSAGE PUMP,WM_KEYUP,257
5895,0,1,MESSAGE PUMP,WM_KEYDOWN,256
5899,0,1,MESSAGE PUMP,WM_KEYUP,257
6024,0,1,MESSAGE PUMP,WM_KEYDOWN,256
6028,0,1,MESSAGE PUMP,WM_KEYUP,257
6093,0,1,MESSAGE PUMP,WM_KEYDOWN,256
6097,0,1,MESSAGE PUMP,WM_KEYUP,257
6162,0,1,MESSAGE PUMP,WM_KEYDOWN,256
6166,0,1,MESSAGE PUMP,WM_KEYUP,257
6220,0,1,MESSAGE PUMP,WM_KEYDOWN,256
6224,0,1,MESSAGE PUMP,WM_KEYUP,257
6287,0,1,MESSAGE PUMP,WM_KEYDOWN,256
6291,0,1,MESSAGE PUMP,WM_KEYUP,257
6355,0,1,MESSAGE PUMP,WM_KEYDOWN,256
6359,0,1,MESSAGE PUMP,WM_KEYUP,257
6417,0,1,MESSAGE PUMP,WM_KEYDOWN,256
6422,0,1,MESSAGE PUMP,WM_KEYUP,257
6547,0,1,MESSAGE PUMP,WM_KEYDOWN,256
6547,0,1,MESSAGE PUMP,WM_CHAR,258
6552,0,1,MESSAGE PUMP,WM_KEYUP,257
6704,0,1,MESSAGE PUMP,WM_KEYDOWN,256
6710,0,1,MESSAGE PUMP,WM_KEYUP,257
6791,0,1,MESSAGE PUMP,WM_KEYDOWN,256
6797,0,1,MESSAGE PUMP,WM_KEYUP,257
6950,0,1,MESSAGE PUMP,WM_KEYDOWN,256
6950,0,1,MESSAGE PUMP,WM_CHAR,258
6953,0,1,MESSAGE PUMP,WM_KEYUP,257
7074,0,1,MESSAGE PUMP,WM_KEYDOWN,256
7078,0,1,MESSAGE PUMP,WM_KEYUP,257
7142,0,1,MESSAGE PUMP,WM_KEYDOWN,256
7146,0,1,MESSAGE PUMP,WM_KEYUP,257
7270,0,1,MESSAGE PUMP,WM_KEYDOWN,256
7275,0,1,MESSAGE PUMP,WM_KEYUP,257
7340,0,1,MESSAGE PUMP,WM_KEYDOWN,256
7344,0,1,MESSAGE PUMP,WM_KEYUP,257
7409,0,1,MESSAGE PUMP,WM_KEYDOWN,256
7413,0,1,MESSAGE PUMP,WM_KEYUP,257
7538,0,1,MESSAGE PUMP,WM_KEYDOWN,256
7538,0,1,MESSAGE PUMP,WM_CHAR,258
7543,0,1,MESSAGE PUMP,WM_KEYUP,257
7697,0,1,MESSAGE PUMP,WM_KEYDOWN,256
7702,0,1,MESSAGE PUMP,WM_KEYUP,257
7782,0,1,MESSAGE PUMP,WM_KEYDOWN,256
7787,0,1,MESSAGE PUMP,WM_KEYUP,257
7941,0,1,MESSAGE PUMP,WM_KEYDOWN,256
7946,0,1,MESSAGE PUMP,WM_KEYUP,257
8025,0,1,MESSAGE PUMP,WM_KEYDOWN,256
8030,0,1,MESSAGE PUMP,WM_KEYUP,257
8093,0,1,MESSAGE PUMP,WM_KEYDOWN,256
8095,0,1,MESSAGE PUMP,WM_KEYUP,257
8164,0,1,MESSAGE PUMP,WM_KEYDOWN,256
8169,0,1,MESSAGE PUMP,WM_KEYUP,257
8245,0,1,MESSAGE PUMP,WM_KEYDOWN,256
8250,0,1,MESSAGE PUMP,WM_KEYUP,257
8329,0,1,MESSAGE PUMP,WM_KEYDOWN,256
8334,0,1,MESSAGE PUMP,WM_KEYUP,257
8412,0,1,MESSAGE PUMP,WM_KEYDOWN,256
8412,0,1,MESSAGE PUMP,WM_KEYUP,257
8460,0,1,MESSAGE PUMP,WM_KEYDOWN,256
8465,0,1,MESSAGE PUMP,WM_KEYUP,257
8620,0,1,MESSAGE PUMP,WM_KEYDOWN,256
8625,0,1,MESSAGE PUMP,WM_KEYUP,257
8780,0,1,MESSAGE PUMP,WM_KEYDOWN,256
8780,0,1,MESSAGE PUMP,WM_CHAR,258
8785,0,1,MESSAGE PUMP,WM_KEYUP,257
8941,0,1,MESSAGE PUMP,WM_KEYDOWN,256
8946,0,1,MESSAGE PUMP,WM_KEYUP,257
9093,0,1,MESSAGE PUMP,WM_KEYDOWN,256
9098,0,1,MESSAGE PUMP,WM_KEYUP,257
9178,0,1,MESSAGE PUMP,WM_KEYDOWN,256
9183,0,1,MESSAGE PUMP,WM_KEYUP,257
9262,0,1,MESSAGE PUMP,WM_KEYDOWN,256
9267,0,1,MESSAGE PUMP,WM_KEYUP,257
9347,0,1,MESSAGE PUMP,WM_KEYDOWN,256
9352,0,1,MESSAGE PUMP,WM_KEYUP,257
9432,0,1,MESSAGE PUMP,WM_KEYDOWN,256
9437,0,1,MESSAGE PUMP,WM_KEYUP,257
9591,0,1,MESSAGE PUMP,WM_KEYDOWN,256
9672,0,1,MESSAGE PUMP,WM_KEYDOWN,256
9677,0,1,MESSAGE PUMP,WM_KEYUP,257
9757,0,1,MESSAGE PUMP,WM_KEYUP,257
9912,0,1,MESSAGE PUMP,WM_KEYDOWN,256
9912,0,1,MESSAGE PUMP,WM_CHAR,258
9917,0,1,MESSAGE PUMP,WM_KEYUP,257
10073,0,1,MESSAGE PUMP,WM_KEYDOWN,256
10078,0,1,MESSAGE PUMP,WM_KEYUP,257
10157,0,1,MESSAGE PUMP,WM_KEYDOWN,256
10162,0,1,MESSAGE PUMP,WM_KEYUP,257
10307,0,1,MESSAGE PUMP,WM_KEYDOWN,256
10307,0,1,MESSAGE PUMP,WM_CHAR,258
10312,0,1,MESSAGE PUMP,WM_KEYUP,257
10469,0,1,MESSAGE PUMP,WM_KEYDOWN,256
10550,0,1,MESSAGE PUMP,WM_KEYDOWN,256
10555,0,1,MESSAGE PUMP,WM_KEYUP,257
10637,0,1,MESSAGE PUMP,WM_KEYUP,257
10795,0,1,MESSAGE PUMP,WM_KEYDOWN,256
10800,0,1,MESSAGE PUMP,WM_KEYUP,257
10955,0,1,MESSAGE PUMP,WM_KEYDOWN,256
10960,0,1,MESSAGE PUMP,WM_KEYUP,257
11038,0,1,MESSAGE PUMP,WM_KEYDOWN,256
11043,0,1,MESSAGE PUMP,WM_KEYUP,257
11125,0,1,MESSAGE PUMP,WM_KEYDOWN,256
11131,0,1,MESSAGE PUMP,WM_KEYUP,257
11274,0,1,MESSAGE PUMP,WM_KEYDOWN,256
11274,0,1,MESSAGE PUMP,WM_CHAR,258
11279,0,1,MESSAGE PUMP,WM_KEYUP,257
11432,0,1,MESSAGE PUMP,WM_KEYDOWN,256
11436,0,1,MESSAGE PUMP,WM_KEYUP,257
11576,0,1,MESSAGE PUMP,WM_KEYDOWN,256
11579,0,1,MESSAGE PUMP,WM_KEYUP,257
11640,0,1,MESSAGE PUMP,WM_KEYDOWN,256
11645,0,1,MESSAGE PUMP,WM_KEYUP,257
11725,0,1,MESSAGE PUMP,WM_KEYDOWN,256
11730,0,1,MESSAGE PUMP,WM_KEYUP,257
11810,0,1,MESSAGE PUMP,WM_KEYDOWN,256
11815,0,1,MESSAGE PUMP,WM_KEYUP,257
11890,0,1,MESSAGE PUMP,WM_KEYDOWN,256
11893,0,1,MESSAGE PUMP,WM_KEYUP,257
12043,0,1,MESSAGE PUMP,WM_KEYDOWN,256
12043,0,1,MESSAGE PUMP,WM_CHAR,258
12048,0,1,MESSAGE PUMP,WM_KEYUP,257
12186,0,1,MESSAGE PUMP,WM_KEYDOWN,256
12191,0,1,MESSAGE PUMP,WM_KEYUP,257
12342,0,1,MESSAGE PUMP,WM_KEYDOWN,256
12414,0,1,MESSAGE PUMP,WM_KEYDOWN,256
12419,0,1,MESSAGE PUMP,WM_KEYUP,257
12485,0,1,MESSAGE PUMP,WM_KEYUP,257
12639,0,1,MESSAGE PUMP,WM_KEYDOWN,256
12644,0,1,MESSAGE PUMP,WM_KEYUP,257
12723,0,1,MESSAGE PUMP,WM_KEYDOWN,256
12728,0,1,MESSAGE PUMP,WM_KEYUP,257
12880,0,1,MESSAGE PUMP,WM_KEYDOWN,256
12880,0,1,MESSAGE PUMP,WM_CHAR,258
12886,0,1,MESSAGE PUMP,WM_KEYUP,257
15257,0,1,MESSAGE PUMP,WM_KEYDOWN,256
15333,0,1,MESSAGE PUMP,WM_KEYDOWN,256
15339,0,1,MESSAGE PUMP,WM_KEYUP,257
15436,0,1,MESSAGE PUMP,WM_KEYUP,257
15803,0,1,MESSAGE PUMP,WM_SYSKEYDOWN,260
15893,0,1,MESSAGE PUMP,WM_SYSKEYDOWN,260
15893,0,1,MESSAGE PUMP,WM_SYSCOMMAND,274
15893,0,1,MESSAGE PUMP,WM_CLOSE,16
15893,0,0,MESSAGE PUMP,Unknown,144
15893,0,0,MESSAGE PUMP,WM_WINDOWPOSCHANGING,70
15893,0,0,MESSAGE PUMP,WM_WINDOWPOSCHANGED,71
15893,0,0,MESSAGE PUMP,WM_NCACTIVATE,134
15893,0,0,MESSAGE PUMP,WM_GETICON,127
15893,0,0,MESSAGE PUMP,WM_ACTIVATE,6
15893,0,0,MESSAGE PUMP,WM_ACTIVATEAPP,28
15893,0,0,MESSAGE PUMP,WM_KILLFOCUS,8
15893,0,0,MESSAGE PUMP,WM_IME_SETCONTEXT,641
15893,0,0,MESSAGE PUMP,WM_IME_NOTIFY,642
15893,0,0,MESSAGE PUMP,WM_DESTROY,2
15893,0,0,MESSAGE PUMP,WM_NCDESTROY,130
