Frame,Poll Count,Is Polling,Source,Event Name,Event Code
0,0,0,MESSAGE PUMP,WM_GETMINMAXINFO,36
0,0,0,MESSAGE PUMP,WM_WINDOWPOSCHANGING,70
0,0,0,MESSAGE PUMP,WM_GETMINMAXINFO,36
0,0,0,MESSAGE PUMP,WM_NCCALCSIZE,131
0,0,0,MESSAGE PUMP,WM_WINDOWPOSCHANGING,70
0,0,0,MESSAGE PUMP,WM_ACTIVATEAPP,28
0,0,0,MESSAGE PUMP,WM_NCACTIVATE,134
0,0,0,MESSAGE PUMP,WM_ACTIVATE,6
0,0,0,MESSAGE PUMP,WM_IME_SETCONTEXT,641
0,0,0,MESSAGE PUMP,WM_IME_NOTIFY,642
0,0,0,MESSAGE PUMP,WM_SETFOCUS,7
0,0,0,MESSAGE PUMP,WM_NCPAINT,133
0,0,0,MESSAGE PUMP,WM_ERASEBKGND,20
0,0,0,MESSAGE PUMP,WM_WINDOWPOSCHANGED,71
0,0,0,MESSAGE PUMP,WM_MOVE,3
0,0,0,MESSAGE PUMP,WM_SIZE,5
0,0,0,MESSAGE PUMP,WM_WINDOWPOSCHANGING,70
0,0,0,MESSAGE PUMP,WM_GETMINMAXINFO,36
0,0,0,MESSAGE PUMP,WM_NCPAINT,133
0,0,0,MESSAGE PUMP,WM_ERASEBKGND,20
0,0,0,MESSAGE PUMP,WM_WINDOWPOSCHANGED,71
0,0,0,MESSAGE PUMP,WM_MOVE,3
0,0,0,MESSAGE PUMP,WM_SETICON,128
0,0,0,MESSAGE PUMP,Unknown,174
0,0,0,MESSAGE PUMP,WM_SETICON,128
0,0,0,MESSAGE PUMP,Unknown,174
0,0,0,MESSAGE PUMP,WM_WINDOWPOSCHANGING,70
0,0,0,MESSAGE PUMP,WM_GETICON,127
0,0,0,MESSAGE PUMP,WM_WINDOWPOSCHANGING,70
1,0,1,MESSAGE PUMP,WM_GETICON,127
1,0,1,MESSAGE PUMP,Unknown,799
1,0,1,MESSAGE PUMP,Unknown,49351
1,0,1,MESSAGE PUMP,WM_GETMINMAXINFO,36
1,0,1,MESSAGE PUMP,WM_NCHITTEST,132
1,0,1,MESSAGE PUMP,WM_SETCURSOR,32
1,0,1,MESSAGE PUMP,WM_MOUSEFIRST,512
1,0,1,MESSAGE PUMP,WM_PAINT,15
417,0,1,MESSAGE PUMP,WM_KEYDOWN,256
417,0,1,MESSAGE PUMP,WM_CHAR,258
418,0,1,MESSAGE PUMP,WM_KEYUP,257
492,0,1,MESSAGE PUMP,WM_KEYDOWN,256
525,0,1,MESSAGE PUMP,WM_KEYDOWN,256
527,1,1,MESSAGE PUMP,WM_KEYUP,257
554,0,1,MESSAGE PUMP,WM_KEYUP,257
642,1,1,MESSAGE PUMP,WM_KEYDOWN,256
673,0,1,MESSAGE PUMP,WM_KEYDOWN,256
673,0,1,MESSAGE PUMP,WM_KEYUP,257
703,1,1,MESSAGE PUMP,WM_KEYUP,257
794,1,1,MESSAGE PUMP,WM_KEYDOWN,256
827,0,1,MESSAGE PUMP,WM_KEYDOWN,256
829,0,1,MESSAGE PUMP,WM_KEYUP,257
858,0,1,MESSAGE PUMP,WM_KEYUP,257
1717,1,1,MESSAGE PUMP,WM_KEYDOWN,256
1720,0,1,MESSAGE PUMP,WM_KEYUP,257
1750,0,1,MESSAGE PUMP,WM_KEYDOWN,256
1752,0,1,MESSAGE PUMP,WM_KEYUP,257
1783,0,1,MESSAGE PUMP,WM_KEYDOWN,256
1785,0,1,MESSAGE PUMP,WM_KEYUP,257
1816,0,1,MESSAGE PUMP,WM_KEYDOWN,256
1818,0,1,MESSAGE PUMP,WM_KEYUP,257
1849,0,1,MESSAGE PUMP,WM_KEYDOWN,256
1850,0,1,MESSAGE PUMP,WM_KEYUP,257
1881,0,1,MESSAGE PUMP,WM_KEYDOWN,256
1883,2,1,MESSAGE PUMP,WM_KEYUP,257
1944,1,1,MESSAGE PUMP,WM_KEYDOWN,256
1944,1,1,MESSAGE PUMP,WM_CHAR,258
1945,0,1,MESSAGE PUMP,WM_KEYUP,257
2007,1,1,MESSAGE PUMP,WM_KEYDOWN,256
2009,0,1,MESSAGE PUMP,WM_KEYUP,257
2042,0,1,MESSAGE PUMP,WM_KEYDOWN,256
2044,1,1,MESSAGE PUMP,WM_KEYUP,257
2077,0,1,MESSAGE PUMP,WM_KEYDOWN,256
2079,0,1,MESSAGE PUMP,WM_KEYUP,257
2111,1,1,MESSAGE PUMP,WM_KEYDOWN,256
2111,1,1,MESSAGE PUMP,WM_KEYUP,257
2142,1,1,MESSAGE PUMP,WM_KEYDOWN,256
2144,1,1,MESSAGE PUMP,WM_KEYUP,257
2177,0,1,MESSAGE PUMP,WM_KEYDOWN,256
2179,0,1,MESSAGE PUMP,WM_KEYUP,257
2241,0,1,MESSAGE PUMP,WM_KEYDOWN,256
2241,0,1,MESSAGE PUMP,WM_CHAR,258
2243,1,1,MESSAGE PUMP,WM_KEYUP,257
2304,1,1,MESSAGE PUMP,WM_KEYDOWN,256
2307,0,1,MESSAGE PUMP,WM_KEYUP,257
2337,0,1,MESSAGE PUMP,WM_KEYDOWN,256
2339,0,1,MESSAGE PUMP,WM_KEYUP,257
2399,0,1,MESSAGE PUMP,WM_KEYDOWN,256
2399,0,1,MESSAGE PUMP,WM_CHAR,258
2400,0,1,MESSAGE PUMP,WM_KEYUP,257
2461,0,1,MESSAGE PUMP,WM_KEYDOWN,256
2463,0,1,MESSAGE PUMP,WM_KEYUP,257
2495,1,1,MESSAGE PUMP,WM_KEYDOWN,256
2497,1,1,MESSAGE PUMP,WM_KEYUP,257
2560,0,1,MESSAGE PUMP,WM_KEYDOWN,256
2562,2,1,MESSAGE PUMP,WM_KEYUP,257
2594,0,1,MESSAGE PUMP,WM_KEYDOWN,256
2596,1,1,MESSAGE PUMP,WM_KEYUP,257
2629,0,1,MESSAGE PUMP,WM_KEYDOWN,256
2631,0,1,MESSAGE PUMP,WM_KEYUP,257
2663,0,1,MESSAGE PUMP,WM_KEYDOWN,256
2665,0,1,MESSAGE PUMP,WM_KEYUP,257
2696,0,1,MESSAGE PUMP,WM_KEYDOWN,256
2698,0,1,MESSAGE PUMP,WM_KEYUP,257
2729,0,1,MESSAGE PUMP,WM_KEYDOWN,256
2731,1,1,MESSAGE PUMP,WM_KEYUP,257
2762,0,1,MESSAGE PUMP,WM_KEYDOWN,256
2764,0,1,MESSAGE PUMP,WM_KEYUP,257
2827,0,1,MESSAGE PUMP,WM_KEYDOWN,256
2827,0,1,MESSAGE PUMP,WM_CHAR,258
2829,0,1,MESSAGE PUMP,WM_KEYUP,257
2889,0,1,MESSAGE PUMP,WM_KEYDOWN,256
2891,1,1,MESSAGE PUMP,WM_KEYUP,257
2923,0,1,MESSAGE PUMP,WM_KEYDOWN,256
2925,0,1,MESSAGE PUMP,WM_KEYUP,257
2985,0,1,MESSAGE PUMP,WM_KEYDOWN,256
2985,0,1,MESSAGE PUMP,WM_CHAR,258
2986,0,1,MESSAGE PUMP,WM_KEYUP,257
3047,1,1,MESSAGE PUMP,WM_KEYDOWN,256
3049,1,1,MESSAGE PUMP,WM_KEYUP,257
3081,1,1,MESSAGE PUMP,WM_KEYDOWN,256
3083,0,1,MESSAGE PUMP,WM_KEYUP,257
3145,0,1,MESSAGE PUMP,WM_KEYDOWN,256
3147,0,1,MESSAGE PUMP,WM_KEYUP,257
3179,0,1,MESSAGE PUMP,WM_KEYDOWN,256
3181,0,1,MESSAGE PUMP,WM_KEYUP,257
3213,1,1,MESSAGE PUMP,WM_KEYDOWN,256
3215,1,1,MESSAGE PUMP,WM_KEYUP,257
3278,0,1,MESSAGE PUMP,WM_KEYDOWN,256
3278,0,1,MESSAGE PUMP,WM_CHAR,258
3280,1,1,MESSAGE PUMP,WM_KEYUP,257
3341,0,1,MESSAGE PUMP,WM_KEYDOWN,256
3343,1,1,MESSAGE PUMP,WM_KEYUP,257
3374,1,1,MESSAGE PUMP,WM_KEYDOWN,256
3376,2,1,MESSAGE PUMP,WM_KEYUP,257
3436,0,1,MESSAGE PUMP,WM_KEYDOWN,256
3438,0,1,MESSAGE PUMP,WM_KEYUP,257
3468,1,1,MESSAGE PUMP,WM_KEYDOWN,256
3471,0,1,MESSAGE PUMP,WM_KEYUP,257
3502,1,1,MESSAGE PUMP,WM_KEYDOWN,256
3504,2,1,MESSAGE PUMP,WM_KEYUP,257
3536,1,1,MESSAGE PUMP,WM_KEYDOWN,256
3538,1,1,MESSAGE PUMP,WM_KEYUP,257
3570,0,1,MESSAGE PUMP,WM_KEYDOWN,256
3572,0,1,MESSAGE PUMP,WM_KEYUP,257
3605,0,1,MESSAGE PUMP,WM_KEYDOWN,256
3607,0,1,MESSAGE PUMP,WM_KEYUP,257
3637,1,1,MESSAGE PUMP,WM_KEYDOWN,256
3639,0,1,MESSAGE PUMP,WM_KEYUP,257
3670,1,1,MESSAGE PUMP,WM_KEYDOWN,256
3672,0,1,MESSAGE PUMP,WM_KEYUP,257
3732,1,1,MESSAGE PUMP,WM_KEYDOWN,256
3734,1,1,MESSAGE PUMP,WM_KEYUP,257
3794,0,1,MESSAGE PUMP,WM_KEYDOWN,256
3794,0,1,MESSAGE PUMP,WM_CHAR,258
3795,0,1,MESSAGE PUMP,WM_KEYUP,257
3857,0,1,MESSAGE PUMP,WM_KEYDOWN,256
3859,0,1,MESSAGE PUMP,WM_KEYUP,257
3919,4,1,MESSAGE PUMP,WM_KEYDOWN,256
3921,1,1,MESSAGE PUMP,WM_KEYUP,257
3953,1,1,MESSAGE PUMP,WM_KEYDOWN,256
3956,0,1,MESSAGE PUMP,WM_KEYUP,257
3988,0,1,MESSAGE PUMP,WM_KEYDOWN,256
3990,1,1,MESSAGE PUMP,WM_KEYUP,257
4023,0,1,MESSAGE PUMP,WM_KEYDOWN,256
4025,0,1,MESSAGE PUMP,WM_KEYUP,257
4056,0,1,MESSAGE PUMP,WM_KEYDOWN,256
4058,0,1,MESSAGE PUMP,WM_KEYUP,257
4118,0,1,MESSAGE PUMP,WM_KEYDOWN,256
4150,0,1,MESSAGE PUMP,WM_KEYDOWN,256
4152,0,1,MESSAGE PUMP,WM_KEYUP,257
4184,0,1,MESSAGE PUMP,WM_KEYUP,257
4246,0,1,MESSAGE PUMP,WM_KEYDOWN,256
4246,0,1,MESSAGE PUMP,WM_CHAR,258
4248,1,1,MESSAGE PUMP,WM_KEYUP,257
4309,0,1,MESSAGE PUMP,WM_KEYDOWN,256
4311,0,1,MESSAGE PUMP,WM_KEYUP,257
4343,1,1,MESSAGE PUMP,WM_KEYDOWN,256
4345,1,1,MESSAGE PUMP,WM_KEYUP,257
4405,0,1,MESSAGE PUMP,WM_KEYDOWN,256
4405,0,1,MESSAGE PUMP,WM_CHAR,258
4406,0,1,MESSAGE PUMP,WM_KEYUP,257
4469,0,1,MESSAGE PUMP,WM_KEYDOWN,256
4501,0,1,MESSAGE PUMP,WM_KEYDOWN,256
4503,0,1,MESSAGE PUMP,WM_KEYUP,257
4534,1,1,MESSAGE PUMP,WM_KEYUP,257
4597,0,1,MESSAGE PUMP,WM_KEYDOWN,256
4598,1,1,MESSAGE PUMP,WM_KEYUP,257
4660,0,1,MESSAGE PUMP,WM_KEYDOWN,256
4662,1,1,MESSAGE PUMP,WM_KEYUP,257
4694,0,1,MESSAGE PUMP,WM_KEYDOWN,256
4696,1,1,MESSAGE PUMP,WM_KEYUP,257
4728,1,1,MESSAGE PUMP,WM_KEYDOWN,256
4731,0,1,MESSAGE PUMP,WM_KEYUP,257
4793,0,1,MESSAGE PUMP,WM_KEYDOWN,256
4793,0,1,MESSAGE PUMP,WM_CHAR,258
4795,1,1,MESSAGE PUMP,WM_KEYUP,257
4855,0,1,MESSAGE PUMP,WM_KEYDOWN,256
4858,0,1,MESSAGE PUMP,WM_KEYUP,257
4917,0,1,MESSAGE PUMP,WM_KEYDOWN,256
4919,1,1,MESSAGE PUMP,WM_KEYUP,257
4950,1,1,MESSAGE PUMP,WM_KEYDOWN,256
4953,0,1,MESSAGE PUMP,WM_KEYUP,257
4984,0,1,MESSAGE PUMP,WM_KEYDOWN,256
4986,1,1,MESSAGE PUMP,WM_KEYUP,257
5018,0,1,MESSAGE PUMP,WM_KEYDOWN,256
5020,0,1,MESSAGE PUMP,WM_KEYUP,257
5052,0,1,MESSAGE PUMP,WM_KEYDOWN,256
5054,0,1,MESSAGE PUMP,WM_KEYUP,257
5114,1,1,MESSAGE PUMP,WM_KEYDOWN,256
5114,1,1,MESSAGE PUMP,WM_CHAR,258
5115,0,1,MESSAGE PUMP,WM_KEYUP,257
5176,0,1,MESSAGE PUMP,WM_KEYDOWN,256
5178,0,1,MESSAGE PUMP,WM_KEYUP,257
5239,0,1,MESSAGE PUMP,WM_KEYDOWN,256
5271,0,1,MESSAGE PUMP,WM_KEYDOWN,256
5273,0,1,MESSAGE PUMP,WM_KEYUP,257
5305,1,1,MESSAGE PUMP,WM_KEYUP,257
5367,0,1,MESSAGE PUMP,WM_KEYDOWN,256
5369,0,1,MESSAGE PUMP,WM_KEYUP,257
5401,1,1,MESSAGE PUMP,WM_KEYDOWN,256
5403,1,1,MESSAGE PUMP,WM_KEYUP,257
5466,0,1,MESSAGE PUMP,WM_KEYDOWN,256
5466,0,1,MESSAGE PUMP,WM_CHAR,258
5468,1,1,MESSAGE PUMP,WM_KEYUP,257
6389,1,1,MESSAGE PUMP,WM_KEYDOWN,256
6420,1,1,MESSAGE PUMP,WM_KEYDOWN,256
6422,1,1,MESSAGE PUMP,WM_KEYUP,257
6455,0,1,MESSAGE PUMP,WM_KEYUP,257
6577,3,1,MESSAGE PUMP,WM_SYSKEYDOWN,260
6610,0,1,MESSAGE PUMP,WM_SYSKEYDOWN,260
6610,0,1,MESSAGE PUMP,WM_SYSCOMMAND,274
6610,0,1,MESSAGE PUMP,WM_CLOSE,16
6610,18,0,MESSAGE PUMP,Unknown,144
6610,18,0,MESSAGE PUMP,WM_WINDOWPOSCHANGING,70
6610,18,0,MESSAGE PUMP,WM_WINDOWPOSCHANGED,71
6610,18,0,MESSAGE PUMP,WM_NCACTIVATE,134
6610,18,0,MESSAGE PUMP,WM_GETICON,127
6610,18,0,MESSAGE PUMP,WM_ACTIVATE,6
6610,18,0,MESSAGE PUMP,WM_ACTIVATEAPP,28
6610,18,0,MESSAGE PUMP,WM_KILLFOCUS,8
6610,18,0,MESSAGE PUMP,WM_IME_SETCONTEXT,641
6610,18,0,MESSAGE PUMP,WM_IME_NOTIFY,642
6610,18,0,MESSAGE PUMP,WM_DESTROY,2
6610,18,0,MESSAGE PUMP,WM_NCDESTROY,130
