Frame,Poll Count,Is Polling,Source,Event Name,Event Code
0,0,0,MESSAGE PUMP,WM_GETMINMAXINFO,36
0,0,0,MESSAGE PUMP,WM_WINDOWPOSCHANGING,70
0,0,0,MESSAGE PUMP,WM_GETMINMAXINFO,36
0,0,0,MESSAGE PUMP,WM_NCCALCSIZE,131
0,0,0,MESSAGE PUMP,WM_WINDOWPOSCHANGING,70
0,0,0,MESSAGE PUMP,WM_ACTIVATEAPP,28
0,0,0,MESSAGE PUMP,WM_NCACTIVATE,134
0,0,0,MESSAGE PUMP,WM_ACTIVATE,6
0,0,0,MESSAGE PUMP,WM_IME_SETCONTEXT,641
0,0,0,MESSAGE PUMP,WM_IME_NOTIFY,642
0,0,0,MESSAGE PUMP,WM_SETFOCUS,7
0,0,0,MESSAGE PUMP,WM_NCPAINT,133
0,0,0,MESSAGE PUMP,WM_ERASEBKGND,20
0,0,0,MESSAGE PUMP,WM_WINDOWPOSCHANGED,71
0,0,0,MESSAGE PUMP,WM_MOVE,3
0,0,0,MESSAGE PUMP,WM_SIZE,5
0,0,0,MESSAGE PUMP,WM_WINDOWPOSCHANGING,70
0,0,0,MESSAGE PUMP,WM_GETMINMAXINFO,36
0,0,0,MESSAGE PUMP,WM_NCPAINT,133
0,0,0,MESSAGE PUMP,WM_ERASEBKGND,20
0,0,0,MESSAGE PUMP,WM_WINDOWPOSCHANGED,71
0,0,0,MESSAGE PUMP,WM_MOVE,3
0,0,0,MESSAGE PUMP,WM_SETICON,128
0,0,0,MESSAGE PUMP,Unknown,174
0,0,0,MESSAGE PUMP,WM_SETICON,128
0,0,0,MESSAGE PUMP,Unknown,174
0,0,0,MESSAGE PUMP,WM_WINDOWPOSCHANGING,70
0,0,0,MESSAGE PUMP,WM_GETICON,127
0,0,0,MESSAGE PUMP,WM_WINDOWPOSCHANGING,70
1,0,1,MESSAGE PUMP,Unknown,799
1,0,1,MESSAGE PUMP,Unknown,49351
1,0,1,MESSAGE PUMP,WM_GETMINMAXINFO,36
1,0,1,MESSAGE PUMP,WM_NCHITTEST,132
1,0,1,MESSAGE PUMP,WM_SETCURSOR,32
1,0,1,MESSAGE PUMP,WM_MOUSEFIRST,512
1,0,1,MESSAGE PUMP,WM_PAINT,15
410,0,1,MESSAGE PUMP,WM_KEYDOWN,256
410,0,1,MESSAGE PUMP,WM_CHAR,258
411,0,1,MESSAGE PUMP,WM_KEYUP,257
489,0,1,MESSAGE PUMP,WM_KEYDOWN,256
520,1,1,MESSAGE PUMP,WM_KEYDOWN,256
522,1,1,MESSAGE PUMP,WM_KEYUP,257
553,0,1,MESSAGE PUMP,WM_KEYUP,257
639,0,1,MESSAGE PUMP,WM_KEYDOWN,256
668,0,1,MESSAGE PUMP,WM_KEYDOWN,256
670,1,1,MESSAGE PUMP,WM_KEYUP,257
701,1,1,MESSAGE PUMP,WM_KEYUP,257
794,0,1,MESSAGE PUMP,WM_KEYDOWN,256
820,0,1,MESSAGE PUMP,WM_KEYDOWN,256
822,1,1,MESSAGE PUMP,WM_KEYUP,257
854,0,1,MESSAGE PUMP,WM_KEYUP,257
1731,0,1,MESSAGE PUMP,WM_KEYDOWN,256
1733,0,1,MESSAGE PUMP,WM_KEYUP,257
1764,0,1,MESSAGE PUMP,WM_KEYDOWN,256
1766,0,1,MESSAGE PUMP,WM_KEYUP,257
1797,0,1,MESSAGE PUMP,WM_KEYDOWN,256
1799,0,1,MESSAGE PUMP,WM_KEYUP,257
1831,0,1,MESSAGE PUMP,WM_KEYDOWN,256
1833,0,1,MESSAGE PUMP,WM_KEYUP,257
1865,0,1,MESSAGE PUMP,WM_KEYDOWN,256
1866,0,1,MESSAGE PUMP,WM_KEYUP,257
1897,1,1,MESSAGE PUMP,WM_KEYDOWN,256
1899,1,1,MESSAGE PUMP,WM_KEYUP,257
1960,0,1,MESSAGE PUMP,WM_KEYDOWN,256
1960,0,1,MESSAGE PUMP,WM_CHAR,258
1961,0,1,MESSAGE PUMP,WM_KEYUP,257
2021,0,1,MESSAGE PUMP,WM_KEYDOWN,256
2023,0,1,MESSAGE PUMP,WM_KEYUP,257
2055,0,1,MESSAGE PUMP,WM_KEYDOWN,256
2057,1,1,MESSAGE PUMP,WM_KEYUP,257
2089,2,1,MESSAGE PUMP,WM_KEYDOWN,256
2092,0,1,MESSAGE PUMP,WM_KEYUP,257
2124,1,1,MESSAGE PUMP,WM_KEYDOWN,256
2126,1,1,MESSAGE PUMP,WM_KEYUP,257
2159,1,1,MESSAGE PUMP,WM_KEYDOWN,256
2162,0,1,MESSAGE PUMP,WM_KEYUP,257
2194,0,1,MESSAGE PUMP,WM_KEYDOWN,256
2196,0,1,MESSAGE PUMP,WM_KEYUP,257
2258,1,1,MESSAGE PUMP,WM_KEYDOWN,256
2258,1,1,MESSAGE PUMP,WM_CHAR,258
2260,1,1,MESSAGE PUMP,WM_KEYUP,257
2321,0,1,MESSAGE PUMP,WM_KEYDOWN,256
2323,0,1,MESSAGE PUMP,WM_KEYUP,257
2353,0,1,MESSAGE PUMP,WM_KEYDOWN,256
2355,0,1,MESSAGE PUMP,WM_KEYUP,257
2415,1,1,MESSAGE PUMP,WM_KEYDOWN,256
2415,1,1,MESSAGE PUMP,WM_CHAR,258
2416,0,1,MESSAGE PUMP,WM_KEYUP,257
2479,1,1,MESSAGE PUMP,WM_KEYDOWN,256
2481,1,1,MESSAGE PUMP,WM_KEYUP,257
2514,0,1,MESSAGE PUMP,WM_KEYDOWN,256
2516,0,1,MESSAGE PUMP,WM_KEYUP,257
2578,1,1,MESSAGE PUMP,WM_KEYDOWN,256
2580,1,1,MESSAGE PUMP,WM_KEYUP,257
2613,0,1,MESSAGE PUMP,WM_KEYDOWN,256
2615,0,1,MESSAGE PUMP,WM_KEYUP,257
2647,1,1,MESSAGE PUMP,WM_KEYDOWN,256
2650,0,1,MESSAGE PUMP,WM_KEYUP,257
2682,0,1,MESSAGE PUMP,WM_KEYDOWN,256
2684,1,1,MESSAGE PUMP,WM_KEYUP,257
2716,1,1,MESSAGE PUMP,WM_KEYDOWN,256
2719,0,1,MESSAGE PUMP,WM_KEYUP,257
2751,0,1,MESSAGE PUMP,WM_KEYDOWN,256
2752,1,1,MESSAGE PUMP,WM_KEYUP,257
2783,1,1,MESSAGE PUMP,WM_KEYDOWN,256
2785,1,1,MESSAGE PUMP,WM_KEYUP,257
2848,0,1,MESSAGE PUMP,WM_KEYDOWN,256
2848,0,1,MESSAGE PUMP,WM_CHAR,258
2850,1,1,MESSAGE PUMP,WM_KEYUP,257
2912,1,1,MESSAGE PUMP,WM_KEYDOWN,256
2915,0,1,MESSAGE PUMP,WM_KEYUP,257
2947,0,1,MESSAGE PUMP,WM_KEYDOWN,256
2949,0,1,MESSAGE PUMP,WM_KEYUP,257
3009,1,1,MESSAGE PUMP,WM_KEYDOWN,256
3009,1,1,MESSAGE PUMP,WM_CHAR,258
3011,1,1,MESSAGE PUMP,WM_KEYUP,257
3073,0,1,MESSAGE PUMP,WM_KEYDOWN,256
3075,0,1,MESSAGE PUMP,WM_KEYUP,257
3107,1,1,MESSAGE PUMP,WM_KEYDOWN,256
3109,2,1,MESSAGE PUMP,WM_KEYUP,257
3172,0,1,MESSAGE PUMP,WM_KEYDOWN,256
3174,2,1,MESSAGE PUMP,WM_KEYUP,257
3206,1,1,MESSAGE PUMP,WM_KEYDOWN,256
3209,0,1,MESSAGE PUMP,WM_KEYUP,257
3241,0,1,MESSAGE PUMP,WM_KEYDOWN,256
3243,1,1,MESSAGE PUMP,WM_KEYUP,257
3306,0,1,MESSAGE PUMP,WM_KEYDOWN,256
3306,0,1,MESSAGE PUMP,WM_CHAR,258
3306,0,1,MESSAGE PUMP,WM_KEYUP,257
3360,0,1,MESSAGE PUMP,WM_KEYDOWN,256
3362,1,1,MESSAGE PUMP,WM_KEYUP,257
3395,0,1,MESSAGE PUMP,WM_KEYDOWN,256
3397,0,1,MESSAGE PUMP,WM_KEYUP,257
3459,0,1,MESSAGE PUMP,WM_KEYDOWN,256
3461,0,1,MESSAGE PUMP,WM_KEYUP,257
3493,1,1,MESSAGE PUMP,WM_KEYDOWN,256
3496,0,1,MESSAGE PUMP,WM_KEYUP,257
3528,0,1,MESSAGE PUMP,WM_KEYDOWN,256
3530,0,1,MESSAGE PUMP,WM_KEYUP,257
3561,1,1,MESSAGE PUMP,WM_KEYDOWN,256
3563,1,1,MESSAGE PUMP,WM_KEYUP,257
3596,0,1,MESSAGE PUMP,WM_KEYDOWN,256
3598,0,1,MESSAGE PUMP,WM_KEYUP,257
3629,1,1,MESSAGE PUMP,WM_KEYDOWN,256
3631,1,1,MESSAGE PUMP,WM_KEYUP,257
3663,0,1,MESSAGE PUMP,WM_KEYDOWN,256
3664,0,1,MESSAGE PUMP,WM_KEYUP,257
3696,0,1,MESSAGE PUMP,WM_KEYDOWN,256
3698,0,1,MESSAGE PUMP,WM_KEYUP,257
3758,0,1,MESSAGE PUMP,WM_KEYDOWN,256
3760,1,1,MESSAGE PUMP,WM_KEYUP,257
3820,0,1,MESSAGE PUMP,WM_KEYDOWN,256
3820,0,1,MESSAGE PUMP,WM_CHAR,258
3821,0,1,MESSAGE PUMP,WM_KEYUP,257
3883,0,1,MESSAGE PUMP,WM_KEYDOWN,256
3885,0,1,MESSAGE PUMP,WM_KEYUP,257
3947,0,1,MESSAGE PUMP,WM_KEYDOWN,256
3949,1,1,MESSAGE PUMP,WM_KEYUP,257
3982,0,1,MESSAGE PUMP,WM_KEYDOWN,256
3984,0,1,MESSAGE PUMP,WM_KEYUP,257
4016,0,1,MESSAGE PUMP,WM_KEYDOWN,256
4018,1,1,MESSAGE PUMP,WM_KEYUP,257
4050,0,1,MESSAGE PUMP,WM_KEYDOWN,256
4052,1,1,MESSAGE PUMP,WM_KEYUP,257
4084,1,1,MESSAGE PUMP,WM_KEYDOWN,256
4086,6,1,MESSAGE PUMP,WM_KEYUP,257
4149,0,1,MESSAGE PUMP,WM_KEYDOWN,256
4181,1,1,MESSAGE PUMP,WM_KEYDOWN,256
4183,1,1,MESSAGE PUMP,WM_KEYUP,257
4216,0,1,MESSAGE PUMP,WM_KEYUP,257
4278,5,1,MESSAGE PUMP,WM_KEYDOWN,256
4278,5,1,MESSAGE PUMP,WM_CHAR,258
4281,0,1,MESSAGE PUMP,WM_KEYUP,257
4342,0,1,MESSAGE PUMP,WM_KEYDOWN,256
4344,0,1,MESSAGE PUMP,WM_KEYUP,257
4375,1,1,MESSAGE PUMP,WM_KEYDOWN,256
4378,0,1,MESSAGE PUMP,WM_KEYUP,257
4439,0,1,MESSAGE PUMP,WM_KEYDOWN,256
4439,0,1,MESSAGE PUMP,WM_CHAR,258
4440,0,1,MESSAGE PUMP,WM_KEYUP,257
4502,0,1,MESSAGE PUMP,WM_KEYDOWN,256
4534,0,1,MESSAGE PUMP,WM_KEYDOWN,256
4537,0,1,MESSAGE PUMP,WM_KEYUP,257
4569,0,1,MESSAGE PUMP,WM_KEYUP,257
4631,0,1,MESSAGE PUMP,WM_KEYDOWN,256
4633,1,1,MESSAGE PUMP,WM_KEYUP,257
4696,0,1,MESSAGE PUMP,WM_KEYDOWN,256
4698,0,1,MESSAGE PUMP,WM_KEYUP,257
4730,0,1,MESSAGE PUMP,WM_KEYDOWN,256
4732,0,1,MESSAGE PUMP,WM_KEYUP,257
4764,1,1,MESSAGE PUMP,WM_KEYDOWN,256
4767,0,1,MESSAGE PUMP,WM_KEYUP,257
4829,0,1,MESSAGE PUMP,WM_KEYDOWN,256
4829,0,1,MESSAGE PUMP,WM_CHAR,258
4831,1,1,MESSAGE PUMP,WM_KEYUP,257
4891,0,1,MESSAGE PUMP,WM_KEYDOWN,256
4893,1,1,MESSAGE PUMP,WM_KEYUP,257
4954,0,1,MESSAGE PUMP,WM_KEYDOWN,256
4956,0,1,MESSAGE PUMP,WM_KEYUP,257
4988,0,1,MESSAGE PUMP,WM_KEYDOWN,256
4990,0,1,MESSAGE PUMP,WM_KEYUP,257
5021,0,1,MESSAGE PUMP,WM_KEYDOWN,256
5023,0,1,MESSAGE PUMP,WM_KEYUP,257
5054,0,1,MESSAGE PUMP,WM_KEYDOWN,256
5056,0,1,MESSAGE PUMP,WM_KEYUP,257
5087,0,1,MESSAGE PUMP,WM_KEYDOWN,256
5090,0,1,MESSAGE PUMP,WM_KEYUP,257
5151,0,1,MESSAGE PUMP,WM_KEYDOWN,256
5151,0,1,MESSAGE PUMP,WM_CHAR,258
5152,0,1,MESSAGE PUMP,WM_KEYUP,257
5214,0,1,MESSAGE PUMP,WM_KEYDOWN,256
5216,2,1,MESSAGE PUMP,WM_KEYUP,257
5279,0,1,MESSAGE PUMP,WM_KEYDOWN,256
5311,1,1,MESSAGE PUMP,WM_KEYDOWN,256
5313,1,1,MESSAGE PUMP,WM_KEYUP,257
5346,0,1,MESSAGE PUMP,WM_KEYUP,257
5409,0,1,MESSAGE PUMP,WM_KEYDOWN,256
5411,0,1,MESSAGE PUMP,WM_KEYUP,257
5443,1,1,MESSAGE PUMP,WM_KEYDOWN,256
5445,1,1,MESSAGE PUMP,WM_KEYUP,257
5508,1,1,MESSAGE PUMP,WM_KEYDOWN,256
5508,1,1,MESSAGE PUMP,WM_CHAR,258
5510,1,1,MESSAGE PUMP,WM_KEYUP,257
6437,1,1,MESSAGE PUMP,WM_KEYDOWN,256
6468,0,1,MESSAGE PUMP,WM_KEYDOWN,256
6470,0,1,MESSAGE PUMP,WM_KEYUP,257
6502,0,1,MESSAGE PUMP,WM_KEYUP,257
6624,0,1,MESSAGE PUMP,WM_SYSKEYDOWN,260
6657,0,1,MESSAGE PUMP,WM_SYSKEYDOWN,260
6657,0,1,MESSAGE PUMP,WM_SYSCOMMAND,274
6657,0,1,MESSAGE PUMP,WM_CLOSE,16
6657,18,0,MESSAGE PUMP,Unknown,144
6657,18,0,MESSAGE PUMP,WM_WINDOWPOSCHANGING,70
6657,18,0,MESSAGE PUMP,WM_WINDOWPOSCHANGED,71
6657,18,0,MESSAGE PUMP,WM_NCACTIVATE,134
6657,18,0,MESSAGE PUMP,WM_GETICON,127
6657,18,0,MESSAGE PUMP,WM_ACTIVATE,6
6657,18,0,MESSAGE PUMP,WM_ACTIVATEAPP,28
6657,18,0,MESSAGE PUMP,WM_KILLFOCUS,8
6657,18,0,MESSAGE PUMP,WM_IME_SETCONTEXT,641
6657,18,0,MESSAGE PUMP,WM_IME_NOTIFY,642
6657,18,0,MESSAGE PUMP,WM_DESTROY,2
6657,18,0,MESSAGE PUMP,WM_NCDESTROY,130
