Frame,Poll Count,Is Polling,Source,Event Name,Event Code
0,0,0,MESSAGE PUMP,WM_GETMINMAXINFO,36
0,0,0,MESSAGE PUMP,WM_WINDOWPOSCHANGING,70
0,0,0,MESSAGE PUMP,WM_GETMINMAXINFO,36
0,0,0,MESSAGE PUMP,WM_NCCALCSIZE,131
0,0,0,MESSAGE PUMP,WM_GETOBJECT,61
0,0,0,MESSAGE PUMP,WM_GETOBJECT,61
0,0,0,MESSAGE PUMP,WM_GETMINMAXINFO,36
0,0,0,MESSAGE PUMP,WM_GETOBJECT,61
0,0,0,MESSAGE PUMP,WM_PAINT,15
0,0,0,MESSAGE PUMP,WM_NCPAINT,133
0,0,0,MESSAGE PUMP,WM_ERASEBKGND,20
0,0,0,MESSAGE PUMP,Unknown,49849
0,0,0,MESSAGE PUMP,WM_GETOBJECT,61
0,0,0,MESSAGE PUMP,Unknown,356
0,0,0,MESSAGE PUMP,WM_GETOBJECT,61
0,0,0,MESSAGE PUMP,WM_GETOBJECT,61
0,0,0,MESSAGE PUMP,WM_GETOBJECT,61
0,0,0,MESSAGE PUMP,WM_GETOBJECT,61
0,0,0,MESSAGE PUMP,WM_WINDOWPOSCHANGING,70
0,0,0,MESSAGE PUMP,WM_ACTIVATEAPP,28
0,0,0,MESSAGE PUMP,WM_NCACTIVATE,134
0,0,0,MESSAGE PUMP,WM_ACTIVATE,6
0,0,0,MESSAGE PUMP,WM_IME_SETCONTEXT,641
0,0,0,MESSAGE PUMP,WM_IME_NOTIFY,642
0,0,0,MESSAGE PUMP,WM_GETOBJECT,61
0,0,0,MESSAGE PUMP,WM_GETOBJECT,61
0,0,0,MESSAGE PUMP,WM_GETOBJECT,61
0,0,0,MESSAGE PUMP,WM_GETOBJECT,61
0,0,0,MESSAGE PUMP,WM_GETOBJECT,61
0,0,0,MESSAGE PUMP,WM_GETOBJECT,61
0,0,0,MESSAGE PUMP,WM_GETOBJECT,61
0,0,0,MESSAGE PUMP,WM_GETOBJECT,61
0,0,0,MESSAGE PUMP,WM_GETOBJECT,61
0,0,0,MESSAGE PUMP,WM_GETOBJECT,61
0,0,0,MESSAGE PUMP,WM_GETOBJECT,61
0,0,0,MESSAGE PUMP,WM_GETOBJECT,61
0,0,0,MESSAGE PUMP,WM_GETOBJECT,61
0,0,0,MESSAGE PUMP,WM_GETOBJECT,61
0,0,0,MESSAGE PUMP,WM_GETOBJECT,61
0,0,0,MESSAGE PUMP,WM_GETOBJECT,61
0,0,0,MESSAGE PUMP,WM_GETOBJECT,61
0,0,0,MESSAGE PUMP,WM_GETOBJECT,61
0,0,0,MESSAGE PUMP,WM_GETOBJECT,61
0,0,0,MESSAGE PUMP,WM_GETOBJECT,61
0,0,0,MESSAGE PUMP,WM_GETOBJECT,61
0,0,0,MESSAGE PUMP,WM_GETOBJECT,61
0,0,0,MESSAGE PUMP,WM_GETOBJECT,61
0,0,0,MESSAGE PUMP,WM_GETOBJECT,61
0,0,0,MESSAGE PUMP,WM_GETTEXTLENGTH,14
0,0,0,MESSAGE PUMP,WM_GETTEXT,13
0,0,0,MESSAGE PUMP,WM_GETOBJECT,61
0,0,0,MESSAGE PUMP,WM_GETOBJECT,61
0,0,0,MESSAGE PUMP,WM_GETICON,127
0,0,0,MESSAGE PUMP,WM_GETICON,127
0,0,0,MESSAGE PUMP,WM_GETOBJECT,61
0,0,0,MESSAGE PUMP,WM_GETOBJECT,61
0,0,0,MESSAGE PUMP,WM_GETOBJECT,61
0,0,0,MESSAGE PUMP,WM_GETOBJECT,61
0,0,0,MESSAGE PUMP,WM_GETOBJECT,61
0,0,0,MESSAGE PUMP,WM_GETOBJECT,61
0,0,0,MESSAGE PUMP,WM_GETOBJECT,61
0,0,0,MESSAGE PUMP,WM_GETOBJECT,61
0,0,0,MESSAGE PUMP,WM_GETOBJECT,61
0,0,0,MESSAGE PUMP,WM_GETOBJECT,61
0,0,0,MESSAGE PUMP,WM_GETOBJECT,61
0,0,0,MESSAGE PUMP,WM_GETOBJECT,61
0,0,0,MESSAGE PUMP,WM_GETTEXTLENGTH,14
0,0,0,MESSAGE PUMP,WM_GETTEXT,13
0,0,0,MESSAGE PUMP,WM_GETICON,127
0,0,0,MESSAGE PUMP,WM_GETOBJECT,61
0,0,0,MESSAGE PUMP,WM_GETOBJECT,61
0,0,0,MESSAGE PUMP,WM_GETOBJECT,61
0,0,0,MESSAGE PUMP,WM_GETOBJECT,61
0,0,0,MESSAGE PUMP,WM_GETOBJECT,61
0,0,0,MESSAGE PUMP,WM_GETOBJECT,61
0,0,0,MESSAGE PUMP,WM_GETOBJECT,61
0,0,0,MESSAGE PUMP,WM_GETOBJECT,61
0,0,0,MESSAGE PUMP,WM_GETOBJECT,61
0,0,0,MESSAGE PUMP,WM_GETOBJECT,61
0,0,0,MESSAGE PUMP,WM_GETOBJECT,61
0,0,0,MESSAGE PUMP,WM_GETOBJECT,61
0,0,0,MESSAGE PUMP,WM_GETOBJECT,61
0,0,0,MESSAGE PUMP,WM_GETOBJECT,61
0,0,0,MESSAGE PUMP,WM_GETOBJECT,61
0,0,0,MESSAGE PUMP,WM_GETOBJECT,61
0,0,0,MESSAGE PUMP,WM_GETOBJECT,61
0,0,0,MESSAGE PUMP,WM_GETOBJECT,61
0,0,0,MESSAGE PUMP,WM_GETOBJECT,61
0,0,0,MESSAGE PUMP,WM_GETOBJECT,61
0,0,0,MESSAGE PUMP,WM_GETOBJECT,61
0,0,0,MESSAGE PUMP,WM_GETOBJECT,61
0,0,0,MESSAGE PUMP,WM_GETOBJECT,61
0,0,0,MESSAGE PUMP,WM_GETOBJECT,61
0,0,0,MESSAGE PUMP,WM_GETOBJECT,61
0,0,0,MESSAGE PUMP,WM_GETOBJECT,61
0,0,0,MESSAGE PUMP,WM_SETFOCUS,7
0,0,0,MESSAGE PUMP,WM_WINDOWPOSCHANGED,71
0,0,0,MESSAGE PUMP,WM_MOVE,3
0,0,0,MESSAGE PUMP,WM_SIZE,5
0,0,0,MESSAGE PUMP,WM_GETOBJECT,61
0,0,0,MESSAGE PUMP,WM_GETOBJECT,61
0,0,0,MESSAGE PUMP,WM_GETOBJECT,61
0,0,0,MESSAGE PUMP,WM_GETOBJECT,61
0,0,0,MESSAGE PUMP,WM_WINDOWPOSCHANGING,70
0,0,0,MESSAGE PUMP,WM_GETMINMAXINFO,36
0,0,0,MESSAGE PUMP,WM_NCPAINT,133
0,0,0,MESSAGE PUMP,WM_ERASEBKGND,20
0,0,0,MESSAGE PUMP,WM_WINDOWPOSCHANGED,71
0,0,0,MESSAGE PUMP,WM_MOVE,3
0,0,0,MESSAGE PUMP,WM_SETICON,128
0,0,0,MESSAGE PUMP,Unknown,174
0,0,0,MESSAGE PUMP,WM_SETICON,128
0,0,0,MESSAGE PUMP,Unknown,174
0,0,0,MESSAGE PUMP,WM_WINDOWPOSCHANGING,70
0,0,0,MESSAGE PUMP,WM_WINDOWPOSCHANGING,70
0,0,0,MESSAGE PUMP,WM_GETOBJECT,61
0,0,0,MESSAGE PUMP,WM_GETOBJECT,61
0,0,0,MESSAGE PUMP,WM_GETOBJECT,61
0,0,0,MESSAGE PUMP,WM_GETOBJECT,61
0,0,0,MESSAGE PUMP,WM_GETOBJECT,61
0,0,0,MESSAGE PUMP,WM_GETOBJECT,61
0,0,0,MESSAGE PUMP,WM_GETOBJECT,61
0,0,0,MESSAGE PUMP,WM_GETOBJECT,61
1,0,1,MESSAGE PUMP,WM_GETICON,127
1,0,1,MESSAGE PUMP,Unknown,799
1,0,1,MESSAGE PUMP,Unknown,49351
1,0,1,MESSAGE PUMP,Unknown,49575
1,0,1,MESSAGE PUMP,Unknown,49688
1,0,1,MESSAGE PUMP,WM_NCHITTEST,132
1,0,1,MESSAGE PUMP,WM_SETCURSOR,32
1,0,1,MESSAGE PUMP,WM_MOUSEFIRST,512
1,0,1,MESSAGE PUMP,WM_PAINT,15
13,1,0,MESSAGE PUMP,WM_GETOBJECT,61
13,1,0,MESSAGE PUMP,WM_GETOBJECT,61
13,1,0,MESSAGE PUMP,WM_GETOBJECT,61
13,1,0,MESSAGE PUMP,WM_GETOBJECT,61
13,1,0,MESSAGE PUMP,WM_GETOBJECT,61
13,1,0,MESSAGE PUMP,WM_GETOBJECT,61
13,1,0,MESSAGE PUMP,WM_GETOBJECT,61
13,1,0,MESSAGE PUMP,WM_GETOBJECT,61
13,1,0,MESSAGE PUMP,WM_GETOBJECT,61
13,1,0,MESSAGE PUMP,WM_GETOBJECT,61
13,1,0,MESSAGE PUMP,WM_GETOBJECT,61
13,1,0,MESSAGE PUMP,WM_GETOBJECT,61
13,1,0,MESSAGE PUMP,WM_GETOBJECT,61
13,1,0,MESSAGE PUMP,WM_GETOBJECT,61
13,1,0,MESSAGE PUMP,WM_GETOBJECT,61
13,1,0,MESSAGE PUMP,WM_GETOBJECT,61
17,1,0,MESSAGE PUMP,WM_GETOBJECT,61
17,1,0,MESSAGE PUMP,WM_GETOBJECT,61
17,1,0,MESSAGE PUMP,WM_GETOBJECT,61
17,1,0,MESSAGE PUMP,WM_GETOBJECT,61
17,1,0,MESSAGE PUMP,WM_GETOBJECT,61
17,1,0,MESSAGE PUMP,WM_GETOBJECT,61
17,1,0,MESSAGE PUMP,WM_GETOBJECT,61
17,1,0,MESSAGE PUMP,WM_GETOBJECT,61
17,1,0,MESSAGE PUMP,WM_GETOBJECT,61
17,1,0,MESSAGE PUMP,WM_GETOBJECT,61
17,1,0,MESSAGE PUMP,WM_GETOBJECT,61
17,1,0,MESSAGE PUMP,WM_GETOBJECT,61
17,1,0,MESSAGE PUMP,WM_GETOBJECT,61
17,1,0,MESSAGE PUMP,WM_GETOBJECT,61
17,1,0,MESSAGE PUMP,WM_GETOBJECT,61
17,1,0,MESSAGE PUMP,WM_GETOBJECT,61
18,0,1,MESSAGE PUMP,WM_GETOBJECT,61
18,0,1,MESSAGE PUMP,WM_GETOBJECT,61
19,0,1,MESSAGE PUMP,WM_GETOBJECT,61
19,4,1,MESSAGE PUMP,Unknown,356
21,2,0,MESSAGE PUMP,WM_GETOBJECT,61
21,2,0,MESSAGE PUMP,WM_GETOBJECT,61
21,2,0,MESSAGE PUMP,WM_GETOBJECT,61
21,2,0,MESSAGE PUMP,WM_GETOBJECT,61
21,2,0,MESSAGE PUMP,WM_GETOBJECT,61
21,2,0,MESSAGE PUMP,WM_GETOBJECT,61
21,2,0,MESSAGE PUMP,WM_GETOBJECT,61
21,2,0,MESSAGE PUMP,WM_GETOBJECT,61
21,2,0,MESSAGE PUMP,WM_GETOBJECT,61
21,2,0,MESSAGE PUMP,WM_GETOBJECT,61
21,2,0,MESSAGE PUMP,WM_GETOBJECT,61
21,2,0,MESSAGE PUMP,WM_GETOBJECT,61
21,2,0,MESSAGE PUMP,WM_GETOBJECT,61
21,2,0,MESSAGE PUMP,WM_GETOBJECT,61
21,2,0,MESSAGE PUMP,WM_GETOBJECT,61
21,2,0,MESSAGE PUMP,WM_GETOBJECT,61
25,10,0,MESSAGE PUMP,WM_GETOBJECT,61
25,10,0,MESSAGE PUMP,WM_GETOBJECT,61
25,10,0,MESSAGE PUMP,WM_GETOBJECT,61
25,10,0,MESSAGE PUMP,WM_GETOBJECT,61
25,10,0,MESSAGE PUMP,WM_GETOBJECT,61
25,10,0,MESSAGE PUMP,WM_GETOBJECT,61
25,10,0,MESSAGE PUMP,WM_GETOBJECT,61
25,10,0,MESSAGE PUMP,WM_GETOBJECT,61
25,10,0,MESSAGE PUMP,WM_GETOBJECT,61
25,10,0,MESSAGE PUMP,WM_GETOBJECT,61
25,10,0,MESSAGE PUMP,WM_GETOBJECT,61
25,10,0,MESSAGE PUMP,WM_GETOBJECT,61
25,10,0,MESSAGE PUMP,WM_GETOBJECT,61
25,10,0,MESSAGE PUMP,WM_GETOBJECT,61
25,10,0,MESSAGE PUMP,WM_GETOBJECT,61
25,10,0,MESSAGE PUMP,WM_GETOBJECT,61
26,0,1,MESSAGE PUMP,WM_NULL,0
30,1,0,MESSAGE PUMP,WM_GETOBJECT,61
30,1,0,MESSAGE PUMP,WM_GETOBJECT,61
30,1,0,MESSAGE PUMP,WM_GETOBJECT,61
30,1,0,MESSAGE PUMP,WM_GETOBJECT,61
30,1,0,MESSAGE PUMP,WM_GETOBJECT,61
30,1,0,MESSAGE PUMP,WM_GETOBJECT,61
30,1,0,MESSAGE PUMP,WM_GETOBJECT,61
30,1,0,MESSAGE PUMP,WM_GETOBJECT,61
30,1,0,MESSAGE PUMP,WM_GETOBJECT,61
30,1,0,MESSAGE PUMP,WM_GETOBJECT,61
30,1,0,MESSAGE PUMP,WM_GETOBJECT,61
30,1,0,MESSAGE PUMP,WM_GETOBJECT,61
30,1,0,MESSAGE PUMP,WM_GETOBJECT,61
30,1,0,MESSAGE PUMP,WM_GETOBJECT,61
30,1,0,MESSAGE PUMP,WM_GETOBJECT,61
30,1,0,MESSAGE PUMP,WM_GETOBJECT,61
31,5,0,MESSAGE PUMP,WM_GETOBJECT,61
31,5,0,MESSAGE PUMP,WM_GETOBJECT,61
31,5,0,MESSAGE PUMP,WM_GETOBJECT,61
31,5,0,MESSAGE PUMP,WM_GETOBJECT,61
31,5,0,MESSAGE PUMP,WM_GETOBJECT,61
31,5,0,MESSAGE PUMP,WM_GETOBJECT,61
31,5,0,MESSAGE PUMP,WM_GETOBJECT,61
31,5,0,MESSAGE PUMP,WM_GETOBJECT,61
31,5,0,MESSAGE PUMP,WM_GETOBJECT,61
31,5,0,MESSAGE PUMP,WM_GETOBJECT,61
31,5,0,MESSAGE PUMP,WM_GETOBJECT,61
31,5,0,MESSAGE PUMP,WM_GETOBJECT,61
31,5,0,MESSAGE PUMP,WM_GETOBJECT,61
31,5,0,MESSAGE PUMP,WM_GETOBJECT,61
31,5,0,MESSAGE PUMP,WM_GETOBJECT,61
31,5,0,MESSAGE PUMP,WM_GETOBJECT,61
32,1,0,MESSAGE PUMP,WM_GETOBJECT,61
32,1,0,MESSAGE PUMP,WM_GETOBJECT,61
32,1,0,MESSAGE PUMP,WM_GETOBJECT,61
32,1,0,MESSAGE PUMP,WM_GETOBJECT,61
32,1,0,MESSAGE PUMP,WM_GETOBJECT,61
32,1,0,MESSAGE PUMP,WM_GETOBJECT,61
32,1,0,MESSAGE PUMP,WM_GETOBJECT,61
32,1,0,MESSAGE PUMP,WM_GETOBJECT,61
32,1,0,MESSAGE PUMP,WM_GETOBJECT,61
32,1,0,MESSAGE PUMP,WM_GETOBJECT,61
32,1,0,MESSAGE PUMP,WM_GETOBJECT,61
32,1,0,MESSAGE PUMP,WM_GETOBJECT,61
32,1,0,MESSAGE PUMP,WM_GETOBJECT,61
32,1,0,MESSAGE PUMP,WM_GETOBJECT,61
32,1,0,MESSAGE PUMP,WM_GETOBJECT,61
32,1,0,MESSAGE PUMP,WM_GETOBJECT,61
34,1,0,MESSAGE PUMP,WM_GETOBJECT,61
34,1,0,MESSAGE PUMP,WM_GETOBJECT,61
34,1,0,MESSAGE PUMP,WM_GETOBJECT,61
34,1,0,MESSAGE PUMP,WM_GETOBJECT,61
34,1,0,MESSAGE PUMP,WM_GETOBJECT,61
34,1,0,MESSAGE PUMP,WM_GETOBJECT,61
34,1,0,MESSAGE PUMP,WM_GETOBJECT,61
34,1,0,MESSAGE PUMP,WM_GETOBJECT,61
34,1,0,MESSAGE PUMP,WM_GETOBJECT,61
34,1,0,MESSAGE PUMP,WM_GETOBJECT,61
34,1,0,MESSAGE PUMP,WM_GETOBJECT,61
34,1,0,MESSAGE PUMP,WM_GETOBJECT,61
34,1,0,MESSAGE PUMP,WM_GETOBJECT,61
34,1,0,MESSAGE PUMP,WM_GETOBJECT,61
34,1,0,MESSAGE PUMP,WM_GETOBJECT,61
34,1,0,MESSAGE PUMP,WM_GETOBJECT,61
36,58,0,MESSAGE PUMP,WM_GETOBJECT,61
36,58,0,MESSAGE PUMP,WM_GETOBJECT,61
36,58,0,MESSAGE PUMP,WM_GETOBJECT,61
36,58,0,MESSAGE PUMP,WM_GETOBJECT,61
36,58,0,MESSAGE PUMP,WM_GETOBJECT,61
36,58,0,MESSAGE PUMP,WM_GETOBJECT,61
36,58,0,MESSAGE PUMP,WM_GETOBJECT,61
36,58,0,MESSAGE PUMP,WM_GETOBJECT,61
36,58,0,MESSAGE PUMP,WM_GETOBJECT,61
36,58,0,MESSAGE PUMP,WM_GETOBJECT,61
36,58,0,MESSAGE PUMP,WM_GETOBJECT,61
36,58,0,MESSAGE PUMP,WM_GETOBJECT,61
36,58,0,MESSAGE PUMP,WM_GETOBJECT,61
36,58,0,MESSAGE PUMP,WM_GETOBJECT,61
36,58,0,MESSAGE PUMP,WM_GETOBJECT,61
36,58,0,MESSAGE PUMP,WM_GETOBJECT,61
39,21,0,MESSAGE PUMP,WM_GETOBJECT,61
39,21,0,MESSAGE PUMP,WM_GETOBJECT,61
39,21,0,MESSAGE PUMP,WM_GETOBJECT,61
39,21,0,MESSAGE PUMP,WM_GETOBJECT,61
39,21,0,MESSAGE PUMP,WM_GETOBJECT,61
39,21,0,MESSAGE PUMP,WM_GETOBJECT,61
39,21,0,MESSAGE PUMP,WM_GETOBJECT,61
39,21,0,MESSAGE PUMP,WM_GETOBJECT,61
39,21,0,MESSAGE PUMP,WM_GETOBJECT,61
39,21,0,MESSAGE PUMP,WM_GETOBJECT,61
39,21,0,MESSAGE PUMP,WM_GETOBJECT,61
39,21,0,MESSAGE PUMP,WM_GETOBJECT,61
39,21,0,MESSAGE PUMP,WM_GETOBJECT,61
39,21,0,MESSAGE PUMP,WM_GETOBJECT,61
39,21,0,MESSAGE PUMP,WM_GETOBJECT,61
39,21,0,MESSAGE PUMP,WM_GETOBJECT,61
41,24,0,MESSAGE PUMP,WM_GETOBJECT,61
41,24,0,MESSAGE PUMP,WM_GETOBJECT,61
41,24,0,MESSAGE PUMP,WM_GETOBJECT,61
41,24,0,MESSAGE PUMP,WM_GETOBJECT,61
41,24,0,MESSAGE PUMP,WM_GETOBJECT,61
41,24,0,MESSAGE PUMP,WM_GETOBJECT,61
41,24,0,MESSAGE PUMP,WM_GETOBJECT,61
41,24,0,MESSAGE PUMP,WM_GETOBJECT,61
41,24,0,MESSAGE PUMP,WM_GETOBJECT,61
41,24,0,MESSAGE PUMP,WM_GETOBJECT,61
41,24,0,MESSAGE PUMP,WM_GETOBJECT,61
41,24,0,MESSAGE PUMP,WM_GETOBJECT,61
41,24,0,MESSAGE PUMP,WM_GETOBJECT,61
41,24,0,MESSAGE PUMP,WM_GETOBJECT,61
41,24,0,MESSAGE PUMP,WM_GETOBJECT,61
41,24,0,MESSAGE PUMP,WM_GETOBJECT,61
45,31,0,MESSAGE PUMP,WM_GETOBJECT,61
45,31,0,MESSAGE PUMP,WM_GETOBJECT,61
45,31,0,MESSAGE PUMP,WM_GETOBJECT,61
45,31,0,MESSAGE PUMP,WM_GETOBJECT,61
45,31,0,MESSAGE PUMP,WM_GETOBJECT,61
45,31,0,MESSAGE PUMP,WM_GETOBJECT,61
45,31,0,MESSAGE PUMP,WM_GETOBJECT,61
45,31,0,MESSAGE PUMP,WM_GETOBJECT,61
45,31,0,MESSAGE PUMP,WM_GETOBJECT,61
45,31,0,MESSAGE PUMP,WM_GETOBJECT,61
45,31,0,MESSAGE PUMP,WM_GETOBJECT,61
45,31,0,MESSAGE PUMP,WM_GETOBJECT,61
45,31,0,MESSAGE PUMP,WM_GETOBJECT,61
45,31,0,MESSAGE PUMP,WM_GETOBJECT,61
45,31,0,MESSAGE PUMP,WM_GETOBJECT,61
45,31,0,MESSAGE PUMP,WM_GETOBJECT,61
48,1,0,MESSAGE PUMP,WM_GETOBJECT,61
48,1,0,MESSAGE PUMP,WM_GETOBJECT,61
48,1,0,MESSAGE PUMP,WM_GETOBJECT,61
48,1,0,MESSAGE PUMP,WM_GETOBJECT,61
48,1,0,MESSAGE PUMP,WM_GETOBJECT,61
48,1,0,MESSAGE PUMP,WM_GETOBJECT,61
48,1,0,MESSAGE PUMP,WM_GETOBJECT,61
48,1,0,MESSAGE PUMP,WM_GETOBJECT,61
48,1,0,MESSAGE PUMP,WM_GETOBJECT,61
48,1,0,MESSAGE PUMP,WM_GETOBJECT,61
48,1,0,MESSAGE PUMP,WM_GETOBJECT,61
48,1,0,MESSAGE PUMP,WM_GETOBJECT,61
48,1,0,MESSAGE PUMP,WM_GETOBJECT,61
48,1,0,MESSAGE PUMP,WM_GETOBJECT,61
48,1,0,MESSAGE PUMP,WM_GETOBJECT,61
48,1,0,MESSAGE PUMP,WM_GETOBJECT,61
51,1,0,MESSAGE PUMP,WM_GETOBJECT,61
51,1,0,MESSAGE PUMP,WM_GETOBJECT,61
51,1,0,MESSAGE PUMP,WM_GETOBJECT,61
51,1,0,MESSAGE PUMP,WM_GETOBJECT,61
51,1,0,MESSAGE PUMP,WM_GETOBJECT,61
51,1,0,MESSAGE PUMP,WM_GETOBJECT,61
51,1,0,MESSAGE PUMP,WM_GETOBJECT,61
51,1,0,MESSAGE PUMP,WM_GETOBJECT,61
51,1,0,MESSAGE PUMP,WM_GETOBJECT,61
51,1,0,MESSAGE PUMP,WM_GETOBJECT,61
51,1,0,MESSAGE PUMP,WM_GETOBJECT,61
51,1,0,MESSAGE PUMP,WM_GETOBJECT,61
51,1,0,MESSAGE PUMP,WM_GETOBJECT,61
51,1,0,MESSAGE PUMP,WM_GETOBJECT,61
51,1,0,MESSAGE PUMP,WM_GETOBJECT,61
51,1,0,MESSAGE PUMP,WM_GETOBJECT,61
53,1,0,MESSAGE PUMP,WM_GETOBJECT,61
53,1,0,MESSAGE PUMP,WM_GETOBJECT,61
53,1,0,MESSAGE PUMP,WM_GETOBJECT,61
53,1,0,MESSAGE PUMP,WM_GETOBJECT,61
53,1,0,MESSAGE PUMP,WM_GETOBJECT,61
53,1,0,MESSAGE PUMP,WM_GETOBJECT,61
53,1,0,MESSAGE PUMP,WM_GETOBJECT,61
53,1,0,MESSAGE PUMP,WM_GETOBJECT,61
53,1,0,MESSAGE PUMP,WM_GETOBJECT,61
53,1,0,MESSAGE PUMP,WM_GETOBJECT,61
53,1,0,MESSAGE PUMP,WM_GETOBJECT,61
53,1,0,MESSAGE PUMP,WM_GETOBJECT,61
53,1,0,MESSAGE PUMP,WM_GETOBJECT,61
53,1,0,MESSAGE PUMP,WM_GETOBJECT,61
53,1,0,MESSAGE PUMP,WM_GETOBJECT,61
53,1,0,MESSAGE PUMP,WM_GETOBJECT,61
57,24,0,MESSAGE PUMP,WM_GETOBJECT,61
57,24,0,MESSAGE PUMP,WM_GETOBJECT,61
57,24,0,MESSAGE PUMP,WM_GETOBJECT,61
57,24,0,MESSAGE PUMP,WM_GETOBJECT,61
57,24,0,MESSAGE PUMP,WM_GETOBJECT,61
57,24,0,MESSAGE PUMP,WM_GETOBJECT,61
57,24,0,MESSAGE PUMP,WM_GETOBJECT,61
57,24,0,MESSAGE PUMP,WM_GETOBJECT,61
57,24,0,MESSAGE PUMP,WM_GETOBJECT,61
57,24,0,MESSAGE PUMP,WM_GETOBJECT,61
57,24,0,MESSAGE PUMP,WM_GETOBJECT,61
57,24,0,MESSAGE PUMP,WM_GETOBJECT,61
57,24,0,MESSAGE PUMP,WM_GETOBJECT,61
57,24,0,MESSAGE PUMP,WM_GETOBJECT,61
57,24,0,MESSAGE PUMP,WM_GETOBJECT,61
57,24,0,MESSAGE PUMP,WM_GETOBJECT,61
58,7,0,MESSAGE PUMP,WM_GETOBJECT,61
58,7,0,MESSAGE PUMP,WM_GETOBJECT,61
58,7,0,MESSAGE PUMP,WM_GETOBJECT,61
58,7,0,MESSAGE PUMP,WM_GETOBJECT,61
58,7,0,MESSAGE PUMP,WM_GETOBJECT,61
58,7,0,MESSAGE PUMP,WM_GETOBJECT,61
58,7,0,MESSAGE PUMP,WM_GETOBJECT,61
58,7,0,MESSAGE PUMP,WM_GETOBJECT,61
58,7,0,MESSAGE PUMP,WM_GETOBJECT,61
58,7,0,MESSAGE PUMP,WM_GETOBJECT,61
58,7,0,MESSAGE PUMP,WM_GETOBJECT,61
58,7,0,MESSAGE PUMP,WM_GETOBJECT,61
58,7,0,MESSAGE PUMP,WM_GETOBJECT,61
58,7,0,MESSAGE PUMP,WM_GETOBJECT,61
58,7,0,MESSAGE PUMP,WM_GETOBJECT,61
58,7,0,MESSAGE PUMP,WM_GETOBJECT,61
59,2,0,MESSAGE PUMP,WM_GETOBJECT,61
59,2,0,MESSAGE PUMP,WM_GETOBJECT,61
59,2,0,MESSAGE PUMP,WM_GETOBJECT,61
59,2,0,MESSAGE PUMP,WM_GETOBJECT,61
59,2,0,MESSAGE PUMP,WM_GETOBJECT,61
59,2,0,MESSAGE PUMP,WM_GETOBJECT,61
59,2,0,MESSAGE PUMP,WM_GETOBJECT,61
59,2,0,MESSAGE PUMP,WM_GETOBJECT,61
59,2,0,MESSAGE PUMP,WM_GETOBJECT,61
59,2,0,MESSAGE PUMP,WM_GETOBJECT,61
59,2,0,MESSAGE PUMP,WM_GETOBJECT,61
59,2,0,MESSAGE PUMP,WM_GETOBJECT,61
59,2,0,MESSAGE PUMP,WM_GETOBJECT,61
59,2,0,MESSAGE PUMP,WM_GETOBJECT,61
59,2,0,MESSAGE PUMP,WM_GETOBJECT,61
59,2,0,MESSAGE PUMP,WM_GETOBJECT,61
60,1,0,MESSAGE PUMP,WM_GETOBJECT,61
60,1,0,MESSAGE PUMP,WM_GETOBJECT,61
60,1,0,MESSAGE PUMP,WM_GETOBJECT,61
60,1,0,MESSAGE PUMP,WM_GETOBJECT,61
60,1,0,MESSAGE PUMP,WM_GETOBJECT,61
60,1,0,MESSAGE PUMP,WM_GETOBJECT,61
60,1,0,MESSAGE PUMP,WM_GETOBJECT,61
60,1,0,MESSAGE PUMP,WM_GETOBJECT,61
60,1,0,MESSAGE PUMP,WM_GETOBJECT,61
60,1,0,MESSAGE PUMP,WM_GETOBJECT,61
60,1,0,MESSAGE PUMP,WM_GETOBJECT,61
60,1,0,MESSAGE PUMP,WM_GETOBJECT,61
60,1,0,MESSAGE PUMP,WM_GETOBJECT,61
60,1,0,MESSAGE PUMP,WM_GETOBJECT,61
60,1,0,MESSAGE PUMP,WM_GETOBJECT,61
60,1,0,MESSAGE PUMP,WM_GETOBJECT,61
62,2,0,MESSAGE PUMP,WM_GETOBJECT,61
62,2,0,MESSAGE PUMP,WM_GETOBJECT,61
62,2,0,MESSAGE PUMP,WM_GETOBJECT,61
62,2,0,MESSAGE PUMP,WM_GETOBJECT,61
62,2,0,MESSAGE PUMP,WM_GETOBJECT,61
62,2,0,MESSAGE PUMP,WM_GETOBJECT,61
62,2,0,MESSAGE PUMP,WM_GETOBJECT,61
62,2,0,MESSAGE PUMP,WM_GETOBJECT,61
62,2,0,MESSAGE PUMP,WM_GETOBJECT,61
62,2,0,MESSAGE PUMP,WM_GETOBJECT,61
62,2,0,MESSAGE PUMP,WM_GETOBJECT,61
62,2,0,MESSAGE PUMP,WM_GETOBJECT,61
62,2,0,MESSAGE PUMP,WM_GETOBJECT,61
62,2,0,MESSAGE PUMP,WM_GETOBJECT,61
62,2,0,MESSAGE PUMP,WM_GETOBJECT,61
62,2,0,MESSAGE PUMP,WM_GETOBJECT,61
63,21,0,MESSAGE PUMP,WM_GETOBJECT,61
63,21,0,MESSAGE PUMP,WM_GETOBJECT,61
63,21,0,MESSAGE PUMP,WM_GETOBJECT,61
63,21,0,MESSAGE PUMP,WM_GETOBJECT,61
63,21,0,MESSAGE PUMP,WM_GETOBJECT,61
63,21,0,MESSAGE PUMP,WM_GETOBJECT,61
63,21,0,MESSAGE PUMP,WM_GETOBJECT,61
63,21,0,MESSAGE PUMP,WM_GETOBJECT,61
63,21,0,MESSAGE PUMP,WM_GETOBJECT,61
63,21,0,MESSAGE PUMP,WM_GETOBJECT,61
63,21,0,MESSAGE PUMP,WM_GETOBJECT,61
63,21,0,MESSAGE PUMP,WM_GETOBJECT,61
63,21,0,MESSAGE PUMP,WM_GETOBJECT,61
63,21,0,MESSAGE PUMP,WM_GETOBJECT,61
63,21,0,MESSAGE PUMP,WM_GETOBJECT,61
63,21,0,MESSAGE PUMP,WM_GETOBJECT,61
66,1,0,MESSAGE PUMP,WM_GETOBJECT,61
66,1,0,MESSAGE PUMP,WM_GETOBJECT,61
66,1,0,MESSAGE PUMP,WM_GETOBJECT,61
66,1,0,MESSAGE PUMP,WM_GETOBJECT,61
66,1,0,MESSAGE PUMP,WM_GETOBJECT,61
66,1,0,MESSAGE PUMP,WM_GETOBJECT,61
66,1,0,MESSAGE PUMP,WM_GETOBJECT,61
66,1,0,MESSAGE PUMP,WM_GETOBJECT,61
66,1,0,MESSAGE PUMP,WM_GETOBJECT,61
66,1,0,MESSAGE PUMP,WM_GETOBJECT,61
66,1,0,MESSAGE PUMP,WM_GETOBJECT,61
66,1,0,MESSAGE PUMP,WM_GETOBJECT,61
66,1,0,MESSAGE PUMP,WM_GETOBJECT,61
66,1,0,MESSAGE PUMP,WM_GETOBJECT,61
66,1,0,MESSAGE PUMP,WM_GETOBJECT,61
66,1,0,MESSAGE PUMP,WM_GETOBJECT,61
68,11,0,MESSAGE PUMP,WM_GETOBJECT,61
68,11,0,MESSAGE PUMP,WM_GETOBJECT,61
68,11,0,MESSAGE PUMP,WM_GETOBJECT,61
68,11,0,MESSAGE PUMP,WM_GETOBJECT,61
68,11,0,MESSAGE PUMP,WM_GETOBJECT,61
68,11,0,MESSAGE PUMP,WM_GETOBJECT,61
68,11,0,MESSAGE PUMP,WM_GETOBJECT,61
68,11,0,MESSAGE PUMP,WM_GETOBJECT,61
68,11,0,MESSAGE PUMP,WM_GETOBJECT,61
68,11,0,MESSAGE PUMP,WM_GETOBJECT,61
68,11,0,MESSAGE PUMP,WM_GETOBJECT,61
68,11,0,MESSAGE PUMP,WM_GETOBJECT,61
68,11,0,MESSAGE PUMP,WM_GETOBJECT,61
68,11,0,MESSAGE PUMP,WM_GETOBJECT,61
68,11,0,MESSAGE PUMP,WM_GETOBJECT,61
68,11,0,MESSAGE PUMP,WM_GETOBJECT,61
70,1,0,MESSAGE PUMP,WM_GETOBJECT,61
70,1,0,MESSAGE PUMP,WM_GETOBJECT,61
70,1,0,MESSAGE PUMP,WM_GETOBJECT,61
70,1,0,MESSAGE PUMP,WM_GETOBJECT,61
70,1,0,MESSAGE PUMP,WM_GETOBJECT,61
70,1,0,MESSAGE PUMP,WM_GETOBJECT,61
70,1,0,MESSAGE PUMP,WM_GETOBJECT,61
70,1,0,MESSAGE PUMP,WM_GETOBJECT,61
70,1,0,MESSAGE PUMP,WM_GETOBJECT,61
70,1,0,MESSAGE PUMP,WM_GETOBJECT,61
70,1,0,MESSAGE PUMP,WM_GETOBJECT,61
70,1,0,MESSAGE PUMP,WM_GETOBJECT,61
70,1,0,MESSAGE PUMP,WM_GETOBJECT,61
70,1,0,MESSAGE PUMP,WM_GETOBJECT,61
70,1,0,MESSAGE PUMP,WM_GETOBJECT,61
70,1,0,MESSAGE PUMP,WM_GETOBJECT,61
72,2,0,MESSAGE PUMP,WM_GETOBJECT,61
72,2,0,MESSAGE PUMP,WM_GETOBJECT,61
72,2,0,MESSAGE PUMP,WM_GETOBJECT,61
72,2,0,MESSAGE PUMP,WM_GETOBJECT,61
72,2,0,MESSAGE PUMP,WM_GETOBJECT,61
72,2,0,MESSAGE PUMP,WM_GETOBJECT,61
72,2,0,MESSAGE PUMP,WM_GETOBJECT,61
72,2,0,MESSAGE PUMP,WM_GETOBJECT,61
72,2,0,MESSAGE PUMP,WM_GETOBJECT,61
72,2,0,MESSAGE PUMP,WM_GETOBJECT,61
72,2,0,MESSAGE PUMP,WM_GETOBJECT,61
72,2,0,MESSAGE PUMP,WM_GETOBJECT,61
72,2,0,MESSAGE PUMP,WM_GETOBJECT,61
72,2,0,MESSAGE PUMP,WM_GETOBJECT,61
72,2,0,MESSAGE PUMP,WM_GETOBJECT,61
72,2,0,MESSAGE PUMP,WM_GETOBJECT,61
74,19,0,MESSAGE PUMP,WM_GETOBJECT,61
74,19,0,MESSAGE PUMP,WM_GETOBJECT,61
74,19,0,MESSAGE PUMP,WM_GETOBJECT,61
74,19,0,MESSAGE PUMP,WM_GETOBJECT,61
74,19,0,MESSAGE PUMP,WM_GETOBJECT,61
74,19,0,MESSAGE PUMP,WM_GETOBJECT,61
74,19,0,MESSAGE PUMP,WM_GETOBJECT,61
74,19,0,MESSAGE PUMP,WM_GETOBJECT,61
74,19,0,MESSAGE PUMP,WM_GETOBJECT,61
74,19,0,MESSAGE PUMP,WM_GETOBJECT,61
74,19,0,MESSAGE PUMP,WM_GETOBJECT,61
74,19,0,MESSAGE PUMP,WM_GETOBJECT,61
74,19,0,MESSAGE PUMP,WM_GETOBJECT,61
74,19,0,MESSAGE PUMP,WM_GETOBJECT,61
74,19,0,MESSAGE PUMP,WM_GETOBJECT,61
74,19,0,MESSAGE PUMP,WM_GETOBJECT,61
75,11,0,MESSAGE PUMP,WM_GETOBJECT,61
75,11,0,MESSAGE PUMP,WM_GETOBJECT,61
75,11,0,MESSAGE PUMP,WM_GETOBJECT,61
75,11,0,MESSAGE PUMP,WM_GETOBJECT,61
75,11,0,MESSAGE PUMP,WM_GETOBJECT,61
75,11,0,MESSAGE PUMP,WM_GETOBJECT,61
75,11,0,MESSAGE PUMP,WM_GETOBJECT,61
75,11,0,MESSAGE PUMP,WM_GETOBJECT,61
75,11,0,MESSAGE PUMP,WM_GETOBJECT,61
75,11,0,MESSAGE PUMP,WM_GETOBJECT,61
75,11,0,MESSAGE PUMP,WM_GETOBJECT,61
75,11,0,MESSAGE PUMP,WM_GETOBJECT,61
75,11,0,MESSAGE PUMP,WM_GETOBJECT,61
75,11,0,MESSAGE PUMP,WM_GETOBJECT,61
75,11,0,MESSAGE PUMP,WM_GETOBJECT,61
75,11,0,MESSAGE PUMP,WM_GETOBJECT,61
77,10,0,MESSAGE PUMP,WM_GETOBJECT,61
77,10,0,MESSAGE PUMP,WM_GETOBJECT,61
77,10,0,MESSAGE PUMP,WM_GETOBJECT,61
77,10,0,MESSAGE PUMP,WM_GETOBJECT,61
77,10,0,MESSAGE PUMP,WM_GETOBJECT,61
77,10,0,MESSAGE PUMP,WM_GETOBJECT,61
77,10,0,MESSAGE PUMP,WM_GETOBJECT,61
77,10,0,MESSAGE PUMP,WM_GETOBJECT,61
77,10,0,MESSAGE PUMP,WM_GETOBJECT,61
77,10,0,MESSAGE PUMP,WM_GETOBJECT,61
77,10,0,MESSAGE PUMP,WM_GETOBJECT,61
77,10,0,MESSAGE PUMP,WM_GETOBJECT,61
77,10,0,MESSAGE PUMP,WM_GETOBJECT,61
77,10,0,MESSAGE PUMP,WM_GETOBJECT,61
77,10,0,MESSAGE PUMP,WM_GETOBJECT,61
77,10,0,MESSAGE PUMP,WM_GETOBJECT,61
78,21,0,MESSAGE PUMP,WM_GETOBJECT,61
78,21,0,MESSAGE PUMP,WM_GETOBJECT,61
78,21,0,MESSAGE PUMP,WM_GETOBJECT,61
78,21,0,MESSAGE PUMP,WM_GETOBJECT,61
78,21,0,MESSAGE PUMP,WM_GETOBJECT,61
78,21,0,MESSAGE PUMP,WM_GETOBJECT,61
78,21,0,MESSAGE PUMP,WM_GETOBJECT,61
78,21,0,MESSAGE PUMP,WM_GETOBJECT,61
78,21,0,MESSAGE PUMP,WM_GETOBJECT,61
78,21,0,MESSAGE PUMP,WM_GETOBJECT,61
78,21,0,MESSAGE PUMP,WM_GETOBJECT,61
78,21,0,MESSAGE PUMP,WM_GETOBJECT,61
78,21,0,MESSAGE PUMP,WM_GETOBJECT,61
78,21,0,MESSAGE PUMP,WM_GETOBJECT,61
78,21,0,MESSAGE PUMP,WM_GETOBJECT,61
78,21,0,MESSAGE PUMP,WM_GETOBJECT,61
80,10,0,MESSAGE PUMP,WM_GETOBJECT,61
80,10,0,MESSAGE PUMP,WM_GETOBJECT,61
80,10,0,MESSAGE PUMP,WM_GETOBJECT,61
80,10,0,MESSAGE PUMP,WM_GETOBJECT,61
80,10,0,MESSAGE PUMP,WM_GETOBJECT,61
80,10,0,MESSAGE PUMP,WM_GETOBJECT,61
80,10,0,MESSAGE PUMP,WM_GETOBJECT,61
80,10,0,MESSAGE PUMP,WM_GETOBJECT,61
80,10,0,MESSAGE PUMP,WM_GETOBJECT,61
80,10,0,MESSAGE PUMP,WM_GETOBJECT,61
80,10,0,MESSAGE PUMP,WM_GETOBJECT,61
80,10,0,MESSAGE PUMP,WM_GETOBJECT,61
80,10,0,MESSAGE PUMP,WM_GETOBJECT,61
80,10,0,MESSAGE PUMP,WM_GETOBJECT,61
80,10,0,MESSAGE PUMP,WM_GETOBJECT,61
80,10,0,MESSAGE PUMP,WM_GETOBJECT,61
81,13,0,MESSAGE PUMP,WM_GETOBJECT,61
81,13,0,MESSAGE PUMP,WM_GETOBJECT,61
81,13,0,MESSAGE PUMP,WM_GETOBJECT,61
81,13,0,MESSAGE PUMP,WM_GETOBJECT,61
81,13,0,MESSAGE PUMP,WM_GETOBJECT,61
81,13,0,MESSAGE PUMP,WM_GETOBJECT,61
81,13,0,MESSAGE PUMP,WM_GETOBJECT,61
81,13,0,MESSAGE PUMP,WM_GETOBJECT,61
81,13,0,MESSAGE PUMP,WM_GETOBJECT,61
81,13,0,MESSAGE PUMP,WM_GETOBJECT,61
81,13,0,MESSAGE PUMP,WM_GETOBJECT,61
81,13,0,MESSAGE PUMP,WM_GETOBJECT,61
81,13,0,MESSAGE PUMP,WM_GETOBJECT,61
81,13,0,MESSAGE PUMP,WM_GETOBJECT,61
81,13,0,MESSAGE PUMP,WM_GETOBJECT,61
81,13,0,MESSAGE PUMP,WM_GETOBJECT,61
82,22,0,MESSAGE PUMP,WM_GETOBJECT,61
82,22,0,MESSAGE PUMP,WM_GETOBJECT,61
82,22,0,MESSAGE PUMP,WM_GETOBJECT,61
82,22,0,MESSAGE PUMP,WM_GETOBJECT,61
82,22,0,MESSAGE PUMP,WM_GETOBJECT,61
82,22,0,MESSAGE PUMP,WM_GETOBJECT,61
82,22,0,MESSAGE PUMP,WM_GETOBJECT,61
82,22,0,MESSAGE PUMP,WM_GETOBJECT,61
82,22,0,MESSAGE PUMP,WM_GETOBJECT,61
82,22,0,MESSAGE PUMP,WM_GETOBJECT,61
82,22,0,MESSAGE PUMP,WM_GETOBJECT,61
82,22,0,MESSAGE PUMP,WM_GETOBJECT,61
82,22,0,MESSAGE PUMP,WM_GETOBJECT,61
82,22,0,MESSAGE PUMP,WM_GETOBJECT,61
82,22,0,MESSAGE PUMP,WM_GETOBJECT,61
82,22,0,MESSAGE PUMP,WM_GETOBJECT,61
83,1,0,MESSAGE PUMP,WM_GETOBJECT,61
83,1,0,MESSAGE PUMP,WM_GETOBJECT,61
83,1,0,MESSAGE PUMP,WM_GETOBJECT,61
83,1,0,MESSAGE PUMP,WM_GETOBJECT,61
83,1,0,MESSAGE PUMP,WM_GETOBJECT,61
83,1,0,MESSAGE PUMP,WM_GETOBJECT,61
83,1,0,MESSAGE PUMP,WM_GETOBJECT,61
83,1,0,MESSAGE PUMP,WM_GETOBJECT,61
83,1,0,MESSAGE PUMP,WM_GETOBJECT,61
83,1,0,MESSAGE PUMP,WM_GETOBJECT,61
83,1,0,MESSAGE PUMP,WM_GETOBJECT,61
83,1,0,MESSAGE PUMP,WM_GETOBJECT,61
83,1,0,MESSAGE PUMP,WM_GETOBJECT,61
83,1,0,MESSAGE PUMP,WM_GETOBJECT,61
83,1,0,MESSAGE PUMP,WM_GETOBJECT,61
83,1,0,MESSAGE PUMP,WM_GETOBJECT,61
85,16,0,MESSAGE PUMP,WM_GETOBJECT,61
85,16,0,MESSAGE PUMP,WM_GETOBJECT,61
85,16,0,MESSAGE PUMP,WM_GETOBJECT,61
85,16,0,MESSAGE PUMP,WM_GETOBJECT,61
85,16,0,MESSAGE PUMP,WM_GETOBJECT,61
85,16,0,MESSAGE PUMP,WM_GETOBJECT,61
85,16,0,MESSAGE PUMP,WM_GETOBJECT,61
85,16,0,MESSAGE PUMP,WM_GETOBJECT,61
85,16,0,MESSAGE PUMP,WM_GETOBJECT,61
85,16,0,MESSAGE PUMP,WM_GETOBJECT,61
85,16,0,MESSAGE PUMP,WM_GETOBJECT,61
85,16,0,MESSAGE PUMP,WM_GETOBJECT,61
85,16,0,MESSAGE PUMP,WM_GETOBJECT,61
85,16,0,MESSAGE PUMP,WM_GETOBJECT,61
85,16,0,MESSAGE PUMP,WM_GETOBJECT,61
85,16,0,MESSAGE PUMP,WM_GETOBJECT,61
87,84,0,MESSAGE PUMP,WM_GETOBJECT,61
87,84,0,MESSAGE PUMP,WM_GETOBJECT,61
87,84,0,MESSAGE PUMP,WM_GETOBJECT,61
87,84,0,MESSAGE PUMP,WM_GETOBJECT,61
87,84,0,MESSAGE PUMP,WM_GETOBJECT,61
87,84,0,MESSAGE PUMP,WM_GETOBJECT,61
87,84,0,MESSAGE PUMP,WM_GETOBJECT,61
87,84,0,MESSAGE PUMP,WM_GETOBJECT,61
87,84,0,MESSAGE PUMP,WM_GETOBJECT,61
87,84,0,MESSAGE PUMP,WM_GETOBJECT,61
87,84,0,MESSAGE PUMP,WM_GETOBJECT,61
87,84,0,MESSAGE PUMP,WM_GETOBJECT,61
87,84,0,MESSAGE PUMP,WM_GETOBJECT,61
87,84,0,MESSAGE PUMP,WM_GETOBJECT,61
87,84,0,MESSAGE PUMP,WM_GETOBJECT,61
87,84,0,MESSAGE PUMP,WM_GETOBJECT,61
88,24,0,MESSAGE PUMP,WM_GETOBJECT,61
88,24,0,MESSAGE PUMP,WM_GETOBJECT,61
88,24,0,MESSAGE PUMP,WM_GETOBJECT,61
88,24,0,MESSAGE PUMP,WM_GETOBJECT,61
88,24,0,MESSAGE PUMP,WM_GETOBJECT,61
88,24,0,MESSAGE PUMP,WM_GETOBJECT,61
88,24,0,MESSAGE PUMP,WM_GETOBJECT,61
88,24,0,MESSAGE PUMP,WM_GETOBJECT,61
88,24,0,MESSAGE PUMP,WM_GETOBJECT,61
88,24,0,MESSAGE PUMP,WM_GETOBJECT,61
88,24,0,MESSAGE PUMP,WM_GETOBJECT,61
88,24,0,MESSAGE PUMP,WM_GETOBJECT,61
88,24,0,MESSAGE PUMP,WM_GETOBJECT,61
88,24,0,MESSAGE PUMP,WM_GETOBJECT,61
88,24,0,MESSAGE PUMP,WM_GETOBJECT,61
88,24,0,MESSAGE PUMP,WM_GETOBJECT,61
90,2,0,MESSAGE PUMP,WM_GETOBJECT,61
90,2,0,MESSAGE PUMP,WM_GETOBJECT,61
90,2,0,MESSAGE PUMP,WM_GETOBJECT,61
90,2,0,MESSAGE PUMP,WM_GETOBJECT,61
90,2,0,MESSAGE PUMP,WM_GETOBJECT,61
90,2,0,MESSAGE PUMP,WM_GETOBJECT,61
90,2,0,MESSAGE PUMP,WM_GETOBJECT,61
90,2,0,MESSAGE PUMP,WM_GETOBJECT,61
90,2,0,MESSAGE PUMP,WM_GETOBJECT,61
90,2,0,MESSAGE PUMP,WM_GETOBJECT,61
90,2,0,MESSAGE PUMP,WM_GETOBJECT,61
90,2,0,MESSAGE PUMP,WM_GETOBJECT,61
90,2,0,MESSAGE PUMP,WM_GETOBJECT,61
90,2,0,MESSAGE PUMP,WM_GETOBJECT,61
90,2,0,MESSAGE PUMP,WM_GETOBJECT,61
90,2,0,MESSAGE PUMP,WM_GETOBJECT,61
91,12,0,MESSAGE PUMP,WM_GETOBJECT,61
91,12,0,MESSAGE PUMP,WM_GETOBJECT,61
91,12,0,MESSAGE PUMP,WM_GETOBJECT,61
91,12,0,MESSAGE PUMP,WM_GETOBJECT,61
91,12,0,MESSAGE PUMP,WM_GETOBJECT,61
91,12,0,MESSAGE PUMP,WM_GETOBJECT,61
91,12,0,MESSAGE PUMP,WM_GETOBJECT,61
91,12,0,MESSAGE PUMP,WM_GETOBJECT,61
91,12,0,MESSAGE PUMP,WM_GETOBJECT,61
91,12,0,MESSAGE PUMP,WM_GETOBJECT,61
91,12,0,MESSAGE PUMP,WM_GETOBJECT,61
91,12,0,MESSAGE PUMP,WM_GETOBJECT,61
91,12,0,MESSAGE PUMP,WM_GETOBJECT,61
91,12,0,MESSAGE PUMP,WM_GETOBJECT,61
91,12,0,MESSAGE PUMP,WM_GETOBJECT,61
91,12,0,MESSAGE PUMP,WM_GETOBJECT,61
92,11,0,MESSAGE PUMP,WM_GETOBJECT,61
92,11,0,MESSAGE PUMP,WM_GETOBJECT,61
92,11,0,MESSAGE PUMP,WM_GETOBJECT,61
92,11,0,MESSAGE PUMP,WM_GETOBJECT,61
92,11,0,MESSAGE PUMP,WM_GETOBJECT,61
92,11,0,MESSAGE PUMP,WM_GETOBJECT,61
92,11,0,MESSAGE PUMP,WM_GETOBJECT,61
92,11,0,MESSAGE PUMP,WM_GETOBJECT,61
92,11,0,MESSAGE PUMP,WM_GETOBJECT,61
92,11,0,MESSAGE PUMP,WM_GETOBJECT,61
92,11,0,MESSAGE PUMP,WM_GETOBJECT,61
92,11,0,MESSAGE PUMP,WM_GETOBJECT,61
92,11,0,MESSAGE PUMP,WM_GETOBJECT,61
92,11,0,MESSAGE PUMP,WM_GETOBJECT,61
92,11,0,MESSAGE PUMP,WM_GETOBJECT,61
92,11,0,MESSAGE PUMP,WM_GETOBJECT,61
93,4,0,MESSAGE PUMP,WM_GETOBJECT,61
93,4,0,MESSAGE PUMP,WM_GETOBJECT,61
93,4,0,MESSAGE PUMP,WM_GETOBJECT,61
93,4,0,MESSAGE PUMP,WM_GETOBJECT,61
93,4,0,MESSAGE PUMP,WM_GETOBJECT,61
93,4,0,MESSAGE PUMP,WM_GETOBJECT,61
93,4,0,MESSAGE PUMP,WM_GETOBJECT,61
93,4,0,MESSAGE PUMP,WM_GETOBJECT,61
93,4,0,MESSAGE PUMP,WM_GETOBJECT,61
93,4,0,MESSAGE PUMP,WM_GETOBJECT,61
93,4,0,MESSAGE PUMP,WM_GETOBJECT,61
93,4,0,MESSAGE PUMP,WM_GETOBJECT,61
93,4,0,MESSAGE PUMP,WM_GETOBJECT,61
93,4,0,MESSAGE PUMP,WM_GETOBJECT,61
93,4,0,MESSAGE PUMP,WM_GETOBJECT,61
93,4,0,MESSAGE PUMP,WM_GETOBJECT,61
94,17,0,MESSAGE PUMP,WM_GETOBJECT,61
94,17,0,MESSAGE PUMP,WM_GETOBJECT,61
94,17,0,MESSAGE PUMP,WM_GETOBJECT,61
94,17,0,MESSAGE PUMP,WM_GETOBJECT,61
94,17,0,MESSAGE PUMP,WM_GETOBJECT,61
94,17,0,MESSAGE PUMP,WM_GETOBJECT,61
94,17,0,MESSAGE PUMP,WM_GETOBJECT,61
94,17,0,MESSAGE PUMP,WM_GETOBJECT,61
94,17,0,MESSAGE PUMP,WM_GETOBJECT,61
94,17,0,MESSAGE PUMP,WM_GETOBJECT,61
94,17,0,MESSAGE PUMP,WM_GETOBJECT,61
94,17,0,MESSAGE PUMP,WM_GETOBJECT,61
94,17,0,MESSAGE PUMP,WM_GETOBJECT,61
94,17,0,MESSAGE PUMP,WM_GETOBJECT,61
94,17,0,MESSAGE PUMP,WM_GETOBJECT,61
94,17,0,MESSAGE PUMP,WM_GETOBJECT,61
96,1,0,MESSAGE PUMP,WM_GETOBJECT,61
96,1,0,MESSAGE PUMP,WM_GETOBJECT,61
96,1,0,MESSAGE PUMP,WM_GETOBJECT,61
96,1,0,MESSAGE PUMP,WM_GETOBJECT,61
96,1,0,MESSAGE PUMP,WM_GETOBJECT,61
96,1,0,MESSAGE PUMP,WM_GETOBJECT,61
96,1,0,MESSAGE PUMP,WM_GETOBJECT,61
96,1,0,MESSAGE PUMP,WM_GETOBJECT,61
96,1,0,MESSAGE PUMP,WM_GETOBJECT,61
96,1,0,MESSAGE PUMP,WM_GETOBJECT,61
96,1,0,MESSAGE PUMP,WM_GETOBJECT,61
96,1,0,MESSAGE PUMP,WM_GETOBJECT,61
96,1,0,MESSAGE PUMP,WM_GETOBJECT,61
96,1,0,MESSAGE PUMP,WM_GETOBJECT,61
96,1,0,MESSAGE PUMP,WM_GETOBJECT,61
96,1,0,MESSAGE PUMP,WM_GETOBJECT,61
98,1,0,MESSAGE PUMP,WM_GETOBJECT,61
98,1,0,MESSAGE PUMP,WM_GETOBJECT,61
98,1,0,MESSAGE PUMP,WM_GETOBJECT,61
98,1,0,MESSAGE PUMP,WM_GETOBJECT,61
98,1,0,MESSAGE PUMP,WM_GETOBJECT,61
98,1,0,MESSAGE PUMP,WM_GETOBJECT,61
98,1,0,MESSAGE PUMP,WM_GETOBJECT,61
98,1,0,MESSAGE PUMP,WM_GETOBJECT,61
98,1,0,MESSAGE PUMP,WM_GETOBJECT,61
98,1,0,MESSAGE PUMP,WM_GETOBJECT,61
98,1,0,MESSAGE PUMP,WM_GETOBJECT,61
98,1,0,MESSAGE PUMP,WM_GETOBJECT,61
98,1,0,MESSAGE PUMP,WM_GETOBJECT,61
98,1,0,MESSAGE PUMP,WM_GETOBJECT,61
98,1,0,MESSAGE PUMP,WM_GETOBJECT,61
98,1,0,MESSAGE PUMP,WM_GETOBJECT,61
118,49,0,MESSAGE PUMP,WM_GETOBJECT,61
118,49,0,MESSAGE PUMP,WM_GETOBJECT,61
118,49,0,MESSAGE PUMP,WM_GETOBJECT,61
118,49,0,MESSAGE PUMP,WM_GETOBJECT,61
118,49,0,MESSAGE PUMP,WM_GETOBJECT,61
118,49,0,MESSAGE PUMP,WM_GETOBJECT,61
118,49,0,MESSAGE PUMP,WM_GETOBJECT,61
118,49,0,MESSAGE PUMP,WM_GETOBJECT,61
118,49,0,MESSAGE PUMP,WM_GETOBJECT,61
118,49,0,MESSAGE PUMP,WM_GETOBJECT,61
118,49,0,MESSAGE PUMP,WM_GETOBJECT,61
118,49,0,MESSAGE PUMP,WM_GETOBJECT,61
118,49,0,MESSAGE PUMP,WM_GETOBJECT,61
118,49,0,MESSAGE PUMP,WM_GETOBJECT,61
118,49,0,MESSAGE PUMP,WM_GETOBJECT,61
118,49,0,MESSAGE PUMP,WM_GETOBJECT,61
124,1,0,MESSAGE PUMP,WM_GETOBJECT,61
124,1,0,MESSAGE PUMP,WM_GETOBJECT,61
124,1,0,MESSAGE PUMP,WM_GETOBJECT,61
124,1,0,MESSAGE PUMP,WM_GETOBJECT,61
124,1,0,MESSAGE PUMP,WM_GETOBJECT,61
124,1,0,MESSAGE PUMP,WM_GETOBJECT,61
124,1,0,MESSAGE PUMP,WM_GETOBJECT,61
124,1,0,MESSAGE PUMP,WM_GETOBJECT,61
124,1,0,MESSAGE PUMP,WM_GETOBJECT,61
124,1,0,MESSAGE PUMP,WM_GETOBJECT,61
124,1,0,MESSAGE PUMP,WM_GETOBJECT,61
124,1,0,MESSAGE PUMP,WM_GETOBJECT,61
124,1,0,MESSAGE PUMP,WM_GETOBJECT,61
124,1,0,MESSAGE PUMP,WM_GETOBJECT,61
124,1,0,MESSAGE PUMP,WM_GETOBJECT,61
124,1,0,MESSAGE PUMP,WM_GETOBJECT,61
129,1,0,MESSAGE PUMP,WM_GETOBJECT,61
129,1,0,MESSAGE PUMP,WM_GETOBJECT,61
129,1,0,MESSAGE PUMP,WM_GETOBJECT,61
129,1,0,MESSAGE PUMP,WM_GETOBJECT,61
129,1,0,MESSAGE PUMP,WM_GETOBJECT,61
129,1,0,MESSAGE PUMP,WM_GETOBJECT,61
129,1,0,MESSAGE PUMP,WM_GETOBJECT,61
129,1,0,MESSAGE PUMP,WM_GETOBJECT,61
129,1,0,MESSAGE PUMP,WM_GETOBJECT,61
129,1,0,MESSAGE PUMP,WM_GETOBJECT,61
129,1,0,MESSAGE PUMP,WM_GETOBJECT,61
129,1,0,MESSAGE PUMP,WM_GETOBJECT,61
129,1,0,MESSAGE PUMP,WM_GETOBJECT,61
129,1,0,MESSAGE PUMP,WM_GETOBJECT,61
129,1,0,MESSAGE PUMP,WM_GETOBJECT,61
129,1,0,MESSAGE PUMP,WM_GETOBJECT,61
134,2,0,MESSAGE PUMP,WM_GETOBJECT,61
134,2,0,MESSAGE PUMP,WM_GETOBJECT,61
134,2,0,MESSAGE PUMP,WM_GETOBJECT,61
134,2,0,MESSAGE PUMP,WM_GETOBJECT,61
134,2,0,MESSAGE PUMP,WM_GETOBJECT,61
134,2,0,MESSAGE PUMP,WM_GETOBJECT,61
134,2,0,MESSAGE PUMP,WM_GETOBJECT,61
134,2,0,MESSAGE PUMP,WM_GETOBJECT,61
134,2,0,MESSAGE PUMP,WM_GETOBJECT,61
134,2,0,MESSAGE PUMP,WM_GETOBJECT,61
134,2,0,MESSAGE PUMP,WM_GETOBJECT,61
134,2,0,MESSAGE PUMP,WM_GETOBJECT,61
134,2,0,MESSAGE PUMP,WM_GETOBJECT,61
134,2,0,MESSAGE PUMP,WM_GETOBJECT,61
134,2,0,MESSAGE PUMP,WM_GETOBJECT,61
134,2,0,MESSAGE PUMP,WM_GETOBJECT,61
141,1,0,MESSAGE PUMP,WM_GETOBJECT,61
141,1,0,MESSAGE PUMP,WM_GETOBJECT,61
141,1,0,MESSAGE PUMP,WM_GETOBJECT,61
141,1,0,MESSAGE PUMP,WM_GETOBJECT,61
141,1,0,MESSAGE PUMP,WM_GETOBJECT,61
141,1,0,MESSAGE PUMP,WM_GETOBJECT,61
141,1,0,MESSAGE PUMP,WM_GETOBJECT,61
141,1,0,MESSAGE PUMP,WM_GETOBJECT,61
141,1,0,MESSAGE PUMP,WM_GETOBJECT,61
141,1,0,MESSAGE PUMP,WM_GETOBJECT,61
141,1,0,MESSAGE PUMP,WM_GETOBJECT,61
141,1,0,MESSAGE PUMP,WM_GETOBJECT,61
141,1,0,MESSAGE PUMP,WM_GETOBJECT,61
141,1,0,MESSAGE PUMP,WM_GETOBJECT,61
141,1,0,MESSAGE PUMP,WM_GETOBJECT,61
141,1,0,MESSAGE PUMP,WM_GETOBJECT,61
142,42,0,MESSAGE PUMP,WM_GETOBJECT,61
142,42,0,MESSAGE PUMP,WM_GETOBJECT,61
142,42,0,MESSAGE PUMP,WM_GETOBJECT,61
142,42,0,MESSAGE PUMP,WM_GETOBJECT,61
142,42,0,MESSAGE PUMP,WM_GETOBJECT,61
142,42,0,MESSAGE PUMP,WM_GETOBJECT,61
142,42,0,MESSAGE PUMP,WM_GETOBJECT,61
142,42,0,MESSAGE PUMP,WM_GETOBJECT,61
142,42,0,MESSAGE PUMP,WM_GETOBJECT,61
142,42,0,MESSAGE PUMP,WM_GETOBJECT,61
142,42,0,MESSAGE PUMP,WM_GETOBJECT,61
142,42,0,MESSAGE PUMP,WM_GETOBJECT,61
142,42,0,MESSAGE PUMP,WM_GETOBJECT,61
142,42,0,MESSAGE PUMP,WM_GETOBJECT,61
142,42,0,MESSAGE PUMP,WM_GETOBJECT,61
142,42,0,MESSAGE PUMP,WM_GETOBJECT,61
144,1,0,MESSAGE PUMP,WM_GETOBJECT,61
144,1,0,MESSAGE PUMP,WM_GETOBJECT,61
144,1,0,MESSAGE PUMP,WM_GETOBJECT,61
144,1,0,MESSAGE PUMP,WM_GETOBJECT,61
144,1,0,MESSAGE PUMP,WM_GETOBJECT,61
144,1,0,MESSAGE PUMP,WM_GETOBJECT,61
144,1,0,MESSAGE PUMP,WM_GETOBJECT,61
144,1,0,MESSAGE PUMP,WM_GETOBJECT,61
144,1,0,MESSAGE PUMP,WM_GETOBJECT,61
144,1,0,MESSAGE PUMP,WM_GETOBJECT,61
144,1,0,MESSAGE PUMP,WM_GETOBJECT,61
144,1,0,MESSAGE PUMP,WM_GETOBJECT,61
144,1,0,MESSAGE PUMP,WM_GETOBJECT,61
144,1,0,MESSAGE PUMP,WM_GETOBJECT,61
144,1,0,MESSAGE PUMP,WM_GETOBJECT,61
144,1,0,MESSAGE PUMP,WM_GETOBJECT,61
145,25,0,MESSAGE PUMP,WM_GETOBJECT,61
145,25,0,MESSAGE PUMP,WM_GETOBJECT,61
145,25,0,MESSAGE PUMP,WM_GETOBJECT,61
145,25,0,MESSAGE PUMP,WM_GETOBJECT,61
145,25,0,MESSAGE PUMP,WM_GETOBJECT,61
145,25,0,MESSAGE PUMP,WM_GETOBJECT,61
145,25,0,MESSAGE PUMP,WM_GETOBJECT,61
145,25,0,MESSAGE PUMP,WM_GETOBJECT,61
145,25,0,MESSAGE PUMP,WM_GETOBJECT,61
145,25,0,MESSAGE PUMP,WM_GETOBJECT,61
145,25,0,MESSAGE PUMP,WM_GETOBJECT,61
145,25,0,MESSAGE PUMP,WM_GETOBJECT,61
145,25,0,MESSAGE PUMP,WM_GETOBJECT,61
145,25,0,MESSAGE PUMP,WM_GETOBJECT,61
145,25,0,MESSAGE PUMP,WM_GETOBJECT,61
145,25,0,MESSAGE PUMP,WM_GETOBJECT,61
148,1,0,MESSAGE PUMP,WM_GETOBJECT,61
148,1,0,MESSAGE PUMP,WM_GETOBJECT,61
148,1,0,MESSAGE PUMP,WM_GETOBJECT,61
148,1,0,MESSAGE PUMP,WM_GETOBJECT,61
148,1,0,MESSAGE PUMP,WM_GETOBJECT,61
148,1,0,MESSAGE PUMP,WM_GETOBJECT,61
148,1,0,MESSAGE PUMP,WM_GETOBJECT,61
148,1,0,MESSAGE PUMP,WM_GETOBJECT,61
148,1,0,MESSAGE PUMP,WM_GETOBJECT,61
148,1,0,MESSAGE PUMP,WM_GETOBJECT,61
148,1,0,MESSAGE PUMP,WM_GETOBJECT,61
148,1,0,MESSAGE PUMP,WM_GETOBJECT,61
148,1,0,MESSAGE PUMP,WM_GETOBJECT,61
148,1,0,MESSAGE PUMP,WM_GETOBJECT,61
148,1,0,MESSAGE PUMP,WM_GETOBJECT,61
148,1,0,MESSAGE PUMP,WM_GETOBJECT,61
150,42,0,MESSAGE PUMP,WM_GETOBJECT,61
150,42,0,MESSAGE PUMP,WM_GETOBJECT,61
150,42,0,MESSAGE PUMP,WM_GETOBJECT,61
150,42,0,MESSAGE PUMP,WM_GETOBJECT,61
150,42,0,MESSAGE PUMP,WM_GETOBJECT,61
150,42,0,MESSAGE PUMP,WM_GETOBJECT,61
150,42,0,MESSAGE PUMP,WM_GETOBJECT,61
150,42,0,MESSAGE PUMP,WM_GETOBJECT,61
150,42,0,MESSAGE PUMP,WM_GETOBJECT,61
150,42,0,MESSAGE PUMP,WM_GETOBJECT,61
150,42,0,MESSAGE PUMP,WM_GETOBJECT,61
150,42,0,MESSAGE PUMP,WM_GETOBJECT,61
150,42,0,MESSAGE PUMP,WM_GETOBJECT,61
150,42,0,MESSAGE PUMP,WM_GETOBJECT,61
150,42,0,MESSAGE PUMP,WM_GETOBJECT,61
150,42,0,MESSAGE PUMP,WM_GETOBJECT,61
153,27,0,MESSAGE PUMP,WM_GETOBJECT,61
153,27,0,MESSAGE PUMP,WM_GETOBJECT,61
153,27,0,MESSAGE PUMP,WM_GETOBJECT,61
153,27,0,MESSAGE PUMP,WM_GETOBJECT,61
153,27,0,MESSAGE PUMP,WM_GETOBJECT,61
153,27,0,MESSAGE PUMP,WM_GETOBJECT,61
153,27,0,MESSAGE PUMP,WM_GETOBJECT,61
153,27,0,MESSAGE PUMP,WM_GETOBJECT,61
153,27,0,MESSAGE PUMP,WM_GETOBJECT,61
153,27,0,MESSAGE PUMP,WM_GETOBJECT,61
153,27,0,MESSAGE PUMP,WM_GETOBJECT,61
153,27,0,MESSAGE PUMP,WM_GETOBJECT,61
153,27,0,MESSAGE PUMP,WM_GETOBJECT,61
153,27,0,MESSAGE PUMP,WM_GETOBJECT,61
153,27,0,MESSAGE PUMP,WM_GETOBJECT,61
153,27,0,MESSAGE PUMP,WM_GETOBJECT,61
154,40,0,MESSAGE PUMP,WM_GETOBJECT,61
154,40,0,MESSAGE PUMP,WM_GETOBJECT,61
154,40,0,MESSAGE PUMP,WM_GETOBJECT,61
154,40,0,MESSAGE PUMP,WM_GETOBJECT,61
154,40,0,MESSAGE PUMP,WM_GETOBJECT,61
154,40,0,MESSAGE PUMP,WM_GETOBJECT,61
154,40,0,MESSAGE PUMP,WM_GETOBJECT,61
154,40,0,MESSAGE PUMP,WM_GETOBJECT,61
154,40,0,MESSAGE PUMP,WM_GETOBJECT,61
154,40,0,MESSAGE PUMP,WM_GETOBJECT,61
154,40,0,MESSAGE PUMP,WM_GETOBJECT,61
154,40,0,MESSAGE PUMP,WM_GETOBJECT,61
154,40,0,MESSAGE PUMP,WM_GETOBJECT,61
154,40,0,MESSAGE PUMP,WM_GETOBJECT,61
154,40,0,MESSAGE PUMP,WM_GETOBJECT,61
154,40,0,MESSAGE PUMP,WM_GETOBJECT,61
157,2,0,MESSAGE PUMP,WM_GETOBJECT,61
157,2,0,MESSAGE PUMP,WM_GETOBJECT,61
157,2,0,MESSAGE PUMP,WM_GETOBJECT,61
157,2,0,MESSAGE PUMP,WM_GETOBJECT,61
157,2,0,MESSAGE PUMP,WM_GETOBJECT,61
157,2,0,MESSAGE PUMP,WM_GETOBJECT,61
157,2,0,MESSAGE PUMP,WM_GETOBJECT,61
157,2,0,MESSAGE PUMP,WM_GETOBJECT,61
157,2,0,MESSAGE PUMP,WM_GETOBJECT,61
157,2,0,MESSAGE PUMP,WM_GETOBJECT,61
157,2,0,MESSAGE PUMP,WM_GETOBJECT,61
157,2,0,MESSAGE PUMP,WM_GETOBJECT,61
157,2,0,MESSAGE PUMP,WM_GETOBJECT,61
157,2,0,MESSAGE PUMP,WM_GETOBJECT,61
157,2,0,MESSAGE PUMP,WM_GETOBJECT,61
157,2,0,MESSAGE PUMP,WM_GETOBJECT,61
162,1,0,MESSAGE PUMP,WM_GETOBJECT,61
162,1,0,MESSAGE PUMP,WM_GETOBJECT,61
162,1,0,MESSAGE PUMP,WM_GETOBJECT,61
162,1,0,MESSAGE PUMP,WM_GETOBJECT,61
162,1,0,MESSAGE PUMP,WM_GETOBJECT,61
162,1,0,MESSAGE PUMP,WM_GETOBJECT,61
162,1,0,MESSAGE PUMP,WM_GETOBJECT,61
162,1,0,MESSAGE PUMP,WM_GETOBJECT,61
162,1,0,MESSAGE PUMP,WM_GETOBJECT,61
162,1,0,MESSAGE PUMP,WM_GETOBJECT,61
162,1,0,MESSAGE PUMP,WM_GETOBJECT,61
162,1,0,MESSAGE PUMP,WM_GETOBJECT,61
162,1,0,MESSAGE PUMP,WM_GETOBJECT,61
162,1,0,MESSAGE PUMP,WM_GETOBJECT,61
162,1,0,MESSAGE PUMP,WM_GETOBJECT,61
162,1,0,MESSAGE PUMP,WM_GETOBJECT,61
166,15,0,MESSAGE PUMP,WM_GETOBJECT,61
166,15,0,MESSAGE PUMP,WM_GETOBJECT,61
166,15,0,MESSAGE PUMP,WM_GETOBJECT,61
166,15,0,MESSAGE PUMP,WM_GETOBJECT,61
166,15,0,MESSAGE PUMP,WM_GETOBJECT,61
166,15,0,MESSAGE PUMP,WM_GETOBJECT,61
166,15,0,MESSAGE PUMP,WM_GETOBJECT,61
166,15,0,MESSAGE PUMP,WM_GETOBJECT,61
166,15,0,MESSAGE PUMP,WM_GETOBJECT,61
166,15,0,MESSAGE PUMP,WM_GETOBJECT,61
166,15,0,MESSAGE PUMP,WM_GETOBJECT,61
166,15,0,MESSAGE PUMP,WM_GETOBJECT,61
166,15,0,MESSAGE PUMP,WM_GETOBJECT,61
166,15,0,MESSAGE PUMP,WM_GETOBJECT,61
166,15,0,MESSAGE PUMP,WM_GETOBJECT,61
166,15,0,MESSAGE PUMP,WM_GETOBJECT,61
169,1,0,MESSAGE PUMP,WM_GETOBJECT,61
169,1,0,MESSAGE PUMP,WM_GETOBJECT,61
169,1,0,MESSAGE PUMP,WM_GETOBJECT,61
169,1,0,MESSAGE PUMP,WM_GETOBJECT,61
169,1,0,MESSAGE PUMP,WM_GETOBJECT,61
169,1,0,MESSAGE PUMP,WM_GETOBJECT,61
169,1,0,MESSAGE PUMP,WM_GETOBJECT,61
169,1,0,MESSAGE PUMP,WM_GETOBJECT,61
169,1,0,MESSAGE PUMP,WM_GETOBJECT,61
169,1,0,MESSAGE PUMP,WM_GETOBJECT,61
169,1,0,MESSAGE PUMP,WM_GETOBJECT,61
169,1,0,MESSAGE PUMP,WM_GETOBJECT,61
169,1,0,MESSAGE PUMP,WM_GETOBJECT,61
169,1,0,MESSAGE PUMP,WM_GETOBJECT,61
169,1,0,MESSAGE PUMP,WM_GETOBJECT,61
169,1,0,MESSAGE PUMP,WM_GETOBJECT,61
172,42,0,MESSAGE PUMP,WM_GETOBJECT,61
172,42,0,MESSAGE PUMP,WM_GETOBJECT,61
172,42,0,MESSAGE PUMP,WM_GETOBJECT,61
172,42,0,MESSAGE PUMP,WM_GETOBJECT,61
172,42,0,MESSAGE PUMP,WM_GETOBJECT,61
172,42,0,MESSAGE PUMP,WM_GETOBJECT,61
172,42,0,MESSAGE PUMP,WM_GETOBJECT,61
172,42,0,MESSAGE PUMP,WM_GETOBJECT,61
172,42,0,MESSAGE PUMP,WM_GETOBJECT,61
172,42,0,MESSAGE PUMP,WM_GETOBJECT,61
172,42,0,MESSAGE PUMP,WM_GETOBJECT,61
172,42,0,MESSAGE PUMP,WM_GETOBJECT,61
172,42,0,MESSAGE PUMP,WM_GETOBJECT,61
172,42,0,MESSAGE PUMP,WM_GETOBJECT,61
172,42,0,MESSAGE PUMP,WM_GETOBJECT,61
172,42,0,MESSAGE PUMP,WM_GETOBJECT,61
177,1,0,MESSAGE PUMP,WM_GETOBJECT,61
177,1,0,MESSAGE PUMP,WM_GETOBJECT,61
177,1,0,MESSAGE PUMP,WM_GETOBJECT,61
177,1,0,MESSAGE PUMP,WM_GETOBJECT,61
177,1,0,MESSAGE PUMP,WM_GETOBJECT,61
177,1,0,MESSAGE PUMP,WM_GETOBJECT,61
177,1,0,MESSAGE PUMP,WM_GETOBJECT,61
177,1,0,MESSAGE PUMP,WM_GETOBJECT,61
177,1,0,MESSAGE PUMP,WM_GETOBJECT,61
177,1,0,MESSAGE PUMP,WM_GETOBJECT,61
177,1,0,MESSAGE PUMP,WM_GETOBJECT,61
177,1,0,MESSAGE PUMP,WM_GETOBJECT,61
177,1,0,MESSAGE PUMP,WM_GETOBJECT,61
177,1,0,MESSAGE PUMP,WM_GETOBJECT,61
177,1,0,MESSAGE PUMP,WM_GETOBJECT,61
177,1,0,MESSAGE PUMP,WM_GETOBJECT,61
183,1,0,MESSAGE PUMP,WM_GETOBJECT,61
183,1,0,MESSAGE PUMP,WM_GETOBJECT,61
183,1,0,MESSAGE PUMP,WM_GETOBJECT,61
183,1,0,MESSAGE PUMP,WM_GETOBJECT,61
183,1,0,MESSAGE PUMP,WM_GETOBJECT,61
183,1,0,MESSAGE PUMP,WM_GETOBJECT,61
183,1,0,MESSAGE PUMP,WM_GETOBJECT,61
183,1,0,MESSAGE PUMP,WM_GETOBJECT,61
183,1,0,MESSAGE PUMP,WM_GETOBJECT,61
183,1,0,MESSAGE PUMP,WM_GETOBJECT,61
183,1,0,MESSAGE PUMP,WM_GETOBJECT,61
183,1,0,MESSAGE PUMP,WM_GETOBJECT,61
183,1,0,MESSAGE PUMP,WM_GETOBJECT,61
183,1,0,MESSAGE PUMP,WM_GETOBJECT,61
183,1,0,MESSAGE PUMP,WM_GETOBJECT,61
183,1,0,MESSAGE PUMP,WM_GETOBJECT,61
184,64,0,MESSAGE PUMP,WM_GETOBJECT,61
184,64,0,MESSAGE PUMP,WM_GETOBJECT,61
184,64,0,MESSAGE PUMP,WM_GETOBJECT,61
184,64,0,MESSAGE PUMP,WM_GETOBJECT,61
184,64,0,MESSAGE PUMP,WM_GETOBJECT,61
184,64,0,MESSAGE PUMP,WM_GETOBJECT,61
184,64,0,MESSAGE PUMP,WM_GETOBJECT,61
184,64,0,MESSAGE PUMP,WM_GETOBJECT,61
184,64,0,MESSAGE PUMP,WM_GETOBJECT,61
184,64,0,MESSAGE PUMP,WM_GETOBJECT,61
184,64,0,MESSAGE PUMP,WM_GETOBJECT,61
184,64,0,MESSAGE PUMP,WM_GETOBJECT,61
184,64,0,MESSAGE PUMP,WM_GETOBJECT,61
184,64,0,MESSAGE PUMP,WM_GETOBJECT,61
184,64,0,MESSAGE PUMP,WM_GETOBJECT,61
184,64,0,MESSAGE PUMP,WM_GETOBJECT,61
186,55,0,MESSAGE PUMP,WM_GETOBJECT,61
186,55,0,MESSAGE PUMP,WM_GETOBJECT,61
186,55,0,MESSAGE PUMP,WM_GETOBJECT,61
186,55,0,MESSAGE PUMP,WM_GETOBJECT,61
186,55,0,MESSAGE PUMP,WM_GETOBJECT,61
186,55,0,MESSAGE PUMP,WM_GETOBJECT,61
186,55,0,MESSAGE PUMP,WM_GETOBJECT,61
186,55,0,MESSAGE PUMP,WM_GETOBJECT,61
186,55,0,MESSAGE PUMP,WM_GETOBJECT,61
186,55,0,MESSAGE PUMP,WM_GETOBJECT,61
186,55,0,MESSAGE PUMP,WM_GETOBJECT,61
186,55,0,MESSAGE PUMP,WM_GETOBJECT,61
186,55,0,MESSAGE PUMP,WM_GETOBJECT,61
186,55,0,MESSAGE PUMP,WM_GETOBJECT,61
186,55,0,MESSAGE PUMP,WM_GETOBJECT,61
186,55,0,MESSAGE PUMP,WM_GETOBJECT,61
188,38,0,MESSAGE PUMP,WM_GETOBJECT,61
188,38,0,MESSAGE PUMP,WM_GETOBJECT,61
188,38,0,MESSAGE PUMP,WM_GETOBJECT,61
188,38,0,MESSAGE PUMP,WM_GETOBJECT,61
188,38,0,MESSAGE PUMP,WM_GETOBJECT,61
188,38,0,MESSAGE PUMP,WM_GETOBJECT,61
188,38,0,MESSAGE PUMP,WM_GETOBJECT,61
188,38,0,MESSAGE PUMP,WM_GETOBJECT,61
188,38,0,MESSAGE PUMP,WM_GETOBJECT,61
188,38,0,MESSAGE PUMP,WM_GETOBJECT,61
188,38,0,MESSAGE PUMP,WM_GETOBJECT,61
188,38,0,MESSAGE PUMP,WM_GETOBJECT,61
188,38,0,MESSAGE PUMP,WM_GETOBJECT,61
188,38,0,MESSAGE PUMP,WM_GETOBJECT,61
188,38,0,MESSAGE PUMP,WM_GETOBJECT,61
188,38,0,MESSAGE PUMP,WM_GETOBJECT,61
190,39,0,MESSAGE PUMP,WM_GETOBJECT,61
190,39,0,MESSAGE PUMP,WM_GETOBJECT,61
190,39,0,MESSAGE PUMP,WM_GETOBJECT,61
190,39,0,MESSAGE PUMP,WM_GETOBJECT,61
190,39,0,MESSAGE PUMP,WM_GETOBJECT,61
190,39,0,MESSAGE PUMP,WM_GETOBJECT,61
190,39,0,MESSAGE PUMP,WM_GETOBJECT,61
190,39,0,MESSAGE PUMP,WM_GETOBJECT,61
190,39,0,MESSAGE PUMP,WM_GETOBJECT,61
190,39,0,MESSAGE PUMP,WM_GETOBJECT,61
190,39,0,MESSAGE PUMP,WM_GETOBJECT,61
190,39,0,MESSAGE PUMP,WM_GETOBJECT,61
190,39,0,MESSAGE PUMP,WM_GETOBJECT,61
190,39,0,MESSAGE PUMP,WM_GETOBJECT,61
190,39,0,MESSAGE PUMP,WM_GETOBJECT,61
190,39,0,MESSAGE PUMP,WM_GETOBJECT,61
191,6,0,MESSAGE PUMP,WM_GETOBJECT,61
191,6,0,MESSAGE PUMP,WM_GETOBJECT,61
191,6,0,MESSAGE PUMP,WM_GETOBJECT,61
191,6,0,MESSAGE PUMP,WM_GETOBJECT,61
191,6,0,MESSAGE PUMP,WM_GETOBJECT,61
191,6,0,MESSAGE PUMP,WM_GETOBJECT,61
191,6,0,MESSAGE PUMP,WM_GETOBJECT,61
191,6,0,MESSAGE PUMP,WM_GETOBJECT,61
191,6,0,MESSAGE PUMP,WM_GETOBJECT,61
191,6,0,MESSAGE PUMP,WM_GETOBJECT,61
191,6,0,MESSAGE PUMP,WM_GETOBJECT,61
191,6,0,MESSAGE PUMP,WM_GETOBJECT,61
191,6,0,MESSAGE PUMP,WM_GETOBJECT,61
191,6,0,MESSAGE PUMP,WM_GETOBJECT,61
191,6,0,MESSAGE PUMP,WM_GETOBJECT,61
191,6,0,MESSAGE PUMP,WM_GETOBJECT,61
193,2,0,MESSAGE PUMP,WM_GETOBJECT,61
193,2,0,MESSAGE PUMP,WM_GETOBJECT,61
193,2,0,MESSAGE PUMP,WM_GETOBJECT,61
193,2,0,MESSAGE PUMP,WM_GETOBJECT,61
193,2,0,MESSAGE PUMP,WM_GETOBJECT,61
193,2,0,MESSAGE PUMP,WM_GETOBJECT,61
193,2,0,MESSAGE PUMP,WM_GETOBJECT,61
193,2,0,MESSAGE PUMP,WM_GETOBJECT,61
193,2,0,MESSAGE PUMP,WM_GETOBJECT,61
193,2,0,MESSAGE PUMP,WM_GETOBJECT,61
193,2,0,MESSAGE PUMP,WM_GETOBJECT,61
193,2,0,MESSAGE PUMP,WM_GETOBJECT,61
193,2,0,MESSAGE PUMP,WM_GETOBJECT,61
193,2,0,MESSAGE PUMP,WM_GETOBJECT,61
193,2,0,MESSAGE PUMP,WM_GETOBJECT,61
193,2,0,MESSAGE PUMP,WM_GETOBJECT,61
195,1,0,MESSAGE PUMP,WM_GETOBJECT,61
195,1,0,MESSAGE PUMP,WM_GETOBJECT,61
195,1,0,MESSAGE PUMP,WM_GETOBJECT,61
195,1,0,MESSAGE PUMP,WM_GETOBJECT,61
195,1,0,MESSAGE PUMP,WM_GETOBJECT,61
195,1,0,MESSAGE PUMP,WM_GETOBJECT,61
195,1,0,MESSAGE PUMP,WM_GETOBJECT,61
195,1,0,MESSAGE PUMP,WM_GETOBJECT,61
195,1,0,MESSAGE PUMP,WM_GETOBJECT,61
195,1,0,MESSAGE PUMP,WM_GETOBJECT,61
195,1,0,MESSAGE PUMP,WM_GETOBJECT,61
195,1,0,MESSAGE PUMP,WM_GETOBJECT,61
195,1,0,MESSAGE PUMP,WM_GETOBJECT,61
195,1,0,MESSAGE PUMP,WM_GETOBJECT,61
195,1,0,MESSAGE PUMP,WM_GETOBJECT,61
195,1,0,MESSAGE PUMP,WM_GETOBJECT,61
197,7,0,MESSAGE PUMP,WM_GETOBJECT,61
197,7,0,MESSAGE PUMP,WM_GETOBJECT,61
197,7,0,MESSAGE PUMP,WM_GETOBJECT,61
197,7,0,MESSAGE PUMP,WM_GETOBJECT,61
197,7,0,MESSAGE PUMP,WM_GETOBJECT,61
197,7,0,MESSAGE PUMP,WM_GETOBJECT,61
197,7,0,MESSAGE PUMP,WM_GETOBJECT,61
197,7,0,MESSAGE PUMP,WM_GETOBJECT,61
197,7,0,MESSAGE PUMP,WM_GETOBJECT,61
197,7,0,MESSAGE PUMP,WM_GETOBJECT,61
197,7,0,MESSAGE PUMP,WM_GETOBJECT,61
197,7,0,MESSAGE PUMP,WM_GETOBJECT,61
197,7,0,MESSAGE PUMP,WM_GETOBJECT,61
197,7,0,MESSAGE PUMP,WM_GETOBJECT,61
197,7,0,MESSAGE PUMP,WM_GETOBJECT,61
197,7,0,MESSAGE PUMP,WM_GETOBJECT,61
199,1,0,MESSAGE PUMP,WM_GETOBJECT,61
199,1,0,MESSAGE PUMP,WM_GETOBJECT,61
199,1,0,MESSAGE PUMP,WM_GETOBJECT,61
199,1,0,MESSAGE PUMP,WM_GETOBJECT,61
199,1,0,MESSAGE PUMP,WM_GETOBJECT,61
199,1,0,MESSAGE PUMP,WM_GETOBJECT,61
199,1,0,MESSAGE PUMP,WM_GETOBJECT,61
199,1,0,MESSAGE PUMP,WM_GETOBJECT,61
199,1,0,MESSAGE PUMP,WM_GETOBJECT,61
199,1,0,MESSAGE PUMP,WM_GETOBJECT,61
199,1,0,MESSAGE PUMP,WM_GETOBJECT,61
199,1,0,MESSAGE PUMP,WM_GETOBJECT,61
199,1,0,MESSAGE PUMP,WM_GETOBJECT,61
199,1,0,MESSAGE PUMP,WM_GETOBJECT,61
199,1,0,MESSAGE PUMP,WM_GETOBJECT,61
199,1,0,MESSAGE PUMP,WM_GETOBJECT,61
201,1,0,MESSAGE PUMP,WM_GETOBJECT,61
201,1,0,MESSAGE PUMP,WM_GETOBJECT,61
201,1,0,MESSAGE PUMP,WM_GETOBJECT,61
201,1,0,MESSAGE PUMP,WM_GETOBJECT,61
201,1,0,MESSAGE PUMP,WM_GETOBJECT,61
201,1,0,MESSAGE PUMP,WM_GETOBJECT,61
201,1,0,MESSAGE PUMP,WM_GETOBJECT,61
201,1,0,MESSAGE PUMP,WM_GETOBJECT,61
201,1,0,MESSAGE PUMP,WM_GETOBJECT,61
201,1,0,MESSAGE PUMP,WM_GETOBJECT,61
201,1,0,MESSAGE PUMP,WM_GETOBJECT,61
201,1,0,MESSAGE PUMP,WM_GETOBJECT,61
201,1,0,MESSAGE PUMP,WM_GETOBJECT,61
201,1,0,MESSAGE PUMP,WM_GETOBJECT,61
201,1,0,MESSAGE PUMP,WM_GETOBJECT,61
201,1,0,MESSAGE PUMP,WM_GETOBJECT,61
203,30,0,MESSAGE PUMP,WM_GETOBJECT,61
203,30,0,MESSAGE PUMP,WM_GETOBJECT,61
203,30,0,MESSAGE PUMP,WM_GETOBJECT,61
203,30,0,MESSAGE PUMP,WM_GETOBJECT,61
203,30,0,MESSAGE PUMP,WM_GETOBJECT,61
203,30,0,MESSAGE PUMP,WM_GETOBJECT,61
203,30,0,MESSAGE PUMP,WM_GETOBJECT,61
203,30,0,MESSAGE PUMP,WM_GETOBJECT,61
203,30,0,MESSAGE PUMP,WM_GETOBJECT,61
203,30,0,MESSAGE PUMP,WM_GETOBJECT,61
203,30,0,MESSAGE PUMP,WM_GETOBJECT,61
203,30,0,MESSAGE PUMP,WM_GETOBJECT,61
203,30,0,MESSAGE PUMP,WM_GETOBJECT,61
203,30,0,MESSAGE PUMP,WM_GETOBJECT,61
203,30,0,MESSAGE PUMP,WM_GETOBJECT,61
203,30,0,MESSAGE PUMP,WM_GETOBJECT,61
209,15,0,MESSAGE PUMP,WM_GETOBJECT,61
209,15,0,MESSAGE PUMP,WM_GETOBJECT,61
209,15,0,MESSAGE PUMP,WM_GETOBJECT,61
209,15,0,MESSAGE PUMP,WM_GETOBJECT,61
209,15,0,MESSAGE PUMP,WM_GETOBJECT,61
209,15,0,MESSAGE PUMP,WM_GETOBJECT,61
209,15,0,MESSAGE PUMP,WM_GETOBJECT,61
209,15,0,MESSAGE PUMP,WM_GETOBJECT,61
209,15,0,MESSAGE PUMP,WM_GETOBJECT,61
209,15,0,MESSAGE PUMP,WM_GETOBJECT,61
209,15,0,MESSAGE PUMP,WM_GETOBJECT,61
209,15,0,MESSAGE PUMP,WM_GETOBJECT,61
209,15,0,MESSAGE PUMP,WM_GETOBJECT,61
209,15,0,MESSAGE PUMP,WM_GETOBJECT,61
209,15,0,MESSAGE PUMP,WM_GETOBJECT,61
209,15,0,MESSAGE PUMP,WM_GETOBJECT,61
210,13,0,MESSAGE PUMP,WM_GETOBJECT,61
210,13,0,MESSAGE PUMP,WM_GETOBJECT,61
210,13,0,MESSAGE PUMP,WM_GETOBJECT,61
210,13,0,MESSAGE PUMP,WM_GETOBJECT,61
210,13,0,MESSAGE PUMP,WM_GETOBJECT,61
210,13,0,MESSAGE PUMP,WM_GETOBJECT,61
210,13,0,MESSAGE PUMP,WM_GETOBJECT,61
210,13,0,MESSAGE PUMP,WM_GETOBJECT,61
210,13,0,MESSAGE PUMP,WM_GETOBJECT,61
210,13,0,MESSAGE PUMP,WM_GETOBJECT,61
210,13,0,MESSAGE PUMP,WM_GETOBJECT,61
210,13,0,MESSAGE PUMP,WM_GETOBJECT,61
210,13,0,MESSAGE PUMP,WM_GETOBJECT,61
210,13,0,MESSAGE PUMP,WM_GETOBJECT,61
210,13,0,MESSAGE PUMP,WM_GETOBJECT,61
210,13,0,MESSAGE PUMP,WM_GETOBJECT,61
212,22,0,MESSAGE PUMP,WM_GETOBJECT,61
212,22,0,MESSAGE PUMP,WM_GETOBJECT,61
212,22,0,MESSAGE PUMP,WM_GETOBJECT,61
212,22,0,MESSAGE PUMP,WM_GETOBJECT,61
212,22,0,MESSAGE PUMP,WM_GETOBJECT,61
212,22,0,MESSAGE PUMP,WM_GETOBJECT,61
212,22,0,MESSAGE PUMP,WM_GETOBJECT,61
212,22,0,MESSAGE PUMP,WM_GETOBJECT,61
212,22,0,MESSAGE PUMP,WM_GETOBJECT,61
212,22,0,MESSAGE PUMP,WM_GETOBJECT,61
212,22,0,MESSAGE PUMP,WM_GETOBJECT,61
212,22,0,MESSAGE PUMP,WM_GETOBJECT,61
212,22,0,MESSAGE PUMP,WM_GETOBJECT,61
212,22,0,MESSAGE PUMP,WM_GETOBJECT,61
212,22,0,MESSAGE PUMP,WM_GETOBJECT,61
212,22,0,MESSAGE PUMP,WM_GETOBJECT,61
214,96,0,MESSAGE PUMP,WM_GETOBJECT,61
214,96,0,MESSAGE PUMP,WM_GETOBJECT,61
214,96,0,MESSAGE PUMP,WM_GETOBJECT,61
214,96,0,MESSAGE PUMP,WM_GETOBJECT,61
214,96,0,MESSAGE PUMP,WM_GETOBJECT,61
214,96,0,MESSAGE PUMP,WM_GETOBJECT,61
214,96,0,MESSAGE PUMP,WM_GETOBJECT,61
214,96,0,MESSAGE PUMP,WM_GETOBJECT,61
214,96,0,MESSAGE PUMP,WM_GETOBJECT,61
214,96,0,MESSAGE PUMP,WM_GETOBJECT,61
214,96,0,MESSAGE PUMP,WM_GETOBJECT,61
214,96,0,MESSAGE PUMP,WM_GETOBJECT,61
214,96,0,MESSAGE PUMP,WM_GETOBJECT,61
214,96,0,MESSAGE PUMP,WM_GETOBJECT,61
214,96,0,MESSAGE PUMP,WM_GETOBJECT,61
214,96,0,MESSAGE PUMP,WM_GETOBJECT,61
215,1,0,MESSAGE PUMP,WM_GETOBJECT,61
215,1,0,MESSAGE PUMP,WM_GETOBJECT,61
215,1,0,MESSAGE PUMP,WM_GETOBJECT,61
215,1,0,MESSAGE PUMP,WM_GETOBJECT,61
215,1,0,MESSAGE PUMP,WM_GETOBJECT,61
215,1,0,MESSAGE PUMP,WM_GETOBJECT,61
215,1,0,MESSAGE PUMP,WM_GETOBJECT,61
215,1,0,MESSAGE PUMP,WM_GETOBJECT,61
215,1,0,MESSAGE PUMP,WM_GETOBJECT,61
215,1,0,MESSAGE PUMP,WM_GETOBJECT,61
215,1,0,MESSAGE PUMP,WM_GETOBJECT,61
215,1,0,MESSAGE PUMP,WM_GETOBJECT,61
215,1,0,MESSAGE PUMP,WM_GETOBJECT,61
215,1,0,MESSAGE PUMP,WM_GETOBJECT,61
215,1,0,MESSAGE PUMP,WM_GETOBJECT,61
215,1,0,MESSAGE PUMP,WM_GETOBJECT,61
218,23,0,MESSAGE PUMP,WM_GETOBJECT,61
218,23,0,MESSAGE PUMP,WM_GETOBJECT,61
218,23,0,MESSAGE PUMP,WM_GETOBJECT,61
218,23,0,MESSAGE PUMP,WM_GETOBJECT,61
218,23,0,MESSAGE PUMP,WM_GETOBJECT,61
218,23,0,MESSAGE PUMP,WM_GETOBJECT,61
218,23,0,MESSAGE PUMP,WM_GETOBJECT,61
218,23,0,MESSAGE PUMP,WM_GETOBJECT,61
218,23,0,MESSAGE PUMP,WM_GETOBJECT,61
218,23,0,MESSAGE PUMP,WM_GETOBJECT,61
218,23,0,MESSAGE PUMP,WM_GETOBJECT,61
218,23,0,MESSAGE PUMP,WM_GETOBJECT,61
218,23,0,MESSAGE PUMP,WM_GETOBJECT,61
218,23,0,MESSAGE PUMP,WM_GETOBJECT,61
218,23,0,MESSAGE PUMP,WM_GETOBJECT,61
218,23,0,MESSAGE PUMP,WM_GETOBJECT,61
220,1,0,MESSAGE PUMP,WM_GETOBJECT,61
220,1,0,MESSAGE PUMP,WM_GETOBJECT,61
220,1,0,MESSAGE PUMP,WM_GETOBJECT,61
220,1,0,MESSAGE PUMP,WM_GETOBJECT,61
220,1,0,MESSAGE PUMP,WM_GETOBJECT,61
220,1,0,MESSAGE PUMP,WM_GETOBJECT,61
220,1,0,MESSAGE PUMP,WM_GETOBJECT,61
220,1,0,MESSAGE PUMP,WM_GETOBJECT,61
220,1,0,MESSAGE PUMP,WM_GETOBJECT,61
220,1,0,MESSAGE PUMP,WM_GETOBJECT,61
220,1,0,MESSAGE PUMP,WM_GETOBJECT,61
220,1,0,MESSAGE PUMP,WM_GETOBJECT,61
220,1,0,MESSAGE PUMP,WM_GETOBJECT,61
220,1,0,MESSAGE PUMP,WM_GETOBJECT,61
220,1,0,MESSAGE PUMP,WM_GETOBJECT,61
220,1,0,MESSAGE PUMP,WM_GETOBJECT,61
224,37,0,MESSAGE PUMP,WM_GETOBJECT,61
224,37,0,MESSAGE PUMP,WM_GETOBJECT,61
224,37,0,MESSAGE PUMP,WM_GETOBJECT,61
224,37,0,MESSAGE PUMP,WM_GETOBJECT,61
224,37,0,MESSAGE PUMP,WM_GETOBJECT,61
224,37,0,MESSAGE PUMP,WM_GETOBJECT,61
224,37,0,MESSAGE PUMP,WM_GETOBJECT,61
224,37,0,MESSAGE PUMP,WM_GETOBJECT,61
224,37,0,MESSAGE PUMP,WM_GETOBJECT,61
224,37,0,MESSAGE PUMP,WM_GETOBJECT,61
224,37,0,MESSAGE PUMP,WM_GETOBJECT,61
224,37,0,MESSAGE PUMP,WM_GETOBJECT,61
224,37,0,MESSAGE PUMP,WM_GETOBJECT,61
224,37,0,MESSAGE PUMP,WM_GETOBJECT,61
224,37,0,MESSAGE PUMP,WM_GETOBJECT,61
224,37,0,MESSAGE PUMP,WM_GETOBJECT,61
225,31,0,MESSAGE PUMP,WM_GETOBJECT,61
225,31,0,MESSAGE PUMP,WM_GETOBJECT,61
225,31,0,MESSAGE PUMP,WM_GETOBJECT,61
225,31,0,MESSAGE PUMP,WM_GETOBJECT,61
225,31,0,MESSAGE PUMP,WM_GETOBJECT,61
225,31,0,MESSAGE PUMP,WM_GETOBJECT,61
225,31,0,MESSAGE PUMP,WM_GETOBJECT,61
225,31,0,MESSAGE PUMP,WM_GETOBJECT,61
225,31,0,MESSAGE PUMP,WM_GETOBJECT,61
225,31,0,MESSAGE PUMP,WM_GETOBJECT,61
225,31,0,MESSAGE PUMP,WM_GETOBJECT,61
225,31,0,MESSAGE PUMP,WM_GETOBJECT,61
225,31,0,MESSAGE PUMP,WM_GETOBJECT,61
225,31,0,MESSAGE PUMP,WM_GETOBJECT,61
225,31,0,MESSAGE PUMP,WM_GETOBJECT,61
225,31,0,MESSAGE PUMP,WM_GETOBJECT,61
228,18,0,MESSAGE PUMP,WM_GETOBJECT,61
228,18,0,MESSAGE PUMP,WM_GETOBJECT,61
228,18,0,MESSAGE PUMP,WM_GETOBJECT,61
228,18,0,MESSAGE PUMP,WM_GETOBJECT,61
228,18,0,MESSAGE PUMP,WM_GETOBJECT,61
228,18,0,MESSAGE PUMP,WM_GETOBJECT,61
228,18,0,MESSAGE PUMP,WM_GETOBJECT,61
228,18,0,MESSAGE PUMP,WM_GETOBJECT,61
228,18,0,MESSAGE PUMP,WM_GETOBJECT,61
228,18,0,MESSAGE PUMP,WM_GETOBJECT,61
228,18,0,MESSAGE PUMP,WM_GETOBJECT,61
228,18,0,MESSAGE PUMP,WM_GETOBJECT,61
228,18,0,MESSAGE PUMP,WM_GETOBJECT,61
228,18,0,MESSAGE PUMP,WM_GETOBJECT,61
228,18,0,MESSAGE PUMP,WM_GETOBJECT,61
228,18,0,MESSAGE PUMP,WM_GETOBJECT,61
230,1,0,MESSAGE PUMP,WM_GETOBJECT,61
230,1,0,MESSAGE PUMP,WM_GETOBJECT,61
230,1,0,MESSAGE PUMP,WM_GETOBJECT,61
230,1,0,MESSAGE PUMP,WM_GETOBJECT,61
230,1,0,MESSAGE PUMP,WM_GETOBJECT,61
230,1,0,MESSAGE PUMP,WM_GETOBJECT,61
230,1,0,MESSAGE PUMP,WM_GETOBJECT,61
230,1,0,MESSAGE PUMP,WM_GETOBJECT,61
230,1,0,MESSAGE PUMP,WM_GETOBJECT,61
230,1,0,MESSAGE PUMP,WM_GETOBJECT,61
230,1,0,MESSAGE PUMP,WM_GETOBJECT,61
230,1,0,MESSAGE PUMP,WM_GETOBJECT,61
230,1,0,MESSAGE PUMP,WM_GETOBJECT,61
230,1,0,MESSAGE PUMP,WM_GETOBJECT,61
230,1,0,MESSAGE PUMP,WM_GETOBJECT,61
230,1,0,MESSAGE PUMP,WM_GETOBJECT,61
231,54,0,MESSAGE PUMP,WM_GETOBJECT,61
231,54,0,MESSAGE PUMP,WM_GETOBJECT,61
231,54,0,MESSAGE PUMP,WM_GETOBJECT,61
231,54,0,MESSAGE PUMP,WM_GETOBJECT,61
231,54,0,MESSAGE PUMP,WM_GETOBJECT,61
231,54,0,MESSAGE PUMP,WM_GETOBJECT,61
231,54,0,MESSAGE PUMP,WM_GETOBJECT,61
231,54,0,MESSAGE PUMP,WM_GETOBJECT,61
231,54,0,MESSAGE PUMP,WM_GETOBJECT,61
231,54,0,MESSAGE PUMP,WM_GETOBJECT,61
231,54,0,MESSAGE PUMP,WM_GETOBJECT,61
231,54,0,MESSAGE PUMP,WM_GETOBJECT,61
231,54,0,MESSAGE PUMP,WM_GETOBJECT,61
231,54,0,MESSAGE PUMP,WM_GETOBJECT,61
231,54,0,MESSAGE PUMP,WM_GETOBJECT,61
231,54,0,MESSAGE PUMP,WM_GETOBJECT,61
232,1,0,MESSAGE PUMP,WM_GETOBJECT,61
232,1,0,MESSAGE PUMP,WM_GETOBJECT,61
232,1,0,MESSAGE PUMP,WM_GETOBJECT,61
232,1,0,MESSAGE PUMP,WM_GETOBJECT,61
232,1,0,MESSAGE PUMP,WM_GETOBJECT,61
232,1,0,MESSAGE PUMP,WM_GETOBJECT,61
232,1,0,MESSAGE PUMP,WM_GETOBJECT,61
232,1,0,MESSAGE PUMP,WM_GETOBJECT,61
232,1,0,MESSAGE PUMP,WM_GETOBJECT,61
232,1,0,MESSAGE PUMP,WM_GETOBJECT,61
232,1,0,MESSAGE PUMP,WM_GETOBJECT,61
232,1,0,MESSAGE PUMP,WM_GETOBJECT,61
232,1,0,MESSAGE PUMP,WM_GETOBJECT,61
232,1,0,MESSAGE PUMP,WM_GETOBJECT,61
232,1,0,MESSAGE PUMP,WM_GETOBJECT,61
232,1,0,MESSAGE PUMP,WM_GETOBJECT,61
233,1,0,MESSAGE PUMP,WM_GETOBJECT,61
233,1,0,MESSAGE PUMP,WM_GETOBJECT,61
233,1,0,MESSAGE PUMP,WM_GETOBJECT,61
233,1,0,MESSAGE PUMP,WM_GETOBJECT,61
233,1,0,MESSAGE PUMP,WM_GETOBJECT,61
233,1,0,MESSAGE PUMP,WM_GETOBJECT,61
233,1,0,MESSAGE PUMP,WM_GETOBJECT,61
233,1,0,MESSAGE PUMP,WM_GETOBJECT,61
233,1,0,MESSAGE PUMP,WM_GETOBJECT,61
233,1,0,MESSAGE PUMP,WM_GETOBJECT,61
233,1,0,MESSAGE PUMP,WM_GETOBJECT,61
233,1,0,MESSAGE PUMP,WM_GETOBJECT,61
233,1,0,MESSAGE PUMP,WM_GETOBJECT,61
233,1,0,MESSAGE PUMP,WM_GETOBJECT,61
233,1,0,MESSAGE PUMP,WM_GETOBJECT,61
233,1,0,MESSAGE PUMP,WM_GETOBJECT,61
235,1,0,MESSAGE PUMP,WM_GETOBJECT,61
235,1,0,MESSAGE PUMP,WM_GETOBJECT,61
235,1,0,MESSAGE PUMP,WM_GETOBJECT,61
235,1,0,MESSAGE PUMP,WM_GETOBJECT,61
235,1,0,MESSAGE PUMP,WM_GETOBJECT,61
235,1,0,MESSAGE PUMP,WM_GETOBJECT,61
235,1,0,MESSAGE PUMP,WM_GETOBJECT,61
235,1,0,MESSAGE PUMP,WM_GETOBJECT,61
235,1,0,MESSAGE PUMP,WM_GETOBJECT,61
235,1,0,MESSAGE PUMP,WM_GETOBJECT,61
235,1,0,MESSAGE PUMP,WM_GETOBJECT,61
235,1,0,MESSAGE PUMP,WM_GETOBJECT,61
235,1,0,MESSAGE PUMP,WM_GETOBJECT,61
235,1,0,MESSAGE PUMP,WM_GETOBJECT,61
235,1,0,MESSAGE PUMP,WM_GETOBJECT,61
235,1,0,MESSAGE PUMP,WM_GETOBJECT,61
236,1,0,MESSAGE PUMP,WM_GETOBJECT,61
236,1,0,MESSAGE PUMP,WM_GETOBJECT,61
236,1,0,MESSAGE PUMP,WM_GETOBJECT,61
236,1,0,MESSAGE PUMP,WM_GETOBJECT,61
236,1,0,MESSAGE PUMP,WM_GETOBJECT,61
236,1,0,MESSAGE PUMP,WM_GETOBJECT,61
236,1,0,MESSAGE PUMP,WM_GETOBJECT,61
236,1,0,MESSAGE PUMP,WM_GETOBJECT,61
236,1,0,MESSAGE PUMP,WM_GETOBJECT,61
236,1,0,MESSAGE PUMP,WM_GETOBJECT,61
236,1,0,MESSAGE PUMP,WM_GETOBJECT,61
236,1,0,MESSAGE PUMP,WM_GETOBJECT,61
236,1,0,MESSAGE PUMP,WM_GETOBJECT,61
236,1,0,MESSAGE PUMP,WM_GETOBJECT,61
236,1,0,MESSAGE PUMP,WM_GETOBJECT,61
236,1,0,MESSAGE PUMP,WM_GETOBJECT,61
237,1,0,MESSAGE PUMP,WM_GETOBJECT,61
237,1,0,MESSAGE PUMP,WM_GETOBJECT,61
237,1,0,MESSAGE PUMP,WM_GETOBJECT,61
237,1,0,MESSAGE PUMP,WM_GETOBJECT,61
237,1,0,MESSAGE PUMP,WM_GETOBJECT,61
237,1,0,MESSAGE PUMP,WM_GETOBJECT,61
237,1,0,MESSAGE PUMP,WM_GETOBJECT,61
237,1,0,MESSAGE PUMP,WM_GETOBJECT,61
237,1,0,MESSAGE PUMP,WM_GETOBJECT,61
237,1,0,MESSAGE PUMP,WM_GETOBJECT,61
237,1,0,MESSAGE PUMP,WM_GETOBJECT,61
237,1,0,MESSAGE PUMP,WM_GETOBJECT,61
237,1,0,MESSAGE PUMP,WM_GETOBJECT,61
237,1,0,MESSAGE PUMP,WM_GETOBJECT,61
237,1,0,MESSAGE PUMP,WM_GETOBJECT,61
237,1,0,MESSAGE PUMP,WM_GETOBJECT,61
240,1,0,MESSAGE PUMP,WM_GETOBJECT,61
240,1,0,MESSAGE PUMP,WM_GETOBJECT,61
240,1,0,MESSAGE PUMP,WM_GETOBJECT,61
240,1,0,MESSAGE PUMP,WM_GETOBJECT,61
240,1,0,MESSAGE PUMP,WM_GETOBJECT,61
240,1,0,MESSAGE PUMP,WM_GETOBJECT,61
240,1,0,MESSAGE PUMP,WM_GETOBJECT,61
240,1,0,MESSAGE PUMP,WM_GETOBJECT,61
240,1,0,MESSAGE PUMP,WM_GETOBJECT,61
240,1,0,MESSAGE PUMP,WM_GETOBJECT,61
240,1,0,MESSAGE PUMP,WM_GETOBJECT,61
240,1,0,MESSAGE PUMP,WM_GETOBJECT,61
240,1,0,MESSAGE PUMP,WM_GETOBJECT,61
240,1,0,MESSAGE PUMP,WM_GETOBJECT,61
240,1,0,MESSAGE PUMP,WM_GETOBJECT,61
240,1,0,MESSAGE PUMP,WM_GETOBJECT,61
240,1,0,MESSAGE PUMP,WM_GETOBJECT,61
240,1,0,MESSAGE PUMP,WM_GETOBJECT,61
240,1,0,MESSAGE PUMP,WM_GETOBJECT,61
240,1,0,MESSAGE PUMP,WM_GETOBJECT,61
240,1,0,MESSAGE PUMP,WM_GETOBJECT,61
240,1,0,MESSAGE PUMP,WM_GETOBJECT,61
240,1,0,MESSAGE PUMP,WM_GETOBJECT,61
240,1,0,MESSAGE PUMP,WM_GETOBJECT,61
240,1,0,MESSAGE PUMP,WM_GETOBJECT,61
240,1,0,MESSAGE PUMP,WM_GETOBJECT,61
240,1,0,MESSAGE PUMP,WM_GETOBJECT,61
240,1,0,MESSAGE PUMP,WM_GETOBJECT,61
240,1,0,MESSAGE PUMP,WM_GETOBJECT,61
240,1,0,MESSAGE PUMP,WM_GETOBJECT,61
240,1,0,MESSAGE PUMP,WM_GETOBJECT,61
240,1,0,MESSAGE PUMP,WM_GETOBJECT,61
240,1,0,MESSAGE PUMP,WM_GETOBJECT,61
240,1,0,MESSAGE PUMP,WM_GETOBJECT,61
240,1,0,MESSAGE PUMP,WM_GETOBJECT,61
240,1,0,MESSAGE PUMP,WM_GETOBJECT,61
240,1,0,MESSAGE PUMP,WM_GETOBJECT,61
240,1,0,MESSAGE PUMP,WM_GETOBJECT,61
240,1,0,MESSAGE PUMP,WM_GETOBJECT,61
240,1,0,MESSAGE PUMP,WM_GETOBJECT,61
248,1,1,MESSAGE PUMP,WM_NULL,0
1296,0,1,MESSAGE PUMP,WM_KEYDOWN,256
1296,0,1,MESSAGE PUMP,WM_CHAR,258
1296,0,0,MESSAGE PUMP,WM_GETOBJECT,61
1296,0,0,MESSAGE PUMP,WM_GETOBJECT,61
1296,0,0,MESSAGE PUMP,WM_GETOBJECT,61
1296,0,0,MESSAGE PUMP,WM_GETOBJECT,61
1296,0,0,MESSAGE PUMP,WM_GETOBJECT,61
1296,0,0,MESSAGE PUMP,WM_GETOBJECT,61
1296,0,0,MESSAGE PUMP,WM_GETOBJECT,61
1296,0,0,MESSAGE PUMP,WM_GETOBJECT,61
1297,0,1,MESSAGE PUMP,WM_KEYUP,257
1302,0,1,MESSAGE PUMP,WM_NULL,0
1374,0,1,MESSAGE PUMP,WM_KEYDOWN,256
1406,0,1,MESSAGE PUMP,WM_KEYDOWN,256
1406,0,0,MESSAGE PUMP,WM_GETOBJECT,61
1406,0,0,MESSAGE PUMP,WM_GETOBJECT,61
1406,0,0,MESSAGE PUMP,WM_GETOBJECT,61
1406,0,0,MESSAGE PUMP,WM_GETOBJECT,61
1406,0,0,MESSAGE PUMP,WM_GETOBJECT,61
1406,0,0,MESSAGE PUMP,WM_GETOBJECT,61
1406,0,0,MESSAGE PUMP,WM_GETOBJECT,61
1406,0,0,MESSAGE PUMP,WM_GETOBJECT,61
1408,1,1,MESSAGE PUMP,WM_KEYUP,257
1410,0,1,MESSAGE PUMP,WM_NULL,0
1440,1,1,MESSAGE PUMP,WM_KEYUP,257
1528,1,1,MESSAGE PUMP,WM_KEYDOWN,256
1558,1,1,MESSAGE PUMP,WM_KEYDOWN,256
1558,1,0,MESSAGE PUMP,WM_GETOBJECT,61
1558,1,0,MESSAGE PUMP,WM_GETOBJECT,61
1558,1,0,MESSAGE PUMP,WM_GETOBJECT,61
1558,1,0,MESSAGE PUMP,WM_GETOBJECT,61
1558,1,0,MESSAGE PUMP,WM_GETOBJECT,61
1558,1,0,MESSAGE PUMP,WM_GETOBJECT,61
1558,1,0,MESSAGE PUMP,WM_GETOBJECT,61
1558,1,0,MESSAGE PUMP,WM_GETOBJECT,61
1558,1,0,MESSAGE PUMP,WM_GETOBJECT,61
1558,1,0,MESSAGE PUMP,WM_GETOBJECT,61
1558,1,0,MESSAGE PUMP,WM_GETOBJECT,61
1558,1,0,MESSAGE PUMP,WM_GETOBJECT,61
1558,1,0,MESSAGE PUMP,WM_GETOBJECT,61
1558,1,0,MESSAGE PUMP,WM_GETOBJECT,61
1558,1,0,MESSAGE PUMP,WM_GETOBJECT,61
1558,1,0,MESSAGE PUMP,WM_GETOBJECT,61
1558,1,0,MESSAGE PUMP,WM_GETOBJECT,61
1558,1,0,MESSAGE PUMP,WM_GETOBJECT,61
1558,1,0,MESSAGE PUMP,WM_GETOBJECT,61
1558,1,0,MESSAGE PUMP,WM_GETOBJECT,61
1558,1,0,MESSAGE PUMP,WM_GETOBJECT,61
1558,1,0,MESSAGE PUMP,WM_GETOBJECT,61
1558,1,0,MESSAGE PUMP,WM_GETOBJECT,61
1558,1,0,MESSAGE PUMP,WM_GETOBJECT,61
1560,1,1,MESSAGE PUMP,WM_KEYUP,257
1566,1,1,MESSAGE PUMP,WM_NULL,0
1592,1,1,MESSAGE PUMP,WM_KEYUP,257
1680,0,1,MESSAGE PUMP,WM_KEYDOWN,256
1710,1,1,MESSAGE PUMP,WM_KEYDOWN,256
1710,1,0,MESSAGE PUMP,WM_GETOBJECT,61
1710,1,0,MESSAGE PUMP,WM_GETOBJECT,61
1710,1,0,MESSAGE PUMP,WM_GETOBJECT,61
1710,1,0,MESSAGE PUMP,WM_GETOBJECT,61
1710,1,0,MESSAGE PUMP,WM_GETOBJECT,61
1710,1,0,MESSAGE PUMP,WM_GETOBJECT,61
1710,1,0,MESSAGE PUMP,WM_GETOBJECT,61
1710,1,0,MESSAGE PUMP,WM_GETOBJECT,61
1712,1,1,MESSAGE PUMP,WM_KEYUP,257
1716,1,1,MESSAGE PUMP,WM_NULL,0
1745,0,1,MESSAGE PUMP,WM_KEYUP,257
2647,0,1,MESSAGE PUMP,WM_KEYDOWN,256
2647,0,0,MESSAGE PUMP,WM_GETOBJECT,61
2647,0,0,MESSAGE PUMP,WM_GETOBJECT,61
2647,0,0,MESSAGE PUMP,WM_GETOBJECT,61
2647,0,0,MESSAGE PUMP,WM_GETOBJECT,61
2647,0,0,MESSAGE PUMP,WM_GETOBJECT,61
2647,0,0,MESSAGE PUMP,WM_GETOBJECT,61
2647,0,0,MESSAGE PUMP,WM_GETOBJECT,61
2647,0,0,MESSAGE PUMP,WM_GETOBJECT,61
2649,1,1,MESSAGE PUMP,WM_KEYUP,257
2660,0,1,MESSAGE PUMP,WM_NULL,0
2681,1,1,MESSAGE PUMP,WM_KEYDOWN,256
2681,1,0,MESSAGE PUMP,WM_GETOBJECT,61
2681,1,0,MESSAGE PUMP,WM_GETOBJECT,61
2681,1,0,MESSAGE PUMP,WM_GETOBJECT,61
2681,1,0,MESSAGE PUMP,WM_GETOBJECT,61
2681,1,0,MESSAGE PUMP,WM_GETOBJECT,61
2681,1,0,MESSAGE PUMP,WM_GETOBJECT,61
2681,1,0,MESSAGE PUMP,WM_GETOBJECT,61
2681,1,0,MESSAGE PUMP,WM_GETOBJECT,61
2683,1,1,MESSAGE PUMP,WM_KEYUP,257
2693,0,1,MESSAGE PUMP,WM_NULL,0
2716,0,1,MESSAGE PUMP,WM_KEYDOWN,256
2716,0,0,MESSAGE PUMP,WM_GETOBJECT,61
2716,0,0,MESSAGE PUMP,WM_GETOBJECT,61
2716,0,0,MESSAGE PUMP,WM_GETOBJECT,61
2716,0,0,MESSAGE PUMP,WM_GETOBJECT,61
2716,0,0,MESSAGE PUMP,WM_GETOBJECT,61
2716,0,0,MESSAGE PUMP,WM_GETOBJECT,61
2716,0,0,MESSAGE PUMP,WM_GETOBJECT,61
2716,0,0,MESSAGE PUMP,WM_GETOBJECT,61
2717,0,1,MESSAGE PUMP,WM_KEYUP,257
2725,0,1,MESSAGE PUMP,WM_NULL,0
2749,1,1,MESSAGE PUMP,WM_KEYDOWN,256
2749,1,0,MESSAGE PUMP,WM_GETOBJECT,61
2749,1,0,MESSAGE PUMP,WM_GETOBJECT,61
2749,1,0,MESSAGE PUMP,WM_GETOBJECT,61
2749,1,0,MESSAGE PUMP,WM_GETOBJECT,61
2749,1,0,MESSAGE PUMP,WM_GETOBJECT,61
2749,1,0,MESSAGE PUMP,WM_GETOBJECT,61
2749,1,0,MESSAGE PUMP,WM_GETOBJECT,61
2749,1,0,MESSAGE PUMP,WM_GETOBJECT,61
2751,0,1,MESSAGE PUMP,WM_KEYUP,257
2757,0,1,MESSAGE PUMP,WM_NULL,0
2783,0,1,MESSAGE PUMP,WM_KEYDOWN,256
2783,0,0,MESSAGE PUMP,WM_GETOBJECT,61
2783,0,0,MESSAGE PUMP,WM_GETOBJECT,61
2783,0,0,MESSAGE PUMP,WM_GETOBJECT,61
2783,0,0,MESSAGE PUMP,WM_GETOBJECT,61
2783,0,0,MESSAGE PUMP,WM_GETOBJECT,61
2783,0,0,MESSAGE PUMP,WM_GETOBJECT,61
2783,0,0,MESSAGE PUMP,WM_GETOBJECT,61
2783,0,0,MESSAGE PUMP,WM_GETOBJECT,61
2785,1,1,MESSAGE PUMP,WM_KEYUP,257
2796,0,1,MESSAGE PUMP,WM_NULL,0
2817,1,1,MESSAGE PUMP,WM_KEYDOWN,256
2817,1,0,MESSAGE PUMP,WM_GETOBJECT,61
2817,1,0,MESSAGE PUMP,WM_GETOBJECT,61
2817,1,0,MESSAGE PUMP,WM_GETOBJECT,61
2817,1,0,MESSAGE PUMP,WM_GETOBJECT,61
2817,1,0,MESSAGE PUMP,WM_GETOBJECT,61
2817,1,0,MESSAGE PUMP,WM_GETOBJECT,61
2817,1,0,MESSAGE PUMP,WM_GETOBJECT,61
2817,1,0,MESSAGE PUMP,WM_GETOBJECT,61
2819,1,1,MESSAGE PUMP,WM_KEYUP,257
2829,0,1,MESSAGE PUMP,WM_NULL,0
2882,0,1,MESSAGE PUMP,WM_KEYDOWN,256
2882,0,1,MESSAGE PUMP,WM_CHAR,258
2882,0,0,MESSAGE PUMP,WM_GETOBJECT,61
2882,0,0,MESSAGE PUMP,WM_GETOBJECT,61
2882,0,0,MESSAGE PUMP,WM_GETOBJECT,61
2882,0,0,MESSAGE PUMP,WM_GETOBJECT,61
2882,0,0,MESSAGE PUMP,WM_GETOBJECT,61
2882,0,0,MESSAGE PUMP,WM_GETOBJECT,61
2882,0,0,MESSAGE PUMP,WM_GETOBJECT,61
2882,0,0,MESSAGE PUMP,WM_GETOBJECT,61
2883,0,1,MESSAGE PUMP,WM_KEYUP,257
2887,0,1,MESSAGE PUMP,WM_NULL,0
2944,1,1,MESSAGE PUMP,WM_KEYDOWN,256
2946,1,1,MESSAGE PUMP,WM_KEYUP,257
2979,0,1,MESSAGE PUMP,WM_KEYDOWN,256
2981,0,1,MESSAGE PUMP,WM_KEYUP,257
3013,1,1,MESSAGE PUMP,WM_KEYDOWN,256
3016,0,1,MESSAGE PUMP,WM_KEYUP,257
3048,0,1,MESSAGE PUMP,WM_KEYDOWN,256
3050,0,1,MESSAGE PUMP,WM_KEYUP,257
3082,1,1,MESSAGE PUMP,WM_KEYDOWN,256
3084,1,1,MESSAGE PUMP,WM_KEYUP,257
3117,0,1,MESSAGE PUMP,WM_KEYDOWN,256
3119,1,1,MESSAGE PUMP,WM_KEYUP,257
3181,1,1,MESSAGE PUMP,WM_KEYDOWN,256
3181,1,1,MESSAGE PUMP,WM_CHAR,258
3181,1,0,MESSAGE PUMP,WM_GETOBJECT,61
3181,1,0,MESSAGE PUMP,WM_GETOBJECT,61
3181,1,0,MESSAGE PUMP,WM_GETOBJECT,61
3181,1,0,MESSAGE PUMP,WM_GETOBJECT,61
3181,1,0,MESSAGE PUMP,WM_GETOBJECT,61
3181,1,0,MESSAGE PUMP,WM_GETOBJECT,61
3181,1,0,MESSAGE PUMP,WM_GETOBJECT,61
3181,1,0,MESSAGE PUMP,WM_GETOBJECT,61
3183,0,1,MESSAGE PUMP,WM_KEYUP,257
3188,0,1,MESSAGE PUMP,WM_NULL,0
3245,0,1,MESSAGE PUMP,WM_KEYDOWN,256
3245,0,0,MESSAGE PUMP,WM_GETOBJECT,61
3245,0,0,MESSAGE PUMP,WM_GETOBJECT,61
3245,0,0,MESSAGE PUMP,WM_GETOBJECT,61
3245,0,0,MESSAGE PUMP,WM_GETOBJECT,61
3245,0,0,MESSAGE PUMP,WM_GETOBJECT,61
3245,0,0,MESSAGE PUMP,WM_GETOBJECT,61
3245,0,0,MESSAGE PUMP,WM_GETOBJECT,61
3245,0,0,MESSAGE PUMP,WM_GETOBJECT,61
3246,0,1,MESSAGE PUMP,WM_KEYUP,257
3258,0,1,MESSAGE PUMP,WM_NULL,0
3278,0,1,MESSAGE PUMP,WM_KEYDOWN,256
3278,0,0,MESSAGE PUMP,WM_GETOBJECT,61
3278,0,0,MESSAGE PUMP,WM_GETOBJECT,61
3278,0,0,MESSAGE PUMP,WM_GETOBJECT,61
3278,0,0,MESSAGE PUMP,WM_GETOBJECT,61
3278,0,0,MESSAGE PUMP,WM_GETOBJECT,61
3278,0,0,MESSAGE PUMP,WM_GETOBJECT,61
3278,0,0,MESSAGE PUMP,WM_GETOBJECT,61
3278,0,0,MESSAGE PUMP,WM_GETOBJECT,61
3281,0,1,MESSAGE PUMP,WM_KEYUP,257
3290,1,1,MESSAGE PUMP,WM_NULL,0
3343,0,1,MESSAGE PUMP,WM_KEYDOWN,256
3343,0,1,MESSAGE PUMP,WM_CHAR,258
3343,0,0,MESSAGE PUMP,WM_GETOBJECT,61
3343,0,0,MESSAGE PUMP,WM_GETOBJECT,61
3343,0,0,MESSAGE PUMP,WM_GETOBJECT,61
3343,0,0,MESSAGE PUMP,WM_GETOBJECT,61
3343,0,0,MESSAGE PUMP,WM_GETOBJECT,61
3343,0,0,MESSAGE PUMP,WM_GETOBJECT,61
3343,0,0,MESSAGE PUMP,WM_GETOBJECT,61
3343,0,0,MESSAGE PUMP,WM_GETOBJECT,61
3344,0,1,MESSAGE PUMP,WM_KEYUP,257
3350,0,1,MESSAGE PUMP,WM_NULL,0
3406,0,1,MESSAGE PUMP,WM_KEYDOWN,256
3408,1,1,MESSAGE PUMP,WM_KEYUP,257
3441,0,1,MESSAGE PUMP,WM_KEYDOWN,256
3443,1,1,MESSAGE PUMP,WM_KEYUP,257
3505,1,1,MESSAGE PUMP,WM_KEYDOWN,256
3508,0,1,MESSAGE PUMP,WM_KEYUP,257
3540,0,1,MESSAGE PUMP,WM_KEYDOWN,256
3542,1,1,MESSAGE PUMP,WM_KEYUP,257
3575,0,1,MESSAGE PUMP,WM_KEYDOWN,256
3577,1,1,MESSAGE PUMP,WM_KEYUP,257
3609,0,1,MESSAGE PUMP,WM_KEYDOWN,256
3611,0,1,MESSAGE PUMP,WM_KEYUP,257
3644,0,1,MESSAGE PUMP,WM_KEYDOWN,256
3646,1,1,MESSAGE PUMP,WM_KEYUP,257
3678,0,1,MESSAGE PUMP,WM_KEYDOWN,256
3680,1,1,MESSAGE PUMP,WM_KEYUP,257
3712,0,1,MESSAGE PUMP,WM_KEYDOWN,256
3714,1,1,MESSAGE PUMP,WM_KEYUP,257
3776,0,1,MESSAGE PUMP,WM_KEYDOWN,256
3776,0,1,MESSAGE PUMP,WM_CHAR,258
3776,0,0,MESSAGE PUMP,WM_GETOBJECT,61
3776,0,0,MESSAGE PUMP,WM_GETOBJECT,61
3776,0,0,MESSAGE PUMP,WM_GETOBJECT,61
3776,0,0,MESSAGE PUMP,WM_GETOBJECT,61
3776,0,0,MESSAGE PUMP,WM_GETOBJECT,61
3776,0,0,MESSAGE PUMP,WM_GETOBJECT,61
3776,0,0,MESSAGE PUMP,WM_GETOBJECT,61
3776,0,0,MESSAGE PUMP,WM_GETOBJECT,61
3778,1,1,MESSAGE PUMP,WM_KEYUP,257
3782,0,1,MESSAGE PUMP,WM_NULL,0
3841,0,1,MESSAGE PUMP,WM_KEYDOWN,256
3841,0,0,MESSAGE PUMP,WM_GETOBJECT,61
3841,0,0,MESSAGE PUMP,WM_GETOBJECT,61
3841,0,0,MESSAGE PUMP,WM_GETOBJECT,61
3841,0,0,MESSAGE PUMP,WM_GETOBJECT,61
3841,0,0,MESSAGE PUMP,WM_GETOBJECT,61
3841,0,0,MESSAGE PUMP,WM_GETOBJECT,61
3841,0,0,MESSAGE PUMP,WM_GETOBJECT,61
3841,0,0,MESSAGE PUMP,WM_GETOBJECT,61
3842,0,1,MESSAGE PUMP,WM_KEYUP,257
3852,0,1,MESSAGE PUMP,WM_NULL,0
3875,0,1,MESSAGE PUMP,WM_KEYDOWN,256
3875,0,0,MESSAGE PUMP,WM_GETOBJECT,61
3875,0,0,MESSAGE PUMP,WM_GETOBJECT,61
3875,0,0,MESSAGE PUMP,WM_GETOBJECT,61
3875,0,0,MESSAGE PUMP,WM_GETOBJECT,61
3875,0,0,MESSAGE PUMP,WM_GETOBJECT,61
3875,0,0,MESSAGE PUMP,WM_GETOBJECT,61
3875,0,0,MESSAGE PUMP,WM_GETOBJECT,61
3875,0,0,MESSAGE PUMP,WM_GETOBJECT,61
3877,1,1,MESSAGE PUMP,WM_KEYUP,257
3885,1,1,MESSAGE PUMP,WM_NULL,0
3940,1,1,MESSAGE PUMP,WM_KEYDOWN,256
3940,1,1,MESSAGE PUMP,WM_CHAR,258
3940,1,0,MESSAGE PUMP,WM_GETOBJECT,61
3940,1,0,MESSAGE PUMP,WM_GETOBJECT,61
3940,1,0,MESSAGE PUMP,WM_GETOBJECT,61
3940,1,0,MESSAGE PUMP,WM_GETOBJECT,61
3940,1,0,MESSAGE PUMP,WM_GETOBJECT,61
3940,1,0,MESSAGE PUMP,WM_GETOBJECT,61
3940,1,0,MESSAGE PUMP,WM_GETOBJECT,61
3940,1,0,MESSAGE PUMP,WM_GETOBJECT,61
3942,0,1,MESSAGE PUMP,WM_KEYUP,257
3945,0,1,MESSAGE PUMP,WM_NULL,0
4004,0,1,MESSAGE PUMP,WM_KEYDOWN,256
4006,1,1,MESSAGE PUMP,WM_KEYUP,257
4038,1,1,MESSAGE PUMP,WM_KEYDOWN,256
4040,1,1,MESSAGE PUMP,WM_KEYUP,257
4103,0,1,MESSAGE PUMP,WM_KEYDOWN,256
4105,1,1,MESSAGE PUMP,WM_KEYUP,257
4137,0,1,MESSAGE PUMP,WM_KEYDOWN,256
4139,1,1,MESSAGE PUMP,WM_KEYUP,257
4172,0,1,MESSAGE PUMP,WM_KEYDOWN,256
4174,1,1,MESSAGE PUMP,WM_KEYUP,257
4236,1,1,MESSAGE PUMP,WM_KEYDOWN,256
4236,1,1,MESSAGE PUMP,WM_CHAR,258
4236,1,0,MESSAGE PUMP,WM_GETOBJECT,61
4236,1,0,MESSAGE PUMP,WM_GETOBJECT,61
4236,1,0,MESSAGE PUMP,WM_GETOBJECT,61
4236,1,0,MESSAGE PUMP,WM_GETOBJECT,61
4236,1,0,MESSAGE PUMP,WM_GETOBJECT,61
4236,1,0,MESSAGE PUMP,WM_GETOBJECT,61
4236,1,0,MESSAGE PUMP,WM_GETOBJECT,61
4236,1,0,MESSAGE PUMP,WM_GETOBJECT,61
4238,0,1,MESSAGE PUMP,WM_KEYUP,257
4239,1,1,MESSAGE PUMP,WM_NULL,0
4300,0,1,MESSAGE PUMP,WM_KEYDOWN,256
4300,0,0,MESSAGE PUMP,WM_GETOBJECT,61
4300,0,0,MESSAGE PUMP,WM_GETOBJECT,61
4300,0,0,MESSAGE PUMP,WM_GETOBJECT,61
4300,0,0,MESSAGE PUMP,WM_GETOBJECT,61
4300,0,0,MESSAGE PUMP,WM_GETOBJECT,61
4300,0,0,MESSAGE PUMP,WM_GETOBJECT,61
4300,0,0,MESSAGE PUMP,WM_GETOBJECT,61
4300,0,0,MESSAGE PUMP,WM_GETOBJECT,61
4302,1,1,MESSAGE PUMP,WM_KEYUP,257
4310,0,1,MESSAGE PUMP,WM_NULL,0
4334,1,1,MESSAGE PUMP,WM_KEYDOWN,256
4334,1,0,MESSAGE PUMP,WM_GETOBJECT,61
4334,1,0,MESSAGE PUMP,WM_GETOBJECT,61
4334,1,0,MESSAGE PUMP,WM_GETOBJECT,61
4334,1,0,MESSAGE PUMP,WM_GETOBJECT,61
4334,1,0,MESSAGE PUMP,WM_GETOBJECT,61
4334,1,0,MESSAGE PUMP,WM_GETOBJECT,61
4334,1,0,MESSAGE PUMP,WM_GETOBJECT,61
4334,1,0,MESSAGE PUMP,WM_GETOBJECT,61
4336,1,1,MESSAGE PUMP,WM_KEYUP,257
4343,0,1,MESSAGE PUMP,WM_NULL,0
4399,0,1,MESSAGE PUMP,WM_KEYDOWN,256
4399,0,0,MESSAGE PUMP,WM_GETOBJECT,61
4399,0,0,MESSAGE PUMP,WM_GETOBJECT,61
4399,0,0,MESSAGE PUMP,WM_GETOBJECT,61
4399,0,0,MESSAGE PUMP,WM_GETOBJECT,61
4399,0,0,MESSAGE PUMP,WM_GETOBJECT,61
4399,0,0,MESSAGE PUMP,WM_GETOBJECT,61
4399,0,0,MESSAGE PUMP,WM_GETOBJECT,61
4399,0,0,MESSAGE PUMP,WM_GETOBJECT,61
4401,1,1,MESSAGE PUMP,WM_KEYUP,257
4408,1,1,MESSAGE PUMP,WM_NULL,0
4433,1,1,MESSAGE PUMP,WM_KEYDOWN,256
4433,1,0,MESSAGE PUMP,WM_GETOBJECT,61
4433,1,0,MESSAGE PUMP,WM_GETOBJECT,61
4433,1,0,MESSAGE PUMP,WM_GETOBJECT,61
4433,1,0,MESSAGE PUMP,WM_GETOBJECT,61
4433,1,0,MESSAGE PUMP,WM_GETOBJECT,61
4433,1,0,MESSAGE PUMP,WM_GETOBJECT,61
4433,1,0,MESSAGE PUMP,WM_GETOBJECT,61
4433,1,0,MESSAGE PUMP,WM_GETOBJECT,61
4435,1,1,MESSAGE PUMP,WM_KEYUP,257
4441,1,1,MESSAGE PUMP,WM_NULL,0
4467,2,1,MESSAGE PUMP,WM_KEYDOWN,256
4467,2,0,MESSAGE PUMP,WM_GETOBJECT,61
4467,2,0,MESSAGE PUMP,WM_GETOBJECT,61
4467,2,0,MESSAGE PUMP,WM_GETOBJECT,61
4467,2,0,MESSAGE PUMP,WM_GETOBJECT,61
4467,2,0,MESSAGE PUMP,WM_GETOBJECT,61
4467,2,0,MESSAGE PUMP,WM_GETOBJECT,61
4467,2,0,MESSAGE PUMP,WM_GETOBJECT,61
4467,2,0,MESSAGE PUMP,WM_GETOBJECT,61
4470,0,1,MESSAGE PUMP,WM_KEYUP,257
4480,1,1,MESSAGE PUMP,WM_NULL,0
4502,1,1,MESSAGE PUMP,WM_KEYDOWN,256
4502,1,0,MESSAGE PUMP,WM_GETOBJECT,61
4502,1,0,MESSAGE PUMP,WM_GETOBJECT,61
4502,1,0,MESSAGE PUMP,WM_GETOBJECT,61
4502,1,0,MESSAGE PUMP,WM_GETOBJECT,61
4502,1,0,MESSAGE PUMP,WM_GETOBJECT,61
4502,1,0,MESSAGE PUMP,WM_GETOBJECT,61
4502,1,0,MESSAGE PUMP,WM_GETOBJECT,61
4502,1,0,MESSAGE PUMP,WM_GETOBJECT,61
4505,0,1,MESSAGE PUMP,WM_KEYUP,257
4514,0,1,MESSAGE PUMP,WM_NULL,0
4537,0,1,MESSAGE PUMP,WM_KEYDOWN,256
4537,0,0,MESSAGE PUMP,WM_GETOBJECT,61
4537,0,0,MESSAGE PUMP,WM_GETOBJECT,61
4537,0,0,MESSAGE PUMP,WM_GETOBJECT,61
4537,0,0,MESSAGE PUMP,WM_GETOBJECT,61
4537,0,0,MESSAGE PUMP,WM_GETOBJECT,61
4537,0,0,MESSAGE PUMP,WM_GETOBJECT,61
4537,0,0,MESSAGE PUMP,WM_GETOBJECT,61
4537,0,0,MESSAGE PUMP,WM_GETOBJECT,61
4539,1,1,MESSAGE PUMP,WM_KEYUP,257
4546,1,1,MESSAGE PUMP,WM_NULL,0
4572,0,1,MESSAGE PUMP,WM_KEYDOWN,256
4572,0,0,MESSAGE PUMP,WM_GETOBJECT,61
4572,0,0,MESSAGE PUMP,WM_GETOBJECT,61
4572,0,0,MESSAGE PUMP,WM_GETOBJECT,61
4572,0,0,MESSAGE PUMP,WM_GETOBJECT,61
4572,0,0,MESSAGE PUMP,WM_GETOBJECT,61
4572,0,0,MESSAGE PUMP,WM_GETOBJECT,61
4572,0,0,MESSAGE PUMP,WM_GETOBJECT,61
4572,0,0,MESSAGE PUMP,WM_GETOBJECT,61
4575,0,1,MESSAGE PUMP,WM_KEYUP,257
4585,0,1,MESSAGE PUMP,WM_NULL,0
4607,0,1,MESSAGE PUMP,WM_KEYDOWN,256
4607,0,0,MESSAGE PUMP,WM_GETOBJECT,61
4607,0,0,MESSAGE PUMP,WM_GETOBJECT,61
4607,0,0,MESSAGE PUMP,WM_GETOBJECT,61
4607,0,0,MESSAGE PUMP,WM_GETOBJECT,61
4607,0,0,MESSAGE PUMP,WM_GETOBJECT,61
4607,0,0,MESSAGE PUMP,WM_GETOBJECT,61
4607,0,0,MESSAGE PUMP,WM_GETOBJECT,61
4607,0,0,MESSAGE PUMP,WM_GETOBJECT,61
4609,0,1,MESSAGE PUMP,WM_KEYUP,257
4618,0,1,MESSAGE PUMP,WM_NULL,0
4641,0,1,MESSAGE PUMP,WM_KEYDOWN,256
4641,0,0,MESSAGE PUMP,WM_GETOBJECT,61
4641,0,0,MESSAGE PUMP,WM_GETOBJECT,61
4641,0,0,MESSAGE PUMP,WM_GETOBJECT,61
4641,0,0,MESSAGE PUMP,WM_GETOBJECT,61
4641,0,0,MESSAGE PUMP,WM_GETOBJECT,61
4641,0,0,MESSAGE PUMP,WM_GETOBJECT,61
4641,0,0,MESSAGE PUMP,WM_GETOBJECT,61
4641,0,0,MESSAGE PUMP,WM_GETOBJECT,61
4644,0,1,MESSAGE PUMP,WM_KEYUP,257
4651,0,1,MESSAGE PUMP,WM_NULL,0
4706,0,1,MESSAGE PUMP,WM_KEYDOWN,256
4706,0,0,MESSAGE PUMP,WM_GETOBJECT,61
4706,0,0,MESSAGE PUMP,WM_GETOBJECT,61
4706,0,0,MESSAGE PUMP,WM_GETOBJECT,61
4706,0,0,MESSAGE PUMP,WM_GETOBJECT,61
4706,0,0,MESSAGE PUMP,WM_GETOBJECT,61
4706,0,0,MESSAGE PUMP,WM_GETOBJECT,61
4706,0,0,MESSAGE PUMP,WM_GETOBJECT,61
4706,0,0,MESSAGE PUMP,WM_GETOBJECT,61
4708,2,1,MESSAGE PUMP,WM_KEYUP,257
4717,0,1,MESSAGE PUMP,WM_NULL,0
4770,1,1,MESSAGE PUMP,WM_KEYDOWN,256
4770,1,1,MESSAGE PUMP,WM_CHAR,258
4770,1,0,MESSAGE PUMP,WM_GETOBJECT,61
4770,1,0,MESSAGE PUMP,WM_GETOBJECT,61
4770,1,0,MESSAGE PUMP,WM_GETOBJECT,61
4770,1,0,MESSAGE PUMP,WM_GETOBJECT,61
4770,1,0,MESSAGE PUMP,WM_GETOBJECT,61
4770,1,0,MESSAGE PUMP,WM_GETOBJECT,61
4770,1,0,MESSAGE PUMP,WM_GETOBJECT,61
4770,1,0,MESSAGE PUMP,WM_GETOBJECT,61
4772,0,1,MESSAGE PUMP,WM_KEYUP,257
4776,0,1,MESSAGE PUMP,WM_NULL,0
4834,0,1,MESSAGE PUMP,WM_KEYDOWN,256
4837,0,1,MESSAGE PUMP,WM_KEYUP,257
4898,1,1,MESSAGE PUMP,WM_KEYDOWN,256
4900,1,1,MESSAGE PUMP,WM_KEYUP,257
4933,0,1,MESSAGE PUMP,WM_KEYDOWN,256
4935,1,1,MESSAGE PUMP,WM_KEYUP,257
4968,0,1,MESSAGE PUMP,WM_KEYDOWN,256
4970,1,1,MESSAGE PUMP,WM_KEYUP,257
5002,1,1,MESSAGE PUMP,WM_KEYDOWN,256
5004,1,1,MESSAGE PUMP,WM_KEYUP,257
5037,0,1,MESSAGE PUMP,WM_KEYDOWN,256
5039,0,1,MESSAGE PUMP,WM_KEYUP,257
5101,1,1,MESSAGE PUMP,WM_KEYDOWN,256
5134,0,1,MESSAGE PUMP,WM_KEYDOWN,256
5136,1,1,MESSAGE PUMP,WM_KEYUP,257
5168,0,1,MESSAGE PUMP,WM_KEYUP,257
5230,1,1,MESSAGE PUMP,WM_KEYDOWN,256
5230,1,1,MESSAGE PUMP,WM_CHAR,258
5230,1,0,MESSAGE PUMP,WM_GETOBJECT,61
5230,1,0,MESSAGE PUMP,WM_GETOBJECT,61
5230,1,0,MESSAGE PUMP,WM_GETOBJECT,61
5230,1,0,MESSAGE PUMP,WM_GETOBJECT,61
5230,1,0,MESSAGE PUMP,WM_GETOBJECT,61
5230,1,0,MESSAGE PUMP,WM_GETOBJECT,61
5230,1,0,MESSAGE PUMP,WM_GETOBJECT,61
5230,1,0,MESSAGE PUMP,WM_GETOBJECT,61
5232,0,1,MESSAGE PUMP,WM_KEYUP,257
5234,1,1,MESSAGE PUMP,WM_NULL,0
5294,1,1,MESSAGE PUMP,WM_KEYDOWN,256
5294,1,0,MESSAGE PUMP,WM_GETOBJECT,61
5294,1,0,MESSAGE PUMP,WM_GETOBJECT,61
5294,1,0,MESSAGE PUMP,WM_GETOBJECT,61
5294,1,0,MESSAGE PUMP,WM_GETOBJECT,61
5294,1,0,MESSAGE PUMP,WM_GETOBJECT,61
5294,1,0,MESSAGE PUMP,WM_GETOBJECT,61
5294,1,0,MESSAGE PUMP,WM_GETOBJECT,61
5294,1,0,MESSAGE PUMP,WM_GETOBJECT,61
5296,1,1,MESSAGE PUMP,WM_KEYUP,257
5305,1,1,MESSAGE PUMP,WM_NULL,0
5329,0,1,MESSAGE PUMP,WM_KEYDOWN,256
5329,0,0,MESSAGE PUMP,WM_GETOBJECT,61
5329,0,0,MESSAGE PUMP,WM_GETOBJECT,61
5329,0,0,MESSAGE PUMP,WM_GETOBJECT,61
5329,0,0,MESSAGE PUMP,WM_GETOBJECT,61
5329,0,0,MESSAGE PUMP,WM_GETOBJECT,61
5329,0,0,MESSAGE PUMP,WM_GETOBJECT,61
5329,0,0,MESSAGE PUMP,WM_GETOBJECT,61
5329,0,0,MESSAGE PUMP,WM_GETOBJECT,61
5331,1,1,MESSAGE PUMP,WM_KEYUP,257
5338,0,1,MESSAGE PUMP,WM_NULL,0
5394,0,1,MESSAGE PUMP,WM_KEYDOWN,256
5394,0,1,MESSAGE PUMP,WM_CHAR,258
5394,0,0,MESSAGE PUMP,WM_GETOBJECT,61
5394,0,0,MESSAGE PUMP,WM_GETOBJECT,61
5394,0,0,MESSAGE PUMP,WM_GETOBJECT,61
5394,0,0,MESSAGE PUMP,WM_GETOBJECT,61
5394,0,0,MESSAGE PUMP,WM_GETOBJECT,61
5394,0,0,MESSAGE PUMP,WM_GETOBJECT,61
5394,0,0,MESSAGE PUMP,WM_GETOBJECT,61
5394,0,0,MESSAGE PUMP,WM_GETOBJECT,61
5395,0,1,MESSAGE PUMP,WM_KEYUP,257
5398,0,1,MESSAGE PUMP,WM_NULL,0
5457,0,1,MESSAGE PUMP,WM_KEYDOWN,256
5490,0,1,MESSAGE PUMP,WM_KEYDOWN,256
5493,0,1,MESSAGE PUMP,WM_KEYUP,257
5525,0,1,MESSAGE PUMP,WM_KEYUP,257
5587,1,1,MESSAGE PUMP,WM_KEYDOWN,256
5590,0,1,MESSAGE PUMP,WM_KEYUP,257
5652,0,1,MESSAGE PUMP,WM_KEYDOWN,256
5654,1,1,MESSAGE PUMP,WM_KEYUP,257
5686,1,1,MESSAGE PUMP,WM_KEYDOWN,256
5689,0,1,MESSAGE PUMP,WM_KEYUP,257
5721,0,1,MESSAGE PUMP,WM_KEYDOWN,256
5723,1,1,MESSAGE PUMP,WM_KEYUP,257
5786,0,1,MESSAGE PUMP,WM_KEYDOWN,256
5786,0,1,MESSAGE PUMP,WM_CHAR,258
5786,0,0,MESSAGE PUMP,WM_GETOBJECT,61
5786,0,0,MESSAGE PUMP,WM_GETOBJECT,61
5786,0,0,MESSAGE PUMP,WM_GETOBJECT,61
5786,0,0,MESSAGE PUMP,WM_GETOBJECT,61
5786,0,0,MESSAGE PUMP,WM_GETOBJECT,61
5786,0,0,MESSAGE PUMP,WM_GETOBJECT,61
5786,0,0,MESSAGE PUMP,WM_GETOBJECT,61
5786,0,0,MESSAGE PUMP,WM_GETOBJECT,61
5788,0,1,MESSAGE PUMP,WM_KEYUP,257
5792,0,1,MESSAGE PUMP,WM_NULL,0
5850,1,1,MESSAGE PUMP,WM_KEYDOWN,256
5850,1,0,MESSAGE PUMP,WM_GETOBJECT,61
5850,1,0,MESSAGE PUMP,WM_GETOBJECT,61
5850,1,0,MESSAGE PUMP,WM_GETOBJECT,61
5850,1,0,MESSAGE PUMP,WM_GETOBJECT,61
5850,1,0,MESSAGE PUMP,WM_GETOBJECT,61
5850,1,0,MESSAGE PUMP,WM_GETOBJECT,61
5850,1,0,MESSAGE PUMP,WM_GETOBJECT,61
5850,1,0,MESSAGE PUMP,WM_GETOBJECT,61
5853,0,1,MESSAGE PUMP,WM_KEYUP,257
5863,0,1,MESSAGE PUMP,WM_NULL,0
5915,1,1,MESSAGE PUMP,WM_KEYDOWN,256
5915,1,0,MESSAGE PUMP,WM_GETOBJECT,61
5915,1,0,MESSAGE PUMP,WM_GETOBJECT,61
5915,1,0,MESSAGE PUMP,WM_GETOBJECT,61
5915,1,0,MESSAGE PUMP,WM_GETOBJECT,61
5915,1,0,MESSAGE PUMP,WM_GETOBJECT,61
5915,1,0,MESSAGE PUMP,WM_GETOBJECT,61
5915,1,0,MESSAGE PUMP,WM_GETOBJECT,61
5915,1,0,MESSAGE PUMP,WM_GETOBJECT,61
5917,1,1,MESSAGE PUMP,WM_KEYUP,257
5928,1,1,MESSAGE PUMP,WM_NULL,0
5950,0,1,MESSAGE PUMP,WM_KEYDOWN,256
5950,0,0,MESSAGE PUMP,WM_GETOBJECT,61
5950,0,0,MESSAGE PUMP,WM_GETOBJECT,61
5950,0,0,MESSAGE PUMP,WM_GETOBJECT,61
5950,0,0,MESSAGE PUMP,WM_GETOBJECT,61
5950,0,0,MESSAGE PUMP,WM_GETOBJECT,61
5950,0,0,MESSAGE PUMP,WM_GETOBJECT,61
5950,0,0,MESSAGE PUMP,WM_GETOBJECT,61
5950,0,0,MESSAGE PUMP,WM_GETOBJECT,61
5953,0,1,MESSAGE PUMP,WM_KEYUP,257
5961,1,1,MESSAGE PUMP,WM_NULL,0
5985,0,1,MESSAGE PUMP,WM_KEYDOWN,256
5985,0,0,MESSAGE PUMP,WM_GETOBJECT,61
5985,0,0,MESSAGE PUMP,WM_GETOBJECT,61
5985,0,0,MESSAGE PUMP,WM_GETOBJECT,61
5985,0,0,MESSAGE PUMP,WM_GETOBJECT,61
5985,0,0,MESSAGE PUMP,WM_GETOBJECT,61
5985,0,0,MESSAGE PUMP,WM_GETOBJECT,61
5985,0,0,MESSAGE PUMP,WM_GETOBJECT,61
5985,0,0,MESSAGE PUMP,WM_GETOBJECT,61
5987,1,1,MESSAGE PUMP,WM_KEYUP,257
5994,0,1,MESSAGE PUMP,WM_NULL,0
6019,1,1,MESSAGE PUMP,WM_KEYDOWN,256
6019,1,0,MESSAGE PUMP,WM_GETOBJECT,61
6019,1,0,MESSAGE PUMP,WM_GETOBJECT,61
6019,1,0,MESSAGE PUMP,WM_GETOBJECT,61
6019,1,0,MESSAGE PUMP,WM_GETOBJECT,61
6019,1,0,MESSAGE PUMP,WM_GETOBJECT,61
6019,1,0,MESSAGE PUMP,WM_GETOBJECT,61
6019,1,0,MESSAGE PUMP,WM_GETOBJECT,61
6019,1,0,MESSAGE PUMP,WM_GETOBJECT,61
6022,0,1,MESSAGE PUMP,WM_KEYUP,257
6027,0,1,MESSAGE PUMP,WM_NULL,0
6054,0,1,MESSAGE PUMP,WM_KEYDOWN,256
6054,0,0,MESSAGE PUMP,WM_GETOBJECT,61
6054,0,0,MESSAGE PUMP,WM_GETOBJECT,61
6054,0,0,MESSAGE PUMP,WM_GETOBJECT,61
6054,0,0,MESSAGE PUMP,WM_GETOBJECT,61
6054,0,0,MESSAGE PUMP,WM_GETOBJECT,61
6054,0,0,MESSAGE PUMP,WM_GETOBJECT,61
6054,0,0,MESSAGE PUMP,WM_GETOBJECT,61
6054,0,0,MESSAGE PUMP,WM_GETOBJECT,61
6056,1,1,MESSAGE PUMP,WM_KEYUP,257
6066,0,1,MESSAGE PUMP,WM_NULL,0
6119,0,1,MESSAGE PUMP,WM_KEYDOWN,256
6119,0,1,MESSAGE PUMP,WM_CHAR,258
6119,0,0,MESSAGE PUMP,WM_GETOBJECT,61
6119,0,0,MESSAGE PUMP,WM_GETOBJECT,61
6119,0,0,MESSAGE PUMP,WM_GETOBJECT,61
6119,0,0,MESSAGE PUMP,WM_GETOBJECT,61
6119,0,0,MESSAGE PUMP,WM_GETOBJECT,61
6119,0,0,MESSAGE PUMP,WM_GETOBJECT,61
6119,0,0,MESSAGE PUMP,WM_GETOBJECT,61
6119,0,0,MESSAGE PUMP,WM_GETOBJECT,61
6120,0,1,MESSAGE PUMP,WM_KEYUP,257
6125,1,1,MESSAGE PUMP,WM_NULL,0
6182,0,1,MESSAGE PUMP,WM_KEYDOWN,256
6185,0,1,MESSAGE PUMP,WM_KEYUP,257
6247,0,1,MESSAGE PUMP,WM_KEYDOWN,256
6279,0,1,MESSAGE PUMP,WM_KEYDOWN,256
6281,1,1,MESSAGE PUMP,WM_KEYUP,257
6313,1,1,MESSAGE PUMP,WM_KEYUP,257
6376,1,1,MESSAGE PUMP,WM_KEYDOWN,256
6378,1,1,MESSAGE PUMP,WM_KEYUP,257
6411,0,1,MESSAGE PUMP,WM_KEYDOWN,256
6413,1,1,MESSAGE PUMP,WM_KEYUP,257
6476,0,1,MESSAGE PUMP,WM_KEYDOWN,256
6476,0,1,MESSAGE PUMP,WM_CHAR,258
6476,0,0,MESSAGE PUMP,WM_GETOBJECT,61
6476,0,0,MESSAGE PUMP,WM_GETOBJECT,61
6476,0,0,MESSAGE PUMP,WM_GETOBJECT,61
6476,0,0,MESSAGE PUMP,WM_GETOBJECT,61
6476,0,0,MESSAGE PUMP,WM_GETOBJECT,61
6476,0,0,MESSAGE PUMP,WM_GETOBJECT,61
6476,0,0,MESSAGE PUMP,WM_GETOBJECT,61
6476,0,0,MESSAGE PUMP,WM_GETOBJECT,61
6477,0,1,MESSAGE PUMP,WM_KEYUP,257
6480,0,1,MESSAGE PUMP,WM_NULL,0
7441,0,1,MESSAGE PUMP,WM_KEYDOWN,256
7474,0,1,MESSAGE PUMP,WM_KEYDOWN,256
7476,1,1,MESSAGE PUMP,WM_KEYUP,257
7509,1,1,MESSAGE PUMP,WM_KEYUP,257
7632,1,1,MESSAGE PUMP,WM_SYSKEYDOWN,260
7664,1,1,MESSAGE PUMP,WM_SYSKEYDOWN,260
7664,1,1,MESSAGE PUMP,WM_SYSCOMMAND,274
7664,1,1,MESSAGE PUMP,WM_CLOSE,16
7664,10,0,MESSAGE PUMP,Unknown,144
7664,10,0,MESSAGE PUMP,WM_WINDOWPOSCHANGING,70
7664,10,0,MESSAGE PUMP,WM_WINDOWPOSCHANGED,71
7664,10,0,MESSAGE PUMP,WM_NCACTIVATE,134
7664,10,0,MESSAGE PUMP,WM_GETICON,127
7664,10,0,MESSAGE PUMP,WM_ACTIVATE,6
7664,10,0,MESSAGE PUMP,WM_ACTIVATEAPP,28
7664,10,0,MESSAGE PUMP,WM_KILLFOCUS,8
7664,10,0,MESSAGE PUMP,WM_IME_SETCONTEXT,641
7664,10,0,MESSAGE PUMP,WM_IME_NOTIFY,642
7664,10,0,MESSAGE PUMP,WM_DESTROY,2
7664,10,0,MESSAGE PUMP,WM_NCDESTROY,130
