Frame,Poll Count,Is Polling,Source,Event Name,Event Code
0,0,0,MESSAGE PUMP,WM_GETMINMAXINFO,36
0,0,0,MESSAGE PUMP,WM_WINDOWPOSCHANGING,70
0,0,0,MESSAGE PUMP,WM_GETMINMAXINFO,36
0,0,0,MESSAGE PUMP,WM_NCCALCSIZE,131
0,0,0,MESSAGE PUMP,WM_GETOBJECT,61
0,0,0,MESSAGE PUMP,WM_GETOBJECT,61
0,0,0,MESSAGE PUMP,WM_GETMINMAXINFO,36
0,0,0,MESSAGE PUMP,WM_GETOBJECT,61
0,0,0,MESSAGE PUMP,WM_PAINT,15
0,0,0,MESSAGE PUMP,WM_NCPAINT,133
0,0,0,MESSAGE PUMP,WM_ERASEBKGND,20
0,0,0,MESSAGE PUMP,Unknown,49849
0,0,0,MESSAGE PUMP,WM_GETOBJECT,61
0,0,0,MESSAGE PUMP,Unknown,356
0,0,0,MESSAGE PUMP,WM_GETOBJECT,61
0,0,0,MESSAGE PUMP,WM_GETOBJECT,61
0,0,0,MESSAGE PUMP,WM_GETOBJECT,61
0,0,0,MESSAGE PUMP,WM_GETOBJECT,61
0,0,0,MESSAGE PUMP,WM_WINDOWPOSCHANGING,70
0,0,0,MESSAGE PUMP,WM_ACTIVATEAPP,28
0,0,0,MESSAGE PUMP,WM_NCACTIVATE,134
0,0,0,MESSAGE PUMP,WM_ACTIVATE,6
0,0,0,MESSAGE PUMP,WM_IME_SETCONTEXT,641
0,0,0,MESSAGE PUMP,WM_IME_NOTIFY,642
0,0,0,MESSAGE PUMP,WM_GETOBJECT,61
0,0,0,MESSAGE PUMP,WM_GETOBJECT,61
0,0,0,MESSAGE PUMP,WM_GETOBJECT,61
0,0,0,MESSAGE PUMP,WM_GETOBJECT,61
0,0,0,MESSAGE PUMP,WM_GETOBJECT,61
0,0,0,MESSAGE PUMP,WM_GETOBJECT,61
0,0,0,MESSAGE PUMP,WM_GETOBJECT,61
0,0,0,MESSAGE PUMP,WM_GETOBJECT,61
0,0,0,MESSAGE PUMP,WM_GETOBJECT,61
0,0,0,MESSAGE PUMP,WM_GETOBJECT,61
0,0,0,MESSAGE PUMP,WM_GETOBJECT,61
0,0,0,MESSAGE PUMP,WM_GETOBJECT,61
0,0,0,MESSAGE PUMP,WM_GETOBJECT,61
0,0,0,MESSAGE PUMP,WM_GETOBJECT,61
0,0,0,MESSAGE PUMP,WM_GETOBJECT,61
0,0,0,MESSAGE PUMP,WM_GETOBJECT,61
0,0,0,MESSAGE PUMP,WM_GETOBJECT,61
0,0,0,MESSAGE PUMP,WM_GETOBJECT,61
0,0,0,MESSAGE PUMP,WM_GETOBJECT,61
0,0,0,MESSAGE PUMP,WM_GETOBJECT,61
0,0,0,MESSAGE PUMP,WM_GETOBJECT,61
0,0,0,MESSAGE PUMP,WM_GETOBJECT,61
0,0,0,MESSAGE PUMP,WM_GETOBJECT,61
0,0,0,MESSAGE PUMP,WM_GETOBJECT,61
0,0,0,MESSAGE PUMP,WM_GETTEXTLENGTH,14
0,0,0,MESSAGE PUMP,WM_GETTEXT,13
0,0,0,MESSAGE PUMP,WM_GETOBJECT,61
0,0,0,MESSAGE PUMP,WM_GETOBJECT,61
0,0,0,MESSAGE PUMP,WM_GETICON,127
0,0,0,MESSAGE PUMP,WM_GETICON,127
0,0,0,MESSAGE PUMP,WM_GETOBJECT,61
0,0,0,MESSAGE PUMP,WM_GETOBJECT,61
0,0,0,MESSAGE PUMP,WM_GETOBJECT,61
0,0,0,MESSAGE PUMP,WM_GETOBJECT,61
0,0,0,MESSAGE PUMP,WM_GETOBJECT,61
0,0,0,MESSAGE PUMP,WM_GETOBJECT,61
0,0,0,MESSAGE PUMP,WM_GETOBJECT,61
0,0,0,MESSAGE PUMP,WM_GETOBJECT,61
0,0,0,MESSAGE PUMP,WM_GETOBJECT,61
0,0,0,MESSAGE PUMP,WM_GETOBJECT,61
0,0,0,MESSAGE PUMP,WM_GETOBJECT,61
0,0,0,MESSAGE PUMP,WM_GETOBJECT,61
0,0,0,MESSAGE PUMP,WM_GETTEXTLENGTH,14
0,0,0,MESSAGE PUMP,WM_GETTEXT,13
0,0,0,MESSAGE PUMP,WM_GETICON,127
0,0,0,MESSAGE PUMP,WM_GETOBJECT,61
0,0,0,MESSAGE PUMP,WM_GETOBJECT,61
0,0,0,MESSAGE PUMP,WM_GETOBJECT,61
0,0,0,MESSAGE PUMP,WM_GETOBJECT,61
0,0,0,MESSAGE PUMP,WM_GETOBJECT,61
0,0,0,MESSAGE PUMP,WM_GETOBJECT,61
0,0,0,MESSAGE PUMP,WM_GETOBJECT,61
0,0,0,MESSAGE PUMP,WM_GETOBJECT,61
0,0,0,MESSAGE PUMP,WM_GETOBJECT,61
0,0,0,MESSAGE PUMP,WM_GETOBJECT,61
0,0,0,MESSAGE PUMP,WM_GETOBJECT,61
0,0,0,MESSAGE PUMP,WM_GETOBJECT,61
0,0,0,MESSAGE PUMP,WM_GETOBJECT,61
0,0,0,MESSAGE PUMP,WM_GETOBJECT,61
0,0,0,MESSAGE PUMP,WM_GETOBJECT,61
0,0,0,MESSAGE PUMP,WM_GETOBJECT,61
0,0,0,MESSAGE PUMP,WM_GETOBJECT,61
0,0,0,MESSAGE PUMP,WM_GETOBJECT,61
0,0,0,MESSAGE PUMP,WM_GETOBJECT,61
0,0,0,MESSAGE PUMP,WM_GETOBJECT,61
0,0,0,MESSAGE PUMP,WM_GETOBJECT,61
0,0,0,MESSAGE PUMP,WM_GETOBJECT,61
0,0,0,MESSAGE PUMP,WM_GETOBJECT,61
0,0,0,MESSAGE PUMP,WM_GETOBJECT,61
0,0,0,MESSAGE PUMP,WM_GETOBJECT,61
0,0,0,MESSAGE PUMP,WM_GETOBJECT,61
0,0,0,MESSAGE PUMP,WM_SETFOCUS,7
0,0,0,MESSAGE PUMP,WM_WINDOWPOSCHANGED,71
0,0,0,MESSAGE PUMP,WM_MOVE,3
0,0,0,MESSAGE PUMP,WM_SIZE,5
0,0,0,MESSAGE PUMP,WM_GETOBJECT,61
0,0,0,MESSAGE PUMP,WM_GETOBJECT,61
0,0,0,MESSAGE PUMP,WM_GETOBJECT,61
0,0,0,MESSAGE PUMP,WM_GETOBJECT,61
0,0,0,MESSAGE PUMP,WM_WINDOWPOSCHANGING,70
0,0,0,MESSAGE PUMP,WM_GETMINMAXINFO,36
0,0,0,MESSAGE PUMP,WM_NCPAINT,133
0,0,0,MESSAGE PUMP,WM_ERASEBKGND,20
0,0,0,MESSAGE PUMP,WM_WINDOWPOSCHANGED,71
0,0,0,MESSAGE PUMP,WM_MOVE,3
0,0,0,MESSAGE PUMP,WM_SETICON,128
0,0,0,MESSAGE PUMP,Unknown,174
0,0,0,MESSAGE PUMP,WM_SETICON,128
0,0,0,MESSAGE PUMP,Unknown,174
0,0,0,MESSAGE PUMP,WM_WINDOWPOSCHANGING,70
0,0,0,MESSAGE PUMP,WM_WINDOWPOSCHANGING,70
0,0,0,MESSAGE PUMP,WM_GETOBJECT,61
0,0,0,MESSAGE PUMP,WM_GETOBJECT,61
0,0,0,MESSAGE PUMP,WM_GETOBJECT,61
0,0,0,MESSAGE PUMP,WM_GETOBJECT,61
0,0,0,MESSAGE PUMP,WM_GETOBJECT,61
0,0,0,MESSAGE PUMP,WM_GETOBJECT,61
0,0,0,MESSAGE PUMP,WM_GETOBJECT,61
0,0,0,MESSAGE PUMP,WM_GETOBJECT,61
1,0,1,MESSAGE PUMP,WM_GETICON,127
1,0,1,MESSAGE PUMP,WM_GETOBJECT,61
1,0,1,MESSAGE PUMP,WM_GETOBJECT,61
1,0,1,MESSAGE PUMP,Unknown,799
1,0,1,MESSAGE PUMP,Unknown,49351
1,0,1,MESSAGE PUMP,Unknown,49575
1,0,1,MESSAGE PUMP,WM_GETOBJECT,61
1,0,1,MESSAGE PUMP,Unknown,49688
1,0,1,MESSAGE PUMP,WM_NULL,0
1,0,1,MESSAGE PUMP,WM_NCHITTEST,132
1,0,1,MESSAGE PUMP,WM_SETCURSOR,32
1,0,1,MESSAGE PUMP,WM_MOUSEFIRST,512
1,0,1,MESSAGE PUMP,WM_PAINT,15
1,0,1,MESSAGE PUMP,Unknown,356
7,0,1,MESSAGE PUMP,WM_NULL,0
12,49,0,MESSAGE PUMP,WM_GETOBJECT,61
12,49,0,MESSAGE PUMP,WM_GETOBJECT,61
12,49,0,MESSAGE PUMP,WM_GETOBJECT,61
12,49,0,MESSAGE PUMP,WM_GETOBJECT,61
12,49,0,MESSAGE PUMP,WM_GETOBJECT,61
12,49,0,MESSAGE PUMP,WM_GETOBJECT,61
12,49,0,MESSAGE PUMP,WM_GETOBJECT,61
12,49,0,MESSAGE PUMP,WM_GETOBJECT,61
12,49,0,MESSAGE PUMP,WM_GETOBJECT,61
12,49,0,MESSAGE PUMP,WM_GETOBJECT,61
12,49,0,MESSAGE PUMP,WM_GETOBJECT,61
12,49,0,MESSAGE PUMP,WM_GETOBJECT,61
12,49,0,MESSAGE PUMP,WM_GETOBJECT,61
12,49,0,MESSAGE PUMP,WM_GETOBJECT,61
12,49,0,MESSAGE PUMP,WM_GETOBJECT,61
12,49,0,MESSAGE PUMP,WM_GETOBJECT,61
16,1,0,MESSAGE PUMP,WM_GETOBJECT,61
16,1,0,MESSAGE PUMP,WM_GETOBJECT,61
16,1,0,MESSAGE PUMP,WM_GETOBJECT,61
16,1,0,MESSAGE PUMP,WM_GETOBJECT,61
16,1,0,MESSAGE PUMP,WM_GETOBJECT,61
16,1,0,MESSAGE PUMP,WM_GETOBJECT,61
16,1,0,MESSAGE PUMP,WM_GETOBJECT,61
16,1,0,MESSAGE PUMP,WM_GETOBJECT,61
16,1,0,MESSAGE PUMP,WM_GETOBJECT,61
16,1,0,MESSAGE PUMP,WM_GETOBJECT,61
16,1,0,MESSAGE PUMP,WM_GETOBJECT,61
16,1,0,MESSAGE PUMP,WM_GETOBJECT,61
16,1,0,MESSAGE PUMP,WM_GETOBJECT,61
16,1,0,MESSAGE PUMP,WM_GETOBJECT,61
16,1,0,MESSAGE PUMP,WM_GETOBJECT,61
16,1,0,MESSAGE PUMP,WM_GETOBJECT,61
21,1,0,MESSAGE PUMP,WM_GETOBJECT,61
21,1,0,MESSAGE PUMP,WM_GETOBJECT,61
21,1,0,MESSAGE PUMP,WM_GETOBJECT,61
21,1,0,MESSAGE PUMP,WM_GETOBJECT,61
21,1,0,MESSAGE PUMP,WM_GETOBJECT,61
21,1,0,MESSAGE PUMP,WM_GETOBJECT,61
21,1,0,MESSAGE PUMP,WM_GETOBJECT,61
21,1,0,MESSAGE PUMP,WM_GETOBJECT,61
21,1,0,MESSAGE PUMP,WM_GETOBJECT,61
21,1,0,MESSAGE PUMP,WM_GETOBJECT,61
21,1,0,MESSAGE PUMP,WM_GETOBJECT,61
21,1,0,MESSAGE PUMP,WM_GETOBJECT,61
21,1,0,MESSAGE PUMP,WM_GETOBJECT,61
21,1,0,MESSAGE PUMP,WM_GETOBJECT,61
21,1,0,MESSAGE PUMP,WM_GETOBJECT,61
21,1,0,MESSAGE PUMP,WM_GETOBJECT,61
25,46,0,MESSAGE PUMP,WM_GETOBJECT,61
25,46,0,MESSAGE PUMP,WM_GETOBJECT,61
25,46,0,MESSAGE PUMP,WM_GETOBJECT,61
25,46,0,MESSAGE PUMP,WM_GETOBJECT,61
25,46,0,MESSAGE PUMP,WM_GETOBJECT,61
25,46,0,MESSAGE PUMP,WM_GETOBJECT,61
25,46,0,MESSAGE PUMP,WM_GETOBJECT,61
25,46,0,MESSAGE PUMP,WM_GETOBJECT,61
25,46,0,MESSAGE PUMP,WM_GETOBJECT,61
25,46,0,MESSAGE PUMP,WM_GETOBJECT,61
25,46,0,MESSAGE PUMP,WM_GETOBJECT,61
25,46,0,MESSAGE PUMP,WM_GETOBJECT,61
25,46,0,MESSAGE PUMP,WM_GETOBJECT,61
25,46,0,MESSAGE PUMP,WM_GETOBJECT,61
25,46,0,MESSAGE PUMP,WM_GETOBJECT,61
25,46,0,MESSAGE PUMP,WM_GETOBJECT,61
29,0,0,MESSAGE PUMP,WM_GETOBJECT,61
29,0,0,MESSAGE PUMP,WM_GETOBJECT,61
29,0,0,MESSAGE PUMP,WM_GETOBJECT,61
29,0,0,MESSAGE PUMP,WM_GETOBJECT,61
29,0,0,MESSAGE PUMP,WM_GETOBJECT,61
29,0,0,MESSAGE PUMP,WM_GETOBJECT,61
29,0,0,MESSAGE PUMP,WM_GETOBJECT,61
29,0,0,MESSAGE PUMP,WM_GETOBJECT,61
29,0,0,MESSAGE PUMP,WM_GETOBJECT,61
29,0,0,MESSAGE PUMP,WM_GETOBJECT,61
29,0,0,MESSAGE PUMP,WM_GETOBJECT,61
29,0,0,MESSAGE PUMP,WM_GETOBJECT,61
29,0,0,MESSAGE PUMP,WM_GETOBJECT,61
29,0,0,MESSAGE PUMP,WM_GETOBJECT,61
29,0,0,MESSAGE PUMP,WM_GETOBJECT,61
29,0,0,MESSAGE PUMP,WM_GETOBJECT,61
30,2,0,MESSAGE PUMP,WM_GETOBJECT,61
30,2,0,MESSAGE PUMP,WM_GETOBJECT,61
30,2,0,MESSAGE PUMP,WM_GETOBJECT,61
30,2,0,MESSAGE PUMP,WM_GETOBJECT,61
30,2,0,MESSAGE PUMP,WM_GETOBJECT,61
30,2,0,MESSAGE PUMP,WM_GETOBJECT,61
30,2,0,MESSAGE PUMP,WM_GETOBJECT,61
30,2,0,MESSAGE PUMP,WM_GETOBJECT,61
30,2,0,MESSAGE PUMP,WM_GETOBJECT,61
30,2,0,MESSAGE PUMP,WM_GETOBJECT,61
30,2,0,MESSAGE PUMP,WM_GETOBJECT,61
30,2,0,MESSAGE PUMP,WM_GETOBJECT,61
30,2,0,MESSAGE PUMP,WM_GETOBJECT,61
30,2,0,MESSAGE PUMP,WM_GETOBJECT,61
30,2,0,MESSAGE PUMP,WM_GETOBJECT,61
30,2,0,MESSAGE PUMP,WM_GETOBJECT,61
31,52,0,MESSAGE PUMP,WM_GETOBJECT,61
31,52,0,MESSAGE PUMP,WM_GETOBJECT,61
31,52,0,MESSAGE PUMP,WM_GETOBJECT,61
31,52,0,MESSAGE PUMP,WM_GETOBJECT,61
31,52,0,MESSAGE PUMP,WM_GETOBJECT,61
31,52,0,MESSAGE PUMP,WM_GETOBJECT,61
31,52,0,MESSAGE PUMP,WM_GETOBJECT,61
31,52,0,MESSAGE PUMP,WM_GETOBJECT,61
31,52,0,MESSAGE PUMP,WM_GETOBJECT,61
31,52,0,MESSAGE PUMP,WM_GETOBJECT,61
31,52,0,MESSAGE PUMP,WM_GETOBJECT,61
31,52,0,MESSAGE PUMP,WM_GETOBJECT,61
31,52,0,MESSAGE PUMP,WM_GETOBJECT,61
31,52,0,MESSAGE PUMP,WM_GETOBJECT,61
31,52,0,MESSAGE PUMP,WM_GETOBJECT,61
31,52,0,MESSAGE PUMP,WM_GETOBJECT,61
32,1,0,MESSAGE PUMP,WM_GETOBJECT,61
32,1,0,MESSAGE PUMP,WM_GETOBJECT,61
32,1,0,MESSAGE PUMP,WM_GETOBJECT,61
32,1,0,MESSAGE PUMP,WM_GETOBJECT,61
32,1,0,MESSAGE PUMP,WM_GETOBJECT,61
32,1,0,MESSAGE PUMP,WM_GETOBJECT,61
32,1,0,MESSAGE PUMP,WM_GETOBJECT,61
32,1,0,MESSAGE PUMP,WM_GETOBJECT,61
32,1,0,MESSAGE PUMP,WM_GETOBJECT,61
32,1,0,MESSAGE PUMP,WM_GETOBJECT,61
32,1,0,MESSAGE PUMP,WM_GETOBJECT,61
32,1,0,MESSAGE PUMP,WM_GETOBJECT,61
32,1,0,MESSAGE PUMP,WM_GETOBJECT,61
32,1,0,MESSAGE PUMP,WM_GETOBJECT,61
32,1,0,MESSAGE PUMP,WM_GETOBJECT,61
32,1,0,MESSAGE PUMP,WM_GETOBJECT,61
35,56,0,MESSAGE PUMP,WM_GETOBJECT,61
35,56,0,MESSAGE PUMP,WM_GETOBJECT,61
35,56,0,MESSAGE PUMP,WM_GETOBJECT,61
35,56,0,MESSAGE PUMP,WM_GETOBJECT,61
35,56,0,MESSAGE PUMP,WM_GETOBJECT,61
35,56,0,MESSAGE PUMP,WM_GETOBJECT,61
35,56,0,MESSAGE PUMP,WM_GETOBJECT,61
35,56,0,MESSAGE PUMP,WM_GETOBJECT,61
35,56,0,MESSAGE PUMP,WM_GETOBJECT,61
35,56,0,MESSAGE PUMP,WM_GETOBJECT,61
35,56,0,MESSAGE PUMP,WM_GETOBJECT,61
35,56,0,MESSAGE PUMP,WM_GETOBJECT,61
35,56,0,MESSAGE PUMP,WM_GETOBJECT,61
35,56,0,MESSAGE PUMP,WM_GETOBJECT,61
35,56,0,MESSAGE PUMP,WM_GETOBJECT,61
35,56,0,MESSAGE PUMP,WM_GETOBJECT,61
38,0,0,MESSAGE PUMP,WM_GETOBJECT,61
38,0,0,MESSAGE PUMP,WM_GETOBJECT,61
38,0,0,MESSAGE PUMP,WM_GETOBJECT,61
38,0,0,MESSAGE PUMP,WM_GETOBJECT,61
38,0,0,MESSAGE PUMP,WM_GETOBJECT,61
38,0,0,MESSAGE PUMP,WM_GETOBJECT,61
38,0,0,MESSAGE PUMP,WM_GETOBJECT,61
38,0,0,MESSAGE PUMP,WM_GETOBJECT,61
38,0,0,MESSAGE PUMP,WM_GETOBJECT,61
38,0,0,MESSAGE PUMP,WM_GETOBJECT,61
38,0,0,MESSAGE PUMP,WM_GETOBJECT,61
38,0,0,MESSAGE PUMP,WM_GETOBJECT,61
38,0,0,MESSAGE PUMP,WM_GETOBJECT,61
38,0,0,MESSAGE PUMP,WM_GETOBJECT,61
38,0,0,MESSAGE PUMP,WM_GETOBJECT,61
38,0,0,MESSAGE PUMP,WM_GETOBJECT,61
39,2,0,MESSAGE PUMP,WM_GETOBJECT,61
39,2,0,MESSAGE PUMP,WM_GETOBJECT,61
39,2,0,MESSAGE PUMP,WM_GETOBJECT,61
39,2,0,MESSAGE PUMP,WM_GETOBJECT,61
39,2,0,MESSAGE PUMP,WM_GETOBJECT,61
39,2,0,MESSAGE PUMP,WM_GETOBJECT,61
39,2,0,MESSAGE PUMP,WM_GETOBJECT,61
39,2,0,MESSAGE PUMP,WM_GETOBJECT,61
39,2,0,MESSAGE PUMP,WM_GETOBJECT,61
39,2,0,MESSAGE PUMP,WM_GETOBJECT,61
39,2,0,MESSAGE PUMP,WM_GETOBJECT,61
39,2,0,MESSAGE PUMP,WM_GETOBJECT,61
39,2,0,MESSAGE PUMP,WM_GETOBJECT,61
39,2,0,MESSAGE PUMP,WM_GETOBJECT,61
39,2,0,MESSAGE PUMP,WM_GETOBJECT,61
39,2,0,MESSAGE PUMP,WM_GETOBJECT,61
40,58,0,MESSAGE PUMP,WM_GETOBJECT,61
40,58,0,MESSAGE PUMP,WM_GETOBJECT,61
40,58,0,MESSAGE PUMP,WM_GETOBJECT,61
40,58,0,MESSAGE PUMP,WM_GETOBJECT,61
40,58,0,MESSAGE PUMP,WM_GETOBJECT,61
40,58,0,MESSAGE PUMP,WM_GETOBJECT,61
40,58,0,MESSAGE PUMP,WM_GETOBJECT,61
40,58,0,MESSAGE PUMP,WM_GETOBJECT,61
40,58,0,MESSAGE PUMP,WM_GETOBJECT,61
40,58,0,MESSAGE PUMP,WM_GETOBJECT,61
40,58,0,MESSAGE PUMP,WM_GETOBJECT,61
40,58,0,MESSAGE PUMP,WM_GETOBJECT,61
40,58,0,MESSAGE PUMP,WM_GETOBJECT,61
40,58,0,MESSAGE PUMP,WM_GETOBJECT,61
40,58,0,MESSAGE PUMP,WM_GETOBJECT,61
40,58,0,MESSAGE PUMP,WM_GETOBJECT,61
45,20,0,MESSAGE PUMP,WM_GETOBJECT,61
45,20,0,MESSAGE PUMP,WM_GETOBJECT,61
45,20,0,MESSAGE PUMP,WM_GETOBJECT,61
45,20,0,MESSAGE PUMP,WM_GETOBJECT,61
45,20,0,MESSAGE PUMP,WM_GETOBJECT,61
45,20,0,MESSAGE PUMP,WM_GETOBJECT,61
45,20,0,MESSAGE PUMP,WM_GETOBJECT,61
45,20,0,MESSAGE PUMP,WM_GETOBJECT,61
45,20,0,MESSAGE PUMP,WM_GETOBJECT,61
45,20,0,MESSAGE PUMP,WM_GETOBJECT,61
45,20,0,MESSAGE PUMP,WM_GETOBJECT,61
45,20,0,MESSAGE PUMP,WM_GETOBJECT,61
45,20,0,MESSAGE PUMP,WM_GETOBJECT,61
45,20,0,MESSAGE PUMP,WM_GETOBJECT,61
45,20,0,MESSAGE PUMP,WM_GETOBJECT,61
45,20,0,MESSAGE PUMP,WM_GETOBJECT,61
48,2,0,MESSAGE PUMP,WM_GETOBJECT,61
48,2,0,MESSAGE PUMP,WM_GETOBJECT,61
48,2,0,MESSAGE PUMP,WM_GETOBJECT,61
48,2,0,MESSAGE PUMP,WM_GETOBJECT,61
48,2,0,MESSAGE PUMP,WM_GETOBJECT,61
48,2,0,MESSAGE PUMP,WM_GETOBJECT,61
48,2,0,MESSAGE PUMP,WM_GETOBJECT,61
48,2,0,MESSAGE PUMP,WM_GETOBJECT,61
48,2,0,MESSAGE PUMP,WM_GETOBJECT,61
48,2,0,MESSAGE PUMP,WM_GETOBJECT,61
48,2,0,MESSAGE PUMP,WM_GETOBJECT,61
48,2,0,MESSAGE PUMP,WM_GETOBJECT,61
48,2,0,MESSAGE PUMP,WM_GETOBJECT,61
48,2,0,MESSAGE PUMP,WM_GETOBJECT,61
48,2,0,MESSAGE PUMP,WM_GETOBJECT,61
48,2,0,MESSAGE PUMP,WM_GETOBJECT,61
50,0,0,MESSAGE PUMP,WM_GETOBJECT,61
50,0,0,MESSAGE PUMP,WM_GETOBJECT,61
50,0,0,MESSAGE PUMP,WM_GETOBJECT,61
50,0,0,MESSAGE PUMP,WM_GETOBJECT,61
50,0,0,MESSAGE PUMP,WM_GETOBJECT,61
50,0,0,MESSAGE PUMP,WM_GETOBJECT,61
50,0,0,MESSAGE PUMP,WM_GETOBJECT,61
50,0,0,MESSAGE PUMP,WM_GETOBJECT,61
50,0,0,MESSAGE PUMP,WM_GETOBJECT,61
50,0,0,MESSAGE PUMP,WM_GETOBJECT,61
50,0,0,MESSAGE PUMP,WM_GETOBJECT,61
50,0,0,MESSAGE PUMP,WM_GETOBJECT,61
50,0,0,MESSAGE PUMP,WM_GETOBJECT,61
50,0,0,MESSAGE PUMP,WM_GETOBJECT,61
50,0,0,MESSAGE PUMP,WM_GETOBJECT,61
50,0,0,MESSAGE PUMP,WM_GETOBJECT,61
51,43,0,MESSAGE PUMP,WM_GETOBJECT,61
51,43,0,MESSAGE PUMP,WM_GETOBJECT,61
51,43,0,MESSAGE PUMP,WM_GETOBJECT,61
51,43,0,MESSAGE PUMP,WM_GETOBJECT,61
51,43,0,MESSAGE PUMP,WM_GETOBJECT,61
51,43,0,MESSAGE PUMP,WM_GETOBJECT,61
51,43,0,MESSAGE PUMP,WM_GETOBJECT,61
51,43,0,MESSAGE PUMP,WM_GETOBJECT,61
51,43,0,MESSAGE PUMP,WM_GETOBJECT,61
51,43,0,MESSAGE PUMP,WM_GETOBJECT,61
51,43,0,MESSAGE PUMP,WM_GETOBJECT,61
51,43,0,MESSAGE PUMP,WM_GETOBJECT,61
51,43,0,MESSAGE PUMP,WM_GETOBJECT,61
51,43,0,MESSAGE PUMP,WM_GETOBJECT,61
51,43,0,MESSAGE PUMP,WM_GETOBJECT,61
51,43,0,MESSAGE PUMP,WM_GETOBJECT,61
52,1,0,MESSAGE PUMP,WM_GETOBJECT,61
52,1,0,MESSAGE PUMP,WM_GETOBJECT,61
52,1,0,MESSAGE PUMP,WM_GETOBJECT,61
52,1,0,MESSAGE PUMP,WM_GETOBJECT,61
52,1,0,MESSAGE PUMP,WM_GETOBJECT,61
52,1,0,MESSAGE PUMP,WM_GETOBJECT,61
52,1,0,MESSAGE PUMP,WM_GETOBJECT,61
52,1,0,MESSAGE PUMP,WM_GETOBJECT,61
52,1,0,MESSAGE PUMP,WM_GETOBJECT,61
52,1,0,MESSAGE PUMP,WM_GETOBJECT,61
52,1,0,MESSAGE PUMP,WM_GETOBJECT,61
52,1,0,MESSAGE PUMP,WM_GETOBJECT,61
52,1,0,MESSAGE PUMP,WM_GETOBJECT,61
52,1,0,MESSAGE PUMP,WM_GETOBJECT,61
52,1,0,MESSAGE PUMP,WM_GETOBJECT,61
52,1,0,MESSAGE PUMP,WM_GETOBJECT,61
55,5,0,MESSAGE PUMP,WM_GETOBJECT,61
55,5,0,MESSAGE PUMP,WM_GETOBJECT,61
55,5,0,MESSAGE PUMP,WM_GETOBJECT,61
55,5,0,MESSAGE PUMP,WM_GETOBJECT,61
55,5,0,MESSAGE PUMP,WM_GETOBJECT,61
55,5,0,MESSAGE PUMP,WM_GETOBJECT,61
55,5,0,MESSAGE PUMP,WM_GETOBJECT,61
55,5,0,MESSAGE PUMP,WM_GETOBJECT,61
55,5,0,MESSAGE PUMP,WM_GETOBJECT,61
55,5,0,MESSAGE PUMP,WM_GETOBJECT,61
55,5,0,MESSAGE PUMP,WM_GETOBJECT,61
55,5,0,MESSAGE PUMP,WM_GETOBJECT,61
55,5,0,MESSAGE PUMP,WM_GETOBJECT,61
55,5,0,MESSAGE PUMP,WM_GETOBJECT,61
55,5,0,MESSAGE PUMP,WM_GETOBJECT,61
55,5,0,MESSAGE PUMP,WM_GETOBJECT,61
56,7,0,MESSAGE PUMP,WM_GETOBJECT,61
56,7,0,MESSAGE PUMP,WM_GETOBJECT,61
56,7,0,MESSAGE PUMP,WM_GETOBJECT,61
56,7,0,MESSAGE PUMP,WM_GETOBJECT,61
56,7,0,MESSAGE PUMP,WM_GETOBJECT,61
56,7,0,MESSAGE PUMP,WM_GETOBJECT,61
56,7,0,MESSAGE PUMP,WM_GETOBJECT,61
56,7,0,MESSAGE PUMP,WM_GETOBJECT,61
56,7,0,MESSAGE PUMP,WM_GETOBJECT,61
56,7,0,MESSAGE PUMP,WM_GETOBJECT,61
56,7,0,MESSAGE PUMP,WM_GETOBJECT,61
56,7,0,MESSAGE PUMP,WM_GETOBJECT,61
56,7,0,MESSAGE PUMP,WM_GETOBJECT,61
56,7,0,MESSAGE PUMP,WM_GETOBJECT,61
56,7,0,MESSAGE PUMP,WM_GETOBJECT,61
56,7,0,MESSAGE PUMP,WM_GETOBJECT,61
58,26,0,MESSAGE PUMP,WM_GETOBJECT,61
58,26,0,MESSAGE PUMP,WM_GETOBJECT,61
58,26,0,MESSAGE PUMP,WM_GETOBJECT,61
58,26,0,MESSAGE PUMP,WM_GETOBJECT,61
58,26,0,MESSAGE PUMP,WM_GETOBJECT,61
58,26,0,MESSAGE PUMP,WM_GETOBJECT,61
58,26,0,MESSAGE PUMP,WM_GETOBJECT,61
58,26,0,MESSAGE PUMP,WM_GETOBJECT,61
58,26,0,MESSAGE PUMP,WM_GETOBJECT,61
58,26,0,MESSAGE PUMP,WM_GETOBJECT,61
58,26,0,MESSAGE PUMP,WM_GETOBJECT,61
58,26,0,MESSAGE PUMP,WM_GETOBJECT,61
58,26,0,MESSAGE PUMP,WM_GETOBJECT,61
58,26,0,MESSAGE PUMP,WM_GETOBJECT,61
58,26,0,MESSAGE PUMP,WM_GETOBJECT,61
58,26,0,MESSAGE PUMP,WM_GETOBJECT,61
59,36,0,MESSAGE PUMP,WM_GETOBJECT,61
59,36,0,MESSAGE PUMP,WM_GETOBJECT,61
59,36,0,MESSAGE PUMP,WM_GETOBJECT,61
59,36,0,MESSAGE PUMP,WM_GETOBJECT,61
59,36,0,MESSAGE PUMP,WM_GETOBJECT,61
59,36,0,MESSAGE PUMP,WM_GETOBJECT,61
59,36,0,MESSAGE PUMP,WM_GETOBJECT,61
59,36,0,MESSAGE PUMP,WM_GETOBJECT,61
59,36,0,MESSAGE PUMP,WM_GETOBJECT,61
59,36,0,MESSAGE PUMP,WM_GETOBJECT,61
59,36,0,MESSAGE PUMP,WM_GETOBJECT,61
59,36,0,MESSAGE PUMP,WM_GETOBJECT,61
59,36,0,MESSAGE PUMP,WM_GETOBJECT,61
59,36,0,MESSAGE PUMP,WM_GETOBJECT,61
59,36,0,MESSAGE PUMP,WM_GETOBJECT,61
59,36,0,MESSAGE PUMP,WM_GETOBJECT,61
60,1,0,MESSAGE PUMP,WM_GETOBJECT,61
60,1,0,MESSAGE PUMP,WM_GETOBJECT,61
60,1,0,MESSAGE PUMP,WM_GETOBJECT,61
60,1,0,MESSAGE PUMP,WM_GETOBJECT,61
60,1,0,MESSAGE PUMP,WM_GETOBJECT,61
60,1,0,MESSAGE PUMP,WM_GETOBJECT,61
60,1,0,MESSAGE PUMP,WM_GETOBJECT,61
60,1,0,MESSAGE PUMP,WM_GETOBJECT,61
60,1,0,MESSAGE PUMP,WM_GETOBJECT,61
60,1,0,MESSAGE PUMP,WM_GETOBJECT,61
60,1,0,MESSAGE PUMP,WM_GETOBJECT,61
60,1,0,MESSAGE PUMP,WM_GETOBJECT,61
60,1,0,MESSAGE PUMP,WM_GETOBJECT,61
60,1,0,MESSAGE PUMP,WM_GETOBJECT,61
60,1,0,MESSAGE PUMP,WM_GETOBJECT,61
60,1,0,MESSAGE PUMP,WM_GETOBJECT,61
62,1,0,MESSAGE PUMP,WM_GETOBJECT,61
62,1,0,MESSAGE PUMP,WM_GETOBJECT,61
62,1,0,MESSAGE PUMP,WM_GETOBJECT,61
62,1,0,MESSAGE PUMP,WM_GETOBJECT,61
62,1,0,MESSAGE PUMP,WM_GETOBJECT,61
62,1,0,MESSAGE PUMP,WM_GETOBJECT,61
62,1,0,MESSAGE PUMP,WM_GETOBJECT,61
62,1,0,MESSAGE PUMP,WM_GETOBJECT,61
62,1,0,MESSAGE PUMP,WM_GETOBJECT,61
62,1,0,MESSAGE PUMP,WM_GETOBJECT,61
62,1,0,MESSAGE PUMP,WM_GETOBJECT,61
62,1,0,MESSAGE PUMP,WM_GETOBJECT,61
62,1,0,MESSAGE PUMP,WM_GETOBJECT,61
62,1,0,MESSAGE PUMP,WM_GETOBJECT,61
62,1,0,MESSAGE PUMP,WM_GETOBJECT,61
62,1,0,MESSAGE PUMP,WM_GETOBJECT,61
64,1,0,MESSAGE PUMP,WM_GETOBJECT,61
64,1,0,MESSAGE PUMP,WM_GETOBJECT,61
64,1,0,MESSAGE PUMP,WM_GETOBJECT,61
64,1,0,MESSAGE PUMP,WM_GETOBJECT,61
64,1,0,MESSAGE PUMP,WM_GETOBJECT,61
64,1,0,MESSAGE PUMP,WM_GETOBJECT,61
64,1,0,MESSAGE PUMP,WM_GETOBJECT,61
64,1,0,MESSAGE PUMP,WM_GETOBJECT,61
64,1,0,MESSAGE PUMP,WM_GETOBJECT,61
64,1,0,MESSAGE PUMP,WM_GETOBJECT,61
64,1,0,MESSAGE PUMP,WM_GETOBJECT,61
64,1,0,MESSAGE PUMP,WM_GETOBJECT,61
64,1,0,MESSAGE PUMP,WM_GETOBJECT,61
64,1,0,MESSAGE PUMP,WM_GETOBJECT,61
64,1,0,MESSAGE PUMP,WM_GETOBJECT,61
64,1,0,MESSAGE PUMP,WM_GETOBJECT,61
66,1,0,MESSAGE PUMP,WM_GETOBJECT,61
66,1,0,MESSAGE PUMP,WM_GETOBJECT,61
66,1,0,MESSAGE PUMP,WM_GETOBJECT,61
66,1,0,MESSAGE PUMP,WM_GETOBJECT,61
66,1,0,MESSAGE PUMP,WM_GETOBJECT,61
66,1,0,MESSAGE PUMP,WM_GETOBJECT,61
66,1,0,MESSAGE PUMP,WM_GETOBJECT,61
66,1,0,MESSAGE PUMP,WM_GETOBJECT,61
66,1,0,MESSAGE PUMP,WM_GETOBJECT,61
66,1,0,MESSAGE PUMP,WM_GETOBJECT,61
66,1,0,MESSAGE PUMP,WM_GETOBJECT,61
66,1,0,MESSAGE PUMP,WM_GETOBJECT,61
66,1,0,MESSAGE PUMP,WM_GETOBJECT,61
66,1,0,MESSAGE PUMP,WM_GETOBJECT,61
66,1,0,MESSAGE PUMP,WM_GETOBJECT,61
66,1,0,MESSAGE PUMP,WM_GETOBJECT,61
69,1,0,MESSAGE PUMP,WM_GETOBJECT,61
69,1,0,MESSAGE PUMP,WM_GETOBJECT,61
69,1,0,MESSAGE PUMP,WM_GETOBJECT,61
69,1,0,MESSAGE PUMP,WM_GETOBJECT,61
69,1,0,MESSAGE PUMP,WM_GETOBJECT,61
69,1,0,MESSAGE PUMP,WM_GETOBJECT,61
69,1,0,MESSAGE PUMP,WM_GETOBJECT,61
69,1,0,MESSAGE PUMP,WM_GETOBJECT,61
69,1,0,MESSAGE PUMP,WM_GETOBJECT,61
69,1,0,MESSAGE PUMP,WM_GETOBJECT,61
69,1,0,MESSAGE PUMP,WM_GETOBJECT,61
69,1,0,MESSAGE PUMP,WM_GETOBJECT,61
69,1,0,MESSAGE PUMP,WM_GETOBJECT,61
69,1,0,MESSAGE PUMP,WM_GETOBJECT,61
69,1,0,MESSAGE PUMP,WM_GETOBJECT,61
69,1,0,MESSAGE PUMP,WM_GETOBJECT,61
70,37,0,MESSAGE PUMP,WM_GETOBJECT,61
70,37,0,MESSAGE PUMP,WM_GETOBJECT,61
70,37,0,MESSAGE PUMP,WM_GETOBJECT,61
70,37,0,MESSAGE PUMP,WM_GETOBJECT,61
70,37,0,MESSAGE PUMP,WM_GETOBJECT,61
70,37,0,MESSAGE PUMP,WM_GETOBJECT,61
70,37,0,MESSAGE PUMP,WM_GETOBJECT,61
70,37,0,MESSAGE PUMP,WM_GETOBJECT,61
70,37,0,MESSAGE PUMP,WM_GETOBJECT,61
70,37,0,MESSAGE PUMP,WM_GETOBJECT,61
70,37,0,MESSAGE PUMP,WM_GETOBJECT,61
70,37,0,MESSAGE PUMP,WM_GETOBJECT,61
70,37,0,MESSAGE PUMP,WM_GETOBJECT,61
70,37,0,MESSAGE PUMP,WM_GETOBJECT,61
70,37,0,MESSAGE PUMP,WM_GETOBJECT,61
70,37,0,MESSAGE PUMP,WM_GETOBJECT,61
72,48,0,MESSAGE PUMP,WM_GETOBJECT,61
72,48,0,MESSAGE PUMP,WM_GETOBJECT,61
72,48,0,MESSAGE PUMP,WM_GETOBJECT,61
72,48,0,MESSAGE PUMP,WM_GETOBJECT,61
72,48,0,MESSAGE PUMP,WM_GETOBJECT,61
72,48,0,MESSAGE PUMP,WM_GETOBJECT,61
72,48,0,MESSAGE PUMP,WM_GETOBJECT,61
72,48,0,MESSAGE PUMP,WM_GETOBJECT,61
72,48,0,MESSAGE PUMP,WM_GETOBJECT,61
72,48,0,MESSAGE PUMP,WM_GETOBJECT,61
72,48,0,MESSAGE PUMP,WM_GETOBJECT,61
72,48,0,MESSAGE PUMP,WM_GETOBJECT,61
72,48,0,MESSAGE PUMP,WM_GETOBJECT,61
72,48,0,MESSAGE PUMP,WM_GETOBJECT,61
72,48,0,MESSAGE PUMP,WM_GETOBJECT,61
72,48,0,MESSAGE PUMP,WM_GETOBJECT,61
74,1,0,MESSAGE PUMP,WM_GETOBJECT,61
74,1,0,MESSAGE PUMP,WM_GETOBJECT,61
74,1,0,MESSAGE PUMP,WM_GETOBJECT,61
74,1,0,MESSAGE PUMP,WM_GETOBJECT,61
74,1,0,MESSAGE PUMP,WM_GETOBJECT,61
74,1,0,MESSAGE PUMP,WM_GETOBJECT,61
74,1,0,MESSAGE PUMP,WM_GETOBJECT,61
74,1,0,MESSAGE PUMP,WM_GETOBJECT,61
74,1,0,MESSAGE PUMP,WM_GETOBJECT,61
74,1,0,MESSAGE PUMP,WM_GETOBJECT,61
74,1,0,MESSAGE PUMP,WM_GETOBJECT,61
74,1,0,MESSAGE PUMP,WM_GETOBJECT,61
74,1,0,MESSAGE PUMP,WM_GETOBJECT,61
74,1,0,MESSAGE PUMP,WM_GETOBJECT,61
74,1,0,MESSAGE PUMP,WM_GETOBJECT,61
74,1,0,MESSAGE PUMP,WM_GETOBJECT,61
75,44,0,MESSAGE PUMP,WM_GETOBJECT,61
75,44,0,MESSAGE PUMP,WM_GETOBJECT,61
75,44,0,MESSAGE PUMP,WM_GETOBJECT,61
75,44,0,MESSAGE PUMP,WM_GETOBJECT,61
75,44,0,MESSAGE PUMP,WM_GETOBJECT,61
75,44,0,MESSAGE PUMP,WM_GETOBJECT,61
75,44,0,MESSAGE PUMP,WM_GETOBJECT,61
75,44,0,MESSAGE PUMP,WM_GETOBJECT,61
75,44,0,MESSAGE PUMP,WM_GETOBJECT,61
75,44,0,MESSAGE PUMP,WM_GETOBJECT,61
75,44,0,MESSAGE PUMP,WM_GETOBJECT,61
75,44,0,MESSAGE PUMP,WM_GETOBJECT,61
75,44,0,MESSAGE PUMP,WM_GETOBJECT,61
75,44,0,MESSAGE PUMP,WM_GETOBJECT,61
75,44,0,MESSAGE PUMP,WM_GETOBJECT,61
75,44,0,MESSAGE PUMP,WM_GETOBJECT,61
76,1,0,MESSAGE PUMP,WM_GETOBJECT,61
76,1,0,MESSAGE PUMP,WM_GETOBJECT,61
76,1,0,MESSAGE PUMP,WM_GETOBJECT,61
76,1,0,MESSAGE PUMP,WM_GETOBJECT,61
76,1,0,MESSAGE PUMP,WM_GETOBJECT,61
76,1,0,MESSAGE PUMP,WM_GETOBJECT,61
76,1,0,MESSAGE PUMP,WM_GETOBJECT,61
76,1,0,MESSAGE PUMP,WM_GETOBJECT,61
76,1,0,MESSAGE PUMP,WM_GETOBJECT,61
76,1,0,MESSAGE PUMP,WM_GETOBJECT,61
76,1,0,MESSAGE PUMP,WM_GETOBJECT,61
76,1,0,MESSAGE PUMP,WM_GETOBJECT,61
76,1,0,MESSAGE PUMP,WM_GETOBJECT,61
76,1,0,MESSAGE PUMP,WM_GETOBJECT,61
76,1,0,MESSAGE PUMP,WM_GETOBJECT,61
76,1,0,MESSAGE PUMP,WM_GETOBJECT,61
78,1,0,MESSAGE PUMP,WM_GETOBJECT,61
78,1,0,MESSAGE PUMP,WM_GETOBJECT,61
78,1,0,MESSAGE PUMP,WM_GETOBJECT,61
78,1,0,MESSAGE PUMP,WM_GETOBJECT,61
78,1,0,MESSAGE PUMP,WM_GETOBJECT,61
78,1,0,MESSAGE PUMP,WM_GETOBJECT,61
78,1,0,MESSAGE PUMP,WM_GETOBJECT,61
78,1,0,MESSAGE PUMP,WM_GETOBJECT,61
78,1,0,MESSAGE PUMP,WM_GETOBJECT,61
78,1,0,MESSAGE PUMP,WM_GETOBJECT,61
78,1,0,MESSAGE PUMP,WM_GETOBJECT,61
78,1,0,MESSAGE PUMP,WM_GETOBJECT,61
78,1,0,MESSAGE PUMP,WM_GETOBJECT,61
78,1,0,MESSAGE PUMP,WM_GETOBJECT,61
78,1,0,MESSAGE PUMP,WM_GETOBJECT,61
78,1,0,MESSAGE PUMP,WM_GETOBJECT,61
79,1,0,MESSAGE PUMP,WM_GETOBJECT,61
79,1,0,MESSAGE PUMP,WM_GETOBJECT,61
79,1,0,MESSAGE PUMP,WM_GETOBJECT,61
79,1,0,MESSAGE PUMP,WM_GETOBJECT,61
79,1,0,MESSAGE PUMP,WM_GETOBJECT,61
79,1,0,MESSAGE PUMP,WM_GETOBJECT,61
79,1,0,MESSAGE PUMP,WM_GETOBJECT,61
79,1,0,MESSAGE PUMP,WM_GETOBJECT,61
79,1,0,MESSAGE PUMP,WM_GETOBJECT,61
79,1,0,MESSAGE PUMP,WM_GETOBJECT,61
79,1,0,MESSAGE PUMP,WM_GETOBJECT,61
79,1,0,MESSAGE PUMP,WM_GETOBJECT,61
79,1,0,MESSAGE PUMP,WM_GETOBJECT,61
79,1,0,MESSAGE PUMP,WM_GETOBJECT,61
79,1,0,MESSAGE PUMP,WM_GETOBJECT,61
79,1,0,MESSAGE PUMP,WM_GETOBJECT,61
80,1,0,MESSAGE PUMP,WM_GETOBJECT,61
80,1,0,MESSAGE PUMP,WM_GETOBJECT,61
80,1,0,MESSAGE PUMP,WM_GETOBJECT,61
80,1,0,MESSAGE PUMP,WM_GETOBJECT,61
80,1,0,MESSAGE PUMP,WM_GETOBJECT,61
80,1,0,MESSAGE PUMP,WM_GETOBJECT,61
80,1,0,MESSAGE PUMP,WM_GETOBJECT,61
80,1,0,MESSAGE PUMP,WM_GETOBJECT,61
80,1,0,MESSAGE PUMP,WM_GETOBJECT,61
80,1,0,MESSAGE PUMP,WM_GETOBJECT,61
80,1,0,MESSAGE PUMP,WM_GETOBJECT,61
80,1,0,MESSAGE PUMP,WM_GETOBJECT,61
80,1,0,MESSAGE PUMP,WM_GETOBJECT,61
80,1,0,MESSAGE PUMP,WM_GETOBJECT,61
80,1,0,MESSAGE PUMP,WM_GETOBJECT,61
80,1,0,MESSAGE PUMP,WM_GETOBJECT,61
82,1,0,MESSAGE PUMP,WM_GETOBJECT,61
82,1,0,MESSAGE PUMP,WM_GETOBJECT,61
82,1,0,MESSAGE PUMP,WM_GETOBJECT,61
82,1,0,MESSAGE PUMP,WM_GETOBJECT,61
82,1,0,MESSAGE PUMP,WM_GETOBJECT,61
82,1,0,MESSAGE PUMP,WM_GETOBJECT,61
82,1,0,MESSAGE PUMP,WM_GETOBJECT,61
82,1,0,MESSAGE PUMP,WM_GETOBJECT,61
82,1,0,MESSAGE PUMP,WM_GETOBJECT,61
82,1,0,MESSAGE PUMP,WM_GETOBJECT,61
82,1,0,MESSAGE PUMP,WM_GETOBJECT,61
82,1,0,MESSAGE PUMP,WM_GETOBJECT,61
82,1,0,MESSAGE PUMP,WM_GETOBJECT,61
82,1,0,MESSAGE PUMP,WM_GETOBJECT,61
82,1,0,MESSAGE PUMP,WM_GETOBJECT,61
82,1,0,MESSAGE PUMP,WM_GETOBJECT,61
84,1,0,MESSAGE PUMP,WM_GETOBJECT,61
84,1,0,MESSAGE PUMP,WM_GETOBJECT,61
84,1,0,MESSAGE PUMP,WM_GETOBJECT,61
84,1,0,MESSAGE PUMP,WM_GETOBJECT,61
84,1,0,MESSAGE PUMP,WM_GETOBJECT,61
84,1,0,MESSAGE PUMP,WM_GETOBJECT,61
84,1,0,MESSAGE PUMP,WM_GETOBJECT,61
84,1,0,MESSAGE PUMP,WM_GETOBJECT,61
84,1,0,MESSAGE PUMP,WM_GETOBJECT,61
84,1,0,MESSAGE PUMP,WM_GETOBJECT,61
84,1,0,MESSAGE PUMP,WM_GETOBJECT,61
84,1,0,MESSAGE PUMP,WM_GETOBJECT,61
84,1,0,MESSAGE PUMP,WM_GETOBJECT,61
84,1,0,MESSAGE PUMP,WM_GETOBJECT,61
84,1,0,MESSAGE PUMP,WM_GETOBJECT,61
84,1,0,MESSAGE PUMP,WM_GETOBJECT,61
85,2,0,MESSAGE PUMP,WM_GETOBJECT,61
85,2,0,MESSAGE PUMP,WM_GETOBJECT,61
85,2,0,MESSAGE PUMP,WM_GETOBJECT,61
85,2,0,MESSAGE PUMP,WM_GETOBJECT,61
85,2,0,MESSAGE PUMP,WM_GETOBJECT,61
85,2,0,MESSAGE PUMP,WM_GETOBJECT,61
85,2,0,MESSAGE PUMP,WM_GETOBJECT,61
85,2,0,MESSAGE PUMP,WM_GETOBJECT,61
85,2,0,MESSAGE PUMP,WM_GETOBJECT,61
85,2,0,MESSAGE PUMP,WM_GETOBJECT,61
85,2,0,MESSAGE PUMP,WM_GETOBJECT,61
85,2,0,MESSAGE PUMP,WM_GETOBJECT,61
85,2,0,MESSAGE PUMP,WM_GETOBJECT,61
85,2,0,MESSAGE PUMP,WM_GETOBJECT,61
85,2,0,MESSAGE PUMP,WM_GETOBJECT,61
85,2,0,MESSAGE PUMP,WM_GETOBJECT,61
86,19,0,MESSAGE PUMP,WM_GETOBJECT,61
86,19,0,MESSAGE PUMP,WM_GETOBJECT,61
86,19,0,MESSAGE PUMP,WM_GETOBJECT,61
86,19,0,MESSAGE PUMP,WM_GETOBJECT,61
86,19,0,MESSAGE PUMP,WM_GETOBJECT,61
86,19,0,MESSAGE PUMP,WM_GETOBJECT,61
86,19,0,MESSAGE PUMP,WM_GETOBJECT,61
86,19,0,MESSAGE PUMP,WM_GETOBJECT,61
86,19,0,MESSAGE PUMP,WM_GETOBJECT,61
86,19,0,MESSAGE PUMP,WM_GETOBJECT,61
86,19,0,MESSAGE PUMP,WM_GETOBJECT,61
86,19,0,MESSAGE PUMP,WM_GETOBJECT,61
86,19,0,MESSAGE PUMP,WM_GETOBJECT,61
86,19,0,MESSAGE PUMP,WM_GETOBJECT,61
86,19,0,MESSAGE PUMP,WM_GETOBJECT,61
86,19,0,MESSAGE PUMP,WM_GETOBJECT,61
88,55,0,MESSAGE PUMP,WM_GETOBJECT,61
88,55,0,MESSAGE PUMP,WM_GETOBJECT,61
88,55,0,MESSAGE PUMP,WM_GETOBJECT,61
88,55,0,MESSAGE PUMP,WM_GETOBJECT,61
88,55,0,MESSAGE PUMP,WM_GETOBJECT,61
88,55,0,MESSAGE PUMP,WM_GETOBJECT,61
88,55,0,MESSAGE PUMP,WM_GETOBJECT,61
88,55,0,MESSAGE PUMP,WM_GETOBJECT,61
88,55,0,MESSAGE PUMP,WM_GETOBJECT,61
88,55,0,MESSAGE PUMP,WM_GETOBJECT,61
88,55,0,MESSAGE PUMP,WM_GETOBJECT,61
88,55,0,MESSAGE PUMP,WM_GETOBJECT,61
88,55,0,MESSAGE PUMP,WM_GETOBJECT,61
88,55,0,MESSAGE PUMP,WM_GETOBJECT,61
88,55,0,MESSAGE PUMP,WM_GETOBJECT,61
88,55,0,MESSAGE PUMP,WM_GETOBJECT,61
90,1,0,MESSAGE PUMP,WM_GETOBJECT,61
90,1,0,MESSAGE PUMP,WM_GETOBJECT,61
90,1,0,MESSAGE PUMP,WM_GETOBJECT,61
90,1,0,MESSAGE PUMP,WM_GETOBJECT,61
90,1,0,MESSAGE PUMP,WM_GETOBJECT,61
90,1,0,MESSAGE PUMP,WM_GETOBJECT,61
90,1,0,MESSAGE PUMP,WM_GETOBJECT,61
90,1,0,MESSAGE PUMP,WM_GETOBJECT,61
90,1,0,MESSAGE PUMP,WM_GETOBJECT,61
90,1,0,MESSAGE PUMP,WM_GETOBJECT,61
90,1,0,MESSAGE PUMP,WM_GETOBJECT,61
90,1,0,MESSAGE PUMP,WM_GETOBJECT,61
90,1,0,MESSAGE PUMP,WM_GETOBJECT,61
90,1,0,MESSAGE PUMP,WM_GETOBJECT,61
90,1,0,MESSAGE PUMP,WM_GETOBJECT,61
90,1,0,MESSAGE PUMP,WM_GETOBJECT,61
91,71,0,MESSAGE PUMP,WM_GETOBJECT,61
91,71,0,MESSAGE PUMP,WM_GETOBJECT,61
91,71,0,MESSAGE PUMP,WM_GETOBJECT,61
91,71,0,MESSAGE PUMP,WM_GETOBJECT,61
91,71,0,MESSAGE PUMP,WM_GETOBJECT,61
91,71,0,MESSAGE PUMP,WM_GETOBJECT,61
91,71,0,MESSAGE PUMP,WM_GETOBJECT,61
91,71,0,MESSAGE PUMP,WM_GETOBJECT,61
91,71,0,MESSAGE PUMP,WM_GETOBJECT,61
91,71,0,MESSAGE PUMP,WM_GETOBJECT,61
91,71,0,MESSAGE PUMP,WM_GETOBJECT,61
91,71,0,MESSAGE PUMP,WM_GETOBJECT,61
91,71,0,MESSAGE PUMP,WM_GETOBJECT,61
91,71,0,MESSAGE PUMP,WM_GETOBJECT,61
91,71,0,MESSAGE PUMP,WM_GETOBJECT,61
91,71,0,MESSAGE PUMP,WM_GETOBJECT,61
92,53,0,MESSAGE PUMP,WM_GETOBJECT,61
92,53,0,MESSAGE PUMP,WM_GETOBJECT,61
92,53,0,MESSAGE PUMP,WM_GETOBJECT,61
92,53,0,MESSAGE PUMP,WM_GETOBJECT,61
92,53,0,MESSAGE PUMP,WM_GETOBJECT,61
92,53,0,MESSAGE PUMP,WM_GETOBJECT,61
92,53,0,MESSAGE PUMP,WM_GETOBJECT,61
92,53,0,MESSAGE PUMP,WM_GETOBJECT,61
92,53,0,MESSAGE PUMP,WM_GETOBJECT,61
92,53,0,MESSAGE PUMP,WM_GETOBJECT,61
92,53,0,MESSAGE PUMP,WM_GETOBJECT,61
92,53,0,MESSAGE PUMP,WM_GETOBJECT,61
92,53,0,MESSAGE PUMP,WM_GETOBJECT,61
92,53,0,MESSAGE PUMP,WM_GETOBJECT,61
92,53,0,MESSAGE PUMP,WM_GETOBJECT,61
92,53,0,MESSAGE PUMP,WM_GETOBJECT,61
93,26,0,MESSAGE PUMP,WM_GETOBJECT,61
93,26,0,MESSAGE PUMP,WM_GETOBJECT,61
93,26,0,MESSAGE PUMP,WM_GETOBJECT,61
93,26,0,MESSAGE PUMP,WM_GETOBJECT,61
93,26,0,MESSAGE PUMP,WM_GETOBJECT,61
93,26,0,MESSAGE PUMP,WM_GETOBJECT,61
93,26,0,MESSAGE PUMP,WM_GETOBJECT,61
93,26,0,MESSAGE PUMP,WM_GETOBJECT,61
93,26,0,MESSAGE PUMP,WM_GETOBJECT,61
93,26,0,MESSAGE PUMP,WM_GETOBJECT,61
93,26,0,MESSAGE PUMP,WM_GETOBJECT,61
93,26,0,MESSAGE PUMP,WM_GETOBJECT,61
93,26,0,MESSAGE PUMP,WM_GETOBJECT,61
93,26,0,MESSAGE PUMP,WM_GETOBJECT,61
93,26,0,MESSAGE PUMP,WM_GETOBJECT,61
93,26,0,MESSAGE PUMP,WM_GETOBJECT,61
94,43,0,MESSAGE PUMP,WM_GETOBJECT,61
94,43,0,MESSAGE PUMP,WM_GETOBJECT,61
94,43,0,MESSAGE PUMP,WM_GETOBJECT,61
94,43,0,MESSAGE PUMP,WM_GETOBJECT,61
94,43,0,MESSAGE PUMP,WM_GETOBJECT,61
94,43,0,MESSAGE PUMP,WM_GETOBJECT,61
94,43,0,MESSAGE PUMP,WM_GETOBJECT,61
94,43,0,MESSAGE PUMP,WM_GETOBJECT,61
94,43,0,MESSAGE PUMP,WM_GETOBJECT,61
94,43,0,MESSAGE PUMP,WM_GETOBJECT,61
94,43,0,MESSAGE PUMP,WM_GETOBJECT,61
94,43,0,MESSAGE PUMP,WM_GETOBJECT,61
94,43,0,MESSAGE PUMP,WM_GETOBJECT,61
94,43,0,MESSAGE PUMP,WM_GETOBJECT,61
94,43,0,MESSAGE PUMP,WM_GETOBJECT,61
94,43,0,MESSAGE PUMP,WM_GETOBJECT,61
96,1,0,MESSAGE PUMP,WM_GETOBJECT,61
96,1,0,MESSAGE PUMP,WM_GETOBJECT,61
96,1,0,MESSAGE PUMP,WM_GETOBJECT,61
96,1,0,MESSAGE PUMP,WM_GETOBJECT,61
96,1,0,MESSAGE PUMP,WM_GETOBJECT,61
96,1,0,MESSAGE PUMP,WM_GETOBJECT,61
96,1,0,MESSAGE PUMP,WM_GETOBJECT,61
96,1,0,MESSAGE PUMP,WM_GETOBJECT,61
96,1,0,MESSAGE PUMP,WM_GETOBJECT,61
96,1,0,MESSAGE PUMP,WM_GETOBJECT,61
96,1,0,MESSAGE PUMP,WM_GETOBJECT,61
96,1,0,MESSAGE PUMP,WM_GETOBJECT,61
96,1,0,MESSAGE PUMP,WM_GETOBJECT,61
96,1,0,MESSAGE PUMP,WM_GETOBJECT,61
96,1,0,MESSAGE PUMP,WM_GETOBJECT,61
96,1,0,MESSAGE PUMP,WM_GETOBJECT,61
117,0,0,MESSAGE PUMP,WM_GETOBJECT,61
117,0,0,MESSAGE PUMP,WM_GETOBJECT,61
117,0,0,MESSAGE PUMP,WM_GETOBJECT,61
117,0,0,MESSAGE PUMP,WM_GETOBJECT,61
117,0,0,MESSAGE PUMP,WM_GETOBJECT,61
117,0,0,MESSAGE PUMP,WM_GETOBJECT,61
117,0,0,MESSAGE PUMP,WM_GETOBJECT,61
117,0,0,MESSAGE PUMP,WM_GETOBJECT,61
117,0,0,MESSAGE PUMP,WM_GETOBJECT,61
117,0,0,MESSAGE PUMP,WM_GETOBJECT,61
117,0,0,MESSAGE PUMP,WM_GETOBJECT,61
117,0,0,MESSAGE PUMP,WM_GETOBJECT,61
117,0,0,MESSAGE PUMP,WM_GETOBJECT,61
117,0,0,MESSAGE PUMP,WM_GETOBJECT,61
117,0,0,MESSAGE PUMP,WM_GETOBJECT,61
117,0,0,MESSAGE PUMP,WM_GETOBJECT,61
122,2,0,MESSAGE PUMP,WM_GETOBJECT,61
122,2,0,MESSAGE PUMP,WM_GETOBJECT,61
122,2,0,MESSAGE PUMP,WM_GETOBJECT,61
122,2,0,MESSAGE PUMP,WM_GETOBJECT,61
122,2,0,MESSAGE PUMP,WM_GETOBJECT,61
122,2,0,MESSAGE PUMP,WM_GETOBJECT,61
122,2,0,MESSAGE PUMP,WM_GETOBJECT,61
122,2,0,MESSAGE PUMP,WM_GETOBJECT,61
122,2,0,MESSAGE PUMP,WM_GETOBJECT,61
122,2,0,MESSAGE PUMP,WM_GETOBJECT,61
122,2,0,MESSAGE PUMP,WM_GETOBJECT,61
122,2,0,MESSAGE PUMP,WM_GETOBJECT,61
122,2,0,MESSAGE PUMP,WM_GETOBJECT,61
122,2,0,MESSAGE PUMP,WM_GETOBJECT,61
122,2,0,MESSAGE PUMP,WM_GETOBJECT,61
122,2,0,MESSAGE PUMP,WM_GETOBJECT,61
127,3,0,MESSAGE PUMP,WM_GETOBJECT,61
127,3,0,MESSAGE PUMP,WM_GETOBJECT,61
127,3,0,MESSAGE PUMP,WM_GETOBJECT,61
127,3,0,MESSAGE PUMP,WM_GETOBJECT,61
127,3,0,MESSAGE PUMP,WM_GETOBJECT,61
127,3,0,MESSAGE PUMP,WM_GETOBJECT,61
127,3,0,MESSAGE PUMP,WM_GETOBJECT,61
127,3,0,MESSAGE PUMP,WM_GETOBJECT,61
127,3,0,MESSAGE PUMP,WM_GETOBJECT,61
127,3,0,MESSAGE PUMP,WM_GETOBJECT,61
127,3,0,MESSAGE PUMP,WM_GETOBJECT,61
127,3,0,MESSAGE PUMP,WM_GETOBJECT,61
127,3,0,MESSAGE PUMP,WM_GETOBJECT,61
127,3,0,MESSAGE PUMP,WM_GETOBJECT,61
127,3,0,MESSAGE PUMP,WM_GETOBJECT,61
127,3,0,MESSAGE PUMP,WM_GETOBJECT,61
132,9,0,MESSAGE PUMP,WM_GETOBJECT,61
132,9,0,MESSAGE PUMP,WM_GETOBJECT,61
132,9,0,MESSAGE PUMP,WM_GETOBJECT,61
132,9,0,MESSAGE PUMP,WM_GETOBJECT,61
132,9,0,MESSAGE PUMP,WM_GETOBJECT,61
132,9,0,MESSAGE PUMP,WM_GETOBJECT,61
132,9,0,MESSAGE PUMP,WM_GETOBJECT,61
132,9,0,MESSAGE PUMP,WM_GETOBJECT,61
132,9,0,MESSAGE PUMP,WM_GETOBJECT,61
132,9,0,MESSAGE PUMP,WM_GETOBJECT,61
132,9,0,MESSAGE PUMP,WM_GETOBJECT,61
132,9,0,MESSAGE PUMP,WM_GETOBJECT,61
132,9,0,MESSAGE PUMP,WM_GETOBJECT,61
132,9,0,MESSAGE PUMP,WM_GETOBJECT,61
132,9,0,MESSAGE PUMP,WM_GETOBJECT,61
132,9,0,MESSAGE PUMP,WM_GETOBJECT,61
138,1,0,MESSAGE PUMP,WM_GETOBJECT,61
138,1,0,MESSAGE PUMP,WM_GETOBJECT,61
138,1,0,MESSAGE PUMP,WM_GETOBJECT,61
138,1,0,MESSAGE PUMP,WM_GETOBJECT,61
138,1,0,MESSAGE PUMP,WM_GETOBJECT,61
138,1,0,MESSAGE PUMP,WM_GETOBJECT,61
138,1,0,MESSAGE PUMP,WM_GETOBJECT,61
138,1,0,MESSAGE PUMP,WM_GETOBJECT,61
138,1,0,MESSAGE PUMP,WM_GETOBJECT,61
138,1,0,MESSAGE PUMP,WM_GETOBJECT,61
138,1,0,MESSAGE PUMP,WM_GETOBJECT,61
138,1,0,MESSAGE PUMP,WM_GETOBJECT,61
138,1,0,MESSAGE PUMP,WM_GETOBJECT,61
138,1,0,MESSAGE PUMP,WM_GETOBJECT,61
138,1,0,MESSAGE PUMP,WM_GETOBJECT,61
138,1,0,MESSAGE PUMP,WM_GETOBJECT,61
139,1,0,MESSAGE PUMP,WM_GETOBJECT,61
139,1,0,MESSAGE PUMP,WM_GETOBJECT,61
139,1,0,MESSAGE PUMP,WM_GETOBJECT,61
139,1,0,MESSAGE PUMP,WM_GETOBJECT,61
139,1,0,MESSAGE PUMP,WM_GETOBJECT,61
139,1,0,MESSAGE PUMP,WM_GETOBJECT,61
139,1,0,MESSAGE PUMP,WM_GETOBJECT,61
139,1,0,MESSAGE PUMP,WM_GETOBJECT,61
139,1,0,MESSAGE PUMP,WM_GETOBJECT,61
139,1,0,MESSAGE PUMP,WM_GETOBJECT,61
139,1,0,MESSAGE PUMP,WM_GETOBJECT,61
139,1,0,MESSAGE PUMP,WM_GETOBJECT,61
139,1,0,MESSAGE PUMP,WM_GETOBJECT,61
139,1,0,MESSAGE PUMP,WM_GETOBJECT,61
139,1,0,MESSAGE PUMP,WM_GETOBJECT,61
139,1,0,MESSAGE PUMP,WM_GETOBJECT,61
142,1,0,MESSAGE PUMP,WM_GETOBJECT,61
142,1,0,MESSAGE PUMP,WM_GETOBJECT,61
142,1,0,MESSAGE PUMP,WM_GETOBJECT,61
142,1,0,MESSAGE PUMP,WM_GETOBJECT,61
142,1,0,MESSAGE PUMP,WM_GETOBJECT,61
142,1,0,MESSAGE PUMP,WM_GETOBJECT,61
142,1,0,MESSAGE PUMP,WM_GETOBJECT,61
142,1,0,MESSAGE PUMP,WM_GETOBJECT,61
142,1,0,MESSAGE PUMP,WM_GETOBJECT,61
142,1,0,MESSAGE PUMP,WM_GETOBJECT,61
142,1,0,MESSAGE PUMP,WM_GETOBJECT,61
142,1,0,MESSAGE PUMP,WM_GETOBJECT,61
142,1,0,MESSAGE PUMP,WM_GETOBJECT,61
142,1,0,MESSAGE PUMP,WM_GETOBJECT,61
142,1,0,MESSAGE PUMP,WM_GETOBJECT,61
142,1,0,MESSAGE PUMP,WM_GETOBJECT,61
143,1,0,MESSAGE PUMP,WM_GETOBJECT,61
143,1,0,MESSAGE PUMP,WM_GETOBJECT,61
143,1,0,MESSAGE PUMP,WM_GETOBJECT,61
143,1,0,MESSAGE PUMP,WM_GETOBJECT,61
143,1,0,MESSAGE PUMP,WM_GETOBJECT,61
143,1,0,MESSAGE PUMP,WM_GETOBJECT,61
143,1,0,MESSAGE PUMP,WM_GETOBJECT,61
143,1,0,MESSAGE PUMP,WM_GETOBJECT,61
143,1,0,MESSAGE PUMP,WM_GETOBJECT,61
143,1,0,MESSAGE PUMP,WM_GETOBJECT,61
143,1,0,MESSAGE PUMP,WM_GETOBJECT,61
143,1,0,MESSAGE PUMP,WM_GETOBJECT,61
143,1,0,MESSAGE PUMP,WM_GETOBJECT,61
143,1,0,MESSAGE PUMP,WM_GETOBJECT,61
143,1,0,MESSAGE PUMP,WM_GETOBJECT,61
143,1,0,MESSAGE PUMP,WM_GETOBJECT,61
145,1,0,MESSAGE PUMP,WM_GETOBJECT,61
145,1,0,MESSAGE PUMP,WM_GETOBJECT,61
145,1,0,MESSAGE PUMP,WM_GETOBJECT,61
145,1,0,MESSAGE PUMP,WM_GETOBJECT,61
145,1,0,MESSAGE PUMP,WM_GETOBJECT,61
145,1,0,MESSAGE PUMP,WM_GETOBJECT,61
145,1,0,MESSAGE PUMP,WM_GETOBJECT,61
145,1,0,MESSAGE PUMP,WM_GETOBJECT,61
145,1,0,MESSAGE PUMP,WM_GETOBJECT,61
145,1,0,MESSAGE PUMP,WM_GETOBJECT,61
145,1,0,MESSAGE PUMP,WM_GETOBJECT,61
145,1,0,MESSAGE PUMP,WM_GETOBJECT,61
145,1,0,MESSAGE PUMP,WM_GETOBJECT,61
145,1,0,MESSAGE PUMP,WM_GETOBJECT,61
145,1,0,MESSAGE PUMP,WM_GETOBJECT,61
145,1,0,MESSAGE PUMP,WM_GETOBJECT,61
148,69,0,MESSAGE PUMP,WM_GETOBJECT,61
148,69,0,MESSAGE PUMP,WM_GETOBJECT,61
148,69,0,MESSAGE PUMP,WM_GETOBJECT,61
148,69,0,MESSAGE PUMP,WM_GETOBJECT,61
148,69,0,MESSAGE PUMP,WM_GETOBJECT,61
148,69,0,MESSAGE PUMP,WM_GETOBJECT,61
148,69,0,MESSAGE PUMP,WM_GETOBJECT,61
148,69,0,MESSAGE PUMP,WM_GETOBJECT,61
148,69,0,MESSAGE PUMP,WM_GETOBJECT,61
148,69,0,MESSAGE PUMP,WM_GETOBJECT,61
148,69,0,MESSAGE PUMP,WM_GETOBJECT,61
148,69,0,MESSAGE PUMP,WM_GETOBJECT,61
148,69,0,MESSAGE PUMP,WM_GETOBJECT,61
148,69,0,MESSAGE PUMP,WM_GETOBJECT,61
148,69,0,MESSAGE PUMP,WM_GETOBJECT,61
148,69,0,MESSAGE PUMP,WM_GETOBJECT,61
150,91,0,MESSAGE PUMP,WM_GETOBJECT,61
150,91,0,MESSAGE PUMP,WM_GETOBJECT,61
150,91,0,MESSAGE PUMP,WM_GETOBJECT,61
150,91,0,MESSAGE PUMP,WM_GETOBJECT,61
150,91,0,MESSAGE PUMP,WM_GETOBJECT,61
150,91,0,MESSAGE PUMP,WM_GETOBJECT,61
150,91,0,MESSAGE PUMP,WM_GETOBJECT,61
150,91,0,MESSAGE PUMP,WM_GETOBJECT,61
150,91,0,MESSAGE PUMP,WM_GETOBJECT,61
150,91,0,MESSAGE PUMP,WM_GETOBJECT,61
150,91,0,MESSAGE PUMP,WM_GETOBJECT,61
150,91,0,MESSAGE PUMP,WM_GETOBJECT,61
150,91,0,MESSAGE PUMP,WM_GETOBJECT,61
150,91,0,MESSAGE PUMP,WM_GETOBJECT,61
150,91,0,MESSAGE PUMP,WM_GETOBJECT,61
150,91,0,MESSAGE PUMP,WM_GETOBJECT,61
152,1,0,MESSAGE PUMP,WM_GETOBJECT,61
152,1,0,MESSAGE PUMP,WM_GETOBJECT,61
152,1,0,MESSAGE PUMP,WM_GETOBJECT,61
152,1,0,MESSAGE PUMP,WM_GETOBJECT,61
152,1,0,MESSAGE PUMP,WM_GETOBJECT,61
152,1,0,MESSAGE PUMP,WM_GETOBJECT,61
152,1,0,MESSAGE PUMP,WM_GETOBJECT,61
152,1,0,MESSAGE PUMP,WM_GETOBJECT,61
152,1,0,MESSAGE PUMP,WM_GETOBJECT,61
152,1,0,MESSAGE PUMP,WM_GETOBJECT,61
152,1,0,MESSAGE PUMP,WM_GETOBJECT,61
152,1,0,MESSAGE PUMP,WM_GETOBJECT,61
152,1,0,MESSAGE PUMP,WM_GETOBJECT,61
152,1,0,MESSAGE PUMP,WM_GETOBJECT,61
152,1,0,MESSAGE PUMP,WM_GETOBJECT,61
152,1,0,MESSAGE PUMP,WM_GETOBJECT,61
154,1,0,MESSAGE PUMP,WM_GETOBJECT,61
154,1,0,MESSAGE PUMP,WM_GETOBJECT,61
154,1,0,MESSAGE PUMP,WM_GETOBJECT,61
154,1,0,MESSAGE PUMP,WM_GETOBJECT,61
154,1,0,MESSAGE PUMP,WM_GETOBJECT,61
154,1,0,MESSAGE PUMP,WM_GETOBJECT,61
154,1,0,MESSAGE PUMP,WM_GETOBJECT,61
154,1,0,MESSAGE PUMP,WM_GETOBJECT,61
154,1,0,MESSAGE PUMP,WM_GETOBJECT,61
154,1,0,MESSAGE PUMP,WM_GETOBJECT,61
154,1,0,MESSAGE PUMP,WM_GETOBJECT,61
154,1,0,MESSAGE PUMP,WM_GETOBJECT,61
154,1,0,MESSAGE PUMP,WM_GETOBJECT,61
154,1,0,MESSAGE PUMP,WM_GETOBJECT,61
154,1,0,MESSAGE PUMP,WM_GETOBJECT,61
154,1,0,MESSAGE PUMP,WM_GETOBJECT,61
160,2,0,MESSAGE PUMP,WM_GETOBJECT,61
160,2,0,MESSAGE PUMP,WM_GETOBJECT,61
160,2,0,MESSAGE PUMP,WM_GETOBJECT,61
160,2,0,MESSAGE PUMP,WM_GETOBJECT,61
160,2,0,MESSAGE PUMP,WM_GETOBJECT,61
160,2,0,MESSAGE PUMP,WM_GETOBJECT,61
160,2,0,MESSAGE PUMP,WM_GETOBJECT,61
160,2,0,MESSAGE PUMP,WM_GETOBJECT,61
160,2,0,MESSAGE PUMP,WM_GETOBJECT,61
160,2,0,MESSAGE PUMP,WM_GETOBJECT,61
160,2,0,MESSAGE PUMP,WM_GETOBJECT,61
160,2,0,MESSAGE PUMP,WM_GETOBJECT,61
160,2,0,MESSAGE PUMP,WM_GETOBJECT,61
160,2,0,MESSAGE PUMP,WM_GETOBJECT,61
160,2,0,MESSAGE PUMP,WM_GETOBJECT,61
160,2,0,MESSAGE PUMP,WM_GETOBJECT,61
164,1,0,MESSAGE PUMP,WM_GETOBJECT,61
164,1,0,MESSAGE PUMP,WM_GETOBJECT,61
164,1,0,MESSAGE PUMP,WM_GETOBJECT,61
164,1,0,MESSAGE PUMP,WM_GETOBJECT,61
164,1,0,MESSAGE PUMP,WM_GETOBJECT,61
164,1,0,MESSAGE PUMP,WM_GETOBJECT,61
164,1,0,MESSAGE PUMP,WM_GETOBJECT,61
164,1,0,MESSAGE PUMP,WM_GETOBJECT,61
164,1,0,MESSAGE PUMP,WM_GETOBJECT,61
164,1,0,MESSAGE PUMP,WM_GETOBJECT,61
164,1,0,MESSAGE PUMP,WM_GETOBJECT,61
164,1,0,MESSAGE PUMP,WM_GETOBJECT,61
164,1,0,MESSAGE PUMP,WM_GETOBJECT,61
164,1,0,MESSAGE PUMP,WM_GETOBJECT,61
164,1,0,MESSAGE PUMP,WM_GETOBJECT,61
164,1,0,MESSAGE PUMP,WM_GETOBJECT,61
167,18,0,MESSAGE PUMP,WM_GETOBJECT,61
167,18,0,MESSAGE PUMP,WM_GETOBJECT,61
167,18,0,MESSAGE PUMP,WM_GETOBJECT,61
167,18,0,MESSAGE PUMP,WM_GETOBJECT,61
167,18,0,MESSAGE PUMP,WM_GETOBJECT,61
167,18,0,MESSAGE PUMP,WM_GETOBJECT,61
167,18,0,MESSAGE PUMP,WM_GETOBJECT,61
167,18,0,MESSAGE PUMP,WM_GETOBJECT,61
167,18,0,MESSAGE PUMP,WM_GETOBJECT,61
167,18,0,MESSAGE PUMP,WM_GETOBJECT,61
167,18,0,MESSAGE PUMP,WM_GETOBJECT,61
167,18,0,MESSAGE PUMP,WM_GETOBJECT,61
167,18,0,MESSAGE PUMP,WM_GETOBJECT,61
167,18,0,MESSAGE PUMP,WM_GETOBJECT,61
167,18,0,MESSAGE PUMP,WM_GETOBJECT,61
167,18,0,MESSAGE PUMP,WM_GETOBJECT,61
170,11,0,MESSAGE PUMP,WM_GETOBJECT,61
170,11,0,MESSAGE PUMP,WM_GETOBJECT,61
170,11,0,MESSAGE PUMP,WM_GETOBJECT,61
170,11,0,MESSAGE PUMP,WM_GETOBJECT,61
170,11,0,MESSAGE PUMP,WM_GETOBJECT,61
170,11,0,MESSAGE PUMP,WM_GETOBJECT,61
170,11,0,MESSAGE PUMP,WM_GETOBJECT,61
170,11,0,MESSAGE PUMP,WM_GETOBJECT,61
170,11,0,MESSAGE PUMP,WM_GETOBJECT,61
170,11,0,MESSAGE PUMP,WM_GETOBJECT,61
170,11,0,MESSAGE PUMP,WM_GETOBJECT,61
170,11,0,MESSAGE PUMP,WM_GETOBJECT,61
170,11,0,MESSAGE PUMP,WM_GETOBJECT,61
170,11,0,MESSAGE PUMP,WM_GETOBJECT,61
170,11,0,MESSAGE PUMP,WM_GETOBJECT,61
170,11,0,MESSAGE PUMP,WM_GETOBJECT,61
174,12,0,MESSAGE PUMP,WM_GETOBJECT,61
174,12,0,MESSAGE PUMP,WM_GETOBJECT,61
174,12,0,MESSAGE PUMP,WM_GETOBJECT,61
174,12,0,MESSAGE PUMP,WM_GETOBJECT,61
174,12,0,MESSAGE PUMP,WM_GETOBJECT,61
174,12,0,MESSAGE PUMP,WM_GETOBJECT,61
174,12,0,MESSAGE PUMP,WM_GETOBJECT,61
174,12,0,MESSAGE PUMP,WM_GETOBJECT,61
174,12,0,MESSAGE PUMP,WM_GETOBJECT,61
174,12,0,MESSAGE PUMP,WM_GETOBJECT,61
174,12,0,MESSAGE PUMP,WM_GETOBJECT,61
174,12,0,MESSAGE PUMP,WM_GETOBJECT,61
174,12,0,MESSAGE PUMP,WM_GETOBJECT,61
174,12,0,MESSAGE PUMP,WM_GETOBJECT,61
174,12,0,MESSAGE PUMP,WM_GETOBJECT,61
174,12,0,MESSAGE PUMP,WM_GETOBJECT,61
181,68,0,MESSAGE PUMP,WM_GETOBJECT,61
181,68,0,MESSAGE PUMP,WM_GETOBJECT,61
181,68,0,MESSAGE PUMP,WM_GETOBJECT,61
181,68,0,MESSAGE PUMP,WM_GETOBJECT,61
181,68,0,MESSAGE PUMP,WM_GETOBJECT,61
181,68,0,MESSAGE PUMP,WM_GETOBJECT,61
181,68,0,MESSAGE PUMP,WM_GETOBJECT,61
181,68,0,MESSAGE PUMP,WM_GETOBJECT,61
181,68,0,MESSAGE PUMP,WM_GETOBJECT,61
181,68,0,MESSAGE PUMP,WM_GETOBJECT,61
181,68,0,MESSAGE PUMP,WM_GETOBJECT,61
181,68,0,MESSAGE PUMP,WM_GETOBJECT,61
181,68,0,MESSAGE PUMP,WM_GETOBJECT,61
181,68,0,MESSAGE PUMP,WM_GETOBJECT,61
181,68,0,MESSAGE PUMP,WM_GETOBJECT,61
181,68,0,MESSAGE PUMP,WM_GETOBJECT,61
182,19,0,MESSAGE PUMP,WM_GETOBJECT,61
182,19,0,MESSAGE PUMP,WM_GETOBJECT,61
182,19,0,MESSAGE PUMP,WM_GETOBJECT,61
182,19,0,MESSAGE PUMP,WM_GETOBJECT,61
182,19,0,MESSAGE PUMP,WM_GETOBJECT,61
182,19,0,MESSAGE PUMP,WM_GETOBJECT,61
182,19,0,MESSAGE PUMP,WM_GETOBJECT,61
182,19,0,MESSAGE PUMP,WM_GETOBJECT,61
182,19,0,MESSAGE PUMP,WM_GETOBJECT,61
182,19,0,MESSAGE PUMP,WM_GETOBJECT,61
182,19,0,MESSAGE PUMP,WM_GETOBJECT,61
182,19,0,MESSAGE PUMP,WM_GETOBJECT,61
182,19,0,MESSAGE PUMP,WM_GETOBJECT,61
182,19,0,MESSAGE PUMP,WM_GETOBJECT,61
182,19,0,MESSAGE PUMP,WM_GETOBJECT,61
182,19,0,MESSAGE PUMP,WM_GETOBJECT,61
184,1,0,MESSAGE PUMP,WM_GETOBJECT,61
184,1,0,MESSAGE PUMP,WM_GETOBJECT,61
184,1,0,MESSAGE PUMP,WM_GETOBJECT,61
184,1,0,MESSAGE PUMP,WM_GETOBJECT,61
184,1,0,MESSAGE PUMP,WM_GETOBJECT,61
184,1,0,MESSAGE PUMP,WM_GETOBJECT,61
184,1,0,MESSAGE PUMP,WM_GETOBJECT,61
184,1,0,MESSAGE PUMP,WM_GETOBJECT,61
184,1,0,MESSAGE PUMP,WM_GETOBJECT,61
184,1,0,MESSAGE PUMP,WM_GETOBJECT,61
184,1,0,MESSAGE PUMP,WM_GETOBJECT,61
184,1,0,MESSAGE PUMP,WM_GETOBJECT,61
184,1,0,MESSAGE PUMP,WM_GETOBJECT,61
184,1,0,MESSAGE PUMP,WM_GETOBJECT,61
184,1,0,MESSAGE PUMP,WM_GETOBJECT,61
184,1,0,MESSAGE PUMP,WM_GETOBJECT,61
186,12,0,MESSAGE PUMP,WM_GETOBJECT,61
186,12,0,MESSAGE PUMP,WM_GETOBJECT,61
186,12,0,MESSAGE PUMP,WM_GETOBJECT,61
186,12,0,MESSAGE PUMP,WM_GETOBJECT,61
186,12,0,MESSAGE PUMP,WM_GETOBJECT,61
186,12,0,MESSAGE PUMP,WM_GETOBJECT,61
186,12,0,MESSAGE PUMP,WM_GETOBJECT,61
186,12,0,MESSAGE PUMP,WM_GETOBJECT,61
186,12,0,MESSAGE PUMP,WM_GETOBJECT,61
186,12,0,MESSAGE PUMP,WM_GETOBJECT,61
186,12,0,MESSAGE PUMP,WM_GETOBJECT,61
186,12,0,MESSAGE PUMP,WM_GETOBJECT,61
186,12,0,MESSAGE PUMP,WM_GETOBJECT,61
186,12,0,MESSAGE PUMP,WM_GETOBJECT,61
186,12,0,MESSAGE PUMP,WM_GETOBJECT,61
186,12,0,MESSAGE PUMP,WM_GETOBJECT,61
188,38,0,MESSAGE PUMP,WM_GETOBJECT,61
188,38,0,MESSAGE PUMP,WM_GETOBJECT,61
188,38,0,MESSAGE PUMP,WM_GETOBJECT,61
188,38,0,MESSAGE PUMP,WM_GETOBJECT,61
188,38,0,MESSAGE PUMP,WM_GETOBJECT,61
188,38,0,MESSAGE PUMP,WM_GETOBJECT,61
188,38,0,MESSAGE PUMP,WM_GETOBJECT,61
188,38,0,MESSAGE PUMP,WM_GETOBJECT,61
188,38,0,MESSAGE PUMP,WM_GETOBJECT,61
188,38,0,MESSAGE PUMP,WM_GETOBJECT,61
188,38,0,MESSAGE PUMP,WM_GETOBJECT,61
188,38,0,MESSAGE PUMP,WM_GETOBJECT,61
188,38,0,MESSAGE PUMP,WM_GETOBJECT,61
188,38,0,MESSAGE PUMP,WM_GETOBJECT,61
188,38,0,MESSAGE PUMP,WM_GETOBJECT,61
188,38,0,MESSAGE PUMP,WM_GETOBJECT,61
189,37,0,MESSAGE PUMP,WM_GETOBJECT,61
189,37,0,MESSAGE PUMP,WM_GETOBJECT,61
189,37,0,MESSAGE PUMP,WM_GETOBJECT,61
189,37,0,MESSAGE PUMP,WM_GETOBJECT,61
189,37,0,MESSAGE PUMP,WM_GETOBJECT,61
189,37,0,MESSAGE PUMP,WM_GETOBJECT,61
189,37,0,MESSAGE PUMP,WM_GETOBJECT,61
189,37,0,MESSAGE PUMP,WM_GETOBJECT,61
189,37,0,MESSAGE PUMP,WM_GETOBJECT,61
189,37,0,MESSAGE PUMP,WM_GETOBJECT,61
189,37,0,MESSAGE PUMP,WM_GETOBJECT,61
189,37,0,MESSAGE PUMP,WM_GETOBJECT,61
189,37,0,MESSAGE PUMP,WM_GETOBJECT,61
189,37,0,MESSAGE PUMP,WM_GETOBJECT,61
189,37,0,MESSAGE PUMP,WM_GETOBJECT,61
189,37,0,MESSAGE PUMP,WM_GETOBJECT,61
192,2,0,MESSAGE PUMP,WM_GETOBJECT,61
192,2,0,MESSAGE PUMP,WM_GETOBJECT,61
192,2,0,MESSAGE PUMP,WM_GETOBJECT,61
192,2,0,MESSAGE PUMP,WM_GETOBJECT,61
192,2,0,MESSAGE PUMP,WM_GETOBJECT,61
192,2,0,MESSAGE PUMP,WM_GETOBJECT,61
192,2,0,MESSAGE PUMP,WM_GETOBJECT,61
192,2,0,MESSAGE PUMP,WM_GETOBJECT,61
192,2,0,MESSAGE PUMP,WM_GETOBJECT,61
192,2,0,MESSAGE PUMP,WM_GETOBJECT,61
192,2,0,MESSAGE PUMP,WM_GETOBJECT,61
192,2,0,MESSAGE PUMP,WM_GETOBJECT,61
192,2,0,MESSAGE PUMP,WM_GETOBJECT,61
192,2,0,MESSAGE PUMP,WM_GETOBJECT,61
192,2,0,MESSAGE PUMP,WM_GETOBJECT,61
192,2,0,MESSAGE PUMP,WM_GETOBJECT,61
193,1,0,MESSAGE PUMP,WM_GETOBJECT,61
193,1,0,MESSAGE PUMP,WM_GETOBJECT,61
193,1,0,MESSAGE PUMP,WM_GETOBJECT,61
193,1,0,MESSAGE PUMP,WM_GETOBJECT,61
193,1,0,MESSAGE PUMP,WM_GETOBJECT,61
193,1,0,MESSAGE PUMP,WM_GETOBJECT,61
193,1,0,MESSAGE PUMP,WM_GETOBJECT,61
193,1,0,MESSAGE PUMP,WM_GETOBJECT,61
193,1,0,MESSAGE PUMP,WM_GETOBJECT,61
193,1,0,MESSAGE PUMP,WM_GETOBJECT,61
193,1,0,MESSAGE PUMP,WM_GETOBJECT,61
193,1,0,MESSAGE PUMP,WM_GETOBJECT,61
193,1,0,MESSAGE PUMP,WM_GETOBJECT,61
193,1,0,MESSAGE PUMP,WM_GETOBJECT,61
193,1,0,MESSAGE PUMP,WM_GETOBJECT,61
193,1,0,MESSAGE PUMP,WM_GETOBJECT,61
195,1,0,MESSAGE PUMP,WM_GETOBJECT,61
195,1,0,MESSAGE PUMP,WM_GETOBJECT,61
195,1,0,MESSAGE PUMP,WM_GETOBJECT,61
195,1,0,MESSAGE PUMP,WM_GETOBJECT,61
195,1,0,MESSAGE PUMP,WM_GETOBJECT,61
195,1,0,MESSAGE PUMP,WM_GETOBJECT,61
195,1,0,MESSAGE PUMP,WM_GETOBJECT,61
195,1,0,MESSAGE PUMP,WM_GETOBJECT,61
195,1,0,MESSAGE PUMP,WM_GETOBJECT,61
195,1,0,MESSAGE PUMP,WM_GETOBJECT,61
195,1,0,MESSAGE PUMP,WM_GETOBJECT,61
195,1,0,MESSAGE PUMP,WM_GETOBJECT,61
195,1,0,MESSAGE PUMP,WM_GETOBJECT,61
195,1,0,MESSAGE PUMP,WM_GETOBJECT,61
195,1,0,MESSAGE PUMP,WM_GETOBJECT,61
195,1,0,MESSAGE PUMP,WM_GETOBJECT,61
197,1,0,MESSAGE PUMP,WM_GETOBJECT,61
197,1,0,MESSAGE PUMP,WM_GETOBJECT,61
197,1,0,MESSAGE PUMP,WM_GETOBJECT,61
197,1,0,MESSAGE PUMP,WM_GETOBJECT,61
197,1,0,MESSAGE PUMP,WM_GETOBJECT,61
197,1,0,MESSAGE PUMP,WM_GETOBJECT,61
197,1,0,MESSAGE PUMP,WM_GETOBJECT,61
197,1,0,MESSAGE PUMP,WM_GETOBJECT,61
197,1,0,MESSAGE PUMP,WM_GETOBJECT,61
197,1,0,MESSAGE PUMP,WM_GETOBJECT,61
197,1,0,MESSAGE PUMP,WM_GETOBJECT,61
197,1,0,MESSAGE PUMP,WM_GETOBJECT,61
197,1,0,MESSAGE PUMP,WM_GETOBJECT,61
197,1,0,MESSAGE PUMP,WM_GETOBJECT,61
197,1,0,MESSAGE PUMP,WM_GETOBJECT,61
197,1,0,MESSAGE PUMP,WM_GETOBJECT,61
199,53,0,MESSAGE PUMP,WM_GETOBJECT,61
199,53,0,MESSAGE PUMP,WM_GETOBJECT,61
199,53,0,MESSAGE PUMP,WM_GETOBJECT,61
199,53,0,MESSAGE PUMP,WM_GETOBJECT,61
199,53,0,MESSAGE PUMP,WM_GETOBJECT,61
199,53,0,MESSAGE PUMP,WM_GETOBJECT,61
199,53,0,MESSAGE PUMP,WM_GETOBJECT,61
199,53,0,MESSAGE PUMP,WM_GETOBJECT,61
199,53,0,MESSAGE PUMP,WM_GETOBJECT,61
199,53,0,MESSAGE PUMP,WM_GETOBJECT,61
199,53,0,MESSAGE PUMP,WM_GETOBJECT,61
199,53,0,MESSAGE PUMP,WM_GETOBJECT,61
199,53,0,MESSAGE PUMP,WM_GETOBJECT,61
199,53,0,MESSAGE PUMP,WM_GETOBJECT,61
199,53,0,MESSAGE PUMP,WM_GETOBJECT,61
199,53,0,MESSAGE PUMP,WM_GETOBJECT,61
206,2,0,MESSAGE PUMP,WM_GETOBJECT,61
206,2,0,MESSAGE PUMP,WM_GETOBJECT,61
206,2,0,MESSAGE PUMP,WM_GETOBJECT,61
206,2,0,MESSAGE PUMP,WM_GETOBJECT,61
206,2,0,MESSAGE PUMP,WM_GETOBJECT,61
206,2,0,MESSAGE PUMP,WM_GETOBJECT,61
206,2,0,MESSAGE PUMP,WM_GETOBJECT,61
206,2,0,MESSAGE PUMP,WM_GETOBJECT,61
206,2,0,MESSAGE PUMP,WM_GETOBJECT,61
206,2,0,MESSAGE PUMP,WM_GETOBJECT,61
206,2,0,MESSAGE PUMP,WM_GETOBJECT,61
206,2,0,MESSAGE PUMP,WM_GETOBJECT,61
206,2,0,MESSAGE PUMP,WM_GETOBJECT,61
206,2,0,MESSAGE PUMP,WM_GETOBJECT,61
206,2,0,MESSAGE PUMP,WM_GETOBJECT,61
206,2,0,MESSAGE PUMP,WM_GETOBJECT,61
208,30,0,MESSAGE PUMP,WM_GETOBJECT,61
208,30,0,MESSAGE PUMP,WM_GETOBJECT,61
208,30,0,MESSAGE PUMP,WM_GETOBJECT,61
208,30,0,MESSAGE PUMP,WM_GETOBJECT,61
208,30,0,MESSAGE PUMP,WM_GETOBJECT,61
208,30,0,MESSAGE PUMP,WM_GETOBJECT,61
208,30,0,MESSAGE PUMP,WM_GETOBJECT,61
208,30,0,MESSAGE PUMP,WM_GETOBJECT,61
208,30,0,MESSAGE PUMP,WM_GETOBJECT,61
208,30,0,MESSAGE PUMP,WM_GETOBJECT,61
208,30,0,MESSAGE PUMP,WM_GETOBJECT,61
208,30,0,MESSAGE PUMP,WM_GETOBJECT,61
208,30,0,MESSAGE PUMP,WM_GETOBJECT,61
208,30,0,MESSAGE PUMP,WM_GETOBJECT,61
208,30,0,MESSAGE PUMP,WM_GETOBJECT,61
208,30,0,MESSAGE PUMP,WM_GETOBJECT,61
210,44,0,MESSAGE PUMP,WM_GETOBJECT,61
210,44,0,MESSAGE PUMP,WM_GETOBJECT,61
210,44,0,MESSAGE PUMP,WM_GETOBJECT,61
210,44,0,MESSAGE PUMP,WM_GETOBJECT,61
210,44,0,MESSAGE PUMP,WM_GETOBJECT,61
210,44,0,MESSAGE PUMP,WM_GETOBJECT,61
210,44,0,MESSAGE PUMP,WM_GETOBJECT,61
210,44,0,MESSAGE PUMP,WM_GETOBJECT,61
210,44,0,MESSAGE PUMP,WM_GETOBJECT,61
210,44,0,MESSAGE PUMP,WM_GETOBJECT,61
210,44,0,MESSAGE PUMP,WM_GETOBJECT,61
210,44,0,MESSAGE PUMP,WM_GETOBJECT,61
210,44,0,MESSAGE PUMP,WM_GETOBJECT,61
210,44,0,MESSAGE PUMP,WM_GETOBJECT,61
210,44,0,MESSAGE PUMP,WM_GETOBJECT,61
210,44,0,MESSAGE PUMP,WM_GETOBJECT,61
211,43,0,MESSAGE PUMP,WM_GETOBJECT,61
211,43,0,MESSAGE PUMP,WM_GETOBJECT,61
211,43,0,MESSAGE PUMP,WM_GETOBJECT,61
211,43,0,MESSAGE PUMP,WM_GETOBJECT,61
211,43,0,MESSAGE PUMP,WM_GETOBJECT,61
211,43,0,MESSAGE PUMP,WM_GETOBJECT,61
211,43,0,MESSAGE PUMP,WM_GETOBJECT,61
211,43,0,MESSAGE PUMP,WM_GETOBJECT,61
211,43,0,MESSAGE PUMP,WM_GETOBJECT,61
211,43,0,MESSAGE PUMP,WM_GETOBJECT,61
211,43,0,MESSAGE PUMP,WM_GETOBJECT,61
211,43,0,MESSAGE PUMP,WM_GETOBJECT,61
211,43,0,MESSAGE PUMP,WM_GETOBJECT,61
211,43,0,MESSAGE PUMP,WM_GETOBJECT,61
211,43,0,MESSAGE PUMP,WM_GETOBJECT,61
211,43,0,MESSAGE PUMP,WM_GETOBJECT,61
212,44,0,MESSAGE PUMP,WM_GETOBJECT,61
212,44,0,MESSAGE PUMP,WM_GETOBJECT,61
212,44,0,MESSAGE PUMP,WM_GETOBJECT,61
212,44,0,MESSAGE PUMP,WM_GETOBJECT,61
212,44,0,MESSAGE PUMP,WM_GETOBJECT,61
212,44,0,MESSAGE PUMP,WM_GETOBJECT,61
212,44,0,MESSAGE PUMP,WM_GETOBJECT,61
212,44,0,MESSAGE PUMP,WM_GETOBJECT,61
212,44,0,MESSAGE PUMP,WM_GETOBJECT,61
212,44,0,MESSAGE PUMP,WM_GETOBJECT,61
212,44,0,MESSAGE PUMP,WM_GETOBJECT,61
212,44,0,MESSAGE PUMP,WM_GETOBJECT,61
212,44,0,MESSAGE PUMP,WM_GETOBJECT,61
212,44,0,MESSAGE PUMP,WM_GETOBJECT,61
212,44,0,MESSAGE PUMP,WM_GETOBJECT,61
212,44,0,MESSAGE PUMP,WM_GETOBJECT,61
216,20,0,MESSAGE PUMP,WM_GETOBJECT,61
216,20,0,MESSAGE PUMP,WM_GETOBJECT,61
216,20,0,MESSAGE PUMP,WM_GETOBJECT,61
216,20,0,MESSAGE PUMP,WM_GETOBJECT,61
216,20,0,MESSAGE PUMP,WM_GETOBJECT,61
216,20,0,MESSAGE PUMP,WM_GETOBJECT,61
216,20,0,MESSAGE PUMP,WM_GETOBJECT,61
216,20,0,MESSAGE PUMP,WM_GETOBJECT,61
216,20,0,MESSAGE PUMP,WM_GETOBJECT,61
216,20,0,MESSAGE PUMP,WM_GETOBJECT,61
216,20,0,MESSAGE PUMP,WM_GETOBJECT,61
216,20,0,MESSAGE PUMP,WM_GETOBJECT,61
216,20,0,MESSAGE PUMP,WM_GETOBJECT,61
216,20,0,MESSAGE PUMP,WM_GETOBJECT,61
216,20,0,MESSAGE PUMP,WM_GETOBJECT,61
216,20,0,MESSAGE PUMP,WM_GETOBJECT,61
219,1,0,MESSAGE PUMP,WM_GETOBJECT,61
219,1,0,MESSAGE PUMP,WM_GETOBJECT,61
219,1,0,MESSAGE PUMP,WM_GETOBJECT,61
219,1,0,MESSAGE PUMP,WM_GETOBJECT,61
219,1,0,MESSAGE PUMP,WM_GETOBJECT,61
219,1,0,MESSAGE PUMP,WM_GETOBJECT,61
219,1,0,MESSAGE PUMP,WM_GETOBJECT,61
219,1,0,MESSAGE PUMP,WM_GETOBJECT,61
219,1,0,MESSAGE PUMP,WM_GETOBJECT,61
219,1,0,MESSAGE PUMP,WM_GETOBJECT,61
219,1,0,MESSAGE PUMP,WM_GETOBJECT,61
219,1,0,MESSAGE PUMP,WM_GETOBJECT,61
219,1,0,MESSAGE PUMP,WM_GETOBJECT,61
219,1,0,MESSAGE PUMP,WM_GETOBJECT,61
219,1,0,MESSAGE PUMP,WM_GETOBJECT,61
219,1,0,MESSAGE PUMP,WM_GETOBJECT,61
221,0,0,MESSAGE PUMP,WM_GETOBJECT,61
221,0,0,MESSAGE PUMP,WM_GETOBJECT,61
221,0,0,MESSAGE PUMP,WM_GETOBJECT,61
221,0,0,MESSAGE PUMP,WM_GETOBJECT,61
221,0,0,MESSAGE PUMP,WM_GETOBJECT,61
221,0,0,MESSAGE PUMP,WM_GETOBJECT,61
221,0,0,MESSAGE PUMP,WM_GETOBJECT,61
221,0,0,MESSAGE PUMP,WM_GETOBJECT,61
221,0,0,MESSAGE PUMP,WM_GETOBJECT,61
221,0,0,MESSAGE PUMP,WM_GETOBJECT,61
221,0,0,MESSAGE PUMP,WM_GETOBJECT,61
221,0,0,MESSAGE PUMP,WM_GETOBJECT,61
221,0,0,MESSAGE PUMP,WM_GETOBJECT,61
221,0,0,MESSAGE PUMP,WM_GETOBJECT,61
221,0,0,MESSAGE PUMP,WM_GETOBJECT,61
221,0,0,MESSAGE PUMP,WM_GETOBJECT,61
223,9,0,MESSAGE PUMP,WM_GETOBJECT,61
223,9,0,MESSAGE PUMP,WM_GETOBJECT,61
223,9,0,MESSAGE PUMP,WM_GETOBJECT,61
223,9,0,MESSAGE PUMP,WM_GETOBJECT,61
223,9,0,MESSAGE PUMP,WM_GETOBJECT,61
223,9,0,MESSAGE PUMP,WM_GETOBJECT,61
223,9,0,MESSAGE PUMP,WM_GETOBJECT,61
223,9,0,MESSAGE PUMP,WM_GETOBJECT,61
223,9,0,MESSAGE PUMP,WM_GETOBJECT,61
223,9,0,MESSAGE PUMP,WM_GETOBJECT,61
223,9,0,MESSAGE PUMP,WM_GETOBJECT,61
223,9,0,MESSAGE PUMP,WM_GETOBJECT,61
223,9,0,MESSAGE PUMP,WM_GETOBJECT,61
223,9,0,MESSAGE PUMP,WM_GETOBJECT,61
223,9,0,MESSAGE PUMP,WM_GETOBJECT,61
223,9,0,MESSAGE PUMP,WM_GETOBJECT,61
226,1,0,MESSAGE PUMP,WM_GETOBJECT,61
226,1,0,MESSAGE PUMP,WM_GETOBJECT,61
226,1,0,MESSAGE PUMP,WM_GETOBJECT,61
226,1,0,MESSAGE PUMP,WM_GETOBJECT,61
226,1,0,MESSAGE PUMP,WM_GETOBJECT,61
226,1,0,MESSAGE PUMP,WM_GETOBJECT,61
226,1,0,MESSAGE PUMP,WM_GETOBJECT,61
226,1,0,MESSAGE PUMP,WM_GETOBJECT,61
226,1,0,MESSAGE PUMP,WM_GETOBJECT,61
226,1,0,MESSAGE PUMP,WM_GETOBJECT,61
226,1,0,MESSAGE PUMP,WM_GETOBJECT,61
226,1,0,MESSAGE PUMP,WM_GETOBJECT,61
226,1,0,MESSAGE PUMP,WM_GETOBJECT,61
226,1,0,MESSAGE PUMP,WM_GETOBJECT,61
226,1,0,MESSAGE PUMP,WM_GETOBJECT,61
226,1,0,MESSAGE PUMP,WM_GETOBJECT,61
228,60,0,MESSAGE PUMP,WM_GETOBJECT,61
228,60,0,MESSAGE PUMP,WM_GETOBJECT,61
228,60,0,MESSAGE PUMP,WM_GETOBJECT,61
228,60,0,MESSAGE PUMP,WM_GETOBJECT,61
228,60,0,MESSAGE PUMP,WM_GETOBJECT,61
228,60,0,MESSAGE PUMP,WM_GETOBJECT,61
228,60,0,MESSAGE PUMP,WM_GETOBJECT,61
228,60,0,MESSAGE PUMP,WM_GETOBJECT,61
228,60,0,MESSAGE PUMP,WM_GETOBJECT,61
228,60,0,MESSAGE PUMP,WM_GETOBJECT,61
228,60,0,MESSAGE PUMP,WM_GETOBJECT,61
228,60,0,MESSAGE PUMP,WM_GETOBJECT,61
228,60,0,MESSAGE PUMP,WM_GETOBJECT,61
228,60,0,MESSAGE PUMP,WM_GETOBJECT,61
228,60,0,MESSAGE PUMP,WM_GETOBJECT,61
228,60,0,MESSAGE PUMP,WM_GETOBJECT,61
229,100,0,MESSAGE PUMP,WM_GETOBJECT,61
229,100,0,MESSAGE PUMP,WM_GETOBJECT,61
229,100,0,MESSAGE PUMP,WM_GETOBJECT,61
229,100,0,MESSAGE PUMP,WM_GETOBJECT,61
229,100,0,MESSAGE PUMP,WM_GETOBJECT,61
229,100,0,MESSAGE PUMP,WM_GETOBJECT,61
229,100,0,MESSAGE PUMP,WM_GETOBJECT,61
229,100,0,MESSAGE PUMP,WM_GETOBJECT,61
229,100,0,MESSAGE PUMP,WM_GETOBJECT,61
229,100,0,MESSAGE PUMP,WM_GETOBJECT,61
229,100,0,MESSAGE PUMP,WM_GETOBJECT,61
229,100,0,MESSAGE PUMP,WM_GETOBJECT,61
229,100,0,MESSAGE PUMP,WM_GETOBJECT,61
229,100,0,MESSAGE PUMP,WM_GETOBJECT,61
229,100,0,MESSAGE PUMP,WM_GETOBJECT,61
229,100,0,MESSAGE PUMP,WM_GETOBJECT,61
230,1,0,MESSAGE PUMP,WM_GETOBJECT,61
230,1,0,MESSAGE PUMP,WM_GETOBJECT,61
230,1,0,MESSAGE PUMP,WM_GETOBJECT,61
230,1,0,MESSAGE PUMP,WM_GETOBJECT,61
230,1,0,MESSAGE PUMP,WM_GETOBJECT,61
230,1,0,MESSAGE PUMP,WM_GETOBJECT,61
230,1,0,MESSAGE PUMP,WM_GETOBJECT,61
230,1,0,MESSAGE PUMP,WM_GETOBJECT,61
230,1,0,MESSAGE PUMP,WM_GETOBJECT,61
230,1,0,MESSAGE PUMP,WM_GETOBJECT,61
230,1,0,MESSAGE PUMP,WM_GETOBJECT,61
230,1,0,MESSAGE PUMP,WM_GETOBJECT,61
230,1,0,MESSAGE PUMP,WM_GETOBJECT,61
230,1,0,MESSAGE PUMP,WM_GETOBJECT,61
230,1,0,MESSAGE PUMP,WM_GETOBJECT,61
230,1,0,MESSAGE PUMP,WM_GETOBJECT,61
232,1,0,MESSAGE PUMP,WM_GETOBJECT,61
232,1,0,MESSAGE PUMP,WM_GETOBJECT,61
232,1,0,MESSAGE PUMP,WM_GETOBJECT,61
232,1,0,MESSAGE PUMP,WM_GETOBJECT,61
232,1,0,MESSAGE PUMP,WM_GETOBJECT,61
232,1,0,MESSAGE PUMP,WM_GETOBJECT,61
232,1,0,MESSAGE PUMP,WM_GETOBJECT,61
232,1,0,MESSAGE PUMP,WM_GETOBJECT,61
232,1,0,MESSAGE PUMP,WM_GETOBJECT,61
232,1,0,MESSAGE PUMP,WM_GETOBJECT,61
232,1,0,MESSAGE PUMP,WM_GETOBJECT,61
232,1,0,MESSAGE PUMP,WM_GETOBJECT,61
232,1,0,MESSAGE PUMP,WM_GETOBJECT,61
232,1,0,MESSAGE PUMP,WM_GETOBJECT,61
232,1,0,MESSAGE PUMP,WM_GETOBJECT,61
232,1,0,MESSAGE PUMP,WM_GETOBJECT,61
233,2,0,MESSAGE PUMP,WM_GETOBJECT,61
233,2,0,MESSAGE PUMP,WM_GETOBJECT,61
233,2,0,MESSAGE PUMP,WM_GETOBJECT,61
233,2,0,MESSAGE PUMP,WM_GETOBJECT,61
233,2,0,MESSAGE PUMP,WM_GETOBJECT,61
233,2,0,MESSAGE PUMP,WM_GETOBJECT,61
233,2,0,MESSAGE PUMP,WM_GETOBJECT,61
233,2,0,MESSAGE PUMP,WM_GETOBJECT,61
233,2,0,MESSAGE PUMP,WM_GETOBJECT,61
233,2,0,MESSAGE PUMP,WM_GETOBJECT,61
233,2,0,MESSAGE PUMP,WM_GETOBJECT,61
233,2,0,MESSAGE PUMP,WM_GETOBJECT,61
233,2,0,MESSAGE PUMP,WM_GETOBJECT,61
233,2,0,MESSAGE PUMP,WM_GETOBJECT,61
233,2,0,MESSAGE PUMP,WM_GETOBJECT,61
233,2,0,MESSAGE PUMP,WM_GETOBJECT,61
234,31,0,MESSAGE PUMP,WM_GETOBJECT,61
234,31,0,MESSAGE PUMP,WM_GETOBJECT,61
234,31,0,MESSAGE PUMP,WM_GETOBJECT,61
234,31,0,MESSAGE PUMP,WM_GETOBJECT,61
234,31,0,MESSAGE PUMP,WM_GETOBJECT,61
234,31,0,MESSAGE PUMP,WM_GETOBJECT,61
234,31,0,MESSAGE PUMP,WM_GETOBJECT,61
234,31,0,MESSAGE PUMP,WM_GETOBJECT,61
234,31,0,MESSAGE PUMP,WM_GETOBJECT,61
234,31,0,MESSAGE PUMP,WM_GETOBJECT,61
234,31,0,MESSAGE PUMP,WM_GETOBJECT,61
234,31,0,MESSAGE PUMP,WM_GETOBJECT,61
234,31,0,MESSAGE PUMP,WM_GETOBJECT,61
234,31,0,MESSAGE PUMP,WM_GETOBJECT,61
234,31,0,MESSAGE PUMP,WM_GETOBJECT,61
234,31,0,MESSAGE PUMP,WM_GETOBJECT,61
237,65,0,MESSAGE PUMP,WM_GETOBJECT,61
237,65,0,MESSAGE PUMP,WM_GETOBJECT,61
237,65,0,MESSAGE PUMP,WM_GETOBJECT,61
237,65,0,MESSAGE PUMP,WM_GETOBJECT,61
237,65,0,MESSAGE PUMP,WM_GETOBJECT,61
237,65,0,MESSAGE PUMP,WM_GETOBJECT,61
237,65,0,MESSAGE PUMP,WM_GETOBJECT,61
237,65,0,MESSAGE PUMP,WM_GETOBJECT,61
237,65,0,MESSAGE PUMP,WM_GETOBJECT,61
237,65,0,MESSAGE PUMP,WM_GETOBJECT,61
237,65,0,MESSAGE PUMP,WM_GETOBJECT,61
237,65,0,MESSAGE PUMP,WM_GETOBJECT,61
237,65,0,MESSAGE PUMP,WM_GETOBJECT,61
237,65,0,MESSAGE PUMP,WM_GETOBJECT,61
237,65,0,MESSAGE PUMP,WM_GETOBJECT,61
237,65,0,MESSAGE PUMP,WM_GETOBJECT,61
237,65,0,MESSAGE PUMP,WM_GETOBJECT,61
237,65,0,MESSAGE PUMP,WM_GETOBJECT,61
237,65,0,MESSAGE PUMP,WM_GETOBJECT,61
237,65,0,MESSAGE PUMP,WM_GETOBJECT,61
237,65,0,MESSAGE PUMP,WM_GETOBJECT,61
237,65,0,MESSAGE PUMP,WM_GETOBJECT,61
237,65,0,MESSAGE PUMP,WM_GETOBJECT,61
237,65,0,MESSAGE PUMP,WM_GETOBJECT,61
237,65,0,MESSAGE PUMP,WM_GETOBJECT,61
237,65,0,MESSAGE PUMP,WM_GETOBJECT,61
237,65,0,MESSAGE PUMP,WM_GETOBJECT,61
237,65,0,MESSAGE PUMP,WM_GETOBJECT,61
237,65,0,MESSAGE PUMP,WM_GETOBJECT,61
237,65,0,MESSAGE PUMP,WM_GETOBJECT,61
237,65,0,MESSAGE PUMP,WM_GETOBJECT,61
237,65,0,MESSAGE PUMP,WM_GETOBJECT,61
237,65,0,MESSAGE PUMP,WM_GETOBJECT,61
237,65,0,MESSAGE PUMP,WM_GETOBJECT,61
237,65,0,MESSAGE PUMP,WM_GETOBJECT,61
237,65,0,MESSAGE PUMP,WM_GETOBJECT,61
237,65,0,MESSAGE PUMP,WM_GETOBJECT,61
237,65,0,MESSAGE PUMP,WM_GETOBJECT,61
237,65,0,MESSAGE PUMP,WM_GETOBJECT,61
237,65,0,MESSAGE PUMP,WM_GETOBJECT,61
251,1,1,MESSAGE PUMP,WM_NULL,0
1284,0,1,MESSAGE PUMP,WM_KEYDOWN,256
1284,0,1,MESSAGE PUMP,WM_CHAR,258
1284,0,0,MESSAGE PUMP,WM_GETOBJECT,61
1284,0,0,MESSAGE PUMP,WM_GETOBJECT,61
1284,0,0,MESSAGE PUMP,WM_GETOBJECT,61
1284,0,0,MESSAGE PUMP,WM_GETOBJECT,61
1284,0,0,MESSAGE PUMP,WM_GETOBJECT,61
1284,0,0,MESSAGE PUMP,WM_GETOBJECT,61
1284,0,0,MESSAGE PUMP,WM_GETOBJECT,61
1284,0,0,MESSAGE PUMP,WM_GETOBJECT,61
1285,0,1,MESSAGE PUMP,WM_KEYUP,257
1287,0,1,MESSAGE PUMP,WM_NULL,0
1362,1,1,MESSAGE PUMP,WM_KEYDOWN,256
1395,0,1,MESSAGE PUMP,WM_KEYDOWN,256
1395,0,0,MESSAGE PUMP,WM_GETOBJECT,61
1395,0,0,MESSAGE PUMP,WM_GETOBJECT,61
1395,0,0,MESSAGE PUMP,WM_GETOBJECT,61
1395,0,0,MESSAGE PUMP,WM_GETOBJECT,61
1395,0,0,MESSAGE PUMP,WM_GETOBJECT,61
1395,0,0,MESSAGE PUMP,WM_GETOBJECT,61
1395,0,0,MESSAGE PUMP,WM_GETOBJECT,61
1395,0,0,MESSAGE PUMP,WM_GETOBJECT,61
1398,0,1,MESSAGE PUMP,WM_KEYUP,257
1400,0,1,MESSAGE PUMP,WM_NULL,0
1429,1,1,MESSAGE PUMP,WM_KEYUP,257
1518,0,1,MESSAGE PUMP,WM_KEYDOWN,256
1548,1,1,MESSAGE PUMP,WM_KEYDOWN,256
1548,1,0,MESSAGE PUMP,WM_GETOBJECT,61
1548,1,0,MESSAGE PUMP,WM_GETOBJECT,61
1548,1,0,MESSAGE PUMP,WM_GETOBJECT,61
1548,1,0,MESSAGE PUMP,WM_GETOBJECT,61
1548,1,0,MESSAGE PUMP,WM_GETOBJECT,61
1548,1,0,MESSAGE PUMP,WM_GETOBJECT,61
1548,1,0,MESSAGE PUMP,WM_GETOBJECT,61
1548,1,0,MESSAGE PUMP,WM_GETOBJECT,61
1548,1,0,MESSAGE PUMP,WM_GETOBJECT,61
1548,1,0,MESSAGE PUMP,WM_GETOBJECT,61
1548,1,0,MESSAGE PUMP,WM_GETOBJECT,61
1548,1,0,MESSAGE PUMP,WM_GETOBJECT,61
1548,1,0,MESSAGE PUMP,WM_GETOBJECT,61
1548,1,0,MESSAGE PUMP,WM_GETOBJECT,61
1548,1,0,MESSAGE PUMP,WM_GETOBJECT,61
1548,1,0,MESSAGE PUMP,WM_GETOBJECT,61
1548,1,0,MESSAGE PUMP,WM_GETOBJECT,61
1548,1,0,MESSAGE PUMP,WM_GETOBJECT,61
1548,1,0,MESSAGE PUMP,WM_GETOBJECT,61
1548,1,0,MESSAGE PUMP,WM_GETOBJECT,61
1548,1,0,MESSAGE PUMP,WM_GETOBJECT,61
1548,1,0,MESSAGE PUMP,WM_GETOBJECT,61
1548,1,0,MESSAGE PUMP,WM_GETOBJECT,61
1548,1,0,MESSAGE PUMP,WM_GETOBJECT,61
1550,0,1,MESSAGE PUMP,WM_KEYUP,257
1556,1,1,MESSAGE PUMP,WM_NULL,0
1582,0,1,MESSAGE PUMP,WM_KEYUP,257
1671,0,1,MESSAGE PUMP,WM_KEYDOWN,256
1700,0,1,MESSAGE PUMP,WM_KEYDOWN,256
1700,0,0,MESSAGE PUMP,WM_GETOBJECT,61
1700,0,0,MESSAGE PUMP,WM_GETOBJECT,61
1700,0,0,MESSAGE PUMP,WM_GETOBJECT,61
1700,0,0,MESSAGE PUMP,WM_GETOBJECT,61
1700,0,0,MESSAGE PUMP,WM_GETOBJECT,61
1700,0,0,MESSAGE PUMP,WM_GETOBJECT,61
1700,0,0,MESSAGE PUMP,WM_GETOBJECT,61
1700,0,0,MESSAGE PUMP,WM_GETOBJECT,61
1702,2,1,MESSAGE PUMP,WM_KEYUP,257
1706,1,1,MESSAGE PUMP,WM_NULL,0
1735,0,1,MESSAGE PUMP,WM_KEYUP,257
2637,0,1,MESSAGE PUMP,WM_KEYDOWN,256
2637,0,0,MESSAGE PUMP,WM_GETOBJECT,61
2637,0,0,MESSAGE PUMP,WM_GETOBJECT,61
2637,0,0,MESSAGE PUMP,WM_GETOBJECT,61
2637,0,0,MESSAGE PUMP,WM_GETOBJECT,61
2637,0,0,MESSAGE PUMP,WM_GETOBJECT,61
2637,0,0,MESSAGE PUMP,WM_GETOBJECT,61
2637,0,0,MESSAGE PUMP,WM_GETOBJECT,61
2637,0,0,MESSAGE PUMP,WM_GETOBJECT,61
2639,1,1,MESSAGE PUMP,WM_KEYUP,257
2650,1,1,MESSAGE PUMP,WM_NULL,0
2672,0,1,MESSAGE PUMP,WM_KEYDOWN,256
2672,0,0,MESSAGE PUMP,WM_GETOBJECT,61
2672,0,0,MESSAGE PUMP,WM_GETOBJECT,61
2672,0,0,MESSAGE PUMP,WM_GETOBJECT,61
2672,0,0,MESSAGE PUMP,WM_GETOBJECT,61
2672,0,0,MESSAGE PUMP,WM_GETOBJECT,61
2672,0,0,MESSAGE PUMP,WM_GETOBJECT,61
2672,0,0,MESSAGE PUMP,WM_GETOBJECT,61
2672,0,0,MESSAGE PUMP,WM_GETOBJECT,61
2674,1,1,MESSAGE PUMP,WM_KEYUP,257
2683,0,1,MESSAGE PUMP,WM_NULL,0
2706,0,1,MESSAGE PUMP,WM_KEYDOWN,256
2706,0,0,MESSAGE PUMP,WM_GETOBJECT,61
2706,0,0,MESSAGE PUMP,WM_GETOBJECT,61
2706,0,0,MESSAGE PUMP,WM_GETOBJECT,61
2706,0,0,MESSAGE PUMP,WM_GETOBJECT,61
2706,0,0,MESSAGE PUMP,WM_GETOBJECT,61
2706,0,0,MESSAGE PUMP,WM_GETOBJECT,61
2706,0,0,MESSAGE PUMP,WM_GETOBJECT,61
2706,0,0,MESSAGE PUMP,WM_GETOBJECT,61
2708,0,1,MESSAGE PUMP,WM_KEYUP,257
2715,0,1,MESSAGE PUMP,WM_NULL,0
2740,0,1,MESSAGE PUMP,WM_KEYDOWN,256
2740,0,0,MESSAGE PUMP,WM_GETOBJECT,61
2740,0,0,MESSAGE PUMP,WM_GETOBJECT,61
2740,0,0,MESSAGE PUMP,WM_GETOBJECT,61
2740,0,0,MESSAGE PUMP,WM_GETOBJECT,61
2740,0,0,MESSAGE PUMP,WM_GETOBJECT,61
2740,0,0,MESSAGE PUMP,WM_GETOBJECT,61
2740,0,0,MESSAGE PUMP,WM_GETOBJECT,61
2740,0,0,MESSAGE PUMP,WM_GETOBJECT,61
2742,1,1,MESSAGE PUMP,WM_KEYUP,257
2754,0,1,MESSAGE PUMP,WM_NULL,0
2775,0,1,MESSAGE PUMP,WM_KEYDOWN,256
2775,0,0,MESSAGE PUMP,WM_GETOBJECT,61
2775,0,0,MESSAGE PUMP,WM_GETOBJECT,61
2775,0,0,MESSAGE PUMP,WM_GETOBJECT,61
2775,0,0,MESSAGE PUMP,WM_GETOBJECT,61
2775,0,0,MESSAGE PUMP,WM_GETOBJECT,61
2775,0,0,MESSAGE PUMP,WM_GETOBJECT,61
2775,0,0,MESSAGE PUMP,WM_GETOBJECT,61
2775,0,0,MESSAGE PUMP,WM_GETOBJECT,61
2777,1,1,MESSAGE PUMP,WM_KEYUP,257
2787,0,1,MESSAGE PUMP,WM_NULL,0
2809,1,1,MESSAGE PUMP,WM_KEYDOWN,256
2809,1,0,MESSAGE PUMP,WM_GETOBJECT,61
2809,1,0,MESSAGE PUMP,WM_GETOBJECT,61
2809,1,0,MESSAGE PUMP,WM_GETOBJECT,61
2809,1,0,MESSAGE PUMP,WM_GETOBJECT,61
2809,1,0,MESSAGE PUMP,WM_GETOBJECT,61
2809,1,0,MESSAGE PUMP,WM_GETOBJECT,61
2809,1,0,MESSAGE PUMP,WM_GETOBJECT,61
2809,1,0,MESSAGE PUMP,WM_GETOBJECT,61
2812,0,1,MESSAGE PUMP,WM_KEYUP,257
2820,0,1,MESSAGE PUMP,WM_NULL,0
2874,0,1,MESSAGE PUMP,WM_KEYDOWN,256
2874,0,1,MESSAGE PUMP,WM_CHAR,258
2874,0,0,MESSAGE PUMP,WM_GETOBJECT,61
2874,0,0,MESSAGE PUMP,WM_GETOBJECT,61
2874,0,0,MESSAGE PUMP,WM_GETOBJECT,61
2874,0,0,MESSAGE PUMP,WM_GETOBJECT,61
2874,0,0,MESSAGE PUMP,WM_GETOBJECT,61
2874,0,0,MESSAGE PUMP,WM_GETOBJECT,61
2874,0,0,MESSAGE PUMP,WM_GETOBJECT,61
2874,0,0,MESSAGE PUMP,WM_GETOBJECT,61
2875,0,1,MESSAGE PUMP,WM_KEYUP,257
2878,0,1,MESSAGE PUMP,WM_NULL,0
2936,0,1,MESSAGE PUMP,WM_KEYDOWN,256
2938,1,1,MESSAGE PUMP,WM_KEYUP,257
2970,1,1,MESSAGE PUMP,WM_KEYDOWN,256
2972,2,1,MESSAGE PUMP,WM_KEYUP,257
3005,0,1,MESSAGE PUMP,WM_KEYDOWN,256
3008,0,1,MESSAGE PUMP,WM_KEYUP,257
3039,1,1,MESSAGE PUMP,WM_KEYDOWN,256
3041,1,1,MESSAGE PUMP,WM_KEYUP,257
3074,0,1,MESSAGE PUMP,WM_KEYDOWN,256
3076,1,1,MESSAGE PUMP,WM_KEYUP,257
3108,1,1,MESSAGE PUMP,WM_KEYDOWN,256
3110,1,1,MESSAGE PUMP,WM_KEYUP,257
3173,0,1,MESSAGE PUMP,WM_KEYDOWN,256
3173,0,1,MESSAGE PUMP,WM_CHAR,258
3173,0,0,MESSAGE PUMP,WM_GETOBJECT,61
3173,0,0,MESSAGE PUMP,WM_GETOBJECT,61
3173,0,0,MESSAGE PUMP,WM_GETOBJECT,61
3173,0,0,MESSAGE PUMP,WM_GETOBJECT,61
3173,0,0,MESSAGE PUMP,WM_GETOBJECT,61
3173,0,0,MESSAGE PUMP,WM_GETOBJECT,61
3173,0,0,MESSAGE PUMP,WM_GETOBJECT,61
3173,0,0,MESSAGE PUMP,WM_GETOBJECT,61
3174,0,1,MESSAGE PUMP,WM_KEYUP,257
3180,0,1,MESSAGE PUMP,WM_NULL,0
3237,0,1,MESSAGE PUMP,WM_KEYDOWN,256
3237,0,0,MESSAGE PUMP,WM_GETOBJECT,61
3237,0,0,MESSAGE PUMP,WM_GETOBJECT,61
3237,0,0,MESSAGE PUMP,WM_GETOBJECT,61
3237,0,0,MESSAGE PUMP,WM_GETOBJECT,61
3237,0,0,MESSAGE PUMP,WM_GETOBJECT,61
3237,0,0,MESSAGE PUMP,WM_GETOBJECT,61
3237,0,0,MESSAGE PUMP,WM_GETOBJECT,61
3237,0,0,MESSAGE PUMP,WM_GETOBJECT,61
3239,0,1,MESSAGE PUMP,WM_KEYUP,257
3250,0,1,MESSAGE PUMP,WM_NULL,0
3271,0,1,MESSAGE PUMP,WM_KEYDOWN,256
3271,0,0,MESSAGE PUMP,WM_GETOBJECT,61
3271,0,0,MESSAGE PUMP,WM_GETOBJECT,61
3271,0,0,MESSAGE PUMP,WM_GETOBJECT,61
3271,0,0,MESSAGE PUMP,WM_GETOBJECT,61
3271,0,0,MESSAGE PUMP,WM_GETOBJECT,61
3271,0,0,MESSAGE PUMP,WM_GETOBJECT,61
3271,0,0,MESSAGE PUMP,WM_GETOBJECT,61
3271,0,0,MESSAGE PUMP,WM_GETOBJECT,61
3273,1,1,MESSAGE PUMP,WM_KEYUP,257
3283,1,1,MESSAGE PUMP,WM_NULL,0
3335,1,1,MESSAGE PUMP,WM_KEYDOWN,256
3335,1,1,MESSAGE PUMP,WM_CHAR,258
3335,1,0,MESSAGE PUMP,WM_GETOBJECT,61
3335,1,0,MESSAGE PUMP,WM_GETOBJECT,61
3335,1,0,MESSAGE PUMP,WM_GETOBJECT,61
3335,1,0,MESSAGE PUMP,WM_GETOBJECT,61
3335,1,0,MESSAGE PUMP,WM_GETOBJECT,61
3335,1,0,MESSAGE PUMP,WM_GETOBJECT,61
3335,1,0,MESSAGE PUMP,WM_GETOBJECT,61
3335,1,0,MESSAGE PUMP,WM_GETOBJECT,61
3336,0,1,MESSAGE PUMP,WM_KEYUP,257
3342,0,1,MESSAGE PUMP,WM_NULL,0
3399,0,1,MESSAGE PUMP,WM_KEYDOWN,256
3401,1,1,MESSAGE PUMP,WM_KEYUP,257
3433,1,1,MESSAGE PUMP,WM_KEYDOWN,256
3435,1,1,MESSAGE PUMP,WM_KEYUP,257
3498,0,1,MESSAGE PUMP,WM_KEYDOWN,256
3500,0,1,MESSAGE PUMP,WM_KEYUP,257
3532,0,1,MESSAGE PUMP,WM_KEYDOWN,256
3534,1,1,MESSAGE PUMP,WM_KEYUP,257
3566,1,1,MESSAGE PUMP,WM_KEYDOWN,256
3569,0,1,MESSAGE PUMP,WM_KEYUP,257
3601,0,1,MESSAGE PUMP,WM_KEYDOWN,256
3603,1,1,MESSAGE PUMP,WM_KEYUP,257
3635,1,1,MESSAGE PUMP,WM_KEYDOWN,256
3638,0,1,MESSAGE PUMP,WM_KEYUP,257
3670,0,1,MESSAGE PUMP,WM_KEYDOWN,256
3672,0,1,MESSAGE PUMP,WM_KEYUP,257
3702,1,1,MESSAGE PUMP,WM_KEYDOWN,256
3705,0,1,MESSAGE PUMP,WM_KEYUP,257
3767,0,1,MESSAGE PUMP,WM_KEYDOWN,256
3767,0,1,MESSAGE PUMP,WM_CHAR,258
3767,0,0,MESSAGE PUMP,WM_GETOBJECT,61
3767,0,0,MESSAGE PUMP,WM_GETOBJECT,61
3767,0,0,MESSAGE PUMP,WM_GETOBJECT,61
3767,0,0,MESSAGE PUMP,WM_GETOBJECT,61
3767,0,0,MESSAGE PUMP,WM_GETOBJECT,61
3767,0,0,MESSAGE PUMP,WM_GETOBJECT,61
3767,0,0,MESSAGE PUMP,WM_GETOBJECT,61
3767,0,0,MESSAGE PUMP,WM_GETOBJECT,61
3769,0,1,MESSAGE PUMP,WM_KEYUP,257
3772,1,1,MESSAGE PUMP,WM_NULL,0
3831,1,1,MESSAGE PUMP,WM_KEYDOWN,256
3831,1,0,MESSAGE PUMP,WM_GETOBJECT,61
3831,1,0,MESSAGE PUMP,WM_GETOBJECT,61
3831,1,0,MESSAGE PUMP,WM_GETOBJECT,61
3831,1,0,MESSAGE PUMP,WM_GETOBJECT,61
3831,1,0,MESSAGE PUMP,WM_GETOBJECT,61
3831,1,0,MESSAGE PUMP,WM_GETOBJECT,61
3831,1,0,MESSAGE PUMP,WM_GETOBJECT,61
3831,1,0,MESSAGE PUMP,WM_GETOBJECT,61
3833,1,1,MESSAGE PUMP,WM_KEYUP,257
3844,0,1,MESSAGE PUMP,WM_NULL,0
3866,0,1,MESSAGE PUMP,WM_KEYDOWN,256
3866,0,0,MESSAGE PUMP,WM_GETOBJECT,61
3866,0,0,MESSAGE PUMP,WM_GETOBJECT,61
3866,0,0,MESSAGE PUMP,WM_GETOBJECT,61
3866,0,0,MESSAGE PUMP,WM_GETOBJECT,61
3866,0,0,MESSAGE PUMP,WM_GETOBJECT,61
3866,0,0,MESSAGE PUMP,WM_GETOBJECT,61
3866,0,0,MESSAGE PUMP,WM_GETOBJECT,61
3866,0,0,MESSAGE PUMP,WM_GETOBJECT,61
3868,1,1,MESSAGE PUMP,WM_KEYUP,257
3876,1,1,MESSAGE PUMP,WM_NULL,0
3930,1,1,MESSAGE PUMP,WM_KEYDOWN,256
3930,1,1,MESSAGE PUMP,WM_CHAR,258
3930,1,0,MESSAGE PUMP,WM_GETOBJECT,61
3930,1,0,MESSAGE PUMP,WM_GETOBJECT,61
3930,1,0,MESSAGE PUMP,WM_GETOBJECT,61
3930,1,0,MESSAGE PUMP,WM_GETOBJECT,61
3930,1,0,MESSAGE PUMP,WM_GETOBJECT,61
3930,1,0,MESSAGE PUMP,WM_GETOBJECT,61
3930,1,0,MESSAGE PUMP,WM_GETOBJECT,61
3930,1,0,MESSAGE PUMP,WM_GETOBJECT,61
3932,0,1,MESSAGE PUMP,WM_KEYUP,257
3935,1,1,MESSAGE PUMP,WM_NULL,0
3994,0,1,MESSAGE PUMP,WM_KEYDOWN,256
3997,0,1,MESSAGE PUMP,WM_KEYUP,257
4028,0,1,MESSAGE PUMP,WM_KEYDOWN,256
4031,0,1,MESSAGE PUMP,WM_KEYUP,257
4093,1,1,MESSAGE PUMP,WM_KEYDOWN,256
4095,1,1,MESSAGE PUMP,WM_KEYUP,257
4128,0,1,MESSAGE PUMP,WM_KEYDOWN,256
4130,2,1,MESSAGE PUMP,WM_KEYUP,257
4162,1,1,MESSAGE PUMP,WM_KEYDOWN,256
4164,1,1,MESSAGE PUMP,WM_KEYUP,257
4227,0,1,MESSAGE PUMP,WM_KEYDOWN,256
4227,0,1,MESSAGE PUMP,WM_CHAR,258
4227,0,0,MESSAGE PUMP,WM_GETOBJECT,61
4227,0,0,MESSAGE PUMP,WM_GETOBJECT,61
4227,0,0,MESSAGE PUMP,WM_GETOBJECT,61
4227,0,0,MESSAGE PUMP,WM_GETOBJECT,61
4227,0,0,MESSAGE PUMP,WM_GETOBJECT,61
4227,0,0,MESSAGE PUMP,WM_GETOBJECT,61
4227,0,0,MESSAGE PUMP,WM_GETOBJECT,61
4227,0,0,MESSAGE PUMP,WM_GETOBJECT,61
4228,0,1,MESSAGE PUMP,WM_KEYUP,257
4230,1,1,MESSAGE PUMP,WM_NULL,0
4290,0,1,MESSAGE PUMP,WM_KEYDOWN,256
4290,0,0,MESSAGE PUMP,WM_GETOBJECT,61
4290,0,0,MESSAGE PUMP,WM_GETOBJECT,61
4290,0,0,MESSAGE PUMP,WM_GETOBJECT,61
4290,0,0,MESSAGE PUMP,WM_GETOBJECT,61
4290,0,0,MESSAGE PUMP,WM_GETOBJECT,61
4290,0,0,MESSAGE PUMP,WM_GETOBJECT,61
4290,0,0,MESSAGE PUMP,WM_GETOBJECT,61
4290,0,0,MESSAGE PUMP,WM_GETOBJECT,61
4293,0,1,MESSAGE PUMP,WM_KEYUP,257
4301,0,1,MESSAGE PUMP,WM_NULL,0
4325,0,1,MESSAGE PUMP,WM_KEYDOWN,256
4325,0,0,MESSAGE PUMP,WM_GETOBJECT,61
4325,0,0,MESSAGE PUMP,WM_GETOBJECT,61
4325,0,0,MESSAGE PUMP,WM_GETOBJECT,61
4325,0,0,MESSAGE PUMP,WM_GETOBJECT,61
4325,0,0,MESSAGE PUMP,WM_GETOBJECT,61
4325,0,0,MESSAGE PUMP,WM_GETOBJECT,61
4325,0,0,MESSAGE PUMP,WM_GETOBJECT,61
4325,0,0,MESSAGE PUMP,WM_GETOBJECT,61
4327,1,1,MESSAGE PUMP,WM_KEYUP,257
4333,1,1,MESSAGE PUMP,WM_NULL,0
4389,1,1,MESSAGE PUMP,WM_KEYDOWN,256
4389,1,0,MESSAGE PUMP,WM_GETOBJECT,61
4389,1,0,MESSAGE PUMP,WM_GETOBJECT,61
4389,1,0,MESSAGE PUMP,WM_GETOBJECT,61
4389,1,0,MESSAGE PUMP,WM_GETOBJECT,61
4389,1,0,MESSAGE PUMP,WM_GETOBJECT,61
4389,1,0,MESSAGE PUMP,WM_GETOBJECT,61
4389,1,0,MESSAGE PUMP,WM_GETOBJECT,61
4389,1,0,MESSAGE PUMP,WM_GETOBJECT,61
4391,1,1,MESSAGE PUMP,WM_KEYUP,257
4399,0,1,MESSAGE PUMP,WM_NULL,0
4424,1,1,MESSAGE PUMP,WM_KEYDOWN,256
4424,1,0,MESSAGE PUMP,WM_GETOBJECT,61
4424,1,0,MESSAGE PUMP,WM_GETOBJECT,61
4424,1,0,MESSAGE PUMP,WM_GETOBJECT,61
4424,1,0,MESSAGE PUMP,WM_GETOBJECT,61
4424,1,0,MESSAGE PUMP,WM_GETOBJECT,61
4424,1,0,MESSAGE PUMP,WM_GETOBJECT,61
4424,1,0,MESSAGE PUMP,WM_GETOBJECT,61
4424,1,0,MESSAGE PUMP,WM_GETOBJECT,61
4426,1,1,MESSAGE PUMP,WM_KEYUP,257
4432,1,1,MESSAGE PUMP,WM_NULL,0
4459,0,1,MESSAGE PUMP,WM_KEYDOWN,256
4459,0,0,MESSAGE PUMP,WM_GETOBJECT,61
4459,0,0,MESSAGE PUMP,WM_GETOBJECT,61
4459,0,0,MESSAGE PUMP,WM_GETOBJECT,61
4459,0,0,MESSAGE PUMP,WM_GETOBJECT,61
4459,0,0,MESSAGE PUMP,WM_GETOBJECT,61
4459,0,0,MESSAGE PUMP,WM_GETOBJECT,61
4459,0,0,MESSAGE PUMP,WM_GETOBJECT,61
4459,0,0,MESSAGE PUMP,WM_GETOBJECT,61
4461,1,1,MESSAGE PUMP,WM_KEYUP,257
4471,1,1,MESSAGE PUMP,WM_NULL,0
4493,1,1,MESSAGE PUMP,WM_KEYDOWN,256
4493,1,0,MESSAGE PUMP,WM_GETOBJECT,61
4493,1,0,MESSAGE PUMP,WM_GETOBJECT,61
4493,1,0,MESSAGE PUMP,WM_GETOBJECT,61
4493,1,0,MESSAGE PUMP,WM_GETOBJECT,61
4493,1,0,MESSAGE PUMP,WM_GETOBJECT,61
4493,1,0,MESSAGE PUMP,WM_GETOBJECT,61
4493,1,0,MESSAGE PUMP,WM_GETOBJECT,61
4493,1,0,MESSAGE PUMP,WM_GETOBJECT,61
4495,1,1,MESSAGE PUMP,WM_KEYUP,257
4504,1,1,MESSAGE PUMP,WM_NULL,0
4528,0,1,MESSAGE PUMP,WM_KEYDOWN,256
4528,0,0,MESSAGE PUMP,WM_GETOBJECT,61
4528,0,0,MESSAGE PUMP,WM_GETOBJECT,61
4528,0,0,MESSAGE PUMP,WM_GETOBJECT,61
4528,0,0,MESSAGE PUMP,WM_GETOBJECT,61
4528,0,0,MESSAGE PUMP,WM_GETOBJECT,61
4528,0,0,MESSAGE PUMP,WM_GETOBJECT,61
4528,0,0,MESSAGE PUMP,WM_GETOBJECT,61
4528,0,0,MESSAGE PUMP,WM_GETOBJECT,61
4530,1,1,MESSAGE PUMP,WM_KEYUP,257
4538,0,1,MESSAGE PUMP,WM_NULL,0
4562,0,1,MESSAGE PUMP,WM_KEYDOWN,256
4562,0,0,MESSAGE PUMP,WM_GETOBJECT,61
4562,0,0,MESSAGE PUMP,WM_GETOBJECT,61
4562,0,0,MESSAGE PUMP,WM_GETOBJECT,61
4562,0,0,MESSAGE PUMP,WM_GETOBJECT,61
4562,0,0,MESSAGE PUMP,WM_GETOBJECT,61
4562,0,0,MESSAGE PUMP,WM_GETOBJECT,61
4562,0,0,MESSAGE PUMP,WM_GETOBJECT,61
4562,0,0,MESSAGE PUMP,WM_GETOBJECT,61
4564,1,1,MESSAGE PUMP,WM_KEYUP,257
4570,0,1,MESSAGE PUMP,WM_NULL,0
4597,0,1,MESSAGE PUMP,WM_KEYDOWN,256
4597,0,0,MESSAGE PUMP,WM_GETOBJECT,61
4597,0,0,MESSAGE PUMP,WM_GETOBJECT,61
4597,0,0,MESSAGE PUMP,WM_GETOBJECT,61
4597,0,0,MESSAGE PUMP,WM_GETOBJECT,61
4597,0,0,MESSAGE PUMP,WM_GETOBJECT,61
4597,0,0,MESSAGE PUMP,WM_GETOBJECT,61
4597,0,0,MESSAGE PUMP,WM_GETOBJECT,61
4597,0,0,MESSAGE PUMP,WM_GETOBJECT,61
4599,1,1,MESSAGE PUMP,WM_KEYUP,257
4609,0,1,MESSAGE PUMP,WM_NULL,0
4631,0,1,MESSAGE PUMP,WM_KEYDOWN,256
4631,0,0,MESSAGE PUMP,WM_GETOBJECT,61
4631,0,0,MESSAGE PUMP,WM_GETOBJECT,61
4631,0,0,MESSAGE PUMP,WM_GETOBJECT,61
4631,0,0,MESSAGE PUMP,WM_GETOBJECT,61
4631,0,0,MESSAGE PUMP,WM_GETOBJECT,61
4631,0,0,MESSAGE PUMP,WM_GETOBJECT,61
4631,0,0,MESSAGE PUMP,WM_GETOBJECT,61
4631,0,0,MESSAGE PUMP,WM_GETOBJECT,61
4633,0,1,MESSAGE PUMP,WM_KEYUP,257
4642,0,1,MESSAGE PUMP,WM_NULL,0
4694,1,1,MESSAGE PUMP,WM_KEYDOWN,256
4694,1,0,MESSAGE PUMP,WM_GETOBJECT,61
4694,1,0,MESSAGE PUMP,WM_GETOBJECT,61
4694,1,0,MESSAGE PUMP,WM_GETOBJECT,61
4694,1,0,MESSAGE PUMP,WM_GETOBJECT,61
4694,1,0,MESSAGE PUMP,WM_GETOBJECT,61
4694,1,0,MESSAGE PUMP,WM_GETOBJECT,61
4694,1,0,MESSAGE PUMP,WM_GETOBJECT,61
4694,1,0,MESSAGE PUMP,WM_GETOBJECT,61
4697,0,1,MESSAGE PUMP,WM_KEYUP,257
4706,1,1,MESSAGE PUMP,WM_NULL,0
4759,0,1,MESSAGE PUMP,WM_KEYDOWN,256
4759,0,1,MESSAGE PUMP,WM_CHAR,258
4759,0,0,MESSAGE PUMP,WM_GETOBJECT,61
4759,0,0,MESSAGE PUMP,WM_GETOBJECT,61
4759,0,0,MESSAGE PUMP,WM_GETOBJECT,61
4759,0,0,MESSAGE PUMP,WM_GETOBJECT,61
4759,0,0,MESSAGE PUMP,WM_GETOBJECT,61
4759,0,0,MESSAGE PUMP,WM_GETOBJECT,61
4759,0,0,MESSAGE PUMP,WM_GETOBJECT,61
4759,0,0,MESSAGE PUMP,WM_GETOBJECT,61
4760,0,1,MESSAGE PUMP,WM_KEYUP,257
4766,0,1,MESSAGE PUMP,WM_NULL,0
4822,1,1,MESSAGE PUMP,WM_KEYDOWN,256
4825,0,1,MESSAGE PUMP,WM_KEYUP,257
4887,0,1,MESSAGE PUMP,WM_KEYDOWN,256
4889,1,1,MESSAGE PUMP,WM_KEYUP,257
4921,1,1,MESSAGE PUMP,WM_KEYDOWN,256
4924,0,1,MESSAGE PUMP,WM_KEYUP,257
4956,0,1,MESSAGE PUMP,WM_KEYDOWN,256
4958,1,1,MESSAGE PUMP,WM_KEYUP,257
4990,1,1,MESSAGE PUMP,WM_KEYDOWN,256
4992,1,1,MESSAGE PUMP,WM_KEYUP,257
5024,1,1,MESSAGE PUMP,WM_KEYDOWN,256
5027,0,1,MESSAGE PUMP,WM_KEYUP,257
5089,0,1,MESSAGE PUMP,WM_KEYDOWN,256
5121,0,1,MESSAGE PUMP,WM_KEYDOWN,256
5123,1,1,MESSAGE PUMP,WM_KEYUP,257
5156,0,1,MESSAGE PUMP,WM_KEYUP,257
5218,0,1,MESSAGE PUMP,WM_KEYDOWN,256
5218,0,1,MESSAGE PUMP,WM_CHAR,258
5218,0,0,MESSAGE PUMP,WM_GETOBJECT,61
5218,0,0,MESSAGE PUMP,WM_GETOBJECT,61
5218,0,0,MESSAGE PUMP,WM_GETOBJECT,61
5218,0,0,MESSAGE PUMP,WM_GETOBJECT,61
5218,0,0,MESSAGE PUMP,WM_GETOBJECT,61
5218,0,0,MESSAGE PUMP,WM_GETOBJECT,61
5218,0,0,MESSAGE PUMP,WM_GETOBJECT,61
5218,0,0,MESSAGE PUMP,WM_GETOBJECT,61
5220,0,1,MESSAGE PUMP,WM_KEYUP,257
5225,0,1,MESSAGE PUMP,WM_NULL,0
5282,1,1,MESSAGE PUMP,WM_KEYDOWN,256
5282,1,0,MESSAGE PUMP,WM_GETOBJECT,61
5282,1,0,MESSAGE PUMP,WM_GETOBJECT,61
5282,1,0,MESSAGE PUMP,WM_GETOBJECT,61
5282,1,0,MESSAGE PUMP,WM_GETOBJECT,61
5282,1,0,MESSAGE PUMP,WM_GETOBJECT,61
5282,1,0,MESSAGE PUMP,WM_GETOBJECT,61
5282,1,0,MESSAGE PUMP,WM_GETOBJECT,61
5282,1,0,MESSAGE PUMP,WM_GETOBJECT,61
5285,0,1,MESSAGE PUMP,WM_KEYUP,257
5296,1,1,MESSAGE PUMP,WM_NULL,0
5317,0,1,MESSAGE PUMP,WM_KEYDOWN,256
5317,0,0,MESSAGE PUMP,WM_GETOBJECT,61
5317,0,0,MESSAGE PUMP,WM_GETOBJECT,61
5317,0,0,MESSAGE PUMP,WM_GETOBJECT,61
5317,0,0,MESSAGE PUMP,WM_GETOBJECT,61
5317,0,0,MESSAGE PUMP,WM_GETOBJECT,61
5317,0,0,MESSAGE PUMP,WM_GETOBJECT,61
5317,0,0,MESSAGE PUMP,WM_GETOBJECT,61
5317,0,0,MESSAGE PUMP,WM_GETOBJECT,61
5320,0,1,MESSAGE PUMP,WM_KEYUP,257
5329,0,1,MESSAGE PUMP,WM_NULL,0
5382,0,1,MESSAGE PUMP,WM_KEYDOWN,256
5382,0,1,MESSAGE PUMP,WM_CHAR,258
5382,0,0,MESSAGE PUMP,WM_GETOBJECT,61
5382,0,0,MESSAGE PUMP,WM_GETOBJECT,61
5382,0,0,MESSAGE PUMP,WM_GETOBJECT,61
5382,0,0,MESSAGE PUMP,WM_GETOBJECT,61
5382,0,0,MESSAGE PUMP,WM_GETOBJECT,61
5382,0,0,MESSAGE PUMP,WM_GETOBJECT,61
5382,0,0,MESSAGE PUMP,WM_GETOBJECT,61
5382,0,0,MESSAGE PUMP,WM_GETOBJECT,61
5383,0,1,MESSAGE PUMP,WM_KEYUP,257
5388,1,1,MESSAGE PUMP,WM_NULL,0
5445,1,1,MESSAGE PUMP,WM_KEYDOWN,256
5478,0,1,MESSAGE PUMP,WM_KEYDOWN,256
5480,1,1,MESSAGE PUMP,WM_KEYUP,257
5512,0,1,MESSAGE PUMP,WM_KEYUP,257
5575,0,1,MESSAGE PUMP,WM_KEYDOWN,256
5577,0,1,MESSAGE PUMP,WM_KEYUP,257
5639,1,1,MESSAGE PUMP,WM_KEYDOWN,256
5641,1,1,MESSAGE PUMP,WM_KEYUP,257
5673,1,1,MESSAGE PUMP,WM_KEYDOWN,256
5675,1,1,MESSAGE PUMP,WM_KEYUP,257
5708,0,1,MESSAGE PUMP,WM_KEYDOWN,256
5710,1,1,MESSAGE PUMP,WM_KEYUP,257
5772,0,1,MESSAGE PUMP,WM_KEYDOWN,256
5772,0,1,MESSAGE PUMP,WM_CHAR,258
5772,0,0,MESSAGE PUMP,WM_GETOBJECT,61
5772,0,0,MESSAGE PUMP,WM_GETOBJECT,61
5772,0,0,MESSAGE PUMP,WM_GETOBJECT,61
5772,0,0,MESSAGE PUMP,WM_GETOBJECT,61
5772,0,0,MESSAGE PUMP,WM_GETOBJECT,61
5772,0,0,MESSAGE PUMP,WM_GETOBJECT,61
5772,0,0,MESSAGE PUMP,WM_GETOBJECT,61
5772,0,0,MESSAGE PUMP,WM_GETOBJECT,61
5773,0,1,MESSAGE PUMP,WM_KEYUP,257
5781,0,1,MESSAGE PUMP,WM_NULL,0
5836,0,1,MESSAGE PUMP,WM_KEYDOWN,256
5836,0,0,MESSAGE PUMP,WM_GETOBJECT,61
5836,0,0,MESSAGE PUMP,WM_GETOBJECT,61
5836,0,0,MESSAGE PUMP,WM_GETOBJECT,61
5836,0,0,MESSAGE PUMP,WM_GETOBJECT,61
5836,0,0,MESSAGE PUMP,WM_GETOBJECT,61
5836,0,0,MESSAGE PUMP,WM_GETOBJECT,61
5836,0,0,MESSAGE PUMP,WM_GETOBJECT,61
5836,0,0,MESSAGE PUMP,WM_GETOBJECT,61
5838,1,1,MESSAGE PUMP,WM_KEYUP,257
5845,0,1,MESSAGE PUMP,WM_NULL,0
5900,1,1,MESSAGE PUMP,WM_KEYDOWN,256
5900,1,0,MESSAGE PUMP,WM_GETOBJECT,61
5900,1,0,MESSAGE PUMP,WM_GETOBJECT,61
5900,1,0,MESSAGE PUMP,WM_GETOBJECT,61
5900,1,0,MESSAGE PUMP,WM_GETOBJECT,61
5900,1,0,MESSAGE PUMP,WM_GETOBJECT,61
5900,1,0,MESSAGE PUMP,WM_GETOBJECT,61
5900,1,0,MESSAGE PUMP,WM_GETOBJECT,61
5900,1,0,MESSAGE PUMP,WM_GETOBJECT,61
5903,0,1,MESSAGE PUMP,WM_KEYUP,257
5910,1,1,MESSAGE PUMP,WM_NULL,0
5935,0,1,MESSAGE PUMP,WM_KEYDOWN,256
5935,0,0,MESSAGE PUMP,WM_GETOBJECT,61
5935,0,0,MESSAGE PUMP,WM_GETOBJECT,61
5935,0,0,MESSAGE PUMP,WM_GETOBJECT,61
5935,0,0,MESSAGE PUMP,WM_GETOBJECT,61
5935,0,0,MESSAGE PUMP,WM_GETOBJECT,61
5935,0,0,MESSAGE PUMP,WM_GETOBJECT,61
5935,0,0,MESSAGE PUMP,WM_GETOBJECT,61
5935,0,0,MESSAGE PUMP,WM_GETOBJECT,61
5937,2,1,MESSAGE PUMP,WM_KEYUP,257
5943,1,1,MESSAGE PUMP,WM_NULL,0
5969,1,1,MESSAGE PUMP,WM_KEYDOWN,256
5969,1,0,MESSAGE PUMP,WM_GETOBJECT,61
5969,1,0,MESSAGE PUMP,WM_GETOBJECT,61
5969,1,0,MESSAGE PUMP,WM_GETOBJECT,61
5969,1,0,MESSAGE PUMP,WM_GETOBJECT,61
5969,1,0,MESSAGE PUMP,WM_GETOBJECT,61
5969,1,0,MESSAGE PUMP,WM_GETOBJECT,61
5969,1,0,MESSAGE PUMP,WM_GETOBJECT,61
5969,1,0,MESSAGE PUMP,WM_GETOBJECT,61
5972,0,1,MESSAGE PUMP,WM_KEYUP,257
5983,0,1,MESSAGE PUMP,WM_NULL,0
6004,0,1,MESSAGE PUMP,WM_KEYDOWN,256
6004,0,0,MESSAGE PUMP,WM_GETOBJECT,61
6004,0,0,MESSAGE PUMP,WM_GETOBJECT,61
6004,0,0,MESSAGE PUMP,WM_GETOBJECT,61
6004,0,0,MESSAGE PUMP,WM_GETOBJECT,61
6004,0,0,MESSAGE PUMP,WM_GETOBJECT,61
6004,0,0,MESSAGE PUMP,WM_GETOBJECT,61
6004,0,0,MESSAGE PUMP,WM_GETOBJECT,61
6004,0,0,MESSAGE PUMP,WM_GETOBJECT,61
6007,0,1,MESSAGE PUMP,WM_KEYUP,257
6015,1,1,MESSAGE PUMP,WM_NULL,0
6039,0,1,MESSAGE PUMP,WM_KEYDOWN,256
6039,0,1,MESSAGE PUMP,WM_KEYUP,257
6101,1,1,MESSAGE PUMP,WM_KEYDOWN,256
6101,1,1,MESSAGE PUMP,WM_CHAR,258
6101,1,0,MESSAGE PUMP,WM_GETOBJECT,61
6101,1,0,MESSAGE PUMP,WM_GETOBJECT,61
6101,1,0,MESSAGE PUMP,WM_GETOBJECT,61
6101,1,0,MESSAGE PUMP,WM_GETOBJECT,61
6101,1,0,MESSAGE PUMP,WM_GETOBJECT,61
6101,1,0,MESSAGE PUMP,WM_GETOBJECT,61
6101,1,0,MESSAGE PUMP,WM_GETOBJECT,61
6101,1,0,MESSAGE PUMP,WM_GETOBJECT,61
6103,0,1,MESSAGE PUMP,WM_KEYUP,257
6106,0,1,MESSAGE PUMP,WM_NULL,0
6166,1,1,MESSAGE PUMP,WM_KEYDOWN,256
6169,0,1,MESSAGE PUMP,WM_KEYUP,257
6231,0,1,MESSAGE PUMP,WM_KEYDOWN,256
6263,0,1,MESSAGE PUMP,WM_KEYDOWN,256
6266,0,1,MESSAGE PUMP,WM_KEYUP,257
6298,0,1,MESSAGE PUMP,WM_KEYUP,257
6360,0,1,MESSAGE PUMP,WM_KEYDOWN,256
6363,0,1,MESSAGE PUMP,WM_KEYUP,257
6395,1,1,MESSAGE PUMP,WM_KEYDOWN,256
6397,1,1,MESSAGE PUMP,WM_KEYUP,257
6460,0,1,MESSAGE PUMP,WM_KEYDOWN,256
6460,0,1,MESSAGE PUMP,WM_CHAR,258
6460,0,0,MESSAGE PUMP,WM_GETOBJECT,61
6460,0,0,MESSAGE PUMP,WM_GETOBJECT,61
6460,0,0,MESSAGE PUMP,WM_GETOBJECT,61
6460,0,0,MESSAGE PUMP,WM_GETOBJECT,61
6460,0,0,MESSAGE PUMP,WM_GETOBJECT,61
6460,0,0,MESSAGE PUMP,WM_GETOBJECT,61
6460,0,0,MESSAGE PUMP,WM_GETOBJECT,61
6460,0,0,MESSAGE PUMP,WM_GETOBJECT,61
6462,0,1,MESSAGE PUMP,WM_KEYUP,257
6468,1,1,MESSAGE PUMP,WM_NULL,0
7424,1,1,MESSAGE PUMP,WM_KEYDOWN,256
7456,1,1,MESSAGE PUMP,WM_KEYDOWN,256
7458,1,1,MESSAGE PUMP,WM_KEYUP,257
7491,0,1,MESSAGE PUMP,WM_KEYUP,257
7614,0,1,MESSAGE PUMP,WM_SYSKEYDOWN,260
7646,1,1,MESSAGE PUMP,WM_SYSKEYDOWN,260
7646,1,1,MESSAGE PUMP,WM_SYSCOMMAND,274
7646,1,1,MESSAGE PUMP,WM_CLOSE,16
7646,54,0,MESSAGE PUMP,Unknown,144
7646,54,0,MESSAGE PUMP,WM_WINDOWPOSCHANGING,70
7646,54,0,MESSAGE PUMP,WM_WINDOWPOSCHANGED,71
7646,54,0,MESSAGE PUMP,WM_NCACTIVATE,134
7646,54,0,MESSAGE PUMP,WM_GETICON,127
7646,54,0,MESSAGE PUMP,WM_ACTIVATE,6
7646,54,0,MESSAGE PUMP,WM_ACTIVATEAPP,28
7646,54,0,MESSAGE PUMP,WM_KILLFOCUS,8
7646,54,0,MESSAGE PUMP,WM_IME_SETCONTEXT,641
7646,54,0,MESSAGE PUMP,WM_IME_NOTIFY,642
7646,54,0,MESSAGE PUMP,WM_DESTROY,2
7646,54,0,MESSAGE PUMP,WM_NCDESTROY,130
