Frame,Poll Count,Is Polling,Source,Event Name,Event Code
0,0,0,MESSAGE PUMP,WM_SHOWWINDOW,24
0,0,0,MESSAGE PUMP,WM_WINDOWPOSCHANGING,70
0,0,0,MESSAGE PUMP,WM_WINDOWPOSCHANGING,70
0,0,0,MESSAGE PUMP,WM_ACTIVATEAPP,28
0,0,0,MESSAGE PUMP,WM_NCACTIVATE,134
0,0,0,MESSAGE PUMP,WM_ACTIVATE,6
0,0,0,MESSAGE PUMP,WM_IME_SETCONTEXT,641
0,0,0,MESSAGE PUMP,WM_IME_NOTIFY,642
0,0,0,MESSAGE PUMP,WM_SETFOCUS,7
0,0,0,MESSAGE PUMP,WM_NCPAINT,133
0,0,0,MESSAGE PUMP,WM_ERASEBKGND,20
0,0,0,MESSAGE PUMP,WM_WINDOWPOSCHANGED,71
0,0,0,MESSAGE PUMP,WM_SIZE,5
0,0,0,MESSAGE PUMP,WM_MOVE,3
0,0,0,MESSAGE PUMP,WM_WINDOWPOSCHANGING,70
1,0,1,MESSAGE PUMP,WM_GETOBJECT,61
1,0,1,MESSAGE PUMP,WM_GETICON,127
1,0,1,MESSAGE PUMP,WM_GETICON,127
1,0,1,MESSAGE PUMP,Unknown,799
1,0,1,MESSAGE PUMP,Unknown,49351
1,0,1,MESSAGE PUMP,WM_GETICON,127
1,0,1,MESSAGE PUMP,WM_PAINT,15
2,0,1,MESSAGE PUMP,Unknown,356
2,0,1,MESSAGE PUMP,WM_GETOBJECT,61
2,1,1,MESSAGE PUMP,Unknown,356
2,2,1,MESSAGE PUMP,Unknown,356
2,57,1,MESSAGE PUMP,Unknown,356
2,59,1,MESSAGE PUMP,WM_GETOBJECT,61
3,1,1,MESSAGE PUMP,WM_GETOBJECT,61
3,1,1,MESSAGE PUMP,Unknown,356
4,2,1,MESSAGE PUMP,Unknown,356
4,5,1,MESSAGE PUMP,WM_GETOBJECT,61
7,0,1,MESSAGE PUMP,Unknown,356
7,7,1,MESSAGE PUMP,Unknown,356
7,12,1,MESSAGE PUMP,Unknown,356
7,12,1,MESSAGE PUMP,WM_GETOBJECT,61
8,0,1,MESSAGE PUMP,Unknown,356
8,0,1,MESSAGE PUMP,WM_GETOBJECT,61
8,1,1,MESSAGE PUMP,WM_GETOBJECT,61
8,2,1,MESSAGE PUMP,WM_GETOBJECT,61
8,3,1,MESSAGE PUMP,WM_GETOBJECT,61
8,6,1,MESSAGE PUMP,WM_GETOBJECT,61
9,1,1,MESSAGE PUMP,Unknown,356
9,4,1,MESSAGE PUMP,WM_GETOBJECT,61
10,2,1,MESSAGE PUMP,Unknown,356
10,10,1,MESSAGE PUMP,WM_GETOBJECT,61
12,1,1,MESSAGE PUMP,Unknown,356
12,6,1,MESSAGE PUMP,Unknown,356
12,6,1,MESSAGE PUMP,WM_GETOBJECT,61
13,0,1,MESSAGE PUMP,WM_GETOBJECT,61
13,0,1,MESSAGE PUMP,WM_GETOBJECT,61
13,0,1,MESSAGE PUMP,WM_GETOBJECT,61
13,0,1,MESSAGE PUMP,WM_GETOBJECT,61
13,1,1,MESSAGE PUMP,WM_GETOBJECT,61
13,1,1,MESSAGE PUMP,WM_GETOBJECT,61
13,1,1,MESSAGE PUMP,WM_GETOBJECT,61
13,1,1,MESSAGE PUMP,WM_GETOBJECT,61
13,1,1,MESSAGE PUMP,WM_GETOBJECT,61
14,0,1,MESSAGE PUMP,WM_GETOBJECT,61
14,0,1,MESSAGE PUMP,WM_GETOBJECT,61
15,0,1,MESSAGE PUMP,WM_GETOBJECT,61
15,1,1,MESSAGE PUMP,Unknown,356
15,1,1,MESSAGE PUMP,WM_GETOBJECT,61
16,0,1,MESSAGE PUMP,WM_GETOBJECT,61
16,0,1,MESSAGE PUMP,WM_GETOBJECT,61
16,2,1,MESSAGE PUMP,WM_GETOBJECT,61
16,2,1,MESSAGE PUMP,Unknown,356
16,4,1,MESSAGE PUMP,WM_GETOBJECT,61
16,6,1,MESSAGE PUMP,WM_GETOBJECT,61
16,7,1,MESSAGE PUMP,WM_GETOBJECT,61
16,9,1,MESSAGE PUMP,WM_GETOBJECT,61
17,0,1,MESSAGE PUMP,WM_GETOBJECT,61
17,1,1,MESSAGE PUMP,WM_GETOBJECT,61
18,0,1,MESSAGE PUMP,WM_GETOBJECT,61
19,0,1,MESSAGE PUMP,WM_GETOBJECT,61
19,1,1,MESSAGE PUMP,WM_GETOBJECT,61
20,0,1,MESSAGE PUMP,WM_GETOBJECT,61
20,1,1,MESSAGE PUMP,WM_GETOBJECT,61
21,0,1,MESSAGE PUMP,WM_GETOBJECT,61
21,5,1,MESSAGE PUMP,Unknown,356
22,12,1,MESSAGE PUMP,WM_GETOBJECT,61
23,2,1,MESSAGE PUMP,Unknown,356
23,5,1,MESSAGE PUMP,WM_GETOBJECT,61
24,1,1,MESSAGE PUMP,Unknown,356
24,6,1,MESSAGE PUMP,Unknown,356
341,2,1,MESSAGE PUMP,WM_KEYDOWN,256
341,2,1,MESSAGE PUMP,WM_CHAR,258
342,0,1,MESSAGE PUMP,WM_GETOBJECT,61
342,0,1,MESSAGE PUMP,WM_KEYUP,257
342,0,1,MESSAGE PUMP,WM_KEYDOWN,256
342,0,1,MESSAGE PUMP,WM_CHAR,258
342,0,1,MESSAGE PUMP,WM_KEYUP,257
343,0,1,MESSAGE PUMP,WM_KEYDOWN,256
343,0,1,MESSAGE PUMP,WM_CHAR,258
344,0,1,MESSAGE PUMP,WM_KEYUP,257
344,3,1,MESSAGE PUMP,WM_GETOBJECT,61
344,7,1,MESSAGE PUMP,Unknown,356
345,13,1,MESSAGE PUMP,WM_GETOBJECT,61
345,15,1,MESSAGE PUMP,Unknown,356
345,18,1,MESSAGE PUMP,WM_GETOBJECT,61
346,1,1,MESSAGE PUMP,Unknown,356
346,5,1,MESSAGE PUMP,Unknown,356
347,9,1,MESSAGE PUMP,WM_GETOBJECT,61
347,20,1,MESSAGE PUMP,Unknown,356
348,5,1,MESSAGE PUMP,WM_GETOBJECT,61
349,1,1,MESSAGE PUMP,Unknown,356
349,4,1,MESSAGE PUMP,WM_GETOBJECT,61
349,6,1,MESSAGE PUMP,Unknown,356
350,2,1,MESSAGE PUMP,Unknown,356
367,0,1,MESSAGE PUMP,WM_KEYDOWN,256
367,0,1,MESSAGE PUMP,WM_KEYUP,257
368,0,1,MESSAGE PUMP,WM_GETOBJECT,61
368,2,1,MESSAGE PUMP,Unknown,356
369,9,1,MESSAGE PUMP,WM_GETOBJECT,61
369,11,1,MESSAGE PUMP,Unknown,356
370,0,1,MESSAGE PUMP,WM_GETOBJECT,61
370,2,1,MESSAGE PUMP,Unknown,356
370,5,1,MESSAGE PUMP,WM_GETOBJECT,61
371,1,1,MESSAGE PUMP,Unknown,356
371,5,1,MESSAGE PUMP,Unknown,356
372,9,1,MESSAGE PUMP,WM_GETOBJECT,61
373,1,1,MESSAGE PUMP,Unknown,356
390,0,1,MESSAGE PUMP,WM_KEYDOWN,256
391,0,1,MESSAGE PUMP,WM_KEYUP,257
415,0,1,MESSAGE PUMP,WM_KEYDOWN,256
415,0,1,MESSAGE PUMP,WM_KEYUP,257
416,0,1,MESSAGE PUMP,WM_KEYDOWN,256
416,0,1,MESSAGE PUMP,WM_GETOBJECT,61
416,0,1,MESSAGE PUMP,WM_KEYUP,257
417,0,1,MESSAGE PUMP,Unknown,356
417,0,1,MESSAGE PUMP,WM_KEYDOWN,256
417,0,1,MESSAGE PUMP,WM_KEYUP,257
418,0,1,MESSAGE PUMP,WM_KEYDOWN,256
419,0,1,MESSAGE PUMP,WM_GETOBJECT,61
419,0,1,MESSAGE PUMP,WM_KEYUP,257
419,3,1,MESSAGE PUMP,Unknown,356
419,7,1,MESSAGE PUMP,WM_GETOBJECT,61
420,3,1,MESSAGE PUMP,Unknown,356
420,7,1,MESSAGE PUMP,WM_GETOBJECT,61
421,3,1,MESSAGE PUMP,Unknown,356
422,0,1,MESSAGE PUMP,WM_GETOBJECT,61
422,2,1,MESSAGE PUMP,Unknown,356
422,8,1,MESSAGE PUMP,WM_GETOBJECT,61
423,1,1,MESSAGE PUMP,Unknown,356
423,4,1,MESSAGE PUMP,WM_GETOBJECT,61
424,0,1,MESSAGE PUMP,Unknown,356
424,5,1,MESSAGE PUMP,Unknown,356
443,1,1,MESSAGE PUMP,WM_KEYDOWN,256
444,0,1,MESSAGE PUMP,WM_KEYUP,257
469,0,1,MESSAGE PUMP,WM_KEYDOWN,256
470,0,1,MESSAGE PUMP,WM_GETOBJECT,61
470,0,1,MESSAGE PUMP,WM_KEYUP,257
470,1,1,MESSAGE PUMP,Unknown,356
470,7,1,MESSAGE PUMP,WM_KEYDOWN,256
471,0,1,MESSAGE PUMP,WM_KEYUP,257
471,0,1,MESSAGE PUMP,WM_GETOBJECT,61
471,3,1,MESSAGE PUMP,Unknown,356
472,24,1,MESSAGE PUMP,WM_GETOBJECT,61
473,1,1,MESSAGE PUMP,Unknown,356
473,6,1,MESSAGE PUMP,WM_GETOBJECT,61
474,1,1,MESSAGE PUMP,Unknown,356
474,4,1,MESSAGE PUMP,WM_GETOBJECT,61
475,1,1,MESSAGE PUMP,Unknown,356
475,5,1,MESSAGE PUMP,Unknown,356
496,0,1,MESSAGE PUMP,WM_KEYDOWN,256
496,0,1,MESSAGE PUMP,WM_CHAR,258
496,0,1,MESSAGE PUMP,WM_KEYUP,257
497,0,1,MESSAGE PUMP,WM_GETOBJECT,61
498,1,1,MESSAGE PUMP,Unknown,356
498,68,1,MESSAGE PUMP,WM_GETOBJECT,61
498,80,1,MESSAGE PUMP,Unknown,356
499,4,1,MESSAGE PUMP,WM_GETOBJECT,61
500,1,1,MESSAGE PUMP,Unknown,356
500,6,1,MESSAGE PUMP,Unknown,356
544,0,1,MESSAGE PUMP,WM_KEYDOWN,256
545,0,1,MESSAGE PUMP,WM_KEYDOWN,256
545,0,1,MESSAGE PUMP,WM_CHAR,258
546,0,1,MESSAGE PUMP,WM_GETOBJECT,61
546,0,1,MESSAGE PUMP,WM_KEYUP,257
546,1,1,MESSAGE PUMP,Unknown,356
546,3,1,MESSAGE PUMP,WM_KEYUP,257
546,4,1,MESSAGE PUMP,WM_GETOBJECT,61
546,7,1,MESSAGE PUMP,Unknown,356
546,17,1,MESSAGE PUMP,WM_KEYDOWN,256
546,17,1,MESSAGE PUMP,WM_CHAR,258
547,1,1,MESSAGE PUMP,WM_GETOBJECT,61
547,1,1,MESSAGE PUMP,WM_KEYUP,257
547,3,1,MESSAGE PUMP,Unknown,356
547,18,1,MESSAGE PUMP,WM_GETOBJECT,61
547,18,1,MESSAGE PUMP,WM_KEYDOWN,256
547,18,1,MESSAGE PUMP,WM_CHAR,258
548,0,1,MESSAGE PUMP,Unknown,356
548,12,1,MESSAGE PUMP,WM_KEYUP,257
548,17,1,MESSAGE PUMP,WM_GETOBJECT,61
548,17,1,MESSAGE PUMP,WM_KEYDOWN,256
548,17,1,MESSAGE PUMP,WM_CHAR,258
549,0,1,MESSAGE PUMP,Unknown,356
549,0,1,MESSAGE PUMP,WM_KEYUP,257
549,11,1,MESSAGE PUMP,WM_GETOBJECT,61
549,15,1,MESSAGE PUMP,Unknown,356
549,23,1,MESSAGE PUMP,WM_KEYDOWN,256
549,23,1,MESSAGE PUMP,WM_CHAR,258
549,23,1,MESSAGE PUMP,WM_GETOBJECT,61
550,1,1,MESSAGE PUMP,Unknown,356
550,5,1,MESSAGE PUMP,WM_KEYUP,257
550,10,1,MESSAGE PUMP,WM_GETOBJECT,61
550,13,1,MESSAGE PUMP,Unknown,356
550,18,1,MESSAGE PUMP,WM_GETOBJECT,61
550,18,1,MESSAGE PUMP,WM_KEYDOWN,256
550,18,1,MESSAGE PUMP,WM_CHAR,258
551,2,1,MESSAGE PUMP,Unknown,356
551,15,1,MESSAGE PUMP,WM_KEYUP,257
551,15,1,MESSAGE PUMP,WM_GETOBJECT,61
551,18,1,MESSAGE PUMP,Unknown,356
551,29,1,MESSAGE PUMP,WM_GETOBJECT,61
551,31,1,MESSAGE PUMP,Unknown,356
551,36,1,MESSAGE PUMP,WM_GETOBJECT,61
551,38,1,MESSAGE PUMP,Unknown,356
551,44,1,MESSAGE PUMP,WM_KEYDOWN,256
551,44,1,MESSAGE PUMP,WM_CHAR,258
552,1,1,MESSAGE PUMP,WM_GETOBJECT,61
552,1,1,MESSAGE PUMP,WM_KEYUP,257
552,3,1,MESSAGE PUMP,Unknown,356
552,18,1,MESSAGE PUMP,WM_GETOBJECT,61
552,18,1,MESSAGE PUMP,WM_KEYDOWN,256
552,18,1,MESSAGE PUMP,WM_CHAR,258
553,3,1,MESSAGE PUMP,Unknown,356
553,6,1,MESSAGE PUMP,WM_KEYUP,257
553,14,1,MESSAGE PUMP,WM_GETOBJECT,61
553,17,1,MESSAGE PUMP,Unknown,356
553,24,1,MESSAGE PUMP,WM_GETOBJECT,61
553,24,1,MESSAGE PUMP,WM_KEYDOWN,256
553,24,1,MESSAGE PUMP,WM_CHAR,258
554,1,1,MESSAGE PUMP,Unknown,356
554,2,1,MESSAGE PUMP,WM_KEYUP,257
554,14,1,MESSAGE PUMP,WM_GETOBJECT,61
554,14,1,MESSAGE PUMP,WM_KEYDOWN,256
554,14,1,MESSAGE PUMP,WM_CHAR,258
555,2,1,MESSAGE PUMP,Unknown,356
555,14,1,MESSAGE PUMP,WM_KEYUP,257
555,15,1,MESSAGE PUMP,WM_GETOBJECT,61
555,15,1,MESSAGE PUMP,WM_KEYDOWN,256
555,15,1,MESSAGE PUMP,WM_CHAR,258
556,0,1,MESSAGE PUMP,Unknown,356
556,9,1,MESSAGE PUMP,WM_KEYUP,257
556,13,1,MESSAGE PUMP,WM_GETOBJECT,61
557,3,1,MESSAGE PUMP,Unknown,356
557,17,1,MESSAGE PUMP,WM_GETOBJECT,61
558,2,1,MESSAGE PUMP,Unknown,356
558,15,1,MESSAGE PUMP,WM_GETOBJECT,61
559,2,1,MESSAGE PUMP,Unknown,356
559,17,1,MESSAGE PUMP,WM_GETOBJECT,61
560,2,1,MESSAGE PUMP,Unknown,356
604,0,1,MESSAGE PUMP,WM_SYSKEYDOWN,260
604,0,1,MESSAGE PUMP,WM_SYSKEYDOWN,260
604,0,1,MESSAGE PUMP,WM_SYSCHAR,262
604,2,1,MESSAGE PUMP,WM_SYSKEYUP,261
604,5,1,MESSAGE PUMP,WM_KEYUP,257
605,0,1,MESSAGE PUMP,WM_GETOBJECT,61
605,2,1,MESSAGE PUMP,Unknown,356
605,5,1,MESSAGE PUMP,WM_GETOBJECT,61
606,2,1,MESSAGE PUMP,Unknown,356
652,0,1,MESSAGE PUMP,WM_KEYDOWN,256
652,0,1,MESSAGE PUMP,WM_KEYDOWN,256
652,0,1,MESSAGE PUMP,WM_CHAR,258
653,0,1,MESSAGE PUMP,WM_KEYUP,257
653,0,1,MESSAGE PUMP,WM_KEYUP,257
653,2,1,MESSAGE PUMP,WM_KEYDOWN,256
653,2,1,MESSAGE PUMP,WM_CHAR,258
654,0,1,MESSAGE PUMP,WM_GETOBJECT,61
654,0,1,MESSAGE PUMP,WM_KEYUP,257
654,2,1,MESSAGE PUMP,Unknown,356
654,7,1,MESSAGE PUMP,WM_GETOBJECT,61
654,7,1,MESSAGE PUMP,WM_KEYDOWN,256
654,7,1,MESSAGE PUMP,WM_CHAR,258
654,7,1,MESSAGE PUMP,WM_KEYUP,257
654,7,1,MESSAGE PUMP,WM_KEYDOWN,256
654,7,1,MESSAGE PUMP,Unknown,356
654,7,1,MESSAGE PUMP,WM_CHAR,258
654,7,1,MESSAGE PUMP,WM_KEYUP,257
655,0,1,MESSAGE PUMP,WM_KEYDOWN,256
655,0,1,MESSAGE PUMP,WM_CHAR,258
656,1,1,MESSAGE PUMP,WM_KEYUP,257
656,3,1,MESSAGE PUMP,WM_GETOBJECT,61
656,3,1,MESSAGE PUMP,WM_KEYDOWN,256
656,3,1,MESSAGE PUMP,WM_CHAR,258
657,2,1,MESSAGE PUMP,Unknown,356
657,5,1,MESSAGE PUMP,WM_KEYUP,257
657,13,1,MESSAGE PUMP,WM_GETOBJECT,61
657,13,1,MESSAGE PUMP,WM_KEYDOWN,256
657,13,1,MESSAGE PUMP,WM_CHAR,258
658,0,1,MESSAGE PUMP,Unknown,356
658,12,1,MESSAGE PUMP,WM_GETOBJECT,61
658,12,1,MESSAGE PUMP,WM_KEYUP,257
658,14,1,MESSAGE PUMP,Unknown,356
658,19,1,MESSAGE PUMP,WM_GETOBJECT,61
658,19,1,MESSAGE PUMP,WM_KEYDOWN,256
658,19,1,MESSAGE PUMP,WM_CHAR,258
659,0,1,MESSAGE PUMP,Unknown,356
659,7,1,MESSAGE PUMP,WM_GETOBJECT,61
659,7,1,MESSAGE PUMP,WM_KEYUP,257
659,9,1,MESSAGE PUMP,Unknown,356
659,15,1,MESSAGE PUMP,WM_GETOBJECT,61
659,15,1,MESSAGE PUMP,WM_KEYDOWN,256
659,15,1,MESSAGE PUMP,WM_CHAR,258
660,0,1,MESSAGE PUMP,Unknown,356
660,8,1,MESSAGE PUMP,WM_KEYUP,257
660,12,1,MESSAGE PUMP,WM_GETOBJECT,61
660,12,1,MESSAGE PUMP,WM_KEYDOWN,256
660,12,1,MESSAGE PUMP,WM_CHAR,258
661,0,1,MESSAGE PUMP,Unknown,356
661,2,1,MESSAGE PUMP,WM_KEYUP,257
661,6,1,MESSAGE PUMP,WM_GETOBJECT,61
661,6,1,MESSAGE PUMP,WM_KEYDOWN,256
661,6,1,MESSAGE PUMP,WM_CHAR,258
662,2,1,MESSAGE PUMP,Unknown,356
662,12,1,MESSAGE PUMP,WM_KEYUP,257
662,13,1,MESSAGE PUMP,WM_GETOBJECT,61
662,13,1,MESSAGE PUMP,WM_KEYDOWN,256
662,13,1,MESSAGE PUMP,WM_CHAR,258
663,0,1,MESSAGE PUMP,Unknown,356
663,3,1,MESSAGE PUMP,WM_KEYUP,257
663,11,1,MESSAGE PUMP,WM_GETOBJECT,61
663,11,1,MESSAGE PUMP,WM_KEYDOWN,256
663,11,1,MESSAGE PUMP,WM_CHAR,258
663,11,1,MESSAGE PUMP,Unknown,356
664,4,1,MESSAGE PUMP,WM_KEYUP,257
664,6,1,MESSAGE PUMP,WM_GETOBJECT,61
664,6,1,MESSAGE PUMP,WM_KEYDOWN,256
664,6,1,MESSAGE PUMP,WM_CHAR,258
665,0,1,MESSAGE PUMP,Unknown,356
665,4,1,MESSAGE PUMP,WM_KEYUP,257
665,11,1,MESSAGE PUMP,WM_GETOBJECT,61
665,13,1,MESSAGE PUMP,Unknown,356
665,15,1,MESSAGE PUMP,WM_KEYDOWN,256
665,15,1,MESSAGE PUMP,WM_CHAR,258
666,1,1,MESSAGE PUMP,WM_GETOBJECT,61
666,4,1,MESSAGE PUMP,Unknown,356
666,7,1,MESSAGE PUMP,WM_KEYUP,257
666,11,1,MESSAGE PUMP,WM_GETOBJECT,61
666,11,1,MESSAGE PUMP,WM_KEYDOWN,256
666,11,1,MESSAGE PUMP,WM_CHAR,258
667,0,1,MESSAGE PUMP,Unknown,356
667,9,1,MESSAGE PUMP,WM_KEYUP,257
667,12,1,MESSAGE PUMP,WM_GETOBJECT,61
667,12,1,MESSAGE PUMP,WM_KEYDOWN,256
667,12,1,MESSAGE PUMP,WM_CHAR,258
668,0,1,MESSAGE PUMP,Unknown,356
668,7,1,MESSAGE PUMP,WM_KEYUP,257
668,10,1,MESSAGE PUMP,WM_GETOBJECT,61
668,13,1,MESSAGE PUMP,Unknown,356
668,16,1,MESSAGE PUMP,WM_GETOBJECT,61
668,16,1,MESSAGE PUMP,WM_KEYDOWN,256
668,16,1,MESSAGE PUMP,WM_CHAR,258
669,0,1,MESSAGE PUMP,Unknown,356
669,3,1,MESSAGE PUMP,WM_KEYUP,257
669,11,1,MESSAGE PUMP,WM_GETOBJECT,61
669,14,1,MESSAGE PUMP,Unknown,356
669,25,1,MESSAGE PUMP,WM_GETOBJECT,61
669,25,1,MESSAGE PUMP,WM_KEYDOWN,256
669,25,1,MESSAGE PUMP,WM_CHAR,258
670,0,1,MESSAGE PUMP,Unknown,356
670,7,1,MESSAGE PUMP,WM_KEYUP,257
670,16,1,MESSAGE PUMP,WM_GETOBJECT,61
670,16,1,MESSAGE PUMP,WM_KEYDOWN,256
670,16,1,MESSAGE PUMP,WM_CHAR,258
671,2,1,MESSAGE PUMP,Unknown,356
671,9,1,MESSAGE PUMP,WM_KEYUP,257
671,17,1,MESSAGE PUMP,WM_GETOBJECT,61
671,20,1,MESSAGE PUMP,Unknown,356
671,29,1,MESSAGE PUMP,WM_GETOBJECT,61
671,29,1,MESSAGE PUMP,WM_KEYDOWN,256
671,29,1,MESSAGE PUMP,WM_CHAR,258
672,0,1,MESSAGE PUMP,Unknown,356
672,0,1,MESSAGE PUMP,WM_KEYUP,257
672,14,1,MESSAGE PUMP,WM_GETOBJECT,61
672,14,1,MESSAGE PUMP,WM_KEYDOWN,256
672,14,1,MESSAGE PUMP,WM_CHAR,258
673,1,1,MESSAGE PUMP,Unknown,356
673,9,1,MESSAGE PUMP,WM_KEYUP,257
673,15,1,MESSAGE PUMP,WM_GETOBJECT,61
673,19,1,MESSAGE PUMP,Unknown,356
673,28,1,MESSAGE PUMP,WM_GETOBJECT,61
673,30,1,MESSAGE PUMP,Unknown,356
673,40,1,MESSAGE PUMP,WM_GETOBJECT,61
673,40,1,MESSAGE PUMP,WM_KEYDOWN,256
673,40,1,MESSAGE PUMP,WM_CHAR,258
674,1,1,MESSAGE PUMP,Unknown,356
674,11,1,MESSAGE PUMP,WM_KEYUP,257
674,12,1,MESSAGE PUMP,WM_GETOBJECT,61
674,12,1,MESSAGE PUMP,WM_KEYDOWN,256
674,12,1,MESSAGE PUMP,WM_CHAR,258
675,3,1,MESSAGE PUMP,Unknown,356
675,16,1,MESSAGE PUMP,WM_GETOBJECT,61
675,16,1,MESSAGE PUMP,WM_KEYUP,257
675,19,1,MESSAGE PUMP,Unknown,356
675,28,1,MESSAGE PUMP,WM_GETOBJECT,61
675,32,1,MESSAGE PUMP,Unknown,356
675,43,1,MESSAGE PUMP,WM_GETOBJECT,61
676,2,1,MESSAGE PUMP,Unknown,356
676,21,1,MESSAGE PUMP,WM_GETOBJECT,61
677,3,1,MESSAGE PUMP,Unknown,356
677,15,1,MESSAGE PUMP,WM_GETOBJECT,61
677,18,1,MESSAGE PUMP,Unknown,356
678,9,1,MESSAGE PUMP,WM_GETOBJECT,61
679,3,1,MESSAGE PUMP,Unknown,356
679,21,1,MESSAGE PUMP,WM_GETOBJECT,61
680,2,1,MESSAGE PUMP,Unknown,356
680,16,1,MESSAGE PUMP,WM_GETOBJECT,61
681,2,1,MESSAGE PUMP,Unknown,356
681,15,1,MESSAGE PUMP,WM_GETOBJECT,61
681,18,1,MESSAGE PUMP,Unknown,356
682,7,1,MESSAGE PUMP,WM_GETOBJECT,61
683,2,1,MESSAGE PUMP,Unknown,356
683,16,1,MESSAGE PUMP,WM_GETOBJECT,61
684,2,1,MESSAGE PUMP,Unknown,356
684,16,1,MESSAGE PUMP,WM_GETOBJECT,61
684,19,1,MESSAGE PUMP,Unknown,356
685,4,1,MESSAGE PUMP,WM_GETOBJECT,61
685,6,1,MESSAGE PUMP,Unknown,356
685,11,1,MESSAGE PUMP,WM_GETOBJECT,61
686,2,1,MESSAGE PUMP,Unknown,356
686,6,1,MESSAGE PUMP,WM_GETOBJECT,61
686,8,1,MESSAGE PUMP,Unknown,356
686,12,1,MESSAGE PUMP,WM_GETOBJECT,61
686,14,1,MESSAGE PUMP,Unknown,356
686,18,1,MESSAGE PUMP,WM_GETOBJECT,61
686,20,1,MESSAGE PUMP,Unknown,356
723,0,1,MESSAGE PUMP,WM_KEYDOWN,256
723,0,1,MESSAGE PUMP,WM_CHAR,258
724,0,1,MESSAGE PUMP,WM_KEYUP,257
725,1,1,MESSAGE PUMP,WM_GETOBJECT,61
726,1,1,MESSAGE PUMP,Unknown,356
726,4,1,MESSAGE PUMP,WM_GETOBJECT,61
727,2,1,MESSAGE PUMP,Unknown,356
768,2,1,MESSAGE PUMP,WM_KEYDOWN,256
769,0,1,MESSAGE PUMP,WM_KEYDOWN,256
769,0,1,MESSAGE PUMP,WM_CHAR,258
769,0,1,MESSAGE PUMP,WM_KEYUP,257
770,0,1,MESSAGE PUMP,WM_GETOBJECT,61
770,0,1,MESSAGE PUMP,WM_KEYUP,257
770,1,1,MESSAGE PUMP,Unknown,356
770,1,1,MESSAGE PUMP,WM_KEYDOWN,256
770,1,1,MESSAGE PUMP,WM_CHAR,258
771,0,1,MESSAGE PUMP,WM_KEYUP,257
771,0,1,MESSAGE PUMP,WM_KEYDOWN,256
771,0,1,MESSAGE PUMP,WM_GETOBJECT,61
771,0,1,MESSAGE PUMP,WM_CHAR,258
772,0,1,MESSAGE PUMP,Unknown,356
772,0,1,MESSAGE PUMP,WM_KEYUP,257
772,0,1,MESSAGE PUMP,WM_KEYDOWN,256
772,0,1,MESSAGE PUMP,WM_CHAR,258
773,0,1,MESSAGE PUMP,WM_KEYUP,257
773,2,1,MESSAGE PUMP,WM_GETOBJECT,61
773,2,1,MESSAGE PUMP,WM_KEYDOWN,256
773,2,1,MESSAGE PUMP,WM_CHAR,258
774,0,1,MESSAGE PUMP,Unknown,356
774,0,1,MESSAGE PUMP,WM_KEYUP,257
774,13,1,MESSAGE PUMP,WM_GETOBJECT,61
774,13,1,MESSAGE PUMP,WM_KEYDOWN,256
774,13,1,MESSAGE PUMP,WM_CHAR,258
775,0,1,MESSAGE PUMP,Unknown,356
775,3,1,MESSAGE PUMP,WM_KEYUP,257
775,11,1,MESSAGE PUMP,WM_GETOBJECT,61
775,11,1,MESSAGE PUMP,WM_KEYDOWN,256
775,11,1,MESSAGE PUMP,WM_CHAR,258
776,0,1,MESSAGE PUMP,Unknown,356
776,11,1,MESSAGE PUMP,WM_KEYUP,257
776,15,1,MESSAGE PUMP,WM_GETOBJECT,61
776,15,1,MESSAGE PUMP,WM_KEYDOWN,256
776,15,1,MESSAGE PUMP,WM_CHAR,258
777,0,1,MESSAGE PUMP,Unknown,356
777,15,1,MESSAGE PUMP,WM_GETOBJECT,61
777,15,1,MESSAGE PUMP,WM_KEYUP,257
777,18,1,MESSAGE PUMP,Unknown,356
777,23,1,MESSAGE PUMP,WM_GETOBJECT,61
777,23,1,MESSAGE PUMP,WM_KEYDOWN,256
777,23,1,MESSAGE PUMP,WM_CHAR,258
778,0,1,MESSAGE PUMP,Unknown,356
778,14,1,MESSAGE PUMP,WM_KEYUP,257
778,17,1,MESSAGE PUMP,WM_GETOBJECT,61
778,17,1,MESSAGE PUMP,WM_KEYDOWN,256
778,17,1,MESSAGE PUMP,WM_CHAR,258
779,0,1,MESSAGE PUMP,Unknown,356
779,6,1,MESSAGE PUMP,WM_KEYUP,257
779,8,1,MESSAGE PUMP,WM_GETOBJECT,61
779,8,1,MESSAGE PUMP,WM_KEYDOWN,256
779,8,1,MESSAGE PUMP,WM_CHAR,258
780,1,1,MESSAGE PUMP,Unknown,356
780,15,1,MESSAGE PUMP,WM_KEYUP,257
780,16,1,MESSAGE PUMP,WM_GETOBJECT,61
780,16,1,MESSAGE PUMP,WM_KEYDOWN,256
780,16,1,MESSAGE PUMP,WM_CHAR,258
781,0,1,MESSAGE PUMP,Unknown,356
781,13,1,MESSAGE PUMP,WM_KEYUP,257
781,14,1,MESSAGE PUMP,WM_GETOBJECT,61
781,14,1,MESSAGE PUMP,WM_KEYDOWN,256
781,14,1,MESSAGE PUMP,WM_CHAR,258
782,0,1,MESSAGE PUMP,Unknown,356
782,7,1,MESSAGE PUMP,WM_KEYUP,257
782,10,1,MESSAGE PUMP,WM_GETOBJECT,61
782,10,1,MESSAGE PUMP,WM_KEYDOWN,256
782,10,1,MESSAGE PUMP,WM_CHAR,258
783,0,1,MESSAGE PUMP,Unknown,356
783,3,1,MESSAGE PUMP,WM_KEYUP,257
783,15,1,MESSAGE PUMP,WM_GETOBJECT,61
783,15,1,MESSAGE PUMP,WM_KEYDOWN,256
783,15,1,MESSAGE PUMP,WM_CHAR,258
784,0,1,MESSAGE PUMP,Unknown,356
784,5,1,MESSAGE PUMP,WM_KEYUP,257
784,11,1,MESSAGE PUMP,WM_GETOBJECT,61
784,11,1,MESSAGE PUMP,WM_KEYDOWN,256
784,11,1,MESSAGE PUMP,WM_CHAR,258
785,0,1,MESSAGE PUMP,Unknown,356
785,3,1,MESSAGE PUMP,WM_KEYUP,257
785,13,1,MESSAGE PUMP,WM_GETOBJECT,61
785,13,1,MESSAGE PUMP,WM_KEYDOWN,256
785,13,1,MESSAGE PUMP,WM_CHAR,258
786,0,1,MESSAGE PUMP,Unknown,356
786,9,1,MESSAGE PUMP,WM_KEYUP,257
786,12,1,MESSAGE PUMP,WM_GETOBJECT,61
786,12,1,MESSAGE PUMP,WM_KEYDOWN,256
786,12,1,MESSAGE PUMP,WM_CHAR,258
787,0,1,MESSAGE PUMP,Unknown,356
787,1,1,MESSAGE PUMP,WM_KEYUP,257
787,17,1,MESSAGE PUMP,WM_GETOBJECT,61
787,17,1,MESSAGE PUMP,WM_KEYDOWN,256
787,17,1,MESSAGE PUMP,WM_CHAR,258
788,2,1,MESSAGE PUMP,Unknown,356
788,13,1,MESSAGE PUMP,WM_KEYUP,257
788,15,1,MESSAGE PUMP,WM_GETOBJECT,61
788,15,1,MESSAGE PUMP,WM_KEYDOWN,256
788,15,1,MESSAGE PUMP,WM_CHAR,258
789,0,1,MESSAGE PUMP,Unknown,356
789,0,1,MESSAGE PUMP,WM_KEYUP,257
789,15,1,MESSAGE PUMP,WM_GETOBJECT,61
789,15,1,MESSAGE PUMP,WM_KEYDOWN,256
789,15,1,MESSAGE PUMP,WM_CHAR,258
790,0,1,MESSAGE PUMP,Unknown,356
790,11,1,MESSAGE PUMP,WM_KEYUP,257
790,11,1,MESSAGE PUMP,WM_GETOBJECT,61
790,14,1,MESSAGE PUMP,Unknown,356
790,19,1,MESSAGE PUMP,WM_GETOBJECT,61
790,19,1,MESSAGE PUMP,WM_KEYDOWN,256
790,19,1,MESSAGE PUMP,WM_CHAR,258
791,0,1,MESSAGE PUMP,Unknown,356
791,3,1,MESSAGE PUMP,WM_KEYUP,257
791,3,1,MESSAGE PUMP,WM_GETOBJECT,61
791,5,1,MESSAGE PUMP,Unknown,356
791,20,1,MESSAGE PUMP,WM_GETOBJECT,61
791,20,1,MESSAGE PUMP,WM_KEYDOWN,256
791,20,1,MESSAGE PUMP,WM_CHAR,258
792,2,1,MESSAGE PUMP,Unknown,356
792,12,1,MESSAGE PUMP,WM_GETOBJECT,61
792,12,1,MESSAGE PUMP,WM_KEYUP,257
792,14,1,MESSAGE PUMP,Unknown,356
792,19,1,MESSAGE PUMP,WM_GETOBJECT,61
792,19,1,MESSAGE PUMP,WM_KEYDOWN,256
792,19,1,MESSAGE PUMP,WM_CHAR,258
793,0,1,MESSAGE PUMP,Unknown,356
793,3,1,MESSAGE PUMP,WM_KEYUP,257
793,11,1,MESSAGE PUMP,WM_GETOBJECT,61
793,11,1,MESSAGE PUMP,WM_KEYDOWN,256
793,11,1,MESSAGE PUMP,WM_CHAR,258
794,0,1,MESSAGE PUMP,Unknown,356
794,0,1,MESSAGE PUMP,WM_KEYUP,257
794,14,1,MESSAGE PUMP,WM_GETOBJECT,61
794,14,1,MESSAGE PUMP,WM_KEYDOWN,256
794,14,1,MESSAGE PUMP,WM_CHAR,258
794,14,1,MESSAGE PUMP,Unknown,356
795,0,1,MESSAGE PUMP,WM_KEYUP,257
795,9,1,MESSAGE PUMP,WM_GETOBJECT,61
795,13,1,MESSAGE PUMP,Unknown,356
795,28,1,MESSAGE PUMP,WM_GETOBJECT,61
795,28,1,MESSAGE PUMP,WM_KEYDOWN,256
795,28,1,MESSAGE PUMP,WM_CHAR,258
796,0,1,MESSAGE PUMP,Unknown,356
796,0,1,MESSAGE PUMP,WM_KEYUP,257
796,11,1,MESSAGE PUMP,WM_GETOBJECT,61
796,11,1,MESSAGE PUMP,WM_KEYDOWN,256
796,11,1,MESSAGE PUMP,WM_CHAR,258
797,0,1,MESSAGE PUMP,Unknown,356
797,0,1,MESSAGE PUMP,WM_KEYUP,257
797,23,1,MESSAGE PUMP,WM_GETOBJECT,61
797,23,1,MESSAGE PUMP,WM_KEYDOWN,256
797,23,1,MESSAGE PUMP,WM_CHAR,258
798,0,1,MESSAGE PUMP,Unknown,356
798,2,1,MESSAGE PUMP,WM_KEYUP,257
798,11,1,MESSAGE PUMP,WM_GETOBJECT,61
798,11,1,MESSAGE PUMP,WM_KEYDOWN,256
798,11,1,MESSAGE PUMP,WM_CHAR,258
799,0,1,MESSAGE PUMP,WM_KEYUP,257
799,0,1,MESSAGE PUMP,Unknown,356
799,14,1,MESSAGE PUMP,WM_GETOBJECT,61
799,19,1,MESSAGE PUMP,Unknown,356
799,32,1,MESSAGE PUMP,WM_GETOBJECT,61
799,32,1,MESSAGE PUMP,WM_KEYDOWN,256
799,32,1,MESSAGE PUMP,WM_CHAR,258
800,0,1,MESSAGE PUMP,Unknown,356
800,2,1,MESSAGE PUMP,WM_KEYUP,257
800,13,1,MESSAGE PUMP,WM_GETOBJECT,61
800,13,1,MESSAGE PUMP,WM_KEYDOWN,256
800,13,1,MESSAGE PUMP,WM_CHAR,258
801,0,1,MESSAGE PUMP,WM_KEYUP,257
801,0,1,MESSAGE PUMP,Unknown,356
801,16,1,MESSAGE PUMP,WM_GETOBJECT,61
801,16,1,MESSAGE PUMP,WM_KEYDOWN,256
801,16,1,MESSAGE PUMP,WM_CHAR,258
802,3,1,MESSAGE PUMP,Unknown,356
802,7,1,MESSAGE PUMP,WM_KEYUP,257
802,16,1,MESSAGE PUMP,WM_GETOBJECT,61
802,19,1,MESSAGE PUMP,Unknown,356
802,33,1,MESSAGE PUMP,WM_GETOBJECT,61
802,36,1,MESSAGE PUMP,Unknown,356
802,41,1,MESSAGE PUMP,WM_GETOBJECT,61
802,41,1,MESSAGE PUMP,WM_KEYDOWN,256
802,41,1,MESSAGE PUMP,WM_CHAR,258
803,0,1,MESSAGE PUMP,Unknown,356
803,0,1,MESSAGE PUMP,WM_KEYUP,257
803,19,1,MESSAGE PUMP,WM_GETOBJECT,61
803,19,1,MESSAGE PUMP,WM_KEYDOWN,256
803,19,1,MESSAGE PUMP,WM_CHAR,258
804,0,1,MESSAGE PUMP,Unknown,356
804,0,1,MESSAGE PUMP,WM_KEYUP,257
804,15,1,MESSAGE PUMP,WM_GETOBJECT,61
804,15,1,MESSAGE PUMP,WM_KEYDOWN,256
804,15,1,MESSAGE PUMP,WM_CHAR,258
805,0,1,MESSAGE PUMP,WM_KEYUP,257
805,0,1,MESSAGE PUMP,Unknown,356
805,21,1,MESSAGE PUMP,WM_GETOBJECT,61
805,21,1,MESSAGE PUMP,WM_KEYDOWN,256
805,21,1,MESSAGE PUMP,WM_CHAR,258
806,0,1,MESSAGE PUMP,WM_KEYUP,257
806,0,1,MESSAGE PUMP,Unknown,356
806,15,1,MESSAGE PUMP,WM_GETOBJECT,61
806,15,1,MESSAGE PUMP,WM_KEYDOWN,256
806,15,1,MESSAGE PUMP,WM_CHAR,258
806,15,1,MESSAGE PUMP,WM_KEYUP,257
806,15,1,MESSAGE PUMP,Unknown,356
806,15,1,MESSAGE PUMP,WM_KEYDOWN,256
806,15,1,MESSAGE PUMP,WM_CHAR,258
807,0,1,MESSAGE PUMP,WM_KEYUP,257
807,17,1,MESSAGE PUMP,WM_GETOBJECT,61
807,17,1,MESSAGE PUMP,WM_KEYDOWN,256
807,17,1,MESSAGE PUMP,WM_CHAR,258
808,3,1,MESSAGE PUMP,Unknown,356
808,11,1,MESSAGE PUMP,WM_KEYUP,257
808,14,1,MESSAGE PUMP,WM_GETOBJECT,61
808,14,1,MESSAGE PUMP,WM_KEYDOWN,256
808,14,1,MESSAGE PUMP,WM_CHAR,258
809,3,1,MESSAGE PUMP,Unknown,356
809,5,1,MESSAGE PUMP,WM_KEYUP,257
809,15,1,MESSAGE PUMP,WM_GETOBJECT,61
809,15,1,MESSAGE PUMP,WM_KEYDOWN,256
809,15,1,MESSAGE PUMP,WM_CHAR,258
810,3,1,MESSAGE PUMP,Unknown,356
810,8,1,MESSAGE PUMP,WM_KEYUP,257
810,12,1,MESSAGE PUMP,WM_GETOBJECT,61
810,12,1,MESSAGE PUMP,WM_KEYDOWN,256
810,12,1,MESSAGE PUMP,WM_CHAR,258
811,1,1,MESSAGE PUMP,WM_KEYUP,257
811,1,1,MESSAGE PUMP,Unknown,356
811,18,1,MESSAGE PUMP,WM_GETOBJECT,61
811,18,1,MESSAGE PUMP,WM_KEYDOWN,256
811,18,1,MESSAGE PUMP,WM_CHAR,258
812,0,1,MESSAGE PUMP,Unknown,356
812,0,1,MESSAGE PUMP,WM_KEYUP,257
812,13,1,MESSAGE PUMP,WM_GETOBJECT,61
812,13,1,MESSAGE PUMP,WM_KEYDOWN,256
812,13,1,MESSAGE PUMP,WM_CHAR,258
813,0,1,MESSAGE PUMP,Unknown,356
813,0,1,MESSAGE PUMP,WM_KEYUP,257
813,14,1,MESSAGE PUMP,WM_GETOBJECT,61
813,14,1,MESSAGE PUMP,WM_KEYDOWN,256
813,14,1,MESSAGE PUMP,WM_CHAR,258
814,0,1,MESSAGE PUMP,Unknown,356
814,0,1,MESSAGE PUMP,WM_KEYUP,257
814,13,1,MESSAGE PUMP,WM_GETOBJECT,61
814,13,1,MESSAGE PUMP,WM_KEYDOWN,256
814,13,1,MESSAGE PUMP,WM_CHAR,258
815,0,1,MESSAGE PUMP,Unknown,356
815,6,1,MESSAGE PUMP,WM_KEYUP,257
815,11,1,MESSAGE PUMP,WM_GETOBJECT,61
815,11,1,MESSAGE PUMP,WM_KEYDOWN,256
815,11,1,MESSAGE PUMP,WM_CHAR,258
816,0,1,MESSAGE PUMP,Unknown,356
816,0,1,MESSAGE PUMP,WM_KEYUP,257
816,16,1,MESSAGE PUMP,WM_GETOBJECT,61
816,16,1,MESSAGE PUMP,WM_KEYDOWN,256
816,16,1,MESSAGE PUMP,WM_CHAR,258
817,0,1,MESSAGE PUMP,Unknown,356
817,3,1,MESSAGE PUMP,WM_KEYUP,257
817,11,1,MESSAGE PUMP,WM_GETOBJECT,61
817,11,1,MESSAGE PUMP,WM_KEYDOWN,256
817,11,1,MESSAGE PUMP,WM_CHAR,258
818,0,1,MESSAGE PUMP,Unknown,356
818,0,1,MESSAGE PUMP,WM_KEYUP,257
818,12,1,MESSAGE PUMP,WM_GETOBJECT,61
818,12,1,MESSAGE PUMP,WM_KEYDOWN,256
818,12,1,MESSAGE PUMP,WM_CHAR,258
819,0,1,MESSAGE PUMP,Unknown,356
819,0,1,MESSAGE PUMP,WM_KEYUP,257
819,13,1,MESSAGE PUMP,WM_GETOBJECT,61
819,16,1,MESSAGE PUMP,Unknown,356
819,21,1,MESSAGE PUMP,WM_GETOBJECT,61
819,21,1,MESSAGE PUMP,WM_KEYDOWN,256
819,21,1,MESSAGE PUMP,WM_CHAR,258
820,0,1,MESSAGE PUMP,Unknown,356
820,0,1,MESSAGE PUMP,WM_KEYUP,257
820,15,1,MESSAGE PUMP,WM_GETOBJECT,61
820,15,1,MESSAGE PUMP,WM_KEYDOWN,256
820,15,1,MESSAGE PUMP,WM_CHAR,258
821,0,1,MESSAGE PUMP,WM_KEYUP,257
821,0,1,MESSAGE PUMP,Unknown,356
821,16,1,MESSAGE PUMP,WM_GETOBJECT,61
821,16,1,MESSAGE PUMP,WM_KEYDOWN,256
821,16,1,MESSAGE PUMP,WM_CHAR,258
822,0,1,MESSAGE PUMP,Unknown,356
822,0,1,MESSAGE PUMP,WM_KEYUP,257
822,11,1,MESSAGE PUMP,WM_GETOBJECT,61
822,11,1,MESSAGE PUMP,WM_KEYDOWN,256
822,11,1,MESSAGE PUMP,WM_CHAR,258
823,0,1,MESSAGE PUMP,WM_KEYUP,257
823,0,1,MESSAGE PUMP,Unknown,356
823,19,1,MESSAGE PUMP,WM_GETOBJECT,61
823,24,1,MESSAGE PUMP,Unknown,356
823,25,1,MESSAGE PUMP,WM_KEYDOWN,256
823,25,1,MESSAGE PUMP,WM_CHAR,258
824,0,1,MESSAGE PUMP,WM_KEYUP,257
824,5,1,MESSAGE PUMP,WM_GETOBJECT,61
824,9,1,MESSAGE PUMP,Unknown,356
824,27,1,MESSAGE PUMP,WM_GETOBJECT,61
824,27,1,MESSAGE PUMP,WM_KEYDOWN,256
824,27,1,MESSAGE PUMP,WM_CHAR,258
825,0,1,MESSAGE PUMP,Unknown,356
825,2,1,MESSAGE PUMP,WM_KEYUP,257
825,17,1,MESSAGE PUMP,WM_GETOBJECT,61
825,17,1,MESSAGE PUMP,WM_KEYDOWN,256
825,17,1,MESSAGE PUMP,WM_CHAR,258
826,0,1,MESSAGE PUMP,Unknown,356
826,0,1,MESSAGE PUMP,WM_KEYUP,257
826,17,1,MESSAGE PUMP,WM_GETOBJECT,61
826,20,1,MESSAGE PUMP,Unknown,356
826,32,1,MESSAGE PUMP,WM_GETOBJECT,61
826,32,1,MESSAGE PUMP,WM_KEYDOWN,256
826,32,1,MESSAGE PUMP,WM_CHAR,258
827,0,1,MESSAGE PUMP,Unknown,356
827,0,1,MESSAGE PUMP,WM_KEYUP,257
827,13,1,MESSAGE PUMP,WM_GETOBJECT,61
827,16,1,MESSAGE PUMP,Unknown,356
827,31,1,MESSAGE PUMP,WM_GETOBJECT,61
827,31,1,MESSAGE PUMP,WM_KEYDOWN,256
827,31,1,MESSAGE PUMP,WM_CHAR,258
828,0,1,MESSAGE PUMP,Unknown,356
828,0,1,MESSAGE PUMP,WM_KEYUP,257
828,14,1,MESSAGE PUMP,WM_GETOBJECT,61
828,14,1,MESSAGE PUMP,WM_KEYDOWN,256
828,14,1,MESSAGE PUMP,WM_CHAR,258
829,0,1,MESSAGE PUMP,WM_KEYUP,257
829,0,1,MESSAGE PUMP,Unknown,356
829,18,1,MESSAGE PUMP,WM_GETOBJECT,61
829,18,1,MESSAGE PUMP,WM_KEYDOWN,256
829,18,1,MESSAGE PUMP,WM_CHAR,258
830,0,1,MESSAGE PUMP,Unknown,356
830,0,1,MESSAGE PUMP,WM_KEYUP,257
830,13,1,MESSAGE PUMP,WM_GETOBJECT,61
830,13,1,MESSAGE PUMP,WM_KEYDOWN,256
830,13,1,MESSAGE PUMP,WM_CHAR,258
831,0,1,MESSAGE PUMP,WM_KEYUP,257
831,0,1,MESSAGE PUMP,Unknown,356
831,19,1,MESSAGE PUMP,WM_GETOBJECT,61
831,19,1,MESSAGE PUMP,WM_KEYDOWN,256
831,19,1,MESSAGE PUMP,WM_CHAR,258
832,0,1,MESSAGE PUMP,Unknown,356
832,0,1,MESSAGE PUMP,WM_KEYUP,257
832,20,1,MESSAGE PUMP,WM_GETOBJECT,61
832,20,1,MESSAGE PUMP,WM_KEYDOWN,256
832,20,1,MESSAGE PUMP,WM_CHAR,258
833,0,1,MESSAGE PUMP,Unknown,356
833,0,1,MESSAGE PUMP,WM_KEYUP,257
833,16,1,MESSAGE PUMP,WM_GETOBJECT,61
833,16,1,MESSAGE PUMP,WM_KEYDOWN,256
833,16,1,MESSAGE PUMP,WM_CHAR,258
834,0,1,MESSAGE PUMP,WM_KEYUP,257
834,0,1,MESSAGE PUMP,Unknown,356
834,20,1,MESSAGE PUMP,WM_GETOBJECT,61
834,23,1,MESSAGE PUMP,Unknown,356
834,38,1,MESSAGE PUMP,WM_GETOBJECT,61
834,38,1,MESSAGE PUMP,WM_KEYDOWN,256
834,38,1,MESSAGE PUMP,WM_CHAR,258
835,0,1,MESSAGE PUMP,Unknown,356
835,0,1,MESSAGE PUMP,WM_KEYUP,257
835,15,1,MESSAGE PUMP,WM_GETOBJECT,61
836,2,1,MESSAGE PUMP,Unknown,356
836,16,1,MESSAGE PUMP,WM_GETOBJECT,61
837,2,1,MESSAGE PUMP,Unknown,356
837,8,1,MESSAGE PUMP,WM_GETOBJECT,61
838,2,1,MESSAGE PUMP,Unknown,356
838,17,1,MESSAGE PUMP,WM_GETOBJECT,61
838,20,1,MESSAGE PUMP,Unknown,356
839,9,1,MESSAGE PUMP,WM_GETOBJECT,61
840,2,1,MESSAGE PUMP,Unknown,356
840,15,1,MESSAGE PUMP,WM_GETOBJECT,61
841,2,1,MESSAGE PUMP,Unknown,356
841,14,1,MESSAGE PUMP,WM_GETOBJECT,61
842,2,1,MESSAGE PUMP,Unknown,356
842,19,1,MESSAGE PUMP,WM_GETOBJECT,61
843,2,1,MESSAGE PUMP,Unknown,356
843,16,1,MESSAGE PUMP,WM_GETOBJECT,61
843,19,1,MESSAGE PUMP,Unknown,356
844,9,1,MESSAGE PUMP,WM_GETOBJECT,61
845,2,1,MESSAGE PUMP,Unknown,356
845,16,1,MESSAGE PUMP,WM_GETOBJECT,61
846,3,1,MESSAGE PUMP,Unknown,356
846,14,1,MESSAGE PUMP,WM_GETOBJECT,61
847,2,1,MESSAGE PUMP,Unknown,356
847,11,1,MESSAGE PUMP,WM_GETOBJECT,61
848,2,1,MESSAGE PUMP,Unknown,356
848,7,1,MESSAGE PUMP,WM_GETOBJECT,61
849,1,1,MESSAGE PUMP,Unknown,356
849,5,1,MESSAGE PUMP,WM_GETOBJECT,61
849,7,1,MESSAGE PUMP,Unknown,356
849,12,1,MESSAGE PUMP,WM_GETOBJECT,61
850,0,1,MESSAGE PUMP,Unknown,356
850,6,1,MESSAGE PUMP,WM_GETOBJECT,61
851,1,1,MESSAGE PUMP,Unknown,356
851,6,1,MESSAGE PUMP,WM_GETOBJECT,61
851,8,1,MESSAGE PUMP,Unknown,356
852,2,1,MESSAGE PUMP,WM_GETOBJECT,61
852,4,1,MESSAGE PUMP,Unknown,356
852,9,1,MESSAGE PUMP,WM_GETOBJECT,61
852,11,1,MESSAGE PUMP,Unknown,356
852,17,1,MESSAGE PUMP,WM_GETOBJECT,61
852,19,1,MESSAGE PUMP,Unknown,356
852,25,1,MESSAGE PUMP,WM_GETOBJECT,61
852,27,1,MESSAGE PUMP,Unknown,356
853,2,1,MESSAGE PUMP,WM_GETOBJECT,61
853,4,1,MESSAGE PUMP,Unknown,356
853,10,1,MESSAGE PUMP,WM_GETOBJECT,61
853,12,1,MESSAGE PUMP,Unknown,356
854,2,1,MESSAGE PUMP,WM_GETOBJECT,61
855,2,1,MESSAGE PUMP,Unknown,356
855,8,1,MESSAGE PUMP,WM_GETOBJECT,61
856,1,1,MESSAGE PUMP,Unknown,356
856,7,1,MESSAGE PUMP,WM_GETOBJECT,61
857,1,1,MESSAGE PUMP,Unknown,356
857,7,1,MESSAGE PUMP,WM_GETOBJECT,61
857,9,1,MESSAGE PUMP,Unknown,356
857,15,1,MESSAGE PUMP,WM_GETOBJECT,61
857,17,1,MESSAGE PUMP,Unknown,356
857,23,1,MESSAGE PUMP,WM_GETOBJECT,61
857,25,1,MESSAGE PUMP,Unknown,356
857,30,1,MESSAGE PUMP,WM_GETOBJECT,61
857,32,1,MESSAGE PUMP,Unknown,356
857,37,1,MESSAGE PUMP,WM_GETOBJECT,61
857,39,1,MESSAGE PUMP,Unknown,356
857,43,1,MESSAGE PUMP,WM_GETOBJECT,61
858,0,1,MESSAGE PUMP,Unknown,356
858,5,1,MESSAGE PUMP,WM_GETOBJECT,61
858,7,1,MESSAGE PUMP,Unknown,356
858,13,1,MESSAGE PUMP,WM_GETOBJECT,61
859,2,1,MESSAGE PUMP,Unknown,356
859,7,1,MESSAGE PUMP,WM_GETOBJECT,61
859,9,1,MESSAGE PUMP,Unknown,356
859,14,1,MESSAGE PUMP,WM_GETOBJECT,61
860,2,1,MESSAGE PUMP,Unknown,356
860,6,1,MESSAGE PUMP,WM_GETOBJECT,61
860,10,1,MESSAGE PUMP,Unknown,356
861,4,1,MESSAGE PUMP,WM_GETOBJECT,61
862,2,1,MESSAGE PUMP,Unknown,356
862,7,1,MESSAGE PUMP,WM_GETOBJECT,61
863,2,1,MESSAGE PUMP,Unknown,356
863,7,1,MESSAGE PUMP,WM_GETOBJECT,61
863,20,1,MESSAGE PUMP,Unknown,356
864,2,1,MESSAGE PUMP,WM_GETOBJECT,61
864,4,1,MESSAGE PUMP,Unknown,356
864,9,1,MESSAGE PUMP,WM_GETOBJECT,61
864,11,1,MESSAGE PUMP,Unknown,356
864,17,1,MESSAGE PUMP,WM_GETOBJECT,61
864,19,1,MESSAGE PUMP,Unknown,356
864,24,1,MESSAGE PUMP,WM_GETOBJECT,61
864,26,1,MESSAGE PUMP,Unknown,356
864,31,1,MESSAGE PUMP,WM_GETOBJECT,61
864,33,1,MESSAGE PUMP,Unknown,356
864,38,1,MESSAGE PUMP,WM_GETOBJECT,61
864,40,1,MESSAGE PUMP,Unknown,356
864,45,1,MESSAGE PUMP,WM_GETOBJECT,61
864,47,1,MESSAGE PUMP,Unknown,356
864,52,1,MESSAGE PUMP,WM_GETOBJECT,61
865,1,1,MESSAGE PUMP,Unknown,356
865,4,1,MESSAGE PUMP,WM_GETOBJECT,61
865,6,1,MESSAGE PUMP,Unknown,356
865,10,1,MESSAGE PUMP,WM_GETOBJECT,61
865,12,1,MESSAGE PUMP,Unknown,356
865,15,1,MESSAGE PUMP,WM_GETOBJECT,61
865,17,1,MESSAGE PUMP,Unknown,356
865,20,1,MESSAGE PUMP,WM_GETOBJECT,61
865,22,1,MESSAGE PUMP,Unknown,356
865,26,1,MESSAGE PUMP,WM_GETOBJECT,61
865,28,1,MESSAGE PUMP,Unknown,356
865,31,1,MESSAGE PUMP,WM_GETOBJECT,61
865,33,1,MESSAGE PUMP,Unknown,356
865,36,1,MESSAGE PUMP,WM_GETOBJECT,61
865,38,1,MESSAGE PUMP,Unknown,356
865,41,1,MESSAGE PUMP,WM_GETOBJECT,61
865,43,1,MESSAGE PUMP,Unknown,356
885,0,1,MESSAGE PUMP,WM_KEYDOWN,256
885,0,1,MESSAGE PUMP,WM_CHAR,258
885,0,1,MESSAGE PUMP,WM_KEYUP,257
886,0,1,MESSAGE PUMP,WM_GETOBJECT,61
886,2,1,MESSAGE PUMP,Unknown,356
886,5,1,MESSAGE PUMP,WM_GETOBJECT,61
886,7,1,MESSAGE PUMP,Unknown,356
922,0,1,MESSAGE PUMP,WM_KEYDOWN,256
922,0,1,MESSAGE PUMP,WM_KEYDOWN,256
922,0,1,MESSAGE PUMP,WM_CHAR,258
922,0,1,MESSAGE PUMP,WM_KEYUP,257
923,0,1,MESSAGE PUMP,WM_KEYUP,257
923,2,1,MESSAGE PUMP,WM_KEYDOWN,256
923,2,1,MESSAGE PUMP,WM_CHAR,258
924,0,1,MESSAGE PUMP,WM_GETOBJECT,61
924,0,1,MESSAGE PUMP,WM_KEYUP,257
924,0,1,MESSAGE PUMP,WM_KEYDOWN,256
924,0,1,MESSAGE PUMP,Unknown,356
924,0,1,MESSAGE PUMP,WM_CHAR,258
925,0,1,MESSAGE PUMP,WM_KEYUP,257
925,2,1,MESSAGE PUMP,WM_GETOBJECT,61
925,2,1,MESSAGE PUMP,WM_KEYDOWN,256
925,2,1,MESSAGE PUMP,WM_CHAR,258
926,0,1,MESSAGE PUMP,Unknown,356
926,1,1,MESSAGE PUMP,WM_KEYUP,257
926,13,1,MESSAGE PUMP,WM_GETOBJECT,61
926,13,1,MESSAGE PUMP,WM_KEYDOWN,256
926,13,1,MESSAGE PUMP,WM_CHAR,258
927,1,1,MESSAGE PUMP,Unknown,356
927,2,1,MESSAGE PUMP,WM_KEYUP,257
927,11,1,MESSAGE PUMP,WM_GETOBJECT,61
927,11,1,MESSAGE PUMP,WM_KEYDOWN,256
927,11,1,MESSAGE PUMP,WM_CHAR,258
928,0,1,MESSAGE PUMP,Unknown,356
928,4,1,MESSAGE PUMP,WM_KEYUP,257
928,10,1,MESSAGE PUMP,WM_GETOBJECT,61
928,10,1,MESSAGE PUMP,WM_KEYDOWN,256
928,10,1,MESSAGE PUMP,WM_CHAR,258
929,2,1,MESSAGE PUMP,Unknown,356
929,7,1,MESSAGE PUMP,WM_KEYUP,257
929,16,1,MESSAGE PUMP,WM_GETOBJECT,61
929,16,1,MESSAGE PUMP,WM_KEYDOWN,256
929,16,1,MESSAGE PUMP,WM_CHAR,258
930,1,1,MESSAGE PUMP,Unknown,356
930,12,1,MESSAGE PUMP,WM_KEYUP,257
930,16,1,MESSAGE PUMP,WM_GETOBJECT,61
930,16,1,MESSAGE PUMP,WM_KEYDOWN,256
930,16,1,MESSAGE PUMP,WM_CHAR,258
931,0,1,MESSAGE PUMP,Unknown,356
931,1,1,MESSAGE PUMP,WM_KEYUP,257
931,16,1,MESSAGE PUMP,WM_GETOBJECT,61
931,19,1,MESSAGE PUMP,Unknown,356
931,23,1,MESSAGE PUMP,WM_KEYDOWN,256
931,23,1,MESSAGE PUMP,WM_CHAR,258
932,7,1,MESSAGE PUMP,WM_GETOBJECT,61
932,7,1,MESSAGE PUMP,WM_KEYUP,257
932,9,1,MESSAGE PUMP,Unknown,356
932,28,1,MESSAGE PUMP,WM_GETOBJECT,61
932,32,1,MESSAGE PUMP,Unknown,356
932,44,1,MESSAGE PUMP,WM_GETOBJECT,61
932,47,1,MESSAGE PUMP,WM_KEYDOWN,256
932,47,1,MESSAGE PUMP,Unknown,356
932,47,1,MESSAGE PUMP,WM_CHAR,258
933,4,1,MESSAGE PUMP,WM_KEYUP,257
933,6,1,MESSAGE PUMP,WM_GETOBJECT,61
933,9,1,MESSAGE PUMP,Unknown,356
933,14,1,MESSAGE PUMP,WM_GETOBJECT,61
933,17,1,MESSAGE PUMP,Unknown,356
933,25,1,MESSAGE PUMP,WM_KEYDOWN,256
933,25,1,MESSAGE PUMP,WM_CHAR,258
934,3,1,MESSAGE PUMP,WM_GETOBJECT,61
934,6,1,MESSAGE PUMP,Unknown,356
934,8,1,MESSAGE PUMP,WM_KEYUP,257
934,12,1,MESSAGE PUMP,WM_GETOBJECT,61
934,12,1,MESSAGE PUMP,WM_KEYDOWN,256
934,12,1,MESSAGE PUMP,WM_CHAR,258
935,0,1,MESSAGE PUMP,Unknown,356
935,4,1,MESSAGE PUMP,WM_KEYUP,257
935,14,1,MESSAGE PUMP,WM_GETOBJECT,61
935,18,1,MESSAGE PUMP,Unknown,356
935,35,1,MESSAGE PUMP,WM_GETOBJECT,61
935,35,1,MESSAGE PUMP,WM_KEYDOWN,256
935,35,1,MESSAGE PUMP,WM_CHAR,258
936,0,1,MESSAGE PUMP,Unknown,356
936,6,1,MESSAGE PUMP,WM_KEYUP,257
936,9,1,MESSAGE PUMP,WM_GETOBJECT,61
936,9,1,MESSAGE PUMP,WM_KEYDOWN,256
936,9,1,MESSAGE PUMP,WM_CHAR,258
937,0,1,MESSAGE PUMP,Unknown,356
937,5,1,MESSAGE PUMP,WM_KEYUP,257
937,11,1,MESSAGE PUMP,WM_GETOBJECT,61
937,11,1,MESSAGE PUMP,WM_KEYDOWN,256
937,11,1,MESSAGE PUMP,WM_CHAR,258
938,3,1,MESSAGE PUMP,Unknown,356
938,13,1,MESSAGE PUMP,WM_KEYUP,257
938,15,1,MESSAGE PUMP,WM_GETOBJECT,61
938,15,1,MESSAGE PUMP,WM_KEYDOWN,256
938,15,1,MESSAGE PUMP,WM_CHAR,258
939,0,1,MESSAGE PUMP,Unknown,356
939,9,1,MESSAGE PUMP,WM_KEYUP,257
939,12,1,MESSAGE PUMP,WM_GETOBJECT,61
939,12,1,MESSAGE PUMP,WM_KEYDOWN,256
939,12,1,MESSAGE PUMP,WM_CHAR,258
940,2,1,MESSAGE PUMP,Unknown,356
940,13,1,MESSAGE PUMP,WM_KEYUP,257
940,15,1,MESSAGE PUMP,WM_GETOBJECT,61
940,15,1,MESSAGE PUMP,WM_KEYDOWN,256
940,15,1,MESSAGE PUMP,WM_CHAR,258
941,2,1,MESSAGE PUMP,Unknown,356
941,15,1,MESSAGE PUMP,WM_KEYUP,257
941,15,1,MESSAGE PUMP,WM_GETOBJECT,61
941,18,1,MESSAGE PUMP,Unknown,356
941,32,1,MESSAGE PUMP,WM_GETOBJECT,61
941,32,1,MESSAGE PUMP,WM_KEYDOWN,256
941,32,1,MESSAGE PUMP,WM_CHAR,258
942,1,1,MESSAGE PUMP,Unknown,356
942,10,1,MESSAGE PUMP,WM_KEYUP,257
942,16,1,MESSAGE PUMP,WM_GETOBJECT,61
942,16,1,MESSAGE PUMP,WM_KEYDOWN,256
942,16,1,MESSAGE PUMP,WM_CHAR,258
943,0,1,MESSAGE PUMP,Unknown,356
943,6,1,MESSAGE PUMP,WM_KEYUP,257
943,8,1,MESSAGE PUMP,WM_GETOBJECT,61
943,8,1,MESSAGE PUMP,WM_KEYDOWN,256
943,8,1,MESSAGE PUMP,WM_CHAR,258
944,0,1,MESSAGE PUMP,Unknown,356
944,9,1,MESSAGE PUMP,WM_KEYUP,257
944,11,1,MESSAGE PUMP,WM_GETOBJECT,61
944,11,1,MESSAGE PUMP,WM_KEYDOWN,256
944,11,1,MESSAGE PUMP,WM_CHAR,258
945,0,1,MESSAGE PUMP,Unknown,356
945,9,1,MESSAGE PUMP,WM_KEYUP,257
945,13,1,MESSAGE PUMP,WM_GETOBJECT,61
945,13,1,MESSAGE PUMP,WM_KEYDOWN,256
945,13,1,MESSAGE PUMP,WM_CHAR,258
946,0,1,MESSAGE PUMP,Unknown,356
946,5,1,MESSAGE PUMP,WM_KEYUP,257
946,7,1,MESSAGE PUMP,WM_GETOBJECT,61
946,10,1,MESSAGE PUMP,Unknown,356
946,16,1,MESSAGE PUMP,WM_GETOBJECT,61
946,16,1,MESSAGE PUMP,WM_KEYDOWN,256
946,16,1,MESSAGE PUMP,WM_CHAR,258
947,0,1,MESSAGE PUMP,Unknown,356
947,0,1,MESSAGE PUMP,WM_KEYUP,257
947,19,1,MESSAGE PUMP,WM_GETOBJECT,61
947,19,1,MESSAGE PUMP,WM_KEYDOWN,256
947,19,1,MESSAGE PUMP,WM_CHAR,258
948,2,1,MESSAGE PUMP,Unknown,356
948,3,1,MESSAGE PUMP,WM_KEYUP,257
948,12,1,MESSAGE PUMP,WM_GETOBJECT,61
948,12,1,MESSAGE PUMP,WM_KEYDOWN,256
948,12,1,MESSAGE PUMP,WM_CHAR,258
949,0,1,MESSAGE PUMP,Unknown,356
949,1,1,MESSAGE PUMP,WM_KEYUP,257
949,19,1,MESSAGE PUMP,WM_GETOBJECT,61
949,19,1,MESSAGE PUMP,WM_KEYDOWN,256
949,19,1,MESSAGE PUMP,WM_CHAR,258
950,0,1,MESSAGE PUMP,Unknown,356
950,1,1,MESSAGE PUMP,WM_KEYUP,257
950,14,1,MESSAGE PUMP,WM_GETOBJECT,61
950,17,1,MESSAGE PUMP,Unknown,356
950,17,1,MESSAGE PUMP,WM_KEYDOWN,256
950,17,1,MESSAGE PUMP,WM_CHAR,258
951,8,1,MESSAGE PUMP,WM_KEYUP,257
951,12,1,MESSAGE PUMP,WM_GETOBJECT,61
951,12,1,MESSAGE PUMP,WM_KEYDOWN,256
951,12,1,MESSAGE PUMP,WM_CHAR,258
952,0,1,MESSAGE PUMP,Unknown,356
952,0,1,MESSAGE PUMP,WM_KEYUP,257
952,11,1,MESSAGE PUMP,WM_GETOBJECT,61
952,14,1,MESSAGE PUMP,Unknown,356
952,21,1,MESSAGE PUMP,WM_KEYDOWN,256
952,21,1,MESSAGE PUMP,WM_CHAR,258
953,4,1,MESSAGE PUMP,WM_GETOBJECT,61
953,4,1,MESSAGE PUMP,WM_KEYUP,257
953,7,1,MESSAGE PUMP,Unknown,356
953,20,1,MESSAGE PUMP,WM_GETOBJECT,61
953,20,1,MESSAGE PUMP,WM_KEYDOWN,256
953,20,1,MESSAGE PUMP,WM_CHAR,258
954,0,1,MESSAGE PUMP,Unknown,356
954,3,1,MESSAGE PUMP,WM_KEYUP,257
954,15,1,MESSAGE PUMP,WM_GETOBJECT,61
954,20,1,MESSAGE PUMP,Unknown,356
954,36,1,MESSAGE PUMP,WM_GETOBJECT,61
954,36,1,MESSAGE PUMP,WM_KEYDOWN,256
954,36,1,MESSAGE PUMP,WM_CHAR,258
955,0,1,MESSAGE PUMP,Unknown,356
955,5,1,MESSAGE PUMP,WM_KEYUP,257
955,11,1,MESSAGE PUMP,WM_GETOBJECT,61
955,15,1,MESSAGE PUMP,Unknown,356
955,27,1,MESSAGE PUMP,WM_GETOBJECT,61
955,30,1,MESSAGE PUMP,Unknown,356
955,40,1,MESSAGE PUMP,WM_KEYDOWN,256
955,40,1,MESSAGE PUMP,WM_GETOBJECT,61
955,40,1,MESSAGE PUMP,WM_CHAR,258
956,0,1,MESSAGE PUMP,Unknown,356
956,8,1,MESSAGE PUMP,WM_KEYUP,257
956,12,1,MESSAGE PUMP,WM_GETOBJECT,61
956,15,1,MESSAGE PUMP,Unknown,356
956,28,1,MESSAGE PUMP,WM_GETOBJECT,61
956,31,1,MESSAGE PUMP,Unknown,356
956,43,1,MESSAGE PUMP,WM_GETOBJECT,61
956,43,1,MESSAGE PUMP,WM_KEYDOWN,256
956,43,1,MESSAGE PUMP,WM_CHAR,258
957,2,1,MESSAGE PUMP,Unknown,356
957,6,1,MESSAGE PUMP,WM_KEYUP,257
957,16,1,MESSAGE PUMP,WM_GETOBJECT,61
957,16,1,MESSAGE PUMP,WM_KEYDOWN,256
957,16,1,MESSAGE PUMP,WM_CHAR,258
958,2,1,MESSAGE PUMP,Unknown,356
958,7,1,MESSAGE PUMP,WM_KEYUP,257
958,10,1,MESSAGE PUMP,WM_GETOBJECT,61
958,13,1,MESSAGE PUMP,Unknown,356
958,21,1,MESSAGE PUMP,WM_GETOBJECT,61
958,21,1,MESSAGE PUMP,WM_KEYDOWN,256
958,21,1,MESSAGE PUMP,WM_CHAR,258
959,0,1,MESSAGE PUMP,Unknown,356
959,3,1,MESSAGE PUMP,WM_KEYUP,257
959,12,1,MESSAGE PUMP,WM_GETOBJECT,61
959,12,1,MESSAGE PUMP,WM_KEYDOWN,256
959,12,1,MESSAGE PUMP,WM_CHAR,258
960,0,1,MESSAGE PUMP,Unknown,356
960,3,1,MESSAGE PUMP,WM_KEYUP,257
960,7,1,MESSAGE PUMP,WM_GETOBJECT,61
960,7,1,MESSAGE PUMP,WM_KEYDOWN,256
960,7,1,MESSAGE PUMP,WM_CHAR,258
961,1,1,MESSAGE PUMP,Unknown,356
961,6,1,MESSAGE PUMP,WM_KEYUP,257
961,9,1,MESSAGE PUMP,WM_GETOBJECT,61
961,9,1,MESSAGE PUMP,WM_KEYDOWN,256
961,9,1,MESSAGE PUMP,WM_CHAR,258
962,0,1,MESSAGE PUMP,Unknown,356
962,4,1,MESSAGE PUMP,WM_KEYUP,257
962,8,1,MESSAGE PUMP,WM_GETOBJECT,61
962,8,1,MESSAGE PUMP,WM_KEYDOWN,256
962,8,1,MESSAGE PUMP,WM_CHAR,258
963,0,1,MESSAGE PUMP,Unknown,356
963,7,1,MESSAGE PUMP,WM_KEYUP,257
963,12,1,MESSAGE PUMP,WM_GETOBJECT,61
963,12,1,MESSAGE PUMP,WM_KEYDOWN,256
963,12,1,MESSAGE PUMP,WM_CHAR,258
964,0,1,MESSAGE PUMP,Unknown,356
964,6,1,MESSAGE PUMP,WM_KEYUP,257
964,8,1,MESSAGE PUMP,WM_GETOBJECT,61
964,10,1,MESSAGE PUMP,Unknown,356
964,15,1,MESSAGE PUMP,WM_GETOBJECT,61
964,17,1,MESSAGE PUMP,Unknown,356
964,25,1,MESSAGE PUMP,WM_GETOBJECT,61
964,27,1,MESSAGE PUMP,WM_KEYDOWN,256
964,27,1,MESSAGE PUMP,Unknown,356
964,27,1,MESSAGE PUMP,WM_CHAR,258
965,2,1,MESSAGE PUMP,WM_KEYUP,257
965,5,1,MESSAGE PUMP,WM_GETOBJECT,61
965,5,1,MESSAGE PUMP,WM_KEYDOWN,256
965,5,1,MESSAGE PUMP,WM_CHAR,258
966,0,1,MESSAGE PUMP,Unknown,356
966,8,1,MESSAGE PUMP,WM_KEYUP,257
966,10,1,MESSAGE PUMP,WM_GETOBJECT,61
966,14,1,MESSAGE PUMP,Unknown,356
966,18,1,MESSAGE PUMP,WM_GETOBJECT,61
966,18,1,MESSAGE PUMP,WM_KEYDOWN,256
966,18,1,MESSAGE PUMP,WM_CHAR,258
967,0,1,MESSAGE PUMP,Unknown,356
967,5,1,MESSAGE PUMP,WM_KEYUP,257
967,9,1,MESSAGE PUMP,WM_GETOBJECT,61
967,9,1,MESSAGE PUMP,WM_KEYDOWN,256
967,9,1,MESSAGE PUMP,WM_CHAR,258
968,0,1,MESSAGE PUMP,Unknown,356
968,3,1,MESSAGE PUMP,WM_KEYUP,257
968,10,1,MESSAGE PUMP,WM_GETOBJECT,61
968,10,1,MESSAGE PUMP,WM_KEYDOWN,256
968,10,1,MESSAGE PUMP,WM_CHAR,258
969,0,1,MESSAGE PUMP,Unknown,356
969,2,1,MESSAGE PUMP,WM_KEYUP,257
969,9,1,MESSAGE PUMP,WM_GETOBJECT,61
969,12,1,MESSAGE PUMP,Unknown,356
969,21,1,MESSAGE PUMP,WM_GETOBJECT,61
970,1,1,MESSAGE PUMP,Unknown,356
970,18,1,MESSAGE PUMP,WM_GETOBJECT,61
971,3,1,MESSAGE PUMP,Unknown,356
971,15,1,MESSAGE PUMP,WM_GETOBJECT,61
971,18,1,MESSAGE PUMP,Unknown,356
972,10,1,MESSAGE PUMP,WM_GETOBJECT,61
973,2,1,MESSAGE PUMP,Unknown,356
973,16,1,MESSAGE PUMP,WM_GETOBJECT,61
973,19,1,MESSAGE PUMP,Unknown,356
973,33,1,MESSAGE PUMP,WM_GETOBJECT,61
974,2,1,MESSAGE PUMP,Unknown,356
974,14,1,MESSAGE PUMP,WM_GETOBJECT,61
975,2,1,MESSAGE PUMP,Unknown,356
975,17,1,MESSAGE PUMP,WM_GETOBJECT,61
976,2,1,MESSAGE PUMP,Unknown,356
976,10,1,MESSAGE PUMP,WM_GETOBJECT,61
976,12,1,MESSAGE PUMP,Unknown,356
977,1,1,MESSAGE PUMP,WM_GETOBJECT,61
977,4,1,MESSAGE PUMP,Unknown,356
977,9,1,MESSAGE PUMP,WM_GETOBJECT,61
977,11,1,MESSAGE PUMP,Unknown,356
978,2,1,MESSAGE PUMP,WM_GETOBJECT,61
978,4,1,MESSAGE PUMP,Unknown,356
978,9,1,MESSAGE PUMP,WM_GETOBJECT,61
979,1,1,MESSAGE PUMP,Unknown,356
979,6,1,MESSAGE PUMP,WM_GETOBJECT,61
979,8,1,MESSAGE PUMP,Unknown,356
980,2,1,MESSAGE PUMP,WM_GETOBJECT,61
980,5,1,MESSAGE PUMP,Unknown,356
980,9,1,MESSAGE PUMP,WM_GETOBJECT,61
980,11,1,MESSAGE PUMP,Unknown,356
981,1,1,MESSAGE PUMP,WM_GETOBJECT,61
981,4,1,MESSAGE PUMP,Unknown,356
981,9,1,MESSAGE PUMP,WM_GETOBJECT,61
982,1,1,MESSAGE PUMP,Unknown,356
982,6,1,MESSAGE PUMP,WM_GETOBJECT,61
983,2,1,MESSAGE PUMP,Unknown,356
983,6,1,MESSAGE PUMP,WM_GETOBJECT,61
983,8,1,MESSAGE PUMP,Unknown,356
983,17,1,MESSAGE PUMP,WM_GETOBJECT,61
984,0,1,MESSAGE PUMP,Unknown,356
984,5,1,MESSAGE PUMP,WM_GETOBJECT,61
985,1,1,MESSAGE PUMP,Unknown,356
985,6,1,MESSAGE PUMP,WM_GETOBJECT,61
986,1,1,MESSAGE PUMP,Unknown,356
986,6,1,MESSAGE PUMP,WM_GETOBJECT,61
987,1,1,MESSAGE PUMP,Unknown,356
987,5,1,MESSAGE PUMP,WM_GETOBJECT,61
987,7,1,MESSAGE PUMP,Unknown,356
987,12,1,MESSAGE PUMP,WM_GETOBJECT,61
988,0,1,MESSAGE PUMP,Unknown,356
988,6,1,MESSAGE PUMP,WM_GETOBJECT,61
989,1,1,MESSAGE PUMP,Unknown,356
989,6,1,MESSAGE PUMP,WM_GETOBJECT,61
990,1,1,MESSAGE PUMP,Unknown,356
990,6,1,MESSAGE PUMP,WM_GETOBJECT,61
991,1,1,MESSAGE PUMP,Unknown,356
1017,0,1,MESSAGE PUMP,WM_KEYDOWN,256
1017,0,1,MESSAGE PUMP,WM_CHAR,258
1018,0,1,MESSAGE PUMP,WM_GETOBJECT,61
1018,0,1,MESSAGE PUMP,WM_KEYUP,257
1018,1,1,MESSAGE PUMP,Unknown,356
1018,5,1,MESSAGE PUMP,WM_GETOBJECT,61
1019,3,1,MESSAGE PUMP,Unknown,356
1067,0,1,MESSAGE PUMP,WM_KEYDOWN,256
1067,0,1,MESSAGE PUMP,WM_KEYUP,257
1068,0,1,MESSAGE PUMP,WM_GETOBJECT,61
1068,0,1,MESSAGE PUMP,WM_KEYDOWN,256
1068,0,1,MESSAGE PUMP,WM_KEYUP,257
1068,0,1,MESSAGE PUMP,Unknown,356
1069,2,1,MESSAGE PUMP,WM_GETOBJECT,61
1069,4,1,MESSAGE PUMP,Unknown,356
1116,2,1,MESSAGE PUMP,WM_KEYDOWN,256
1117,0,1,MESSAGE PUMP,WM_KEYUP,257
1117,0,1,MESSAGE PUMP,WM_GETOBJECT,61
1117,0,1,MESSAGE PUMP,WM_KEYDOWN,256
1118,0,1,MESSAGE PUMP,Unknown,356
1118,0,1,MESSAGE PUMP,WM_KEYUP,257
1118,0,1,MESSAGE PUMP,WM_KEYDOWN,256
1119,0,1,MESSAGE PUMP,WM_KEYUP,257
1119,1,1,MESSAGE PUMP,WM_GETOBJECT,61
1119,3,1,MESSAGE PUMP,Unknown,356
1119,13,1,MESSAGE PUMP,WM_GETOBJECT,61
1119,13,1,MESSAGE PUMP,WM_KEYDOWN,256
1120,0,1,MESSAGE PUMP,Unknown,356
1120,6,1,MESSAGE PUMP,WM_KEYUP,257
1120,12,1,MESSAGE PUMP,WM_GETOBJECT,61
1120,15,1,MESSAGE PUMP,Unknown,356
1120,23,1,MESSAGE PUMP,WM_KEYDOWN,256
1121,1,1,MESSAGE PUMP,WM_GETOBJECT,61
1121,1,1,MESSAGE PUMP,WM_KEYUP,257
1121,3,1,MESSAGE PUMP,Unknown,356
1187,2,1,MESSAGE PUMP,WM_KEYDOWN,256
1187,2,1,MESSAGE PUMP,WM_CHAR,258
1188,0,1,MESSAGE PUMP,WM_KEYUP,257
1189,1,1,MESSAGE PUMP,WM_GETOBJECT,61
1189,3,1,MESSAGE PUMP,Unknown,356
1189,7,1,MESSAGE PUMP,WM_GETOBJECT,61
1190,1,1,MESSAGE PUMP,Unknown,356
1190,5,1,MESSAGE PUMP,Unknown,356
1191,12,1,MESSAGE PUMP,WM_GETOBJECT,61
1192,1,1,MESSAGE PUMP,Unknown,356
1192,6,1,MESSAGE PUMP,WM_GETOBJECT,61
1192,8,1,MESSAGE PUMP,Unknown,356
1261,2,1,MESSAGE PUMP,WM_SYSKEYDOWN,260
1261,2,1,MESSAGE PUMP,WM_SYSKEYDOWN,260
1261,2,1,MESSAGE PUMP,WM_SYSCOMMAND,274
1261,2,1,MESSAGE PUMP,WM_CLOSE,16
1261,2,0,MESSAGE PUMP,Unknown,144
1261,2,0,MESSAGE PUMP,WM_WINDOWPOSCHANGING,70
1261,2,0,MESSAGE PUMP,WM_WINDOWPOSCHANGED,71
1261,2,0,MESSAGE PUMP,WM_NCACTIVATE,134
1261,2,0,MESSAGE PUMP,WM_ACTIVATE,6
1261,2,0,MESSAGE PUMP,WM_ACTIVATEAPP,28
1261,2,0,MESSAGE PUMP,WM_KILLFOCUS,8
1261,2,0,MESSAGE PUMP,WM_IME_SETCONTEXT,641
1261,2,0,MESSAGE PUMP,WM_IME_NOTIFY,642
1261,2,0,MESSAGE PUMP,WM_DESTROY,2
1261,2,0,MESSAGE PUMP,WM_NCDESTROY,130
