Frame,Poll Count,Is Polling,Source,Event Name,Event Code
0,0,0,MESSAGE PUMP,WM_SHOWWINDOW,24
0,0,0,MESSAGE PUMP,WM_WINDOWPOSCHANGING,70
0,0,0,MESSAGE PUMP,WM_WINDOWPOSCHANGING,70
0,0,0,MESSAGE PUMP,WM_ACTIVATEAPP,28
0,0,0,MESSAGE PUMP,WM_NCACTIVATE,134
0,0,0,MESSAGE PUMP,WM_ACTIVATE,6
0,0,0,MESSAGE PUMP,WM_IME_SETCONTEXT,641
0,0,0,MESSAGE PUMP,WM_IME_NOTIFY,642
0,0,0,MESSAGE PUMP,WM_SETFOCUS,7
0,0,0,MESSAGE PUMP,WM_NCPAINT,133
0,0,0,MESSAGE PUMP,WM_ERASEBKGND,20
0,0,0,MESSAGE PUMP,WM_WINDOWPOSCHANGED,71
0,0,0,MESSAGE PUMP,WM_SIZE,5
0,0,0,MESSAGE PUMP,WM_MOVE,3
0,0,0,MESSAGE PUMP,WM_WINDOWPOSCHANGING,70
1,0,1,MESSAGE PUMP,WM_GETOBJECT,61
1,0,1,MESSAGE PUMP,WM_GETICON,127
1,0,1,MESSAGE PUMP,Unknown,799
1,0,1,MESSAGE PUMP,WM_GETICON,127
1,0,1,MESSAGE PUMP,Unknown,49351
1,0,1,MESSAGE PUMP,WM_GETICON,127
1,0,1,MESSAGE PUMP,WM_PAINT,15
1,0,1,MESSAGE PUMP,Unknown,356
1,0,1,MESSAGE PUMP,WM_GETOBJECT,61
2,1,1,MESSAGE PUMP,Unknown,356
2,2,1,MESSAGE PUMP,Unknown,356
3,3,1,MESSAGE PUMP,WM_GETOBJECT,61
4,2,1,MESSAGE PUMP,Unknown,356
4,8,1,MESSAGE PUMP,WM_GETOBJECT,61
6,2,1,MESSAGE PUMP,Unknown,356
6,3,1,MESSAGE PUMP,Unknown,356
6,5,1,MESSAGE PUMP,WM_GETOBJECT,61
7,1,1,MESSAGE PUMP,Unknown,356
7,8,1,MESSAGE PUMP,Unknown,356
7,9,1,MESSAGE PUMP,Unknown,356
7,12,1,MESSAGE PUMP,Unknown,356
7,22,1,MESSAGE PUMP,WM_GETOBJECT,61
7,23,1,MESSAGE PUMP,WM_GETOBJECT,61
7,24,1,MESSAGE PUMP,WM_GETOBJECT,61
7,24,1,MESSAGE PUMP,Unknown,356
8,0,1,MESSAGE PUMP,WM_GETOBJECT,61
8,0,1,MESSAGE PUMP,WM_GETOBJECT,61
8,0,1,MESSAGE PUMP,WM_GETOBJECT,61
8,0,1,MESSAGE PUMP,WM_GETOBJECT,61
8,1,1,MESSAGE PUMP,WM_GETOBJECT,61
8,1,1,MESSAGE PUMP,WM_GETOBJECT,61
9,0,1,MESSAGE PUMP,WM_GETOBJECT,61
10,0,1,MESSAGE PUMP,WM_GETOBJECT,61
10,0,1,MESSAGE PUMP,Unknown,356
11,0,1,MESSAGE PUMP,WM_GETOBJECT,61
11,0,1,MESSAGE PUMP,WM_GETOBJECT,61
12,0,1,MESSAGE PUMP,WM_GETOBJECT,61
12,0,1,MESSAGE PUMP,WM_GETOBJECT,61
12,1,1,MESSAGE PUMP,WM_GETOBJECT,61
12,1,1,MESSAGE PUMP,Unknown,356
12,3,1,MESSAGE PUMP,WM_GETOBJECT,61
12,4,1,MESSAGE PUMP,WM_GETOBJECT,61
12,5,1,MESSAGE PUMP,WM_GETOBJECT,61
12,5,1,MESSAGE PUMP,WM_GETOBJECT,61
12,6,1,MESSAGE PUMP,WM_GETOBJECT,61
12,7,1,MESSAGE PUMP,WM_GETOBJECT,61
12,8,1,MESSAGE PUMP,WM_GETOBJECT,61
12,9,1,MESSAGE PUMP,WM_GETOBJECT,61
12,9,1,MESSAGE PUMP,Unknown,356
12,10,1,MESSAGE PUMP,WM_GETOBJECT,61
12,10,1,MESSAGE PUMP,WM_GETOBJECT,61
12,10,1,MESSAGE PUMP,WM_GETOBJECT,61
12,10,1,MESSAGE PUMP,WM_GETOBJECT,61
12,10,1,MESSAGE PUMP,WM_GETOBJECT,61
12,10,1,MESSAGE PUMP,WM_GETOBJECT,61
12,10,1,MESSAGE PUMP,WM_GETOBJECT,61
12,10,1,MESSAGE PUMP,WM_GETOBJECT,61
12,10,1,MESSAGE PUMP,WM_GETOBJECT,61
12,10,1,MESSAGE PUMP,WM_GETOBJECT,61
12,10,1,MESSAGE PUMP,WM_GETOBJECT,61
13,0,1,MESSAGE PUMP,WM_GETOBJECT,61
13,2,1,MESSAGE PUMP,Unknown,356
13,5,1,MESSAGE PUMP,WM_GETOBJECT,61
15,0,1,MESSAGE PUMP,Unknown,356
15,6,1,MESSAGE PUMP,Unknown,356
16,7,1,MESSAGE PUMP,WM_GETOBJECT,61
17,1,1,MESSAGE PUMP,Unknown,356
17,4,1,MESSAGE PUMP,WM_GETOBJECT,61
19,0,1,MESSAGE PUMP,Unknown,356
19,5,1,MESSAGE PUMP,Unknown,356
330,0,1,MESSAGE PUMP,WM_KEYDOWN,256
330,0,1,MESSAGE PUMP,WM_CHAR,258
330,0,1,MESSAGE PUMP,WM_KEYUP,257
331,0,1,MESSAGE PUMP,WM_GETOBJECT,61
331,0,1,MESSAGE PUMP,WM_KEYDOWN,256
331,0,1,MESSAGE PUMP,WM_CHAR,258
331,0,1,MESSAGE PUMP,WM_KEYUP,257
331,0,1,MESSAGE PUMP,WM_KEYDOWN,256
331,0,1,MESSAGE PUMP,WM_CHAR,258
332,0,1,MESSAGE PUMP,WM_KEYUP,257
332,3,1,MESSAGE PUMP,WM_GETOBJECT,61
333,3,1,MESSAGE PUMP,Unknown,356
334,9,1,MESSAGE PUMP,WM_GETOBJECT,61
335,1,1,MESSAGE PUMP,Unknown,356
335,5,1,MESSAGE PUMP,WM_GETOBJECT,61
335,7,1,MESSAGE PUMP,Unknown,356
336,2,1,MESSAGE PUMP,Unknown,356
337,1,1,MESSAGE PUMP,WM_GETOBJECT,61
337,3,1,MESSAGE PUMP,Unknown,356
337,8,1,MESSAGE PUMP,WM_GETOBJECT,61
338,1,1,MESSAGE PUMP,Unknown,356
338,4,1,MESSAGE PUMP,WM_GETOBJECT,61
339,1,1,MESSAGE PUMP,Unknown,356
339,6,1,MESSAGE PUMP,Unknown,356
357,0,1,MESSAGE PUMP,WM_KEYDOWN,256
357,0,1,MESSAGE PUMP,WM_KEYUP,257
358,0,1,MESSAGE PUMP,WM_GETOBJECT,61
358,2,1,MESSAGE PUMP,Unknown,356
359,8,1,MESSAGE PUMP,WM_GETOBJECT,61
359,10,1,MESSAGE PUMP,Unknown,356
360,4,1,MESSAGE PUMP,WM_GETOBJECT,61
361,1,1,MESSAGE PUMP,Unknown,356
361,4,1,MESSAGE PUMP,WM_GETOBJECT,61
362,1,1,MESSAGE PUMP,Unknown,356
362,5,1,MESSAGE PUMP,Unknown,356
363,9,1,MESSAGE PUMP,WM_GETOBJECT,61
364,1,1,MESSAGE PUMP,Unknown,356
381,0,1,MESSAGE PUMP,WM_KEYDOWN,256
382,0,1,MESSAGE PUMP,WM_KEYUP,257
406,0,1,MESSAGE PUMP,WM_KEYDOWN,256
406,0,1,MESSAGE PUMP,WM_KEYUP,257
407,0,1,MESSAGE PUMP,WM_GETOBJECT,61
407,0,1,MESSAGE PUMP,WM_KEYDOWN,256
407,0,1,MESSAGE PUMP,WM_KEYUP,257
408,0,1,MESSAGE PUMP,Unknown,356
408,0,1,MESSAGE PUMP,WM_KEYDOWN,256
408,0,1,MESSAGE PUMP,WM_KEYUP,257
409,0,1,MESSAGE PUMP,WM_KEYDOWN,256
409,0,1,MESSAGE PUMP,WM_KEYUP,257
409,0,1,MESSAGE PUMP,WM_GETOBJECT,61
410,3,1,MESSAGE PUMP,Unknown,356
410,8,1,MESSAGE PUMP,WM_GETOBJECT,61
411,3,1,MESSAGE PUMP,Unknown,356
411,9,1,MESSAGE PUMP,WM_GETOBJECT,61
412,2,1,MESSAGE PUMP,Unknown,356
412,32,1,MESSAGE PUMP,WM_GETOBJECT,61
413,3,1,MESSAGE PUMP,Unknown,356
414,5,1,MESSAGE PUMP,WM_GETOBJECT,61
415,1,1,MESSAGE PUMP,Unknown,356
415,4,1,MESSAGE PUMP,WM_GETOBJECT,61
416,1,1,MESSAGE PUMP,Unknown,356
416,5,1,MESSAGE PUMP,Unknown,356
435,0,1,MESSAGE PUMP,WM_KEYDOWN,256
435,0,1,MESSAGE PUMP,WM_KEYUP,257
461,0,1,MESSAGE PUMP,WM_KEYDOWN,256
461,0,1,MESSAGE PUMP,WM_KEYUP,257
462,0,1,MESSAGE PUMP,WM_GETOBJECT,61
462,0,1,MESSAGE PUMP,WM_KEYDOWN,256
462,0,1,MESSAGE PUMP,WM_KEYUP,257
462,0,1,MESSAGE PUMP,Unknown,356
463,7,1,MESSAGE PUMP,WM_GETOBJECT,61
464,2,1,MESSAGE PUMP,Unknown,356
464,30,1,MESSAGE PUMP,WM_GETOBJECT,61
465,1,1,MESSAGE PUMP,Unknown,356
465,6,1,MESSAGE PUMP,WM_GETOBJECT,61
466,1,1,MESSAGE PUMP,Unknown,356
466,4,1,MESSAGE PUMP,WM_GETOBJECT,61
467,1,1,MESSAGE PUMP,Unknown,356
467,5,1,MESSAGE PUMP,Unknown,356
488,0,1,MESSAGE PUMP,WM_KEYDOWN,256
488,0,1,MESSAGE PUMP,WM_CHAR,258
488,0,1,MESSAGE PUMP,WM_KEYUP,257
489,0,1,MESSAGE PUMP,WM_GETOBJECT,61
490,1,1,MESSAGE PUMP,Unknown,356
490,114,1,MESSAGE PUMP,WM_GETOBJECT,61
491,2,1,MESSAGE PUMP,Unknown,356
491,7,1,MESSAGE PUMP,WM_GETOBJECT,61
492,1,1,MESSAGE PUMP,Unknown,356
492,5,1,MESSAGE PUMP,Unknown,356
537,1,1,MESSAGE PUMP,WM_KEYDOWN,256
538,0,1,MESSAGE PUMP,WM_KEYDOWN,256
538,0,1,MESSAGE PUMP,WM_CHAR,258
538,0,1,MESSAGE PUMP,WM_KEYUP,257
539,0,1,MESSAGE PUMP,WM_GETOBJECT,61
539,0,1,MESSAGE PUMP,WM_KEYUP,257
539,0,1,MESSAGE PUMP,WM_KEYDOWN,256
539,0,1,MESSAGE PUMP,Unknown,356
539,0,1,MESSAGE PUMP,WM_CHAR,258
539,0,1,MESSAGE PUMP,WM_KEYUP,257
539,0,1,MESSAGE PUMP,WM_KEYDOWN,256
539,0,1,MESSAGE PUMP,WM_CHAR,258
540,0,1,MESSAGE PUMP,WM_KEYUP,257
540,0,1,MESSAGE PUMP,WM_GETOBJECT,61
540,4,1,MESSAGE PUMP,Unknown,356
540,19,1,MESSAGE PUMP,WM_GETOBJECT,61
540,19,1,MESSAGE PUMP,WM_KEYDOWN,256
540,19,1,MESSAGE PUMP,WM_CHAR,258
541,0,1,MESSAGE PUMP,Unknown,356
541,0,1,MESSAGE PUMP,WM_KEYUP,257
541,12,1,MESSAGE PUMP,WM_GETOBJECT,61
541,12,1,MESSAGE PUMP,WM_KEYDOWN,256
541,12,1,MESSAGE PUMP,WM_CHAR,258
542,0,1,MESSAGE PUMP,WM_KEYUP,257
542,1,1,MESSAGE PUMP,Unknown,356
542,18,1,MESSAGE PUMP,WM_GETOBJECT,61
542,22,1,MESSAGE PUMP,Unknown,356
542,38,1,MESSAGE PUMP,WM_GETOBJECT,61
542,38,1,MESSAGE PUMP,WM_KEYDOWN,256
542,38,1,MESSAGE PUMP,WM_CHAR,258
543,2,1,MESSAGE PUMP,Unknown,356
543,9,1,MESSAGE PUMP,WM_KEYUP,257
543,11,1,MESSAGE PUMP,WM_GETOBJECT,61
543,14,1,MESSAGE PUMP,Unknown,356
543,19,1,MESSAGE PUMP,WM_GETOBJECT,61
543,19,1,MESSAGE PUMP,WM_KEYDOWN,256
543,19,1,MESSAGE PUMP,WM_CHAR,258
544,0,1,MESSAGE PUMP,Unknown,356
544,5,1,MESSAGE PUMP,WM_KEYUP,257
544,12,1,MESSAGE PUMP,WM_GETOBJECT,61
544,12,1,MESSAGE PUMP,WM_KEYDOWN,256
544,12,1,MESSAGE PUMP,WM_CHAR,258
545,2,1,MESSAGE PUMP,Unknown,356
545,11,1,MESSAGE PUMP,WM_KEYUP,257
545,11,1,MESSAGE PUMP,WM_GETOBJECT,61
545,14,1,MESSAGE PUMP,Unknown,356
545,30,1,MESSAGE PUMP,WM_GETOBJECT,61
545,30,1,MESSAGE PUMP,WM_KEYDOWN,256
545,30,1,MESSAGE PUMP,WM_CHAR,258
546,2,1,MESSAGE PUMP,Unknown,356
546,10,1,MESSAGE PUMP,WM_KEYUP,257
546,15,1,MESSAGE PUMP,WM_GETOBJECT,61
546,19,1,MESSAGE PUMP,Unknown,356
546,34,1,MESSAGE PUMP,WM_GETOBJECT,61
546,34,1,MESSAGE PUMP,WM_KEYDOWN,256
546,34,1,MESSAGE PUMP,WM_CHAR,258
547,0,1,MESSAGE PUMP,Unknown,356
547,17,1,MESSAGE PUMP,WM_KEYUP,257
547,17,1,MESSAGE PUMP,WM_GETOBJECT,61
547,20,1,MESSAGE PUMP,Unknown,356
547,37,1,MESSAGE PUMP,WM_GETOBJECT,61
547,37,1,MESSAGE PUMP,WM_KEYDOWN,256
547,37,1,MESSAGE PUMP,WM_CHAR,258
548,2,1,MESSAGE PUMP,Unknown,356
548,10,1,MESSAGE PUMP,WM_KEYUP,257
548,13,1,MESSAGE PUMP,WM_GETOBJECT,61
548,16,1,MESSAGE PUMP,Unknown,356
548,24,1,MESSAGE PUMP,WM_GETOBJECT,61
549,1,1,MESSAGE PUMP,Unknown,356
549,15,1,MESSAGE PUMP,WM_GETOBJECT,61
550,2,1,MESSAGE PUMP,Unknown,356
550,19,1,MESSAGE PUMP,WM_GETOBJECT,61
551,2,1,MESSAGE PUMP,Unknown,356
551,16,1,MESSAGE PUMP,WM_GETOBJECT,61
551,19,1,MESSAGE PUMP,Unknown,356
552,7,1,MESSAGE PUMP,WM_GETOBJECT,61
553,3,1,MESSAGE PUMP,Unknown,356
553,17,1,MESSAGE PUMP,WM_GETOBJECT,61
554,3,1,MESSAGE PUMP,Unknown,356
598,1,1,MESSAGE PUMP,WM_SYSKEYDOWN,260
598,1,1,MESSAGE PUMP,WM_SYSKEYDOWN,260
598,1,1,MESSAGE PUMP,WM_SYSCHAR,262
598,3,1,MESSAGE PUMP,WM_SYSKEYUP,261
598,5,1,MESSAGE PUMP,WM_KEYUP,257
599,0,1,MESSAGE PUMP,WM_GETOBJECT,61
599,2,1,MESSAGE PUMP,Unknown,356
599,5,1,MESSAGE PUMP,WM_GETOBJECT,61
600,2,1,MESSAGE PUMP,Unknown,356
647,0,1,MESSAGE PUMP,WM_KEYDOWN,256
647,0,1,MESSAGE PUMP,WM_KEYDOWN,256
647,0,1,MESSAGE PUMP,WM_CHAR,258
648,0,1,MESSAGE PUMP,WM_KEYUP,257
648,0,1,MESSAGE PUMP,WM_KEYUP,257
648,2,1,MESSAGE PUMP,WM_KEYDOWN,256
648,2,1,MESSAGE PUMP,WM_CHAR,258
649,0,1,MESSAGE PUMP,WM_GETOBJECT,61
649,0,1,MESSAGE PUMP,WM_KEYUP,257
649,0,1,MESSAGE PUMP,WM_KEYDOWN,256
649,0,1,MESSAGE PUMP,Unknown,356
649,0,1,MESSAGE PUMP,WM_CHAR,258
649,0,1,MESSAGE PUMP,WM_KEYUP,257
649,0,1,MESSAGE PUMP,WM_KEYDOWN,256
649,0,1,MESSAGE PUMP,WM_CHAR,258
649,0,1,MESSAGE PUMP,WM_KEYUP,257
649,0,1,MESSAGE PUMP,WM_KEYDOWN,256
649,0,1,MESSAGE PUMP,WM_CHAR,258
649,0,1,MESSAGE PUMP,WM_KEYUP,257
649,0,1,MESSAGE PUMP,WM_GETOBJECT,61
650,0,1,MESSAGE PUMP,WM_KEYDOWN,256
650,0,1,MESSAGE PUMP,WM_CHAR,258
651,0,1,MESSAGE PUMP,Unknown,356
651,0,1,MESSAGE PUMP,WM_KEYUP,257
651,16,1,MESSAGE PUMP,WM_GETOBJECT,61
651,16,1,MESSAGE PUMP,WM_KEYDOWN,256
651,16,1,MESSAGE PUMP,WM_CHAR,258
652,0,1,MESSAGE PUMP,Unknown,356
652,6,1,MESSAGE PUMP,WM_KEYUP,257
652,11,1,MESSAGE PUMP,WM_GETOBJECT,61
652,11,1,MESSAGE PUMP,WM_KEYDOWN,256
652,11,1,MESSAGE PUMP,WM_CHAR,258
653,1,1,MESSAGE PUMP,Unknown,356
653,13,1,MESSAGE PUMP,WM_KEYUP,257
653,13,1,MESSAGE PUMP,WM_GETOBJECT,61
653,16,1,MESSAGE PUMP,Unknown,356
653,34,1,MESSAGE PUMP,WM_GETOBJECT,61
653,34,1,MESSAGE PUMP,WM_KEYDOWN,256
653,34,1,MESSAGE PUMP,WM_CHAR,258
654,0,1,MESSAGE PUMP,Unknown,356
654,12,1,MESSAGE PUMP,WM_KEYUP,257
654,16,1,MESSAGE PUMP,WM_GETOBJECT,61
654,16,1,MESSAGE PUMP,WM_KEYDOWN,256
654,16,1,MESSAGE PUMP,WM_CHAR,258
655,0,1,MESSAGE PUMP,Unknown,356
655,11,1,MESSAGE PUMP,WM_KEYUP,257
655,15,1,MESSAGE PUMP,WM_GETOBJECT,61
655,15,1,MESSAGE PUMP,WM_KEYDOWN,256
655,15,1,MESSAGE PUMP,WM_CHAR,258
656,4,1,MESSAGE PUMP,Unknown,356
656,16,1,MESSAGE PUMP,WM_KEYUP,257
656,18,1,MESSAGE PUMP,WM_GETOBJECT,61
656,18,1,MESSAGE PUMP,WM_KEYDOWN,256
656,18,1,MESSAGE PUMP,WM_CHAR,258
657,3,1,MESSAGE PUMP,Unknown,356
657,9,1,MESSAGE PUMP,WM_KEYUP,257
657,15,1,MESSAGE PUMP,WM_GETOBJECT,61
657,18,1,MESSAGE PUMP,Unknown,356
657,20,1,MESSAGE PUMP,WM_KEYDOWN,256
657,20,1,MESSAGE PUMP,WM_CHAR,258
658,1,1,MESSAGE PUMP,WM_GETOBJECT,61
658,4,1,MESSAGE PUMP,Unknown,356
658,7,1,MESSAGE PUMP,WM_KEYUP,257
658,11,1,MESSAGE PUMP,WM_GETOBJECT,61
658,11,1,MESSAGE PUMP,WM_KEYDOWN,256
658,11,1,MESSAGE PUMP,WM_CHAR,258
659,1,1,MESSAGE PUMP,Unknown,356
659,3,1,MESSAGE PUMP,WM_KEYUP,257
659,18,1,MESSAGE PUMP,WM_GETOBJECT,61
659,21,1,MESSAGE PUMP,Unknown,356
659,27,1,MESSAGE PUMP,WM_GETOBJECT,61
659,27,1,MESSAGE PUMP,WM_KEYDOWN,256
659,27,1,MESSAGE PUMP,WM_CHAR,258
660,1,1,MESSAGE PUMP,Unknown,356
660,13,1,MESSAGE PUMP,WM_KEYUP,257
660,14,1,MESSAGE PUMP,WM_GETOBJECT,61
660,17,1,MESSAGE PUMP,Unknown,356
660,22,1,MESSAGE PUMP,WM_GETOBJECT,61
660,22,1,MESSAGE PUMP,WM_KEYDOWN,256
660,22,1,MESSAGE PUMP,WM_CHAR,258
661,0,1,MESSAGE PUMP,Unknown,356
661,11,1,MESSAGE PUMP,WM_KEYUP,257
661,16,1,MESSAGE PUMP,WM_GETOBJECT,61
661,16,1,MESSAGE PUMP,WM_KEYDOWN,256
661,16,1,MESSAGE PUMP,WM_CHAR,258
662,2,1,MESSAGE PUMP,Unknown,356
662,4,1,MESSAGE PUMP,WM_KEYUP,257
662,11,1,MESSAGE PUMP,WM_GETOBJECT,61
662,11,1,MESSAGE PUMP,WM_KEYDOWN,256
662,11,1,MESSAGE PUMP,WM_CHAR,258
663,2,1,MESSAGE PUMP,Unknown,356
663,7,1,MESSAGE PUMP,WM_KEYUP,257
663,12,1,MESSAGE PUMP,WM_GETOBJECT,61
663,16,1,MESSAGE PUMP,Unknown,356
663,29,1,MESSAGE PUMP,WM_GETOBJECT,61
663,32,1,MESSAGE PUMP,Unknown,356
663,43,1,MESSAGE PUMP,WM_KEYDOWN,256
663,43,1,MESSAGE PUMP,WM_CHAR,258
664,3,1,MESSAGE PUMP,WM_GETOBJECT,61
664,3,1,MESSAGE PUMP,WM_KEYUP,257
664,5,1,MESSAGE PUMP,Unknown,356
664,23,1,MESSAGE PUMP,WM_GETOBJECT,61
664,23,1,MESSAGE PUMP,WM_KEYDOWN,256
664,23,1,MESSAGE PUMP,WM_CHAR,258
665,0,1,MESSAGE PUMP,Unknown,356
665,10,1,MESSAGE PUMP,WM_KEYUP,257
665,17,1,MESSAGE PUMP,WM_GETOBJECT,61
665,21,1,MESSAGE PUMP,Unknown,356
665,32,1,MESSAGE PUMP,WM_GETOBJECT,61
665,32,1,MESSAGE PUMP,WM_KEYDOWN,256
665,32,1,MESSAGE PUMP,WM_CHAR,258
666,2,1,MESSAGE PUMP,Unknown,356
666,12,1,MESSAGE PUMP,WM_KEYUP,257
666,12,1,MESSAGE PUMP,WM_GETOBJECT,61
666,15,1,MESSAGE PUMP,Unknown,356
666,19,1,MESSAGE PUMP,WM_GETOBJECT,61
666,22,1,MESSAGE PUMP,Unknown,356
666,28,1,MESSAGE PUMP,WM_GETOBJECT,61
666,28,1,MESSAGE PUMP,WM_KEYDOWN,256
666,28,1,MESSAGE PUMP,WM_CHAR,258
667,2,1,MESSAGE PUMP,Unknown,356
667,18,1,MESSAGE PUMP,WM_GETOBJECT,61
667,18,1,MESSAGE PUMP,WM_KEYUP,257
667,21,1,MESSAGE PUMP,Unknown,356
667,36,1,MESSAGE PUMP,WM_GETOBJECT,61
667,36,1,MESSAGE PUMP,WM_KEYDOWN,256
667,36,1,MESSAGE PUMP,WM_CHAR,258
668,0,1,MESSAGE PUMP,Unknown,356
668,10,1,MESSAGE PUMP,WM_KEYUP,257
668,17,1,MESSAGE PUMP,WM_GETOBJECT,61
668,17,1,MESSAGE PUMP,WM_KEYDOWN,256
668,17,1,MESSAGE PUMP,WM_CHAR,258
669,0,1,MESSAGE PUMP,Unknown,356
669,11,1,MESSAGE PUMP,WM_KEYUP,257
669,14,1,MESSAGE PUMP,WM_GETOBJECT,61
670,2,1,MESSAGE PUMP,Unknown,356
670,11,1,MESSAGE PUMP,WM_GETOBJECT,61
671,2,1,MESSAGE PUMP,Unknown,356
671,12,1,MESSAGE PUMP,WM_GETOBJECT,61
672,3,1,MESSAGE PUMP,Unknown,356
672,20,1,MESSAGE PUMP,WM_GETOBJECT,61
672,23,1,MESSAGE PUMP,Unknown,356
673,11,1,MESSAGE PUMP,WM_GETOBJECT,61
674,2,1,MESSAGE PUMP,Unknown,356
674,16,1,MESSAGE PUMP,WM_GETOBJECT,61
675,1,1,MESSAGE PUMP,Unknown,356
675,20,1,MESSAGE PUMP,WM_GETOBJECT,61
676,2,1,MESSAGE PUMP,Unknown,356
676,14,1,MESSAGE PUMP,WM_GETOBJECT,61
676,17,1,MESSAGE PUMP,Unknown,356
677,2,1,MESSAGE PUMP,WM_GETOBJECT,61
677,4,1,MESSAGE PUMP,Unknown,356
677,11,1,MESSAGE PUMP,WM_GETOBJECT,61
677,14,1,MESSAGE PUMP,Unknown,356
678,1,1,MESSAGE PUMP,WM_GETOBJECT,61
678,4,1,MESSAGE PUMP,Unknown,356
678,35,1,MESSAGE PUMP,WM_GETOBJECT,61
679,2,1,MESSAGE PUMP,Unknown,356
679,16,1,MESSAGE PUMP,WM_GETOBJECT,61
680,2,1,MESSAGE PUMP,Unknown,356
680,15,1,MESSAGE PUMP,WM_GETOBJECT,61
680,19,1,MESSAGE PUMP,Unknown,356
681,7,1,MESSAGE PUMP,WM_GETOBJECT,61
682,2,1,MESSAGE PUMP,Unknown,356
682,16,1,MESSAGE PUMP,WM_GETOBJECT,61
683,2,1,MESSAGE PUMP,Unknown,356
717,0,1,MESSAGE PUMP,WM_KEYDOWN,256
717,0,1,MESSAGE PUMP,WM_CHAR,258
717,0,1,MESSAGE PUMP,WM_KEYUP,257
718,0,1,MESSAGE PUMP,WM_GETOBJECT,61
718,2,1,MESSAGE PUMP,Unknown,356
718,9,1,MESSAGE PUMP,WM_GETOBJECT,61
719,0,1,MESSAGE PUMP,Unknown,356
762,0,1,MESSAGE PUMP,WM_KEYDOWN,256
762,0,1,MESSAGE PUMP,WM_KEYDOWN,256
762,0,1,MESSAGE PUMP,WM_CHAR,258
763,0,1,MESSAGE PUMP,WM_KEYUP,257
763,0,1,MESSAGE PUMP,WM_KEYUP,257
763,2,1,MESSAGE PUMP,WM_KEYDOWN,256
763,2,1,MESSAGE PUMP,WM_CHAR,258
764,0,1,MESSAGE PUMP,WM_GETOBJECT,61
764,3,1,MESSAGE PUMP,Unknown,356
764,4,1,MESSAGE PUMP,WM_KEYUP,257
764,6,1,MESSAGE PUMP,WM_GETOBJECT,61
764,6,1,MESSAGE PUMP,WM_KEYDOWN,256
764,6,1,MESSAGE PUMP,WM_CHAR,258
765,0,1,MESSAGE PUMP,Unknown,356
765,0,1,MESSAGE PUMP,WM_KEYUP,257
765,16,1,MESSAGE PUMP,WM_GETOBJECT,61
765,16,1,MESSAGE PUMP,WM_KEYDOWN,256
765,16,1,MESSAGE PUMP,WM_CHAR,258
766,1,1,MESSAGE PUMP,WM_KEYUP,257
766,1,1,MESSAGE PUMP,Unknown,356
766,12,1,MESSAGE PUMP,WM_GETOBJECT,61
766,12,1,MESSAGE PUMP,WM_KEYDOWN,256
766,12,1,MESSAGE PUMP,WM_CHAR,258
767,1,1,MESSAGE PUMP,WM_KEYUP,257
767,1,1,MESSAGE PUMP,Unknown,356
767,18,1,MESSAGE PUMP,WM_GETOBJECT,61
767,18,1,MESSAGE PUMP,WM_KEYDOWN,256
767,18,1,MESSAGE PUMP,WM_CHAR,258
768,0,1,MESSAGE PUMP,Unknown,356
768,8,1,MESSAGE PUMP,WM_KEYUP,257
768,15,1,MESSAGE PUMP,WM_GETOBJECT,61
768,15,1,MESSAGE PUMP,WM_KEYDOWN,256
768,15,1,MESSAGE PUMP,WM_CHAR,258
769,3,1,MESSAGE PUMP,Unknown,356
769,16,1,MESSAGE PUMP,WM_KEYUP,257
769,18,1,MESSAGE PUMP,WM_GETOBJECT,61
769,21,1,MESSAGE PUMP,Unknown,356
769,38,1,MESSAGE PUMP,WM_GETOBJECT,61
769,42,1,MESSAGE PUMP,Unknown,356
769,57,1,MESSAGE PUMP,WM_KEYDOWN,256
769,57,1,MESSAGE PUMP,WM_GETOBJECT,61
769,57,1,MESSAGE PUMP,WM_CHAR,258
770,2,1,MESSAGE PUMP,Unknown,356
770,8,1,MESSAGE PUMP,WM_KEYUP,257
770,14,1,MESSAGE PUMP,WM_GETOBJECT,61
770,14,1,MESSAGE PUMP,WM_KEYDOWN,256
770,14,1,MESSAGE PUMP,WM_CHAR,258
771,0,1,MESSAGE PUMP,Unknown,356
771,7,1,MESSAGE PUMP,WM_GETOBJECT,61
771,7,1,MESSAGE PUMP,WM_KEYUP,257
771,9,1,MESSAGE PUMP,Unknown,356
771,13,1,MESSAGE PUMP,WM_GETOBJECT,61
771,16,1,MESSAGE PUMP,Unknown,356
771,32,1,MESSAGE PUMP,WM_GETOBJECT,61
771,35,1,MESSAGE PUMP,Unknown,356
771,36,1,MESSAGE PUMP,WM_KEYDOWN,256
771,36,1,MESSAGE PUMP,WM_CHAR,258
772,3,1,MESSAGE PUMP,WM_GETOBJECT,61
772,3,1,MESSAGE PUMP,WM_KEYUP,257
772,5,1,MESSAGE PUMP,Unknown,356
772,10,1,MESSAGE PUMP,WM_GETOBJECT,61
772,10,1,MESSAGE PUMP,WM_KEYDOWN,256
772,10,1,MESSAGE PUMP,WM_CHAR,258
773,0,1,MESSAGE PUMP,Unknown,356
773,5,1,MESSAGE PUMP,WM_KEYUP,257
773,12,1,MESSAGE PUMP,WM_GETOBJECT,61
773,12,1,MESSAGE PUMP,WM_KEYDOWN,256
773,12,1,MESSAGE PUMP,WM_CHAR,258
774,0,1,MESSAGE PUMP,Unknown,356
774,3,1,MESSAGE PUMP,WM_KEYUP,257
774,8,1,MESSAGE PUMP,WM_GETOBJECT,61
774,8,1,MESSAGE PUMP,WM_KEYDOWN,256
774,8,1,MESSAGE PUMP,WM_CHAR,258
775,2,1,MESSAGE PUMP,Unknown,356
775,11,1,MESSAGE PUMP,WM_KEYUP,257
775,17,1,MESSAGE PUMP,WM_GETOBJECT,61
775,17,1,MESSAGE PUMP,WM_KEYDOWN,256
775,17,1,MESSAGE PUMP,WM_CHAR,258
776,0,1,MESSAGE PUMP,Unknown,356
776,5,1,MESSAGE PUMP,WM_KEYUP,257
776,8,1,MESSAGE PUMP,WM_GETOBJECT,61
776,8,1,MESSAGE PUMP,WM_KEYDOWN,256
776,8,1,MESSAGE PUMP,WM_CHAR,258
777,0,1,MESSAGE PUMP,Unknown,356
777,12,1,MESSAGE PUMP,WM_KEYUP,257
777,13,1,MESSAGE PUMP,WM_GETOBJECT,61
777,13,1,MESSAGE PUMP,WM_KEYDOWN,256
777,13,1,MESSAGE PUMP,WM_CHAR,258
778,0,1,MESSAGE PUMP,Unknown,356
778,14,1,MESSAGE PUMP,WM_KEYUP,257
778,14,1,MESSAGE PUMP,WM_GETOBJECT,61
778,17,1,MESSAGE PUMP,Unknown,356
778,22,1,MESSAGE PUMP,WM_GETOBJECT,61
778,25,1,MESSAGE PUMP,Unknown,356
778,31,1,MESSAGE PUMP,WM_GETOBJECT,61
778,31,1,MESSAGE PUMP,WM_KEYDOWN,256
778,31,1,MESSAGE PUMP,WM_CHAR,258
779,0,1,MESSAGE PUMP,Unknown,356
779,5,1,MESSAGE PUMP,WM_KEYUP,257
779,10,1,MESSAGE PUMP,WM_GETOBJECT,61
779,10,1,MESSAGE PUMP,WM_KEYDOWN,256
779,10,1,MESSAGE PUMP,WM_CHAR,258
780,1,1,MESSAGE PUMP,Unknown,356
780,10,1,MESSAGE PUMP,WM_KEYUP,257
780,12,1,MESSAGE PUMP,WM_GETOBJECT,61
780,12,1,MESSAGE PUMP,WM_KEYDOWN,256
780,12,1,MESSAGE PUMP,WM_CHAR,258
781,1,1,MESSAGE PUMP,Unknown,356
781,8,1,MESSAGE PUMP,WM_KEYUP,257
781,12,1,MESSAGE PUMP,WM_GETOBJECT,61
781,12,1,MESSAGE PUMP,WM_KEYDOWN,256
781,12,1,MESSAGE PUMP,WM_CHAR,258
782,0,1,MESSAGE PUMP,Unknown,356
782,7,1,MESSAGE PUMP,WM_KEYUP,257
782,10,1,MESSAGE PUMP,WM_GETOBJECT,61
782,10,1,MESSAGE PUMP,WM_KEYDOWN,256
782,10,1,MESSAGE PUMP,WM_CHAR,258
783,0,1,MESSAGE PUMP,Unknown,356
783,13,1,MESSAGE PUMP,WM_KEYUP,257
783,13,1,MESSAGE PUMP,WM_GETOBJECT,61
783,16,1,MESSAGE PUMP,Unknown,356
783,26,1,MESSAGE PUMP,WM_GETOBJECT,61
783,29,1,MESSAGE PUMP,Unknown,356
783,35,1,MESSAGE PUMP,WM_KEYDOWN,256
783,35,1,MESSAGE PUMP,WM_CHAR,258
784,5,1,MESSAGE PUMP,WM_GETOBJECT,61
784,5,1,MESSAGE PUMP,WM_KEYUP,257
784,7,1,MESSAGE PUMP,Unknown,356
784,22,1,MESSAGE PUMP,WM_GETOBJECT,61
784,25,1,MESSAGE PUMP,Unknown,356
784,37,1,MESSAGE PUMP,WM_GETOBJECT,61
784,37,1,MESSAGE PUMP,WM_KEYDOWN,256
784,37,1,MESSAGE PUMP,WM_CHAR,258
785,0,1,MESSAGE PUMP,Unknown,356
785,9,1,MESSAGE PUMP,WM_GETOBJECT,61
785,9,1,MESSAGE PUMP,WM_KEYUP,257
785,11,1,MESSAGE PUMP,Unknown,356
785,20,1,MESSAGE PUMP,WM_GETOBJECT,61
785,22,1,MESSAGE PUMP,Unknown,356
785,28,1,MESSAGE PUMP,WM_GETOBJECT,61
785,28,1,MESSAGE PUMP,WM_KEYDOWN,256
785,28,1,MESSAGE PUMP,WM_CHAR,258
786,0,1,MESSAGE PUMP,Unknown,356
786,10,1,MESSAGE PUMP,WM_KEYUP,257
786,15,1,MESSAGE PUMP,WM_GETOBJECT,61
786,17,1,MESSAGE PUMP,Unknown,356
786,27,1,MESSAGE PUMP,WM_GETOBJECT,61
786,27,1,MESSAGE PUMP,WM_KEYDOWN,256
786,27,1,MESSAGE PUMP,WM_CHAR,258
787,2,1,MESSAGE PUMP,Unknown,356
787,12,1,MESSAGE PUMP,WM_KEYUP,257
787,13,1,MESSAGE PUMP,WM_GETOBJECT,61
787,13,1,MESSAGE PUMP,WM_KEYDOWN,256
787,13,1,MESSAGE PUMP,WM_CHAR,258
788,0,1,MESSAGE PUMP,Unknown,356
788,0,1,MESSAGE PUMP,WM_KEYUP,257
788,7,1,MESSAGE PUMP,WM_GETOBJECT,61
788,7,1,MESSAGE PUMP,WM_KEYDOWN,256
788,7,1,MESSAGE PUMP,WM_CHAR,258
789,0,1,MESSAGE PUMP,Unknown,356
789,0,1,MESSAGE PUMP,WM_KEYUP,257
789,16,1,MESSAGE PUMP,WM_GETOBJECT,61
789,16,1,MESSAGE PUMP,WM_KEYDOWN,256
789,16,1,MESSAGE PUMP,WM_CHAR,258
790,0,1,MESSAGE PUMP,Unknown,356
790,0,1,MESSAGE PUMP,WM_KEYUP,257
790,12,1,MESSAGE PUMP,WM_GETOBJECT,61
790,12,1,MESSAGE PUMP,WM_KEYDOWN,256
790,12,1,MESSAGE PUMP,WM_CHAR,258
791,0,1,MESSAGE PUMP,Unknown,356
791,0,1,MESSAGE PUMP,WM_KEYUP,257
791,14,1,MESSAGE PUMP,WM_GETOBJECT,61
791,14,1,MESSAGE PUMP,WM_KEYDOWN,256
791,14,1,MESSAGE PUMP,WM_CHAR,258
792,0,1,MESSAGE PUMP,Unknown,356
792,3,1,MESSAGE PUMP,WM_KEYUP,257
792,11,1,MESSAGE PUMP,WM_GETOBJECT,61
792,11,1,MESSAGE PUMP,WM_KEYDOWN,256
792,11,1,MESSAGE PUMP,WM_CHAR,258
793,0,1,MESSAGE PUMP,Unknown,356
793,0,1,MESSAGE PUMP,WM_KEYUP,257
793,13,1,MESSAGE PUMP,WM_GETOBJECT,61
793,13,1,MESSAGE PUMP,WM_KEYDOWN,256
793,13,1,MESSAGE PUMP,WM_CHAR,258
794,2,1,MESSAGE PUMP,Unknown,356
794,2,1,MESSAGE PUMP,WM_KEYUP,257
794,15,1,MESSAGE PUMP,WM_GETOBJECT,61
794,15,1,MESSAGE PUMP,WM_KEYDOWN,256
794,15,1,MESSAGE PUMP,WM_CHAR,258
795,0,1,MESSAGE PUMP,Unknown,356
795,0,1,MESSAGE PUMP,WM_KEYUP,257
795,17,1,MESSAGE PUMP,WM_GETOBJECT,61
795,17,1,MESSAGE PUMP,WM_KEYDOWN,256
795,17,1,MESSAGE PUMP,WM_CHAR,258
796,0,1,MESSAGE PUMP,WM_KEYUP,257
796,0,1,MESSAGE PUMP,Unknown,356
796,16,1,MESSAGE PUMP,WM_GETOBJECT,61
796,16,1,MESSAGE PUMP,WM_KEYDOWN,256
796,16,1,MESSAGE PUMP,WM_CHAR,258
797,0,1,MESSAGE PUMP,Unknown,356
797,0,1,MESSAGE PUMP,WM_KEYUP,257
797,13,1,MESSAGE PUMP,WM_GETOBJECT,61
797,13,1,MESSAGE PUMP,WM_KEYDOWN,256
797,13,1,MESSAGE PUMP,WM_CHAR,258
798,0,1,MESSAGE PUMP,Unknown,356
798,0,1,MESSAGE PUMP,WM_KEYUP,257
798,14,1,MESSAGE PUMP,WM_GETOBJECT,61
798,14,1,MESSAGE PUMP,WM_KEYDOWN,256
798,14,1,MESSAGE PUMP,WM_CHAR,258
799,0,1,MESSAGE PUMP,Unknown,356
799,0,1,MESSAGE PUMP,WM_KEYUP,257
799,15,1,MESSAGE PUMP,WM_GETOBJECT,61
799,15,1,MESSAGE PUMP,WM_KEYDOWN,256
799,15,1,MESSAGE PUMP,WM_CHAR,258
799,15,1,MESSAGE PUMP,WM_KEYUP,257
799,15,1,MESSAGE PUMP,Unknown,356
799,15,1,MESSAGE PUMP,WM_KEYDOWN,256
799,15,1,MESSAGE PUMP,WM_CHAR,258
800,0,1,MESSAGE PUMP,WM_KEYUP,257
800,0,1,MESSAGE PUMP,WM_KEYDOWN,256
800,0,1,MESSAGE PUMP,WM_CHAR,258
801,0,1,MESSAGE PUMP,WM_KEYUP,257
801,1,1,MESSAGE PUMP,WM_GETOBJECT,61
801,1,1,MESSAGE PUMP,WM_KEYDOWN,256
801,1,1,MESSAGE PUMP,WM_CHAR,258
802,0,1,MESSAGE PUMP,Unknown,356
802,2,1,MESSAGE PUMP,WM_KEYUP,257
802,15,1,MESSAGE PUMP,WM_GETOBJECT,61
802,15,1,MESSAGE PUMP,WM_KEYDOWN,256
802,15,1,MESSAGE PUMP,WM_CHAR,258
803,0,1,MESSAGE PUMP,Unknown,356
803,0,1,MESSAGE PUMP,WM_KEYUP,257
803,14,1,MESSAGE PUMP,WM_GETOBJECT,61
803,17,1,MESSAGE PUMP,Unknown,356
803,23,1,MESSAGE PUMP,WM_GETOBJECT,61
803,23,1,MESSAGE PUMP,WM_KEYDOWN,256
803,23,1,MESSAGE PUMP,WM_CHAR,258
804,0,1,MESSAGE PUMP,Unknown,356
804,0,1,MESSAGE PUMP,WM_KEYUP,257
804,16,1,MESSAGE PUMP,WM_GETOBJECT,61
804,16,1,MESSAGE PUMP,WM_KEYDOWN,256
804,16,1,MESSAGE PUMP,WM_CHAR,258
805,0,1,MESSAGE PUMP,Unknown,356
805,0,1,MESSAGE PUMP,WM_KEYUP,257
805,13,1,MESSAGE PUMP,WM_GETOBJECT,61
805,16,1,MESSAGE PUMP,Unknown,356
805,31,1,MESSAGE PUMP,WM_GETOBJECT,61
805,31,1,MESSAGE PUMP,WM_KEYDOWN,256
805,31,1,MESSAGE PUMP,WM_CHAR,258
806,0,1,MESSAGE PUMP,Unknown,356
806,0,1,MESSAGE PUMP,WM_KEYUP,257
806,13,1,MESSAGE PUMP,WM_GETOBJECT,61
806,13,1,MESSAGE PUMP,WM_KEYDOWN,256
806,13,1,MESSAGE PUMP,WM_CHAR,258
807,0,1,MESSAGE PUMP,Unknown,356
807,0,1,MESSAGE PUMP,WM_KEYUP,257
807,14,1,MESSAGE PUMP,WM_GETOBJECT,61
807,16,1,MESSAGE PUMP,Unknown,356
807,21,1,MESSAGE PUMP,WM_GETOBJECT,61
807,21,1,MESSAGE PUMP,WM_KEYDOWN,256
807,21,1,MESSAGE PUMP,WM_CHAR,258
808,1,1,MESSAGE PUMP,Unknown,356
808,9,1,MESSAGE PUMP,WM_KEYUP,257
808,17,1,MESSAGE PUMP,WM_GETOBJECT,61
808,17,1,MESSAGE PUMP,WM_KEYDOWN,256
808,17,1,MESSAGE PUMP,WM_CHAR,258
809,0,1,MESSAGE PUMP,Unknown,356
809,0,1,MESSAGE PUMP,WM_KEYUP,257
809,7,1,MESSAGE PUMP,WM_KEYDOWN,256
809,7,1,MESSAGE PUMP,WM_CHAR,258
809,7,1,MESSAGE PUMP,WM_GETOBJECT,61
810,0,1,MESSAGE PUMP,WM_KEYUP,257
810,0,1,MESSAGE PUMP,Unknown,356
810,2,1,MESSAGE PUMP,WM_KEYDOWN,256
810,2,1,MESSAGE PUMP,WM_CHAR,258
811,0,1,MESSAGE PUMP,WM_KEYUP,257
811,1,1,MESSAGE PUMP,WM_GETOBJECT,61
811,4,1,MESSAGE PUMP,Unknown,356
811,10,1,MESSAGE PUMP,WM_GETOBJECT,61
811,10,1,MESSAGE PUMP,WM_KEYDOWN,256
811,10,1,MESSAGE PUMP,WM_CHAR,258
812,0,1,MESSAGE PUMP,Unknown,356
812,0,1,MESSAGE PUMP,WM_KEYUP,257
812,15,1,MESSAGE PUMP,WM_GETOBJECT,61
812,19,1,MESSAGE PUMP,Unknown,356
812,19,1,MESSAGE PUMP,WM_KEYDOWN,256
812,19,1,MESSAGE PUMP,WM_CHAR,258
813,0,1,MESSAGE PUMP,WM_KEYUP,257
813,2,1,MESSAGE PUMP,WM_GETOBJECT,61
813,2,1,MESSAGE PUMP,WM_KEYDOWN,256
813,2,1,MESSAGE PUMP,WM_CHAR,258
814,0,1,MESSAGE PUMP,Unknown,356
814,0,1,MESSAGE PUMP,WM_KEYUP,257
814,14,1,MESSAGE PUMP,WM_GETOBJECT,61
814,14,1,MESSAGE PUMP,WM_KEYDOWN,256
814,14,1,MESSAGE PUMP,WM_CHAR,258
815,0,1,MESSAGE PUMP,Unknown,356
815,0,1,MESSAGE PUMP,WM_KEYUP,257
815,14,1,MESSAGE PUMP,WM_GETOBJECT,61
815,14,1,MESSAGE PUMP,WM_KEYDOWN,256
815,14,1,MESSAGE PUMP,WM_CHAR,258
816,0,1,MESSAGE PUMP,Unknown,356
816,0,1,MESSAGE PUMP,WM_KEYUP,257
816,13,1,MESSAGE PUMP,WM_GETOBJECT,61
816,13,1,MESSAGE PUMP,WM_KEYDOWN,256
816,13,1,MESSAGE PUMP,WM_CHAR,258
817,0,1,MESSAGE PUMP,Unknown,356
817,0,1,MESSAGE PUMP,WM_KEYUP,257
817,13,1,MESSAGE PUMP,WM_GETOBJECT,61
817,13,1,MESSAGE PUMP,WM_KEYDOWN,256
817,13,1,MESSAGE PUMP,WM_CHAR,258
818,0,1,MESSAGE PUMP,Unknown,356
818,0,1,MESSAGE PUMP,WM_KEYUP,257
818,14,1,MESSAGE PUMP,WM_GETOBJECT,61
818,14,1,MESSAGE PUMP,WM_KEYDOWN,256
818,14,1,MESSAGE PUMP,WM_CHAR,258
819,0,1,MESSAGE PUMP,Unknown,356
819,10,1,MESSAGE PUMP,WM_KEYUP,257
819,16,1,MESSAGE PUMP,WM_GETOBJECT,61
819,16,1,MESSAGE PUMP,WM_KEYDOWN,256
819,16,1,MESSAGE PUMP,WM_CHAR,258
820,0,1,MESSAGE PUMP,Unknown,356
820,4,1,MESSAGE PUMP,WM_KEYUP,257
820,11,1,MESSAGE PUMP,WM_GETOBJECT,61
820,12,1,MESSAGE PUMP,WM_KEYDOWN,256
820,12,1,MESSAGE PUMP,Unknown,356
820,12,1,MESSAGE PUMP,WM_CHAR,258
821,1,1,MESSAGE PUMP,WM_KEYUP,257
821,13,1,MESSAGE PUMP,WM_GETOBJECT,61
821,13,1,MESSAGE PUMP,WM_KEYDOWN,256
821,13,1,MESSAGE PUMP,WM_CHAR,258
822,2,1,MESSAGE PUMP,Unknown,356
822,2,1,MESSAGE PUMP,WM_KEYUP,257
822,15,1,MESSAGE PUMP,WM_GETOBJECT,61
822,18,1,MESSAGE PUMP,Unknown,356
822,21,1,MESSAGE PUMP,WM_KEYDOWN,256
822,21,1,MESSAGE PUMP,WM_CHAR,258
823,0,1,MESSAGE PUMP,WM_KEYUP,257
823,0,1,MESSAGE PUMP,WM_GETOBJECT,61
823,5,1,MESSAGE PUMP,Unknown,356
823,20,1,MESSAGE PUMP,WM_GETOBJECT,61
823,20,1,MESSAGE PUMP,WM_KEYDOWN,256
823,20,1,MESSAGE PUMP,WM_CHAR,258
824,0,1,MESSAGE PUMP,Unknown,356
824,0,1,MESSAGE PUMP,WM_KEYUP,257
824,20,1,MESSAGE PUMP,WM_GETOBJECT,61
824,24,1,MESSAGE PUMP,Unknown,356
824,35,1,MESSAGE PUMP,WM_KEYDOWN,256
824,35,1,MESSAGE PUMP,WM_CHAR,258
825,0,1,MESSAGE PUMP,WM_KEYUP,257
825,2,1,MESSAGE PUMP,WM_GETOBJECT,61
825,6,1,MESSAGE PUMP,Unknown,356
825,25,1,MESSAGE PUMP,WM_GETOBJECT,61
825,25,1,MESSAGE PUMP,WM_KEYDOWN,256
825,25,1,MESSAGE PUMP,WM_CHAR,258
826,1,1,MESSAGE PUMP,WM_KEYUP,257
826,1,1,MESSAGE PUMP,Unknown,356
826,19,1,MESSAGE PUMP,WM_GETOBJECT,61
826,23,1,MESSAGE PUMP,Unknown,356
826,39,1,MESSAGE PUMP,WM_GETOBJECT,61
826,39,1,MESSAGE PUMP,WM_KEYDOWN,256
826,39,1,MESSAGE PUMP,WM_CHAR,258
827,1,1,MESSAGE PUMP,WM_KEYUP,257
827,1,1,MESSAGE PUMP,Unknown,356
827,15,1,MESSAGE PUMP,WM_GETOBJECT,61
827,15,1,MESSAGE PUMP,WM_KEYDOWN,256
827,15,1,MESSAGE PUMP,WM_CHAR,258
828,2,1,MESSAGE PUMP,Unknown,356
828,8,1,MESSAGE PUMP,WM_KEYUP,257
828,14,1,MESSAGE PUMP,WM_GETOBJECT,61
829,3,1,MESSAGE PUMP,Unknown,356
829,20,1,MESSAGE PUMP,WM_GETOBJECT,61
830,2,1,MESSAGE PUMP,Unknown,356
830,8,1,MESSAGE PUMP,WM_GETOBJECT,61
831,3,1,MESSAGE PUMP,Unknown,356
831,20,1,MESSAGE PUMP,WM_GETOBJECT,61
831,23,1,MESSAGE PUMP,Unknown,356
832,13,1,MESSAGE PUMP,WM_GETOBJECT,61
833,2,1,MESSAGE PUMP,Unknown,356
833,13,1,MESSAGE PUMP,WM_GETOBJECT,61
834,2,1,MESSAGE PUMP,Unknown,356
834,14,1,MESSAGE PUMP,WM_GETOBJECT,61
835,2,1,MESSAGE PUMP,Unknown,356
835,20,1,MESSAGE PUMP,WM_GETOBJECT,61
836,2,1,MESSAGE PUMP,Unknown,356
836,17,1,MESSAGE PUMP,WM_GETOBJECT,61
837,2,1,MESSAGE PUMP,Unknown,356
840,1,1,MESSAGE PUMP,WM_GETOBJECT,61
841,1,1,MESSAGE PUMP,Unknown,356
841,6,1,MESSAGE PUMP,WM_GETOBJECT,61
842,1,1,MESSAGE PUMP,Unknown,356
844,1,1,MESSAGE PUMP,WM_GETOBJECT,61
845,1,1,MESSAGE PUMP,Unknown,356
845,5,1,MESSAGE PUMP,WM_GETOBJECT,61
845,7,1,MESSAGE PUMP,Unknown,356
845,12,1,MESSAGE PUMP,WM_GETOBJECT,61
845,14,1,MESSAGE PUMP,Unknown,356
845,18,1,MESSAGE PUMP,WM_GETOBJECT,61
845,20,1,MESSAGE PUMP,Unknown,356
845,24,1,MESSAGE PUMP,WM_GETOBJECT,61
845,26,1,MESSAGE PUMP,Unknown,356
845,31,1,MESSAGE PUMP,WM_GETOBJECT,61
845,33,1,MESSAGE PUMP,Unknown,356
845,43,1,MESSAGE PUMP,WM_GETOBJECT,61
846,1,1,MESSAGE PUMP,Unknown,356
846,6,1,MESSAGE PUMP,WM_GETOBJECT,61
846,8,1,MESSAGE PUMP,Unknown,356
848,1,1,MESSAGE PUMP,WM_GETOBJECT,61
849,1,1,MESSAGE PUMP,Unknown,356
849,5,1,MESSAGE PUMP,WM_GETOBJECT,61
849,7,1,MESSAGE PUMP,Unknown,356
852,1,1,MESSAGE PUMP,WM_GETOBJECT,61
853,1,1,MESSAGE PUMP,Unknown,356
853,5,1,MESSAGE PUMP,WM_GETOBJECT,61
853,7,1,MESSAGE PUMP,Unknown,356
853,11,1,MESSAGE PUMP,WM_GETOBJECT,61
853,13,1,MESSAGE PUMP,Unknown,356
853,18,1,MESSAGE PUMP,WM_GETOBJECT,61
853,20,1,MESSAGE PUMP,Unknown,356
853,24,1,MESSAGE PUMP,WM_GETOBJECT,61
853,26,1,MESSAGE PUMP,Unknown,356
853,30,1,MESSAGE PUMP,WM_GETOBJECT,61
853,32,1,MESSAGE PUMP,Unknown,356
854,2,1,MESSAGE PUMP,WM_GETOBJECT,61
854,4,1,MESSAGE PUMP,Unknown,356
854,10,1,MESSAGE PUMP,WM_GETOBJECT,61
855,1,1,MESSAGE PUMP,Unknown,356
855,6,1,MESSAGE PUMP,WM_GETOBJECT,61
855,8,1,MESSAGE PUMP,Unknown,356
855,13,1,MESSAGE PUMP,WM_GETOBJECT,61
856,0,1,MESSAGE PUMP,Unknown,356
856,5,1,MESSAGE PUMP,WM_GETOBJECT,61
856,7,1,MESSAGE PUMP,Unknown,356
856,13,1,MESSAGE PUMP,WM_GETOBJECT,61
857,1,1,MESSAGE PUMP,Unknown,356
857,7,1,MESSAGE PUMP,WM_GETOBJECT,61
858,1,1,MESSAGE PUMP,Unknown,356
858,5,1,MESSAGE PUMP,WM_GETOBJECT,61
858,7,1,MESSAGE PUMP,Unknown,356
858,13,1,MESSAGE PUMP,WM_GETOBJECT,61
859,0,1,MESSAGE PUMP,Unknown,356
859,6,1,MESSAGE PUMP,WM_GETOBJECT,61
860,1,1,MESSAGE PUMP,Unknown,356
860,6,1,MESSAGE PUMP,WM_GETOBJECT,61
861,1,1,MESSAGE PUMP,Unknown,356
861,6,1,MESSAGE PUMP,WM_GETOBJECT,61
861,8,1,MESSAGE PUMP,Unknown,356
862,2,1,MESSAGE PUMP,WM_GETOBJECT,61
862,4,1,MESSAGE PUMP,Unknown,356
862,8,1,MESSAGE PUMP,WM_GETOBJECT,61
862,10,1,MESSAGE PUMP,Unknown,356
862,18,1,MESSAGE PUMP,WM_GETOBJECT,61
863,0,1,MESSAGE PUMP,Unknown,356
863,5,1,MESSAGE PUMP,WM_GETOBJECT,61
863,8,1,MESSAGE PUMP,Unknown,356
863,13,1,MESSAGE PUMP,WM_GETOBJECT,61
864,0,1,MESSAGE PUMP,Unknown,356
864,4,1,MESSAGE PUMP,WM_GETOBJECT,61
864,6,1,MESSAGE PUMP,Unknown,356
864,10,1,MESSAGE PUMP,WM_GETOBJECT,61
864,12,1,MESSAGE PUMP,Unknown,356
865,2,1,MESSAGE PUMP,WM_GETOBJECT,61
865,4,1,MESSAGE PUMP,Unknown,356
865,9,1,MESSAGE PUMP,WM_GETOBJECT,61
866,1,1,MESSAGE PUMP,Unknown,356
866,7,1,MESSAGE PUMP,WM_GETOBJECT,61
867,2,1,MESSAGE PUMP,Unknown,356
878,0,1,MESSAGE PUMP,WM_KEYDOWN,256
878,0,1,MESSAGE PUMP,WM_CHAR,258
878,0,1,MESSAGE PUMP,WM_KEYUP,257
879,0,1,MESSAGE PUMP,WM_GETOBJECT,61
879,2,1,MESSAGE PUMP,Unknown,356
879,9,1,MESSAGE PUMP,WM_GETOBJECT,61
880,0,1,MESSAGE PUMP,Unknown,356
916,0,1,MESSAGE PUMP,WM_KEYDOWN,256
916,0,1,MESSAGE PUMP,WM_KEYDOWN,256
916,0,1,MESSAGE PUMP,WM_CHAR,258
917,0,1,MESSAGE PUMP,WM_KEYUP,257
917,0,1,MESSAGE PUMP,WM_KEYUP,257
917,2,1,MESSAGE PUMP,WM_KEYDOWN,256
917,2,1,MESSAGE PUMP,WM_CHAR,258
918,0,1,MESSAGE PUMP,WM_GETOBJECT,61
918,0,1,MESSAGE PUMP,WM_KEYUP,257
918,0,1,MESSAGE PUMP,WM_KEYDOWN,256
918,0,1,MESSAGE PUMP,Unknown,356
918,0,1,MESSAGE PUMP,WM_CHAR,258
919,0,1,MESSAGE PUMP,WM_KEYUP,257
919,3,1,MESSAGE PUMP,WM_GETOBJECT,61
919,6,1,MESSAGE PUMP,Unknown,356
919,8,1,MESSAGE PUMP,WM_KEYDOWN,256
919,8,1,MESSAGE PUMP,WM_CHAR,258
920,2,1,MESSAGE PUMP,WM_GETOBJECT,61
920,2,1,MESSAGE PUMP,WM_KEYUP,257
920,5,1,MESSAGE PUMP,Unknown,356
920,20,1,MESSAGE PUMP,WM_GETOBJECT,61
920,20,1,MESSAGE PUMP,WM_KEYDOWN,256
920,20,1,MESSAGE PUMP,WM_CHAR,258
921,0,1,MESSAGE PUMP,Unknown,356
921,3,1,MESSAGE PUMP,WM_KEYUP,257
921,13,1,MESSAGE PUMP,WM_GETOBJECT,61
921,13,1,MESSAGE PUMP,WM_KEYDOWN,256
921,13,1,MESSAGE PUMP,WM_CHAR,258
922,0,1,MESSAGE PUMP,Unknown,356
922,0,1,MESSAGE PUMP,WM_KEYUP,257
922,12,1,MESSAGE PUMP,WM_GETOBJECT,61
922,14,1,MESSAGE PUMP,Unknown,356
922,15,1,MESSAGE PUMP,WM_KEYDOWN,256
922,15,1,MESSAGE PUMP,WM_CHAR,258
923,4,1,MESSAGE PUMP,WM_GETOBJECT,61
923,4,1,MESSAGE PUMP,WM_KEYUP,257
923,6,1,MESSAGE PUMP,Unknown,356
923,11,1,MESSAGE PUMP,WM_GETOBJECT,61
923,11,1,MESSAGE PUMP,WM_KEYDOWN,256
923,11,1,MESSAGE PUMP,WM_CHAR,258
924,1,1,MESSAGE PUMP,Unknown,356
924,13,1,MESSAGE PUMP,WM_KEYUP,257
924,14,1,MESSAGE PUMP,WM_GETOBJECT,61
924,14,1,MESSAGE PUMP,WM_KEYDOWN,256
924,14,1,MESSAGE PUMP,WM_CHAR,258
925,0,1,MESSAGE PUMP,Unknown,356
925,6,1,MESSAGE PUMP,WM_KEYUP,257
925,9,1,MESSAGE PUMP,WM_GETOBJECT,61
925,9,1,MESSAGE PUMP,WM_KEYDOWN,256
925,9,1,MESSAGE PUMP,WM_CHAR,258
926,0,1,MESSAGE PUMP,Unknown,356
926,6,1,MESSAGE PUMP,WM_KEYUP,257
926,10,1,MESSAGE PUMP,WM_GETOBJECT,61
926,12,1,MESSAGE PUMP,Unknown,356
926,16,1,MESSAGE PUMP,WM_KEYDOWN,256
926,16,1,MESSAGE PUMP,WM_CHAR,258
927,0,1,MESSAGE PUMP,WM_GETOBJECT,61
927,5,1,MESSAGE PUMP,Unknown,356
927,5,1,MESSAGE PUMP,WM_KEYUP,257
927,18,1,MESSAGE PUMP,WM_GETOBJECT,61
927,18,1,MESSAGE PUMP,WM_KEYDOWN,256
927,18,1,MESSAGE PUMP,WM_CHAR,258
928,0,1,MESSAGE PUMP,Unknown,356
928,6,1,MESSAGE PUMP,WM_KEYUP,257
928,14,1,MESSAGE PUMP,WM_GETOBJECT,61
928,14,1,MESSAGE PUMP,WM_KEYDOWN,256
928,14,1,MESSAGE PUMP,WM_CHAR,258
929,1,1,MESSAGE PUMP,Unknown,356
929,10,1,MESSAGE PUMP,WM_KEYUP,257
929,13,1,MESSAGE PUMP,WM_GETOBJECT,61
929,17,1,MESSAGE PUMP,Unknown,356
929,28,1,MESSAGE PUMP,WM_GETOBJECT,61
929,28,1,MESSAGE PUMP,WM_KEYDOWN,256
929,28,1,MESSAGE PUMP,WM_CHAR,258
930,0,1,MESSAGE PUMP,Unknown,356
930,7,1,MESSAGE PUMP,WM_KEYUP,257
930,12,1,MESSAGE PUMP,WM_GETOBJECT,61
930,16,1,MESSAGE PUMP,Unknown,356
930,31,1,MESSAGE PUMP,WM_GETOBJECT,61
930,31,1,MESSAGE PUMP,WM_KEYDOWN,256
930,31,1,MESSAGE PUMP,WM_CHAR,258
931,0,1,MESSAGE PUMP,Unknown,356
931,8,1,MESSAGE PUMP,WM_KEYUP,257
931,16,1,MESSAGE PUMP,WM_GETOBJECT,61
931,16,1,MESSAGE PUMP,WM_KEYDOWN,256
931,16,1,MESSAGE PUMP,WM_CHAR,258
932,0,1,MESSAGE PUMP,Unknown,356
932,7,1,MESSAGE PUMP,WM_KEYUP,257
932,13,1,MESSAGE PUMP,WM_GETOBJECT,61
932,13,1,MESSAGE PUMP,WM_KEYDOWN,256
932,13,1,MESSAGE PUMP,WM_CHAR,258
933,1,1,MESSAGE PUMP,Unknown,356
933,7,1,MESSAGE PUMP,WM_KEYUP,257
933,15,1,MESSAGE PUMP,WM_GETOBJECT,61
933,15,1,MESSAGE PUMP,WM_KEYDOWN,256
933,15,1,MESSAGE PUMP,WM_CHAR,258
934,0,1,MESSAGE PUMP,Unknown,356
934,8,1,MESSAGE PUMP,WM_KEYUP,257
934,12,1,MESSAGE PUMP,WM_GETOBJECT,61
934,12,1,MESSAGE PUMP,WM_KEYDOWN,256
934,12,1,MESSAGE PUMP,WM_CHAR,258
935,0,1,MESSAGE PUMP,Unknown,356
935,0,1,MESSAGE PUMP,WM_KEYUP,257
935,4,1,MESSAGE PUMP,WM_GETOBJECT,61
935,4,1,MESSAGE PUMP,WM_KEYDOWN,256
935,4,1,MESSAGE PUMP,WM_CHAR,258
936,0,1,MESSAGE PUMP,Unknown,356
936,0,1,MESSAGE PUMP,WM_KEYUP,257
936,12,1,MESSAGE PUMP,WM_GETOBJECT,61
936,12,1,MESSAGE PUMP,WM_KEYDOWN,256
936,12,1,MESSAGE PUMP,WM_CHAR,258
937,0,1,MESSAGE PUMP,Unknown,356
937,0,1,MESSAGE PUMP,WM_KEYUP,257
937,13,1,MESSAGE PUMP,WM_GETOBJECT,61
937,13,1,MESSAGE PUMP,WM_KEYDOWN,256
937,13,1,MESSAGE PUMP,WM_CHAR,258
938,0,1,MESSAGE PUMP,Unknown,356
938,0,1,MESSAGE PUMP,WM_KEYUP,257
938,16,1,MESSAGE PUMP,WM_GETOBJECT,61
938,16,1,MESSAGE PUMP,WM_KEYDOWN,256
938,16,1,MESSAGE PUMP,WM_CHAR,258
939,0,1,MESSAGE PUMP,Unknown,356
939,0,1,MESSAGE PUMP,WM_KEYUP,257
939,11,1,MESSAGE PUMP,WM_GETOBJECT,61
939,11,1,MESSAGE PUMP,WM_KEYDOWN,256
939,11,1,MESSAGE PUMP,WM_CHAR,258
940,0,1,MESSAGE PUMP,Unknown,356
940,0,1,MESSAGE PUMP,WM_KEYUP,257
940,15,1,MESSAGE PUMP,WM_GETOBJECT,61
940,15,1,MESSAGE PUMP,WM_KEYDOWN,256
940,15,1,MESSAGE PUMP,WM_CHAR,258
941,0,1,MESSAGE PUMP,WM_KEYUP,257
941,0,1,MESSAGE PUMP,Unknown,356
941,11,1,MESSAGE PUMP,WM_GETOBJECT,61
941,14,1,MESSAGE PUMP,Unknown,356
941,14,1,MESSAGE PUMP,WM_KEYDOWN,256
941,14,1,MESSAGE PUMP,WM_CHAR,258
942,0,1,MESSAGE PUMP,WM_KEYUP,257
942,1,1,MESSAGE PUMP,WM_GETOBJECT,61
942,5,1,MESSAGE PUMP,Unknown,356
942,11,1,MESSAGE PUMP,WM_KEYDOWN,256
942,11,1,MESSAGE PUMP,WM_CHAR,258
943,0,1,MESSAGE PUMP,WM_KEYUP,257
943,1,1,MESSAGE PUMP,WM_GETOBJECT,61
943,5,1,MESSAGE PUMP,Unknown,356
943,15,1,MESSAGE PUMP,WM_GETOBJECT,61
943,15,1,MESSAGE PUMP,WM_KEYDOWN,256
943,15,1,MESSAGE PUMP,WM_CHAR,258
944,2,1,MESSAGE PUMP,Unknown,356
944,3,1,MESSAGE PUMP,WM_KEYUP,257
944,18,1,MESSAGE PUMP,WM_GETOBJECT,61
944,18,1,MESSAGE PUMP,WM_KEYDOWN,256
944,18,1,MESSAGE PUMP,WM_CHAR,258
945,2,1,MESSAGE PUMP,Unknown,356
945,13,1,MESSAGE PUMP,WM_KEYUP,257
945,14,1,MESSAGE PUMP,WM_GETOBJECT,61
945,14,1,MESSAGE PUMP,WM_KEYDOWN,256
945,14,1,MESSAGE PUMP,WM_CHAR,258
946,0,1,MESSAGE PUMP,Unknown,356
946,9,1,MESSAGE PUMP,WM_KEYUP,257
946,12,1,MESSAGE PUMP,WM_GETOBJECT,61
946,12,1,MESSAGE PUMP,WM_KEYDOWN,256
946,12,1,MESSAGE PUMP,WM_CHAR,258
947,3,1,MESSAGE PUMP,Unknown,356
947,15,1,MESSAGE PUMP,WM_KEYUP,257
947,19,1,MESSAGE PUMP,WM_GETOBJECT,61
947,19,1,MESSAGE PUMP,WM_KEYDOWN,256
947,19,1,MESSAGE PUMP,WM_CHAR,258
948,0,1,MESSAGE PUMP,Unknown,356
948,11,1,MESSAGE PUMP,WM_KEYUP,257
948,51,1,MESSAGE PUMP,WM_KEYDOWN,256
948,51,1,MESSAGE PUMP,WM_CHAR,258
949,6,1,MESSAGE PUMP,WM_KEYUP,257
949,58,1,MESSAGE PUMP,WM_KEYDOWN,256
949,58,1,MESSAGE PUMP,WM_CHAR,258
950,9,1,MESSAGE PUMP,WM_KEYUP,257
950,40,1,MESSAGE PUMP,WM_KEYDOWN,256
950,40,1,MESSAGE PUMP,WM_CHAR,258
951,1,1,MESSAGE PUMP,WM_KEYUP,257
951,2,1,MESSAGE PUMP,WM_KEYDOWN,256
951,2,1,MESSAGE PUMP,WM_CHAR,258
952,0,1,MESSAGE PUMP,WM_GETOBJECT,61
952,3,1,MESSAGE PUMP,Unknown,356
952,5,1,MESSAGE PUMP,WM_KEYUP,257
952,36,1,MESSAGE PUMP,WM_KEYDOWN,256
952,36,1,MESSAGE PUMP,WM_CHAR,258
953,1,1,MESSAGE PUMP,WM_GETOBJECT,61
953,1,1,MESSAGE PUMP,WM_KEYUP,257
953,4,1,MESSAGE PUMP,Unknown,356
953,62,1,MESSAGE PUMP,WM_KEYDOWN,256
953,62,1,MESSAGE PUMP,WM_CHAR,258
954,9,1,MESSAGE PUMP,WM_KEYUP,257
954,13,1,MESSAGE PUMP,WM_GETOBJECT,61
954,13,1,MESSAGE PUMP,WM_KEYDOWN,256
954,13,1,MESSAGE PUMP,WM_CHAR,258
955,0,1,MESSAGE PUMP,Unknown,356
955,3,1,MESSAGE PUMP,WM_KEYUP,257
955,5,1,MESSAGE PUMP,WM_GETOBJECT,61
955,8,1,MESSAGE PUMP,Unknown,356
955,13,1,MESSAGE PUMP,WM_GETOBJECT,61
955,13,1,MESSAGE PUMP,WM_KEYDOWN,256
955,13,1,MESSAGE PUMP,WM_CHAR,258
956,2,1,MESSAGE PUMP,Unknown,356
956,10,1,MESSAGE PUMP,WM_KEYUP,257
956,13,1,MESSAGE PUMP,WM_GETOBJECT,61
956,13,1,MESSAGE PUMP,WM_KEYDOWN,256
956,13,1,MESSAGE PUMP,WM_CHAR,258
957,0,1,MESSAGE PUMP,Unknown,356
957,11,1,MESSAGE PUMP,WM_KEYUP,257
957,13,1,MESSAGE PUMP,WM_GETOBJECT,61
957,16,1,MESSAGE PUMP,Unknown,356
957,21,1,MESSAGE PUMP,WM_GETOBJECT,61
957,21,1,MESSAGE PUMP,WM_KEYDOWN,256
957,21,1,MESSAGE PUMP,WM_CHAR,258
958,0,1,MESSAGE PUMP,Unknown,356
958,9,1,MESSAGE PUMP,WM_KEYUP,257
958,62,1,MESSAGE PUMP,WM_KEYDOWN,256
958,62,1,MESSAGE PUMP,WM_CHAR,258
959,10,1,MESSAGE PUMP,WM_KEYUP,257
959,43,1,MESSAGE PUMP,WM_KEYDOWN,256
959,43,1,MESSAGE PUMP,WM_CHAR,258
960,0,1,MESSAGE PUMP,WM_KEYUP,257
960,1,1,MESSAGE PUMP,WM_GETOBJECT,61
960,1,1,MESSAGE PUMP,WM_KEYDOWN,256
960,1,1,MESSAGE PUMP,WM_CHAR,258
961,0,1,MESSAGE PUMP,Unknown,356
961,3,1,MESSAGE PUMP,WM_GETOBJECT,61
961,3,1,MESSAGE PUMP,WM_KEYUP,257
961,5,1,MESSAGE PUMP,Unknown,356
961,45,1,MESSAGE PUMP,WM_KEYDOWN,256
961,45,1,MESSAGE PUMP,WM_CHAR,258
962,7,1,MESSAGE PUMP,WM_KEYUP,257
962,60,1,MESSAGE PUMP,WM_KEYDOWN,256
962,60,1,MESSAGE PUMP,WM_CHAR,258
963,3,1,MESSAGE PUMP,WM_KEYUP,257
964,1,1,MESSAGE PUMP,WM_GETOBJECT,61
965,1,1,MESSAGE PUMP,Unknown,356
965,5,1,MESSAGE PUMP,WM_GETOBJECT,61
966,3,1,MESSAGE PUMP,Unknown,356
966,42,1,MESSAGE PUMP,WM_GETOBJECT,61
967,2,1,MESSAGE PUMP,Unknown,356
967,18,1,MESSAGE PUMP,WM_GETOBJECT,61
968,2,1,MESSAGE PUMP,Unknown,356
968,15,1,MESSAGE PUMP,WM_GETOBJECT,61
968,18,1,MESSAGE PUMP,Unknown,356
969,7,1,MESSAGE PUMP,WM_GETOBJECT,61
969,10,1,MESSAGE PUMP,Unknown,356
970,0,1,MESSAGE PUMP,WM_GETOBJECT,61
970,3,1,MESSAGE PUMP,Unknown,356
970,15,1,MESSAGE PUMP,WM_GETOBJECT,61
971,2,1,MESSAGE PUMP,Unknown,356
971,11,1,MESSAGE PUMP,WM_GETOBJECT,61
971,13,1,MESSAGE PUMP,Unknown,356
972,1,1,MESSAGE PUMP,WM_GETOBJECT,61
972,4,1,MESSAGE PUMP,Unknown,356
972,10,1,MESSAGE PUMP,WM_GETOBJECT,61
973,1,1,MESSAGE PUMP,Unknown,356
973,7,1,MESSAGE PUMP,WM_GETOBJECT,61
973,9,1,MESSAGE PUMP,Unknown,356
973,18,1,MESSAGE PUMP,WM_GETOBJECT,61
974,1,1,MESSAGE PUMP,Unknown,356
974,7,1,MESSAGE PUMP,WM_GETOBJECT,61
975,1,1,MESSAGE PUMP,Unknown,356
975,6,1,MESSAGE PUMP,WM_GETOBJECT,61
976,1,1,MESSAGE PUMP,Unknown,356
976,8,1,MESSAGE PUMP,WM_GETOBJECT,61
977,1,1,MESSAGE PUMP,Unknown,356
977,6,1,MESSAGE PUMP,WM_GETOBJECT,61
978,0,1,MESSAGE PUMP,Unknown,356
978,5,1,MESSAGE PUMP,WM_GETOBJECT,61
978,7,1,MESSAGE PUMP,Unknown,356
978,12,1,MESSAGE PUMP,WM_GETOBJECT,61
978,16,1,MESSAGE PUMP,Unknown,356
979,4,1,MESSAGE PUMP,WM_GETOBJECT,61
980,1,1,MESSAGE PUMP,Unknown,356
980,5,1,MESSAGE PUMP,WM_GETOBJECT,61
980,7,1,MESSAGE PUMP,Unknown,356
980,11,1,MESSAGE PUMP,WM_GETOBJECT,61
980,13,1,MESSAGE PUMP,Unknown,356
980,16,1,MESSAGE PUMP,WM_GETOBJECT,61
980,18,1,MESSAGE PUMP,Unknown,356
980,22,1,MESSAGE PUMP,WM_GETOBJECT,61
980,24,1,MESSAGE PUMP,Unknown,356
980,27,1,MESSAGE PUMP,WM_GETOBJECT,61
980,29,1,MESSAGE PUMP,Unknown,356
980,34,1,MESSAGE PUMP,WM_GETOBJECT,61
980,36,1,MESSAGE PUMP,Unknown,356
980,39,1,MESSAGE PUMP,WM_GETOBJECT,61
980,41,1,MESSAGE PUMP,Unknown,356
980,50,1,MESSAGE PUMP,WM_GETOBJECT,61
981,0,1,MESSAGE PUMP,Unknown,356
981,5,1,MESSAGE PUMP,WM_GETOBJECT,61
981,7,1,MESSAGE PUMP,Unknown,356
981,13,1,MESSAGE PUMP,WM_GETOBJECT,61
982,1,1,MESSAGE PUMP,Unknown,356
982,5,1,MESSAGE PUMP,WM_GETOBJECT,61
982,7,1,MESSAGE PUMP,Unknown,356
982,10,1,MESSAGE PUMP,WM_GETOBJECT,61
982,12,1,MESSAGE PUMP,Unknown,356
982,15,1,MESSAGE PUMP,WM_GETOBJECT,61
982,17,1,MESSAGE PUMP,Unknown,356
982,21,1,MESSAGE PUMP,WM_GETOBJECT,61
983,2,1,MESSAGE PUMP,Unknown,356
983,6,1,MESSAGE PUMP,WM_GETOBJECT,61
983,9,1,MESSAGE PUMP,Unknown,356
984,3,1,MESSAGE PUMP,WM_GETOBJECT,61
985,0,1,MESSAGE PUMP,Unknown,356
985,3,1,MESSAGE PUMP,WM_GETOBJECT,61
986,3,1,MESSAGE PUMP,Unknown,356
986,8,1,MESSAGE PUMP,WM_GETOBJECT,61
987,2,1,MESSAGE PUMP,Unknown,356
987,6,1,MESSAGE PUMP,WM_GETOBJECT,61
987,10,1,MESSAGE PUMP,Unknown,356
988,3,1,MESSAGE PUMP,WM_GETOBJECT,61
988,6,1,MESSAGE PUMP,Unknown,356
988,10,1,MESSAGE PUMP,WM_GETOBJECT,61
988,13,1,MESSAGE PUMP,Unknown,356
988,17,1,MESSAGE PUMP,WM_GETOBJECT,61
988,20,1,MESSAGE PUMP,Unknown,356
988,25,1,MESSAGE PUMP,WM_GETOBJECT,61
989,1,1,MESSAGE PUMP,Unknown,356
989,6,1,MESSAGE PUMP,WM_GETOBJECT,61
990,2,1,MESSAGE PUMP,Unknown,356
990,7,1,MESSAGE PUMP,WM_GETOBJECT,61
991,1,1,MESSAGE PUMP,Unknown,356
991,7,1,MESSAGE PUMP,WM_GETOBJECT,61
992,1,1,MESSAGE PUMP,Unknown,356
1013,0,1,MESSAGE PUMP,WM_KEYDOWN,256
1013,0,1,MESSAGE PUMP,WM_CHAR,258
1013,0,1,MESSAGE PUMP,WM_KEYUP,257
1014,0,1,MESSAGE PUMP,WM_GETOBJECT,61
1014,2,1,MESSAGE PUMP,Unknown,356
1014,5,1,MESSAGE PUMP,WM_GETOBJECT,61
1015,2,1,MESSAGE PUMP,Unknown,356
1063,0,1,MESSAGE PUMP,WM_KEYDOWN,256
1063,0,1,MESSAGE PUMP,WM_KEYUP,257
1064,0,1,MESSAGE PUMP,WM_GETOBJECT,61
1064,0,1,MESSAGE PUMP,WM_KEYDOWN,256
1064,0,1,MESSAGE PUMP,WM_KEYUP,257
1065,0,1,MESSAGE PUMP,Unknown,356
1065,4,1,MESSAGE PUMP,WM_GETOBJECT,61
1065,6,1,MESSAGE PUMP,Unknown,356
1116,0,1,MESSAGE PUMP,WM_KEYDOWN,256
1116,0,1,MESSAGE PUMP,WM_KEYUP,257
1117,0,1,MESSAGE PUMP,WM_GETOBJECT,61
1117,0,1,MESSAGE PUMP,WM_KEYDOWN,256
1117,0,1,MESSAGE PUMP,WM_KEYUP,257
1118,0,1,MESSAGE PUMP,Unknown,356
1118,0,1,MESSAGE PUMP,WM_KEYDOWN,256
1118,0,1,MESSAGE PUMP,WM_KEYUP,257
1119,1,1,MESSAGE PUMP,WM_GETOBJECT,61
1119,1,1,MESSAGE PUMP,WM_KEYDOWN,256
1120,1,1,MESSAGE PUMP,Unknown,356
1120,4,1,MESSAGE PUMP,WM_KEYUP,257
1120,18,1,MESSAGE PUMP,WM_GETOBJECT,61
1120,18,1,MESSAGE PUMP,WM_KEYDOWN,256
1121,0,1,MESSAGE PUMP,Unknown,356
1121,3,1,MESSAGE PUMP,WM_KEYUP,257
1121,11,1,MESSAGE PUMP,WM_GETOBJECT,61
1122,3,1,MESSAGE PUMP,Unknown,356
1122,14,1,MESSAGE PUMP,WM_GETOBJECT,61
1122,16,1,MESSAGE PUMP,Unknown,356
1188,0,1,MESSAGE PUMP,WM_KEYDOWN,256
1188,0,1,MESSAGE PUMP,WM_CHAR,258
1188,0,1,MESSAGE PUMP,WM_KEYUP,257
1190,2,1,MESSAGE PUMP,WM_GETOBJECT,61
1191,1,1,MESSAGE PUMP,Unknown,356
1191,4,1,MESSAGE PUMP,WM_GETOBJECT,61
1192,1,1,MESSAGE PUMP,Unknown,356
1192,5,1,MESSAGE PUMP,Unknown,356
1193,11,1,MESSAGE PUMP,WM_GETOBJECT,61
1194,1,1,MESSAGE PUMP,Unknown,356
1194,7,1,MESSAGE PUMP,WM_GETOBJECT,61
1194,9,1,MESSAGE PUMP,Unknown,356
1260,2,1,MESSAGE PUMP,WM_SYSKEYDOWN,260
1260,2,1,MESSAGE PUMP,WM_SYSKEYDOWN,260
1260,2,1,MESSAGE PUMP,WM_SYSCOMMAND,274
1260,2,1,MESSAGE PUMP,WM_CLOSE,16
1260,2,0,MESSAGE PUMP,Unknown,144
1260,2,0,MESSAGE PUMP,WM_WINDOWPOSCHANGING,70
1260,2,0,MESSAGE PUMP,WM_WINDOWPOSCHANGED,71
1260,2,0,MESSAGE PUMP,WM_NCACTIVATE,134
1260,2,0,MESSAGE PUMP,WM_ACTIVATE,6
1260,2,0,MESSAGE PUMP,WM_ACTIVATEAPP,28
1260,2,0,MESSAGE PUMP,WM_KILLFOCUS,8
1260,2,0,MESSAGE PUMP,WM_IME_SETCONTEXT,641
1260,2,0,MESSAGE PUMP,WM_IME_NOTIFY,642
1260,2,0,MESSAGE PUMP,WM_DESTROY,2
1260,2,0,MESSAGE PUMP,WM_NCDESTROY,130
