Frame,Poll Count,Is Polling,Source,Event Name,Event Code
0,0,0,MESSAGE PUMP,WM_GETMINMAXINFO,36
0,0,0,MESSAGE PUMP,WM_WINDOWPOSCHANGING,70
0,0,0,MESSAGE PUMP,WM_GETMINMAXINFO,36
0,0,0,MESSAGE PUMP,WM_NCCALCSIZE,131
0,0,0,MESSAGE PUMP,WM_WINDOWPOSCHANGING,70
0,0,0,MESSAGE PUMP,WM_ACTIVATEAPP,28
0,0,0,MESSAGE PUMP,WM_NCACTIVATE,134
0,0,0,MESSAGE PUMP,WM_ACTIVATE,6
0,0,0,MESSAGE PUMP,WM_IME_SETCONTEXT,641
0,0,0,MESSAGE PUMP,WM_IME_NOTIFY,642
0,0,0,MESSAGE PUMP,WM_SETFOCUS,7
0,0,0,MESSAGE PUMP,WM_NCPAINT,133
0,0,0,MESSAGE PUMP,WM_ERASEBKGND,20
0,0,0,MESSAGE PUMP,WM_WINDOWPOSCHANGED,71
0,0,0,MESSAGE PUMP,WM_MOVE,3
0,0,0,MESSAGE PUMP,WM_SIZE,5
0,0,0,MESSAGE PUMP,WM_WINDOWPOSCHANGING,70
0,0,0,MESSAGE PUMP,WM_GETMINMAXINFO,36
0,0,0,MESSAGE PUMP,WM_NCPAINT,133
0,0,0,MESSAGE PUMP,WM_ERASEBKGND,20
0,0,0,MESSAGE PUMP,WM_WINDOWPOSCHANGED,71
0,0,0,MESSAGE PUMP,WM_MOVE,3
0,0,0,MESSAGE PUMP,WM_SETICON,128
0,0,0,MESSAGE PUMP,Unknown,174
0,0,0,MESSAGE PUMP,WM_SETICON,128
0,0,0,MESSAGE PUMP,Unknown,174
0,0,0,MESSAGE PUMP,WM_WINDOWPOSCHANGING,70
0,0,0,MESSAGE PUMP,WM_GETOBJECT,61
0,0,0,MESSAGE PUMP,WM_GETICON,127
0,0,0,MESSAGE PUMP,WM_WINDOWPOSCHANGING,70
1,0,1,MESSAGE PUMP,WM_GETICON,127
1,0,1,MESSAGE PUMP,Unknown,799
1,0,1,MESSAGE PUMP,Unknown,49351
1,0,1,MESSAGE PUMP,WM_GETMINMAXINFO,36
1,0,1,MESSAGE PUMP,WM_NCHITTEST,132
1,0,1,MESSAGE PUMP,WM_SETCURSOR,32
1,0,1,MESSAGE PUMP,WM_MOUSEFIRST,512
1,0,1,MESSAGE PUMP,WM_GETOBJECT,61
1,0,1,MESSAGE PUMP,Unknown,356
1,0,1,MESSAGE PUMP,WM_PAINT,15
1,0,1,MESSAGE PUMP,WM_GETOBJECT,61
1,0,1,MESSAGE PUMP,WM_GETOBJECT,61
3,8,1,MESSAGE PUMP,WM_GETOBJECT,61
5,2,1,MESSAGE PUMP,WM_GETOBJECT,61
6,2,1,MESSAGE PUMP,Unknown,356
6,33,1,MESSAGE PUMP,Unknown,356
7,0,1,MESSAGE PUMP,WM_GETOBJECT,61
9,0,1,MESSAGE PUMP,Unknown,356
10,12,1,MESSAGE PUMP,WM_GETOBJECT,61
11,2,1,MESSAGE PUMP,Unknown,356
11,5,1,MESSAGE PUMP,Unknown,356
11,10,1,MESSAGE PUMP,WM_GETOBJECT,61
13,1,1,MESSAGE PUMP,Unknown,356
13,4,1,MESSAGE PUMP,Unknown,356
13,10,1,MESSAGE PUMP,Unknown,356
13,10,1,MESSAGE PUMP,WM_GETOBJECT,61
14,0,1,MESSAGE PUMP,WM_GETOBJECT,61
14,0,1,MESSAGE PUMP,Unknown,356
14,0,1,MESSAGE PUMP,WM_GETOBJECT,61
14,0,1,MESSAGE PUMP,WM_GETOBJECT,61
14,1,1,MESSAGE PUMP,WM_GETOBJECT,61
15,1,1,MESSAGE PUMP,WM_GETOBJECT,61
16,1,1,MESSAGE PUMP,Unknown,356
16,1,1,MESSAGE PUMP,Unknown,356
16,5,1,MESSAGE PUMP,WM_GETOBJECT,61
16,9,1,MESSAGE PUMP,WM_GETOBJECT,61
17,0,1,MESSAGE PUMP,WM_GETOBJECT,61
17,0,1,MESSAGE PUMP,Unknown,356
17,5,1,MESSAGE PUMP,WM_GETOBJECT,61
17,5,1,MESSAGE PUMP,Unknown,356
18,2,1,MESSAGE PUMP,Unknown,356
18,11,1,MESSAGE PUMP,WM_GETOBJECT,61
19,9,1,MESSAGE PUMP,Unknown,356
19,11,1,MESSAGE PUMP,WM_GETOBJECT,61
19,11,1,MESSAGE PUMP,WM_GETOBJECT,61
19,11,1,MESSAGE PUMP,WM_GETOBJECT,61
19,11,1,MESSAGE PUMP,WM_GETOBJECT,61
19,11,1,MESSAGE PUMP,Unknown,356
19,11,1,MESSAGE PUMP,WM_GETOBJECT,61
20,0,1,MESSAGE PUMP,WM_GETOBJECT,61
20,3,1,MESSAGE PUMP,WM_GETOBJECT,61
21,1,1,MESSAGE PUMP,Unknown,356
21,6,1,MESSAGE PUMP,WM_GETOBJECT,61
22,4,1,MESSAGE PUMP,Unknown,356
22,18,1,MESSAGE PUMP,WM_GETOBJECT,61
23,3,1,MESSAGE PUMP,Unknown,356
23,28,1,MESSAGE PUMP,WM_GETOBJECT,61
24,3,1,MESSAGE PUMP,Unknown,356
24,29,1,MESSAGE PUMP,WM_GETOBJECT,61
24,41,1,MESSAGE PUMP,Unknown,356
26,12,1,MESSAGE PUMP,WM_GETOBJECT,61
27,3,1,MESSAGE PUMP,Unknown,356
28,18,1,MESSAGE PUMP,WM_GETOBJECT,61
30,2,1,MESSAGE PUMP,Unknown,356
30,21,1,MESSAGE PUMP,WM_GETOBJECT,61
31,2,1,MESSAGE PUMP,Unknown,356
31,17,1,MESSAGE PUMP,WM_GETOBJECT,61
32,2,1,MESSAGE PUMP,Unknown,356
32,20,1,MESSAGE PUMP,WM_GETOBJECT,61
33,2,1,MESSAGE PUMP,Unknown,356
33,17,1,MESSAGE PUMP,WM_GETOBJECT,61
34,3,1,MESSAGE PUMP,Unknown,356
34,21,1,MESSAGE PUMP,WM_GETOBJECT,61
34,31,1,MESSAGE PUMP,Unknown,356
35,14,1,MESSAGE PUMP,WM_GETOBJECT,61
36,3,1,MESSAGE PUMP,Unknown,356
36,21,1,MESSAGE PUMP,WM_GETOBJECT,61
37,1,1,MESSAGE PUMP,Unknown,356
37,16,1,MESSAGE PUMP,WM_GETOBJECT,61
38,3,1,MESSAGE PUMP,Unknown,356
38,22,1,MESSAGE PUMP,WM_GETOBJECT,61
39,2,1,MESSAGE PUMP,Unknown,356
39,18,1,MESSAGE PUMP,WM_GETOBJECT,61
39,29,1,MESSAGE PUMP,Unknown,356
40,17,1,MESSAGE PUMP,WM_GETOBJECT,61
41,2,1,MESSAGE PUMP,Unknown,356
41,18,1,MESSAGE PUMP,WM_GETOBJECT,61
42,3,1,MESSAGE PUMP,Unknown,356
42,21,1,MESSAGE PUMP,WM_GETOBJECT,61
43,0,1,MESSAGE PUMP,Unknown,356
43,2,1,MESSAGE PUMP,WM_GETOBJECT,61
44,16,1,MESSAGE PUMP,WM_GETOBJECT,61
45,3,1,MESSAGE PUMP,Unknown,356
45,22,1,MESSAGE PUMP,WM_GETOBJECT,61
46,1,1,MESSAGE PUMP,Unknown,356
46,22,1,MESSAGE PUMP,WM_GETOBJECT,61
47,1,1,MESSAGE PUMP,Unknown,356
47,16,1,MESSAGE PUMP,WM_GETOBJECT,61
48,3,1,MESSAGE PUMP,Unknown,356
48,21,1,MESSAGE PUMP,WM_GETOBJECT,61
49,2,1,MESSAGE PUMP,Unknown,356
49,17,1,MESSAGE PUMP,WM_GETOBJECT,61
49,29,1,MESSAGE PUMP,Unknown,356
51,14,1,MESSAGE PUMP,WM_GETOBJECT,61
52,2,1,MESSAGE PUMP,Unknown,356
52,17,1,MESSAGE PUMP,WM_GETOBJECT,61
52,28,1,MESSAGE PUMP,Unknown,356
53,16,1,MESSAGE PUMP,WM_GETOBJECT,61
54,2,1,MESSAGE PUMP,Unknown,356
54,17,1,MESSAGE PUMP,WM_GETOBJECT,61
55,3,1,MESSAGE PUMP,Unknown,356
55,21,1,MESSAGE PUMP,WM_GETOBJECT,61
56,2,1,MESSAGE PUMP,Unknown,356
56,17,1,MESSAGE PUMP,WM_GETOBJECT,61
57,2,1,MESSAGE PUMP,Unknown,356
57,21,1,MESSAGE PUMP,WM_GETOBJECT,61
58,2,1,MESSAGE PUMP,Unknown,356
58,18,1,MESSAGE PUMP,WM_GETOBJECT,61
59,3,1,MESSAGE PUMP,Unknown,356
59,21,1,MESSAGE PUMP,WM_GETOBJECT,61
60,1,1,MESSAGE PUMP,Unknown,356
60,16,1,MESSAGE PUMP,WM_GETOBJECT,61
61,3,1,MESSAGE PUMP,Unknown,356
61,21,1,MESSAGE PUMP,WM_GETOBJECT,61
61,31,1,MESSAGE PUMP,Unknown,356
62,14,1,MESSAGE PUMP,WM_GETOBJECT,61
62,24,1,MESSAGE PUMP,Unknown,356
63,19,1,MESSAGE PUMP,WM_GETOBJECT,61
64,2,1,MESSAGE PUMP,Unknown,356
64,18,1,MESSAGE PUMP,WM_GETOBJECT,61
64,27,1,MESSAGE PUMP,Unknown,356
65,19,1,MESSAGE PUMP,WM_GETOBJECT,61
66,3,1,MESSAGE PUMP,Unknown,356
66,22,1,MESSAGE PUMP,WM_GETOBJECT,61
67,3,1,MESSAGE PUMP,Unknown,356
67,23,1,MESSAGE PUMP,WM_GETOBJECT,61
68,2,1,MESSAGE PUMP,Unknown,356
68,20,1,MESSAGE PUMP,WM_GETOBJECT,61
69,2,1,MESSAGE PUMP,Unknown,356
69,18,1,MESSAGE PUMP,WM_GETOBJECT,61
70,1,1,MESSAGE PUMP,Unknown,356
70,16,1,MESSAGE PUMP,WM_GETOBJECT,61
71,1,1,MESSAGE PUMP,WM_GETOBJECT,61
72,1,1,MESSAGE PUMP,Unknown,356
72,21,1,MESSAGE PUMP,WM_GETOBJECT,61
72,32,1,MESSAGE PUMP,Unknown,356
73,12,1,MESSAGE PUMP,WM_GETOBJECT,61
74,2,1,MESSAGE PUMP,Unknown,356
74,21,1,MESSAGE PUMP,WM_GETOBJECT,61
75,2,1,MESSAGE PUMP,Unknown,356
75,18,1,MESSAGE PUMP,WM_GETOBJECT,61
76,3,1,MESSAGE PUMP,Unknown,356
76,21,1,MESSAGE PUMP,WM_GETOBJECT,61
77,2,1,MESSAGE PUMP,Unknown,356
77,18,1,MESSAGE PUMP,WM_GETOBJECT,61
77,30,1,MESSAGE PUMP,Unknown,356
78,16,1,MESSAGE PUMP,WM_GETOBJECT,61
79,2,1,MESSAGE PUMP,Unknown,356
79,17,1,MESSAGE PUMP,WM_GETOBJECT,61
80,0,1,MESSAGE PUMP,Unknown,356
80,21,1,MESSAGE PUMP,WM_GETOBJECT,61
81,2,1,MESSAGE PUMP,Unknown,356
81,17,1,MESSAGE PUMP,WM_GETOBJECT,61
82,3,1,MESSAGE PUMP,Unknown,356
82,22,1,MESSAGE PUMP,WM_GETOBJECT,61
83,2,1,MESSAGE PUMP,Unknown,356
83,17,1,MESSAGE PUMP,WM_GETOBJECT,61
83,34,1,MESSAGE PUMP,Unknown,356
84,18,1,MESSAGE PUMP,WM_GETOBJECT,61
85,0,1,MESSAGE PUMP,Unknown,356
85,17,1,MESSAGE PUMP,WM_GETOBJECT,61
86,2,1,MESSAGE PUMP,Unknown,356
86,20,1,MESSAGE PUMP,WM_GETOBJECT,61
87,2,1,MESSAGE PUMP,Unknown,356
87,17,1,MESSAGE PUMP,WM_GETOBJECT,61
87,27,1,MESSAGE PUMP,Unknown,356
88,13,1,MESSAGE PUMP,WM_GETOBJECT,61
89,3,1,MESSAGE PUMP,Unknown,356
89,21,1,MESSAGE PUMP,WM_GETOBJECT,61
90,2,1,MESSAGE PUMP,Unknown,356
90,18,1,MESSAGE PUMP,WM_GETOBJECT,61
90,29,1,MESSAGE PUMP,Unknown,356
91,15,1,MESSAGE PUMP,WM_GETOBJECT,61
92,2,1,MESSAGE PUMP,Unknown,356
92,17,1,MESSAGE PUMP,WM_GETOBJECT,61
93,1,1,MESSAGE PUMP,Unknown,356
93,16,1,MESSAGE PUMP,WM_GETOBJECT,61
94,2,1,MESSAGE PUMP,Unknown,356
94,21,1,MESSAGE PUMP,WM_GETOBJECT,61
96,0,1,MESSAGE PUMP,Unknown,356
96,15,1,MESSAGE PUMP,WM_GETOBJECT,61
97,1,1,MESSAGE PUMP,WM_GETOBJECT,61
98,1,1,MESSAGE PUMP,Unknown,356
98,21,1,MESSAGE PUMP,WM_GETOBJECT,61
99,0,1,MESSAGE PUMP,Unknown,356
99,17,1,MESSAGE PUMP,WM_GETOBJECT,61
100,3,1,MESSAGE PUMP,Unknown,356
100,22,1,MESSAGE PUMP,WM_GETOBJECT,61
101,2,1,MESSAGE PUMP,Unknown,356
101,21,1,MESSAGE PUMP,WM_GETOBJECT,61
102,3,1,MESSAGE PUMP,Unknown,356
102,22,1,MESSAGE PUMP,WM_GETOBJECT,61
103,1,1,MESSAGE PUMP,Unknown,356
103,21,1,MESSAGE PUMP,WM_GETOBJECT,61
104,3,1,MESSAGE PUMP,Unknown,356
104,23,1,MESSAGE PUMP,WM_GETOBJECT,61
105,3,1,MESSAGE PUMP,Unknown,356
105,22,1,MESSAGE PUMP,WM_GETOBJECT,61
106,3,1,MESSAGE PUMP,Unknown,356
106,23,1,MESSAGE PUMP,WM_GETOBJECT,61
107,3,1,MESSAGE PUMP,Unknown,356
107,22,1,MESSAGE PUMP,WM_GETOBJECT,61
108,2,1,MESSAGE PUMP,Unknown,356
108,21,1,MESSAGE PUMP,WM_GETOBJECT,61
109,2,1,MESSAGE PUMP,Unknown,356
109,21,1,MESSAGE PUMP,WM_GETOBJECT,61
110,1,1,MESSAGE PUMP,Unknown,356
110,16,1,MESSAGE PUMP,WM_GETOBJECT,61
111,3,1,MESSAGE PUMP,Unknown,356
111,23,1,MESSAGE PUMP,WM_GETOBJECT,61
112,0,1,MESSAGE PUMP,Unknown,356
112,21,1,MESSAGE PUMP,WM_GETOBJECT,61
113,1,1,MESSAGE PUMP,Unknown,356
113,16,1,MESSAGE PUMP,WM_GETOBJECT,61
114,1,1,MESSAGE PUMP,Unknown,356
114,16,1,MESSAGE PUMP,WM_GETOBJECT,61
115,3,1,MESSAGE PUMP,Unknown,356
115,22,1,MESSAGE PUMP,WM_GETOBJECT,61
116,2,1,MESSAGE PUMP,Unknown,356
116,22,1,MESSAGE PUMP,WM_GETOBJECT,61
117,3,1,MESSAGE PUMP,Unknown,356
117,22,1,MESSAGE PUMP,WM_GETOBJECT,61
118,2,1,MESSAGE PUMP,Unknown,356
118,21,1,MESSAGE PUMP,WM_GETOBJECT,61
119,3,1,MESSAGE PUMP,Unknown,356
119,22,1,MESSAGE PUMP,WM_GETOBJECT,61
120,3,1,MESSAGE PUMP,Unknown,356
120,22,1,MESSAGE PUMP,WM_GETOBJECT,61
120,33,1,MESSAGE PUMP,Unknown,356
121,14,1,MESSAGE PUMP,WM_GETOBJECT,61
122,0,1,MESSAGE PUMP,Unknown,356
122,17,1,MESSAGE PUMP,WM_GETOBJECT,61
123,3,1,MESSAGE PUMP,Unknown,356
123,20,1,MESSAGE PUMP,WM_GETOBJECT,61
124,3,1,MESSAGE PUMP,Unknown,356
124,16,1,MESSAGE PUMP,WM_GETOBJECT,61
124,26,1,MESSAGE PUMP,Unknown,356
125,16,1,MESSAGE PUMP,WM_GETOBJECT,61
126,3,1,MESSAGE PUMP,Unknown,356
126,22,1,MESSAGE PUMP,WM_GETOBJECT,61
127,2,1,MESSAGE PUMP,Unknown,356
127,23,1,MESSAGE PUMP,WM_GETOBJECT,61
128,4,1,MESSAGE PUMP,Unknown,356
129,1,1,MESSAGE PUMP,WM_GETOBJECT,61
130,1,1,MESSAGE PUMP,WM_GETOBJECT,61
130,13,1,MESSAGE PUMP,Unknown,356
131,20,1,MESSAGE PUMP,WM_GETOBJECT,61
132,0,1,MESSAGE PUMP,Unknown,356
134,1,1,MESSAGE PUMP,WM_GETOBJECT,61
135,1,1,MESSAGE PUMP,Unknown,356
135,16,1,MESSAGE PUMP,WM_GETOBJECT,61
136,0,1,MESSAGE PUMP,Unknown,356
142,1,1,MESSAGE PUMP,WM_GETOBJECT,61
143,1,1,MESSAGE PUMP,Unknown,356
143,17,1,MESSAGE PUMP,WM_GETOBJECT,61
143,28,1,MESSAGE PUMP,Unknown,356
144,14,1,MESSAGE PUMP,WM_GETOBJECT,61
145,3,1,MESSAGE PUMP,Unknown,356
145,22,1,MESSAGE PUMP,WM_GETOBJECT,61
145,34,1,MESSAGE PUMP,Unknown,356
146,13,1,MESSAGE PUMP,WM_GETOBJECT,61
147,0,1,MESSAGE PUMP,Unknown,356
147,20,1,MESSAGE PUMP,WM_GETOBJECT,61
147,33,1,MESSAGE PUMP,Unknown,356
148,13,1,MESSAGE PUMP,WM_GETOBJECT,61
149,0,1,MESSAGE PUMP,Unknown,356
149,19,1,MESSAGE PUMP,WM_GETOBJECT,61
150,2,1,MESSAGE PUMP,Unknown,356
150,20,1,MESSAGE PUMP,WM_GETOBJECT,61
150,33,1,MESSAGE PUMP,Unknown,356
151,13,1,MESSAGE PUMP,WM_GETOBJECT,61
152,1,1,MESSAGE PUMP,Unknown,356
152,20,1,MESSAGE PUMP,WM_GETOBJECT,61
153,3,1,MESSAGE PUMP,Unknown,356
153,21,1,MESSAGE PUMP,WM_GETOBJECT,61
154,0,1,MESSAGE PUMP,Unknown,356
154,16,1,MESSAGE PUMP,WM_GETOBJECT,61
155,2,1,MESSAGE PUMP,Unknown,356
155,20,1,MESSAGE PUMP,WM_GETOBJECT,61
156,0,1,MESSAGE PUMP,Unknown,356
156,17,1,MESSAGE PUMP,WM_GETOBJECT,61
156,29,1,MESSAGE PUMP,Unknown,356
157,19,1,MESSAGE PUMP,WM_GETOBJECT,61
158,2,1,MESSAGE PUMP,Unknown,356
158,17,1,MESSAGE PUMP,WM_GETOBJECT,61
158,31,1,MESSAGE PUMP,Unknown,356
159,19,1,MESSAGE PUMP,WM_GETOBJECT,61
159,30,1,MESSAGE PUMP,Unknown,356
165,1,1,MESSAGE PUMP,WM_GETOBJECT,61
166,0,1,MESSAGE PUMP,Unknown,356
166,2,1,MESSAGE PUMP,WM_GETOBJECT,61
167,16,1,MESSAGE PUMP,WM_GETOBJECT,61
168,0,1,MESSAGE PUMP,Unknown,356
168,20,1,MESSAGE PUMP,WM_GETOBJECT,61
169,1,1,MESSAGE PUMP,Unknown,356
169,16,1,MESSAGE PUMP,WM_GETOBJECT,61
170,2,1,MESSAGE PUMP,Unknown,356
172,3,1,MESSAGE PUMP,WM_GETOBJECT,61
172,19,1,MESSAGE PUMP,Unknown,356
173,15,1,MESSAGE PUMP,WM_GETOBJECT,61
174,3,1,MESSAGE PUMP,Unknown,356
175,1,1,MESSAGE PUMP,WM_GETOBJECT,61
176,1,1,MESSAGE PUMP,Unknown,356
176,16,1,MESSAGE PUMP,WM_GETOBJECT,61
177,3,1,MESSAGE PUMP,Unknown,356
180,1,1,MESSAGE PUMP,WM_GETOBJECT,61
180,15,1,MESSAGE PUMP,Unknown,356
181,14,1,MESSAGE PUMP,WM_GETOBJECT,61
181,26,1,MESSAGE PUMP,Unknown,356
187,1,1,MESSAGE PUMP,WM_GETOBJECT,61
188,1,1,MESSAGE PUMP,Unknown,356
188,16,1,MESSAGE PUMP,WM_GETOBJECT,61
189,1,1,MESSAGE PUMP,Unknown,356
189,20,1,MESSAGE PUMP,WM_GETOBJECT,61
190,1,1,MESSAGE PUMP,Unknown,356
190,16,1,MESSAGE PUMP,WM_GETOBJECT,61
190,27,1,MESSAGE PUMP,Unknown,356
192,17,1,MESSAGE PUMP,WM_GETOBJECT,61
192,28,1,MESSAGE PUMP,Unknown,356
193,14,1,MESSAGE PUMP,WM_GETOBJECT,61
194,2,1,MESSAGE PUMP,Unknown,356
194,21,1,MESSAGE PUMP,WM_GETOBJECT,61
195,1,1,MESSAGE PUMP,Unknown,356
195,16,1,MESSAGE PUMP,WM_GETOBJECT,61
196,1,1,MESSAGE PUMP,WM_GETOBJECT,61
197,1,1,MESSAGE PUMP,Unknown,356
197,22,1,MESSAGE PUMP,WM_GETOBJECT,61
198,2,1,MESSAGE PUMP,Unknown,356
198,17,1,MESSAGE PUMP,WM_GETOBJECT,61
199,0,1,MESSAGE PUMP,Unknown,356
199,21,1,MESSAGE PUMP,WM_GETOBJECT,61
200,2,1,MESSAGE PUMP,Unknown,356
200,17,1,MESSAGE PUMP,WM_GETOBJECT,61
201,0,1,MESSAGE PUMP,Unknown,356
201,18,1,MESSAGE PUMP,WM_GETOBJECT,61
202,2,1,MESSAGE PUMP,Unknown,356
202,17,1,MESSAGE PUMP,WM_GETOBJECT,61
202,29,1,MESSAGE PUMP,Unknown,356
203,19,1,MESSAGE PUMP,WM_GETOBJECT,61
204,2,1,MESSAGE PUMP,Unknown,356
204,17,1,MESSAGE PUMP,WM_GETOBJECT,61
205,3,1,MESSAGE PUMP,Unknown,356
205,21,1,MESSAGE PUMP,WM_GETOBJECT,61
205,33,1,MESSAGE PUMP,Unknown,356
206,14,1,MESSAGE PUMP,WM_GETOBJECT,61
206,30,1,MESSAGE PUMP,Unknown,356
207,18,1,MESSAGE PUMP,WM_GETOBJECT,61
208,0,1,MESSAGE PUMP,Unknown,356
208,16,1,MESSAGE PUMP,WM_GETOBJECT,61
208,27,1,MESSAGE PUMP,Unknown,356
209,19,1,MESSAGE PUMP,WM_GETOBJECT,61
209,45,1,MESSAGE PUMP,Unknown,356
210,16,1,MESSAGE PUMP,WM_GETOBJECT,61
211,2,1,MESSAGE PUMP,Unknown,356
211,19,1,MESSAGE PUMP,WM_GETOBJECT,61
212,1,1,MESSAGE PUMP,Unknown,356
212,17,1,MESSAGE PUMP,WM_GETOBJECT,61
213,2,1,MESSAGE PUMP,Unknown,356
214,1,1,MESSAGE PUMP,WM_GETOBJECT,61
215,1,1,MESSAGE PUMP,Unknown,356
215,16,1,MESSAGE PUMP,WM_GETOBJECT,61
216,1,1,MESSAGE PUMP,Unknown,356
216,16,1,MESSAGE PUMP,WM_GETOBJECT,61
217,3,1,MESSAGE PUMP,Unknown,356
217,22,1,MESSAGE PUMP,WM_GETOBJECT,61
218,3,1,MESSAGE PUMP,Unknown,356
218,21,1,MESSAGE PUMP,WM_GETOBJECT,61
219,2,1,MESSAGE PUMP,Unknown,356
219,17,1,MESSAGE PUMP,WM_GETOBJECT,61
220,0,1,MESSAGE PUMP,Unknown,356
220,18,1,MESSAGE PUMP,WM_GETOBJECT,61
221,2,1,MESSAGE PUMP,Unknown,356
221,17,1,MESSAGE PUMP,WM_GETOBJECT,61
222,2,1,MESSAGE PUMP,Unknown,356
222,21,1,MESSAGE PUMP,WM_GETOBJECT,61
223,0,1,MESSAGE PUMP,Unknown,356
223,20,1,MESSAGE PUMP,WM_GETOBJECT,61
224,2,1,MESSAGE PUMP,Unknown,356
224,18,1,MESSAGE PUMP,WM_GETOBJECT,61
225,0,1,MESSAGE PUMP,Unknown,356
225,19,1,MESSAGE PUMP,WM_GETOBJECT,61
226,2,1,MESSAGE PUMP,Unknown,356
227,11,1,MESSAGE PUMP,WM_GETOBJECT,61
228,1,1,MESSAGE PUMP,WM_GETOBJECT,61
228,12,1,MESSAGE PUMP,Unknown,356
229,18,1,MESSAGE PUMP,WM_GETOBJECT,61
230,2,1,MESSAGE PUMP,Unknown,356
230,17,1,MESSAGE PUMP,WM_GETOBJECT,61
231,3,1,MESSAGE PUMP,Unknown,356
231,23,1,MESSAGE PUMP,WM_GETOBJECT,61
232,0,1,MESSAGE PUMP,Unknown,356
233,1,1,MESSAGE PUMP,WM_GETOBJECT,61
234,1,1,MESSAGE PUMP,Unknown,356
234,16,1,MESSAGE PUMP,WM_GETOBJECT,61
234,27,1,MESSAGE PUMP,Unknown,356
235,16,1,MESSAGE PUMP,WM_GETOBJECT,61
236,3,1,MESSAGE PUMP,Unknown,356
236,19,1,MESSAGE PUMP,WM_GETOBJECT,61
237,3,1,MESSAGE PUMP,Unknown,356
237,21,1,MESSAGE PUMP,WM_GETOBJECT,61
237,33,1,MESSAGE PUMP,Unknown,356
238,14,1,MESSAGE PUMP,WM_GETOBJECT,61
238,24,1,MESSAGE PUMP,Unknown,356
239,17,1,MESSAGE PUMP,WM_GETOBJECT,61
240,2,1,MESSAGE PUMP,Unknown,356
240,17,1,MESSAGE PUMP,WM_GETOBJECT,61
241,2,1,MESSAGE PUMP,Unknown,356
241,21,1,MESSAGE PUMP,WM_GETOBJECT,61
242,2,1,MESSAGE PUMP,Unknown,356
242,17,1,MESSAGE PUMP,WM_GETOBJECT,61
243,3,1,MESSAGE PUMP,Unknown,356
243,21,1,MESSAGE PUMP,WM_GETOBJECT,61
243,33,1,MESSAGE PUMP,Unknown,356
244,13,1,MESSAGE PUMP,WM_GETOBJECT,61
245,0,1,MESSAGE PUMP,Unknown,356
245,17,1,MESSAGE PUMP,WM_GETOBJECT,61
245,19,1,MESSAGE PUMP,Unknown,356
245,76,0,MESSAGE PUMP,WM_GETOBJECT,61
245,76,0,MESSAGE PUMP,Unknown,356
247,1,1,MESSAGE PUMP,WM_GETOBJECT,61
248,1,1,MESSAGE PUMP,Unknown,356
248,14,1,MESSAGE PUMP,WM_GETOBJECT,61
249,2,1,MESSAGE PUMP,Unknown,356
249,13,1,MESSAGE PUMP,WM_GETOBJECT,61
250,1,1,MESSAGE PUMP,Unknown,356
250,9,1,MESSAGE PUMP,WM_GETOBJECT,61
250,27,1,MESSAGE PUMP,Unknown,356
251,6,1,MESSAGE PUMP,WM_GETOBJECT,61
251,8,1,MESSAGE PUMP,Unknown,356
252,6,1,MESSAGE PUMP,WM_GETOBJECT,61
253,0,1,MESSAGE PUMP,Unknown,356
254,3,1,MESSAGE PUMP,WM_GETOBJECT,61
255,1,1,MESSAGE PUMP,Unknown,356
255,8,1,MESSAGE PUMP,WM_GETOBJECT,61
255,29,1,MESSAGE PUMP,Unknown,356
256,7,1,MESSAGE PUMP,Unknown,356
414,0,1,MESSAGE PUMP,WM_KEYDOWN,256
414,0,1,MESSAGE PUMP,WM_CHAR,258
415,0,1,MESSAGE PUMP,WM_KEYUP,257
416,2,1,MESSAGE PUMP,WM_GETOBJECT,61
417,0,1,MESSAGE PUMP,Unknown,356
417,2,1,MESSAGE PUMP,WM_GETOBJECT,61
418,13,1,MESSAGE PUMP,WM_GETOBJECT,61
418,34,1,MESSAGE PUMP,Unknown,356
421,35,1,MESSAGE PUMP,WM_GETOBJECT,61
421,51,1,MESSAGE PUMP,Unknown,356
422,6,1,MESSAGE PUMP,WM_GETOBJECT,61
423,1,1,MESSAGE PUMP,Unknown,356
423,9,1,MESSAGE PUMP,Unknown,356
494,1,1,MESSAGE PUMP,WM_KEYDOWN,256
526,0,1,MESSAGE PUMP,WM_KEYDOWN,256
526,0,1,MESSAGE PUMP,WM_KEYUP,257
527,1,1,MESSAGE PUMP,WM_GETOBJECT,61
527,22,1,MESSAGE PUMP,Unknown,356
528,1,1,MESSAGE PUMP,WM_GETOBJECT,61
528,3,1,MESSAGE PUMP,WM_GETOBJECT,61
533,2,1,MESSAGE PUMP,WM_GETOBJECT,61
534,1,1,MESSAGE PUMP,Unknown,356
536,0,1,MESSAGE PUMP,WM_GETOBJECT,61
536,2,1,MESSAGE PUMP,Unknown,356
538,2,1,MESSAGE PUMP,Unknown,356
552,1,1,MESSAGE PUMP,WM_KEYUP,257
642,1,1,MESSAGE PUMP,WM_KEYDOWN,256
672,1,1,MESSAGE PUMP,WM_KEYDOWN,256
674,0,1,MESSAGE PUMP,WM_GETOBJECT,61
674,2,1,MESSAGE PUMP,WM_GETOBJECT,61
674,4,1,MESSAGE PUMP,Unknown,356
675,0,1,MESSAGE PUMP,WM_KEYUP,257
675,4,1,MESSAGE PUMP,WM_GETOBJECT,61
676,1,1,MESSAGE PUMP,Unknown,356
677,3,1,MESSAGE PUMP,WM_GETOBJECT,61
678,0,1,MESSAGE PUMP,Unknown,356
680,0,1,MESSAGE PUMP,WM_GETOBJECT,61
680,3,1,MESSAGE PUMP,Unknown,356
682,1,1,MESSAGE PUMP,WM_GETOBJECT,61
683,0,1,MESSAGE PUMP,Unknown,356
684,4,1,MESSAGE PUMP,WM_GETOBJECT,61
684,15,1,MESSAGE PUMP,Unknown,356
686,2,1,MESSAGE PUMP,Unknown,356
707,0,1,MESSAGE PUMP,WM_KEYUP,257
798,0,1,MESSAGE PUMP,WM_KEYDOWN,256
824,0,1,MESSAGE PUMP,WM_KEYDOWN,256
825,1,1,MESSAGE PUMP,WM_GETOBJECT,61
826,1,1,MESSAGE PUMP,WM_GETOBJECT,61
827,0,1,MESSAGE PUMP,Unknown,356
827,0,1,MESSAGE PUMP,WM_KEYUP,257
829,0,1,MESSAGE PUMP,WM_GETOBJECT,61
829,2,1,MESSAGE PUMP,Unknown,356
833,4,1,MESSAGE PUMP,WM_GETOBJECT,61
834,0,1,MESSAGE PUMP,Unknown,356
835,1,1,MESSAGE PUMP,WM_GETOBJECT,61
836,0,1,MESSAGE PUMP,Unknown,356
837,3,1,MESSAGE PUMP,Unknown,356
857,1,1,MESSAGE PUMP,WM_KEYUP,257
1724,0,1,MESSAGE PUMP,WM_KEYDOWN,256
1725,7,1,MESSAGE PUMP,WM_GETOBJECT,61
1726,0,1,MESSAGE PUMP,WM_KEYUP,257
1726,1,1,MESSAGE PUMP,WM_GETOBJECT,61
1727,0,1,MESSAGE PUMP,Unknown,356
1757,0,1,MESSAGE PUMP,WM_KEYDOWN,256
1759,0,1,MESSAGE PUMP,WM_GETOBJECT,61
1759,2,1,MESSAGE PUMP,WM_GETOBJECT,61
1759,2,1,MESSAGE PUMP,WM_KEYUP,257
1759,4,1,MESSAGE PUMP,Unknown,356
1790,0,1,MESSAGE PUMP,WM_KEYDOWN,256
1792,0,1,MESSAGE PUMP,WM_GETOBJECT,61
1792,0,1,MESSAGE PUMP,WM_KEYUP,257
1792,1,1,MESSAGE PUMP,WM_GETOBJECT,61
1793,0,1,MESSAGE PUMP,Unknown,356
1824,0,1,MESSAGE PUMP,WM_KEYDOWN,256
1826,0,1,MESSAGE PUMP,WM_GETOBJECT,61
1826,0,1,MESSAGE PUMP,WM_KEYUP,257
1826,1,1,MESSAGE PUMP,WM_GETOBJECT,61
1827,0,1,MESSAGE PUMP,Unknown,356
1857,0,1,MESSAGE PUMP,WM_KEYDOWN,256
1858,0,1,MESSAGE PUMP,WM_KEYUP,257
1859,0,1,MESSAGE PUMP,WM_GETOBJECT,61
1859,2,1,MESSAGE PUMP,WM_GETOBJECT,61
1860,1,1,MESSAGE PUMP,Unknown,356
1890,0,1,MESSAGE PUMP,WM_KEYDOWN,256
1891,0,1,MESSAGE PUMP,WM_KEYUP,257
1892,0,1,MESSAGE PUMP,WM_GETOBJECT,61
1892,2,1,MESSAGE PUMP,WM_GETOBJECT,61
1893,0,1,MESSAGE PUMP,Unknown,356
1953,0,1,MESSAGE PUMP,WM_KEYDOWN,256
1953,0,1,MESSAGE PUMP,WM_CHAR,258
1953,0,0,MESSAGE PUMP,WM_GETOBJECT,61
1953,0,0,MESSAGE PUMP,WM_GETOBJECT,61
1953,0,0,MESSAGE PUMP,WM_GETOBJECT,61
1953,0,0,MESSAGE PUMP,WM_GETOBJECT,61
1953,0,0,MESSAGE PUMP,WM_GETOBJECT,61
1953,0,0,MESSAGE PUMP,WM_GETOBJECT,61
1953,0,0,MESSAGE PUMP,WM_GETOBJECT,61
1953,0,0,MESSAGE PUMP,WM_GETOBJECT,61
1953,0,0,MESSAGE PUMP,WM_GETOBJECT,61
1953,0,0,MESSAGE PUMP,WM_GETOBJECT,61
1953,0,0,MESSAGE PUMP,WM_GETOBJECT,61
1953,0,0,MESSAGE PUMP,WM_GETOBJECT,61
1953,0,0,MESSAGE PUMP,WM_GETOBJECT,61
1953,0,0,MESSAGE PUMP,WM_GETOBJECT,61
1953,0,0,MESSAGE PUMP,WM_GETOBJECT,61
1953,0,0,MESSAGE PUMP,WM_GETOBJECT,61
1953,0,0,MESSAGE PUMP,WM_GETOBJECT,61
1953,0,0,MESSAGE PUMP,WM_GETOBJECT,61
1953,0,0,MESSAGE PUMP,WM_GETOBJECT,61
1953,0,0,MESSAGE PUMP,WM_GETOBJECT,61
1953,0,0,MESSAGE PUMP,WM_GETOBJECT,61
1953,0,0,MESSAGE PUMP,WM_GETOBJECT,61
1953,0,0,MESSAGE PUMP,WM_GETOBJECT,61
1953,0,0,MESSAGE PUMP,WM_GETOBJECT,61
1953,0,0,MESSAGE PUMP,WM_GETOBJECT,61
1953,0,0,MESSAGE PUMP,WM_GETOBJECT,61
1953,0,0,MESSAGE PUMP,WM_GETOBJECT,61
1953,0,0,MESSAGE PUMP,WM_GETOBJECT,61
1953,0,0,MESSAGE PUMP,WM_GETOBJECT,61
1953,0,0,MESSAGE PUMP,WM_GETOBJECT,61
1953,0,0,MESSAGE PUMP,WM_GETOBJECT,61
1953,0,0,MESSAGE PUMP,WM_GETOBJECT,61
1953,0,0,MESSAGE PUMP,WM_GETOBJECT,61
1953,0,0,MESSAGE PUMP,WM_GETOBJECT,61
1953,0,0,MESSAGE PUMP,WM_GETOBJECT,61
1954,0,1,MESSAGE PUMP,WM_KEYUP,257
1955,2,1,MESSAGE PUMP,WM_GETOBJECT,61
1956,0,1,MESSAGE PUMP,Unknown,356
1956,2,1,MESSAGE PUMP,WM_GETOBJECT,61
1957,7,1,MESSAGE PUMP,WM_GETOBJECT,61
1957,28,1,MESSAGE PUMP,Unknown,356
1958,6,1,MESSAGE PUMP,WM_GETOBJECT,61
1959,2,1,MESSAGE PUMP,Unknown,356
1959,9,1,MESSAGE PUMP,WM_GETOBJECT,61
1960,1,1,MESSAGE PUMP,Unknown,356
1960,8,1,MESSAGE PUMP,WM_GETOBJECT,61
1960,35,1,MESSAGE PUMP,Unknown,356
1961,8,1,MESSAGE PUMP,WM_GETOBJECT,61
1961,26,1,MESSAGE PUMP,Unknown,356
1962,15,1,MESSAGE PUMP,WM_GETOBJECT,61
1962,17,1,MESSAGE PUMP,Unknown,356
1963,7,1,MESSAGE PUMP,WM_GETOBJECT,61
1964,0,1,MESSAGE PUMP,Unknown,356
1964,13,1,MESSAGE PUMP,WM_GETOBJECT,61
1964,32,1,MESSAGE PUMP,Unknown,356
1965,11,1,MESSAGE PUMP,WM_GETOBJECT,61
1966,0,1,MESSAGE PUMP,Unknown,356
1966,13,1,MESSAGE PUMP,WM_GETOBJECT,61
1966,31,1,MESSAGE PUMP,Unknown,356
1967,11,1,MESSAGE PUMP,WM_GETOBJECT,61
1967,14,1,MESSAGE PUMP,Unknown,356
1968,3,1,MESSAGE PUMP,WM_GETOBJECT,61
1968,5,1,MESSAGE PUMP,Unknown,356
1968,18,1,MESSAGE PUMP,WM_GETOBJECT,61
1968,36,1,MESSAGE PUMP,Unknown,356
1969,10,1,MESSAGE PUMP,WM_GETOBJECT,61
1970,2,1,MESSAGE PUMP,Unknown,356
1970,14,1,MESSAGE PUMP,WM_GETOBJECT,61
1970,34,1,MESSAGE PUMP,Unknown,356
1971,9,1,MESSAGE PUMP,WM_GETOBJECT,61
1971,27,1,MESSAGE PUMP,Unknown,356
1972,9,1,MESSAGE PUMP,WM_GETOBJECT,61
1972,31,1,MESSAGE PUMP,Unknown,356
1973,11,1,MESSAGE PUMP,WM_GETOBJECT,61
1974,0,1,MESSAGE PUMP,Unknown,356
1974,13,1,MESSAGE PUMP,WM_GETOBJECT,61
1974,15,1,MESSAGE PUMP,Unknown,356
1975,7,1,MESSAGE PUMP,WM_GETOBJECT,61
1976,2,1,MESSAGE PUMP,Unknown,356
1976,11,1,MESSAGE PUMP,WM_GETOBJECT,61
1977,0,1,MESSAGE PUMP,Unknown,356
1978,28,1,MESSAGE PUMP,WM_GETOBJECT,61
1978,48,1,MESSAGE PUMP,Unknown,356
1979,7,1,MESSAGE PUMP,Unknown,356
2014,0,1,MESSAGE PUMP,WM_KEYDOWN,256
2016,1,1,MESSAGE PUMP,WM_KEYUP,257
2017,1,1,MESSAGE PUMP,WM_GETOBJECT,61
2017,17,1,MESSAGE PUMP,Unknown,356
2018,6,1,MESSAGE PUMP,WM_GETOBJECT,61
2018,20,1,MESSAGE PUMP,Unknown,356
2049,0,1,MESSAGE PUMP,WM_KEYDOWN,256
2051,0,1,MESSAGE PUMP,WM_KEYUP,257
2053,0,1,MESSAGE PUMP,WM_GETOBJECT,61
2054,0,1,MESSAGE PUMP,Unknown,356
2055,7,1,MESSAGE PUMP,WM_GETOBJECT,61
2056,1,1,MESSAGE PUMP,Unknown,356
2082,0,1,MESSAGE PUMP,WM_KEYDOWN,256
2084,1,1,MESSAGE PUMP,WM_KEYUP,257
2085,1,1,MESSAGE PUMP,WM_GETOBJECT,61
2085,17,1,MESSAGE PUMP,Unknown,356
2086,4,1,MESSAGE PUMP,WM_GETOBJECT,61
2086,19,1,MESSAGE PUMP,Unknown,356
2117,0,1,MESSAGE PUMP,WM_KEYDOWN,256
2117,0,1,MESSAGE PUMP,WM_KEYUP,257
2119,0,1,MESSAGE PUMP,WM_GETOBJECT,61
2120,0,1,MESSAGE PUMP,Unknown,356
2121,5,1,MESSAGE PUMP,WM_GETOBJECT,61
2122,1,1,MESSAGE PUMP,Unknown,356
2146,1,1,MESSAGE PUMP,WM_KEYDOWN,256
2149,0,1,MESSAGE PUMP,WM_KEYUP,257
2150,1,1,MESSAGE PUMP,WM_GETOBJECT,61
2150,17,1,MESSAGE PUMP,Unknown,356
2151,4,1,MESSAGE PUMP,WM_GETOBJECT,61
2151,19,1,MESSAGE PUMP,Unknown,356
2181,1,1,MESSAGE PUMP,WM_KEYDOWN,256
2183,1,1,MESSAGE PUMP,WM_KEYUP,257
2185,0,1,MESSAGE PUMP,WM_GETOBJECT,61
2185,16,1,MESSAGE PUMP,Unknown,356
2186,4,1,MESSAGE PUMP,WM_GETOBJECT,61
2187,2,1,MESSAGE PUMP,Unknown,356
2246,0,1,MESSAGE PUMP,WM_KEYDOWN,256
2246,0,1,MESSAGE PUMP,WM_CHAR,258
2247,0,1,MESSAGE PUMP,WM_KEYUP,257
2248,0,1,MESSAGE PUMP,WM_GETOBJECT,61
2248,2,1,MESSAGE PUMP,WM_GETOBJECT,61
2248,15,1,MESSAGE PUMP,Unknown,356
2249,11,1,MESSAGE PUMP,WM_GETOBJECT,61
2250,0,1,MESSAGE PUMP,Unknown,356
2251,15,1,MESSAGE PUMP,WM_GETOBJECT,61
2251,30,1,MESSAGE PUMP,Unknown,356
2252,4,1,MESSAGE PUMP,WM_GETOBJECT,61
2252,21,1,MESSAGE PUMP,Unknown,356
2253,6,1,MESSAGE PUMP,Unknown,356
2308,0,1,MESSAGE PUMP,WM_KEYDOWN,256
2310,0,1,MESSAGE PUMP,WM_GETOBJECT,61
2310,2,1,MESSAGE PUMP,WM_GETOBJECT,61
2310,2,1,MESSAGE PUMP,WM_KEYUP,257
2310,6,1,MESSAGE PUMP,Unknown,356
2342,0,1,MESSAGE PUMP,WM_KEYDOWN,256
2344,0,1,MESSAGE PUMP,WM_GETOBJECT,61
2344,0,1,MESSAGE PUMP,WM_KEYUP,257
2344,1,1,MESSAGE PUMP,WM_GETOBJECT,61
2345,0,1,MESSAGE PUMP,Unknown,356
2405,0,1,MESSAGE PUMP,WM_KEYDOWN,256
2405,0,1,MESSAGE PUMP,WM_CHAR,258
2405,0,0,MESSAGE PUMP,WM_GETOBJECT,61
2405,0,0,MESSAGE PUMP,WM_GETOBJECT,61
2405,0,0,MESSAGE PUMP,WM_GETOBJECT,61
2405,0,0,MESSAGE PUMP,WM_GETOBJECT,61
2405,0,0,MESSAGE PUMP,WM_GETOBJECT,61
2405,0,0,MESSAGE PUMP,WM_GETOBJECT,61
2405,0,0,MESSAGE PUMP,WM_GETOBJECT,61
2405,0,0,MESSAGE PUMP,WM_GETOBJECT,61
2405,0,0,MESSAGE PUMP,WM_GETOBJECT,61
2405,0,0,MESSAGE PUMP,WM_GETOBJECT,61
2405,0,0,MESSAGE PUMP,WM_GETOBJECT,61
2405,0,0,MESSAGE PUMP,WM_GETOBJECT,61
2405,0,0,MESSAGE PUMP,WM_GETOBJECT,61
2405,0,0,MESSAGE PUMP,WM_GETOBJECT,61
2405,0,0,MESSAGE PUMP,WM_GETOBJECT,61
2405,0,0,MESSAGE PUMP,WM_GETOBJECT,61
2405,0,0,MESSAGE PUMP,WM_GETOBJECT,61
2405,0,0,MESSAGE PUMP,WM_GETOBJECT,61
2405,0,0,MESSAGE PUMP,WM_GETOBJECT,61
2405,0,0,MESSAGE PUMP,WM_GETOBJECT,61
2405,0,0,MESSAGE PUMP,WM_GETOBJECT,61
2405,0,0,MESSAGE PUMP,WM_GETOBJECT,61
2405,0,0,MESSAGE PUMP,WM_GETOBJECT,61
2405,0,0,MESSAGE PUMP,WM_GETOBJECT,61
2405,0,0,MESSAGE PUMP,WM_GETOBJECT,61
2405,0,0,MESSAGE PUMP,WM_GETOBJECT,61
2405,0,0,MESSAGE PUMP,WM_GETOBJECT,61
2405,0,0,MESSAGE PUMP,WM_GETOBJECT,61
2405,0,0,MESSAGE PUMP,WM_GETOBJECT,61
2405,0,0,MESSAGE PUMP,WM_GETOBJECT,61
2405,0,0,MESSAGE PUMP,WM_GETOBJECT,61
2405,0,0,MESSAGE PUMP,WM_GETOBJECT,61
2405,0,0,MESSAGE PUMP,WM_GETOBJECT,61
2405,0,0,MESSAGE PUMP,WM_GETOBJECT,61
2405,0,0,MESSAGE PUMP,WM_GETOBJECT,61
2406,0,1,MESSAGE PUMP,WM_KEYUP,257
2407,2,1,MESSAGE PUMP,WM_GETOBJECT,61
2408,0,1,MESSAGE PUMP,Unknown,356
2408,1,1,MESSAGE PUMP,WM_GETOBJECT,61
2408,11,1,MESSAGE PUMP,WM_GETOBJECT,61
2408,23,1,MESSAGE PUMP,Unknown,356
2409,5,1,MESSAGE PUMP,WM_GETOBJECT,61
2410,2,1,MESSAGE PUMP,Unknown,356
2410,10,1,MESSAGE PUMP,WM_GETOBJECT,61
2410,27,1,MESSAGE PUMP,Unknown,356
2411,6,1,MESSAGE PUMP,WM_GETOBJECT,61
2412,0,1,MESSAGE PUMP,Unknown,356
2412,15,1,MESSAGE PUMP,WM_GETOBJECT,61
2413,0,1,MESSAGE PUMP,Unknown,356
2413,14,1,MESSAGE PUMP,WM_GETOBJECT,61
2413,30,1,MESSAGE PUMP,Unknown,356
2414,14,1,MESSAGE PUMP,WM_GETOBJECT,61
2415,1,1,MESSAGE PUMP,Unknown,356
2415,14,1,MESSAGE PUMP,WM_GETOBJECT,61
2416,1,1,MESSAGE PUMP,Unknown,356
2416,14,1,MESSAGE PUMP,WM_GETOBJECT,61
2416,28,1,MESSAGE PUMP,Unknown,356
2417,14,1,MESSAGE PUMP,WM_GETOBJECT,61
2417,28,1,MESSAGE PUMP,Unknown,356
2424,2,1,MESSAGE PUMP,WM_GETOBJECT,61
2425,1,1,MESSAGE PUMP,Unknown,356
2425,15,1,MESSAGE PUMP,WM_GETOBJECT,61
2425,30,1,MESSAGE PUMP,Unknown,356
2426,11,1,MESSAGE PUMP,WM_GETOBJECT,61
2426,26,1,MESSAGE PUMP,Unknown,356
2427,16,1,MESSAGE PUMP,WM_GETOBJECT,61
2427,33,1,MESSAGE PUMP,Unknown,356
2428,12,1,MESSAGE PUMP,WM_GETOBJECT,61
2428,26,1,MESSAGE PUMP,Unknown,356
2429,10,1,MESSAGE PUMP,WM_GETOBJECT,61
2430,1,1,MESSAGE PUMP,Unknown,356
2430,15,1,MESSAGE PUMP,WM_GETOBJECT,61
2432,0,1,MESSAGE PUMP,Unknown,356
2437,4,1,MESSAGE PUMP,WM_GETOBJECT,61
2437,18,1,MESSAGE PUMP,Unknown,356
2438,3,1,MESSAGE PUMP,WM_GETOBJECT,61
2440,0,1,MESSAGE PUMP,WM_GETOBJECT,61
2441,0,1,MESSAGE PUMP,Unknown,356
2443,8,1,MESSAGE PUMP,WM_GETOBJECT,61
2443,21,1,MESSAGE PUMP,Unknown,356
2444,7,1,MESSAGE PUMP,WM_GETOBJECT,61
2445,0,1,MESSAGE PUMP,Unknown,356
2446,1,1,MESSAGE PUMP,WM_GETOBJECT,61
2447,1,1,MESSAGE PUMP,Unknown,356
2447,10,1,MESSAGE PUMP,Unknown,356
2466,0,1,MESSAGE PUMP,WM_KEYDOWN,256
2468,1,1,MESSAGE PUMP,WM_KEYUP,257
2500,0,1,MESSAGE PUMP,WM_KEYDOWN,256
2502,0,1,MESSAGE PUMP,WM_KEYUP,257
2564,1,1,MESSAGE PUMP,WM_KEYDOWN,256
2567,0,1,MESSAGE PUMP,WM_KEYUP,257
2568,1,1,MESSAGE PUMP,WM_GETOBJECT,61
2569,0,1,MESSAGE PUMP,Unknown,356
2569,8,1,MESSAGE PUMP,WM_GETOBJECT,61
2570,0,1,MESSAGE PUMP,Unknown,356
2599,0,1,MESSAGE PUMP,WM_KEYDOWN,256
2602,0,1,MESSAGE PUMP,WM_KEYUP,257
2603,1,1,MESSAGE PUMP,WM_GETOBJECT,61
2603,17,1,MESSAGE PUMP,Unknown,356
2604,5,1,MESSAGE PUMP,WM_GETOBJECT,61
2604,21,1,MESSAGE PUMP,Unknown,356
2634,0,1,MESSAGE PUMP,WM_KEYDOWN,256
2636,0,1,MESSAGE PUMP,WM_KEYUP,257
2637,1,1,MESSAGE PUMP,WM_GETOBJECT,61
2638,0,1,MESSAGE PUMP,Unknown,356
2638,8,1,MESSAGE PUMP,WM_GETOBJECT,61
2639,1,1,MESSAGE PUMP,Unknown,356
2668,0,1,MESSAGE PUMP,WM_KEYDOWN,256
2670,1,1,MESSAGE PUMP,WM_KEYUP,257
2671,1,1,MESSAGE PUMP,WM_GETOBJECT,61
2671,18,1,MESSAGE PUMP,Unknown,356
2672,5,1,MESSAGE PUMP,WM_GETOBJECT,61
2672,21,1,MESSAGE PUMP,Unknown,356
2703,0,1,MESSAGE PUMP,WM_KEYDOWN,256
2705,0,1,MESSAGE PUMP,WM_KEYUP,257
2706,1,1,MESSAGE PUMP,WM_GETOBJECT,61
2707,0,1,MESSAGE PUMP,Unknown,356
2707,8,1,MESSAGE PUMP,WM_GETOBJECT,61
2708,11,1,MESSAGE PUMP,Unknown,356
2736,1,1,MESSAGE PUMP,WM_KEYDOWN,256
2739,0,1,MESSAGE PUMP,WM_KEYUP,257
2740,1,1,MESSAGE PUMP,WM_GETOBJECT,61
2740,21,1,MESSAGE PUMP,Unknown,356
2741,6,1,MESSAGE PUMP,WM_GETOBJECT,61
2741,26,1,MESSAGE PUMP,Unknown,356
2770,0,1,MESSAGE PUMP,WM_KEYDOWN,256
2772,1,1,MESSAGE PUMP,WM_KEYUP,257
2773,1,1,MESSAGE PUMP,WM_GETOBJECT,61
2773,3,1,MESSAGE PUMP,Unknown,356
2774,3,1,MESSAGE PUMP,WM_GETOBJECT,61
2775,0,1,MESSAGE PUMP,Unknown,356
2834,1,1,MESSAGE PUMP,WM_KEYDOWN,256
2834,1,1,MESSAGE PUMP,WM_CHAR,258
2835,0,1,MESSAGE PUMP,WM_KEYUP,257
2836,0,1,MESSAGE PUMP,WM_GETOBJECT,61
2836,2,1,MESSAGE PUMP,Unknown,356
2836,7,1,MESSAGE PUMP,WM_GETOBJECT,61
2837,1,1,MESSAGE PUMP,WM_GETOBJECT,61
2838,7,1,MESSAGE PUMP,WM_GETOBJECT,61
2839,0,1,MESSAGE PUMP,Unknown,356
2840,36,1,MESSAGE PUMP,WM_GETOBJECT,61
2840,52,1,MESSAGE PUMP,Unknown,356
2841,5,1,MESSAGE PUMP,WM_GETOBJECT,61
2842,0,1,MESSAGE PUMP,Unknown,356
2842,8,1,MESSAGE PUMP,Unknown,356
2897,0,1,MESSAGE PUMP,WM_KEYDOWN,256
2898,0,1,MESSAGE PUMP,WM_KEYUP,257
2899,0,1,MESSAGE PUMP,WM_GETOBJECT,61
2899,2,1,MESSAGE PUMP,Unknown,356
2899,7,1,MESSAGE PUMP,WM_GETOBJECT,61
2899,24,1,MESSAGE PUMP,WM_GETOBJECT,61
2930,1,1,MESSAGE PUMP,WM_KEYDOWN,256
2932,0,1,MESSAGE PUMP,WM_GETOBJECT,61
2932,0,1,MESSAGE PUMP,WM_KEYUP,257
2932,1,1,MESSAGE PUMP,WM_GETOBJECT,61
2933,2,1,MESSAGE PUMP,Unknown,356
2992,0,1,MESSAGE PUMP,WM_KEYDOWN,256
2992,0,1,MESSAGE PUMP,WM_CHAR,258
2992,0,0,MESSAGE PUMP,WM_GETOBJECT,61
2992,0,0,MESSAGE PUMP,WM_GETOBJECT,61
2992,0,0,MESSAGE PUMP,WM_GETOBJECT,61
2992,0,0,MESSAGE PUMP,WM_GETOBJECT,61
2992,0,0,MESSAGE PUMP,WM_GETOBJECT,61
2992,0,0,MESSAGE PUMP,WM_GETOBJECT,61
2992,0,0,MESSAGE PUMP,WM_GETOBJECT,61
2992,0,0,MESSAGE PUMP,WM_GETOBJECT,61
2992,0,0,MESSAGE PUMP,WM_GETOBJECT,61
2992,0,0,MESSAGE PUMP,WM_GETOBJECT,61
2992,0,0,MESSAGE PUMP,WM_GETOBJECT,61
2992,0,0,MESSAGE PUMP,WM_GETOBJECT,61
2992,0,0,MESSAGE PUMP,WM_GETOBJECT,61
2992,0,0,MESSAGE PUMP,WM_GETOBJECT,61
2992,0,0,MESSAGE PUMP,WM_GETOBJECT,61
2992,0,0,MESSAGE PUMP,WM_GETOBJECT,61
2992,0,0,MESSAGE PUMP,WM_GETOBJECT,61
2992,0,0,MESSAGE PUMP,WM_GETOBJECT,61
2992,0,0,MESSAGE PUMP,WM_GETOBJECT,61
2992,0,0,MESSAGE PUMP,WM_GETOBJECT,61
2992,0,0,MESSAGE PUMP,WM_GETOBJECT,61
2992,0,0,MESSAGE PUMP,WM_GETOBJECT,61
2992,0,0,MESSAGE PUMP,WM_GETOBJECT,61
2992,0,0,MESSAGE PUMP,WM_GETOBJECT,61
2992,0,0,MESSAGE PUMP,WM_GETOBJECT,61
2992,0,0,MESSAGE PUMP,WM_GETOBJECT,61
2992,0,0,MESSAGE PUMP,WM_GETOBJECT,61
2992,0,0,MESSAGE PUMP,WM_GETOBJECT,61
2992,0,0,MESSAGE PUMP,WM_GETOBJECT,61
2992,0,0,MESSAGE PUMP,WM_GETOBJECT,61
2992,0,0,MESSAGE PUMP,WM_GETOBJECT,61
2992,0,0,MESSAGE PUMP,WM_GETOBJECT,61
2992,0,0,MESSAGE PUMP,WM_GETOBJECT,61
2992,0,0,MESSAGE PUMP,WM_GETOBJECT,61
2992,0,0,MESSAGE PUMP,WM_GETOBJECT,61
2993,0,1,MESSAGE PUMP,WM_KEYUP,257
2994,0,1,MESSAGE PUMP,WM_GETOBJECT,61
2994,3,1,MESSAGE PUMP,Unknown,356
2994,9,1,MESSAGE PUMP,WM_GETOBJECT,61
2995,1,1,MESSAGE PUMP,WM_GETOBJECT,61
2996,1,1,MESSAGE PUMP,Unknown,356
2996,8,1,MESSAGE PUMP,WM_GETOBJECT,61
2996,22,1,MESSAGE PUMP,Unknown,356
2997,7,1,MESSAGE PUMP,WM_GETOBJECT,61
2997,27,1,MESSAGE PUMP,Unknown,356
2998,5,1,MESSAGE PUMP,WM_GETOBJECT,61
2998,26,1,MESSAGE PUMP,Unknown,356
2999,8,1,MESSAGE PUMP,WM_GETOBJECT,61
2999,34,1,MESSAGE PUMP,Unknown,356
3000,11,1,MESSAGE PUMP,WM_GETOBJECT,61
3000,29,1,MESSAGE PUMP,Unknown,356
3001,9,1,MESSAGE PUMP,WM_GETOBJECT,61
3001,30,1,MESSAGE PUMP,Unknown,356
3002,10,1,MESSAGE PUMP,WM_GETOBJECT,61
3003,2,1,MESSAGE PUMP,Unknown,356
3003,14,1,MESSAGE PUMP,WM_GETOBJECT,61
3003,41,1,MESSAGE PUMP,Unknown,356
3004,12,1,MESSAGE PUMP,WM_GETOBJECT,61
3004,32,1,MESSAGE PUMP,Unknown,356
3005,11,1,MESSAGE PUMP,WM_GETOBJECT,61
3006,1,1,MESSAGE PUMP,Unknown,356
3006,14,1,MESSAGE PUMP,WM_GETOBJECT,61
3007,0,1,MESSAGE PUMP,Unknown,356
3010,5,1,MESSAGE PUMP,WM_GETOBJECT,61
3011,1,1,MESSAGE PUMP,Unknown,356
3011,15,1,MESSAGE PUMP,WM_GETOBJECT,61
3012,2,1,MESSAGE PUMP,Unknown,356
3012,15,1,MESSAGE PUMP,WM_GETOBJECT,61
3012,30,1,MESSAGE PUMP,Unknown,356
3013,12,1,MESSAGE PUMP,WM_GETOBJECT,61
3013,27,1,MESSAGE PUMP,Unknown,356
3014,10,1,MESSAGE PUMP,WM_GETOBJECT,61
3015,0,1,MESSAGE PUMP,Unknown,356
3015,13,1,MESSAGE PUMP,WM_GETOBJECT,61
3015,29,1,MESSAGE PUMP,Unknown,356
3016,14,1,MESSAGE PUMP,WM_GETOBJECT,61
3017,0,1,MESSAGE PUMP,Unknown,356
3017,14,1,MESSAGE PUMP,WM_GETOBJECT,61
3017,30,1,MESSAGE PUMP,Unknown,356
3018,7,1,MESSAGE PUMP,WM_GETOBJECT,61
3019,0,1,MESSAGE PUMP,Unknown,356
3020,1,1,MESSAGE PUMP,WM_GETOBJECT,61
3021,1,1,MESSAGE PUMP,Unknown,356
3021,9,1,MESSAGE PUMP,Unknown,356
3054,1,1,MESSAGE PUMP,WM_KEYDOWN,256
3056,1,1,MESSAGE PUMP,WM_KEYUP,257
3089,0,1,MESSAGE PUMP,WM_KEYDOWN,256
3091,0,1,MESSAGE PUMP,WM_KEYUP,257
3153,0,1,MESSAGE PUMP,WM_KEYDOWN,256
3156,0,1,MESSAGE PUMP,WM_KEYUP,257
3157,1,1,MESSAGE PUMP,WM_GETOBJECT,61
3158,0,1,MESSAGE PUMP,Unknown,356
3158,8,1,MESSAGE PUMP,WM_GETOBJECT,61
3158,24,1,MESSAGE PUMP,Unknown,356
3188,0,1,MESSAGE PUMP,WM_KEYDOWN,256
3190,1,1,MESSAGE PUMP,WM_KEYUP,257
3191,1,1,MESSAGE PUMP,WM_GETOBJECT,61
3192,1,1,MESSAGE PUMP,Unknown,356
3192,8,1,MESSAGE PUMP,WM_GETOBJECT,61
3192,21,1,MESSAGE PUMP,Unknown,356
3223,0,1,MESSAGE PUMP,WM_KEYDOWN,256
3225,0,1,MESSAGE PUMP,WM_KEYUP,257
3226,1,1,MESSAGE PUMP,WM_GETOBJECT,61
3227,1,1,MESSAGE PUMP,Unknown,356
3227,9,1,MESSAGE PUMP,WM_GETOBJECT,61
3227,24,1,MESSAGE PUMP,Unknown,356
3287,1,1,MESSAGE PUMP,WM_KEYDOWN,256
3287,1,1,MESSAGE PUMP,WM_CHAR,258
3288,0,1,MESSAGE PUMP,WM_KEYUP,257
3289,0,1,MESSAGE PUMP,WM_GETOBJECT,61
3289,2,1,MESSAGE PUMP,WM_GETOBJECT,61
3290,0,1,MESSAGE PUMP,Unknown,356
3290,13,1,MESSAGE PUMP,WM_GETOBJECT,61
3290,16,1,MESSAGE PUMP,Unknown,356
3292,15,1,MESSAGE PUMP,WM_GETOBJECT,61
3292,30,1,MESSAGE PUMP,Unknown,356
3293,6,1,MESSAGE PUMP,WM_GETOBJECT,61
3293,20,1,MESSAGE PUMP,Unknown,356
3294,6,1,MESSAGE PUMP,Unknown,356
3349,0,1,MESSAGE PUMP,WM_KEYDOWN,256
3351,0,1,MESSAGE PUMP,WM_GETOBJECT,61
3351,0,1,MESSAGE PUMP,WM_KEYUP,257
3351,1,1,MESSAGE PUMP,Unknown,356
3351,2,1,MESSAGE PUMP,WM_GETOBJECT,61
3381,1,1,MESSAGE PUMP,WM_KEYDOWN,256
3383,0,1,MESSAGE PUMP,WM_GETOBJECT,61
3383,2,1,MESSAGE PUMP,WM_GETOBJECT,61
3383,2,1,MESSAGE PUMP,WM_KEYUP,257
3384,0,1,MESSAGE PUMP,Unknown,356
3443,0,1,MESSAGE PUMP,WM_KEYDOWN,256
3445,0,1,MESSAGE PUMP,WM_GETOBJECT,61
3445,2,1,MESSAGE PUMP,WM_GETOBJECT,61
3445,2,1,MESSAGE PUMP,WM_KEYUP,257
3445,13,1,MESSAGE PUMP,Unknown,356
3477,0,1,MESSAGE PUMP,WM_KEYDOWN,256
3479,0,1,MESSAGE PUMP,WM_GETOBJECT,61
3479,0,1,MESSAGE PUMP,WM_KEYUP,257
3479,1,1,MESSAGE PUMP,WM_GETOBJECT,61
3480,1,1,MESSAGE PUMP,Unknown,356
3511,0,1,MESSAGE PUMP,WM_KEYDOWN,256
3513,0,1,MESSAGE PUMP,WM_GETOBJECT,61
3513,2,1,MESSAGE PUMP,WM_GETOBJECT,61
3513,2,1,MESSAGE PUMP,WM_KEYUP,257
3513,3,1,MESSAGE PUMP,Unknown,356
3545,0,1,MESSAGE PUMP,WM_KEYDOWN,256
3547,0,1,MESSAGE PUMP,WM_GETOBJECT,61
3547,0,1,MESSAGE PUMP,WM_KEYUP,257
3547,1,1,MESSAGE PUMP,WM_GETOBJECT,61
3548,0,1,MESSAGE PUMP,Unknown,356
3578,0,1,MESSAGE PUMP,WM_KEYDOWN,256
3580,0,1,MESSAGE PUMP,WM_GETOBJECT,61
3580,0,1,MESSAGE PUMP,WM_KEYUP,257
3580,1,1,MESSAGE PUMP,WM_GETOBJECT,61
3580,13,1,MESSAGE PUMP,Unknown,356
3611,0,1,MESSAGE PUMP,WM_KEYDOWN,256
3613,0,1,MESSAGE PUMP,WM_GETOBJECT,61
3613,0,1,MESSAGE PUMP,WM_KEYUP,257
3613,1,1,MESSAGE PUMP,WM_GETOBJECT,61
3614,0,1,MESSAGE PUMP,Unknown,356
3646,0,1,MESSAGE PUMP,WM_KEYDOWN,256
3646,0,1,MESSAGE PUMP,WM_KEYUP,257
3677,0,1,MESSAGE PUMP,WM_KEYDOWN,256
3679,0,1,MESSAGE PUMP,WM_GETOBJECT,61
3679,0,1,MESSAGE PUMP,WM_KEYUP,257
3679,1,1,MESSAGE PUMP,WM_GETOBJECT,61
3680,1,1,MESSAGE PUMP,Unknown,356
3740,0,1,MESSAGE PUMP,WM_KEYDOWN,256
3742,0,1,MESSAGE PUMP,WM_GETOBJECT,61
3742,0,1,MESSAGE PUMP,WM_KEYUP,257
3742,1,1,MESSAGE PUMP,WM_GETOBJECT,61
3743,0,1,MESSAGE PUMP,Unknown,356
3802,0,1,MESSAGE PUMP,WM_KEYDOWN,256
3802,0,1,MESSAGE PUMP,WM_CHAR,258
3803,2,1,MESSAGE PUMP,WM_GETOBJECT,61
3804,0,1,MESSAGE PUMP,WM_KEYUP,257
3804,1,1,MESSAGE PUMP,Unknown,356
3804,5,1,MESSAGE PUMP,WM_GETOBJECT,61
3805,1,1,MESSAGE PUMP,WM_GETOBJECT,61
3807,1,1,MESSAGE PUMP,WM_GETOBJECT,61
3808,2,1,MESSAGE PUMP,Unknown,356
3864,0,1,MESSAGE PUMP,WM_KEYDOWN,256
3866,0,1,MESSAGE PUMP,WM_GETOBJECT,61
3866,2,1,MESSAGE PUMP,WM_KEYUP,257
3866,2,1,MESSAGE PUMP,WM_GETOBJECT,61
3866,6,1,MESSAGE PUMP,Unknown,356
3926,0,1,MESSAGE PUMP,WM_KEYDOWN,256
3928,0,1,MESSAGE PUMP,WM_GETOBJECT,61
3928,0,1,MESSAGE PUMP,WM_KEYUP,257
3928,1,1,MESSAGE PUMP,WM_GETOBJECT,61
3928,12,1,MESSAGE PUMP,Unknown,356
3960,0,1,MESSAGE PUMP,WM_KEYDOWN,256
3962,0,1,MESSAGE PUMP,WM_GETOBJECT,61
3962,0,1,MESSAGE PUMP,WM_KEYUP,257
3962,1,1,MESSAGE PUMP,WM_GETOBJECT,61
3963,1,1,MESSAGE PUMP,Unknown,356
3993,1,1,MESSAGE PUMP,WM_KEYDOWN,256
3995,0,1,MESSAGE PUMP,WM_GETOBJECT,61
3995,0,1,MESSAGE PUMP,WM_KEYUP,257
3995,1,1,MESSAGE PUMP,WM_GETOBJECT,61
3995,13,1,MESSAGE PUMP,Unknown,356
4026,0,1,MESSAGE PUMP,WM_KEYDOWN,256
4028,0,1,MESSAGE PUMP,WM_GETOBJECT,61
4028,0,1,MESSAGE PUMP,WM_KEYUP,257
4028,1,1,MESSAGE PUMP,WM_GETOBJECT,61
4029,1,1,MESSAGE PUMP,Unknown,356
4060,0,1,MESSAGE PUMP,WM_KEYDOWN,256
4061,1,1,MESSAGE PUMP,WM_GETOBJECT,61
4062,1,1,MESSAGE PUMP,WM_GETOBJECT,61
4062,1,1,MESSAGE PUMP,WM_KEYUP,257
4062,2,1,MESSAGE PUMP,Unknown,356
4122,0,1,MESSAGE PUMP,WM_KEYDOWN,256
4152,1,1,MESSAGE PUMP,WM_KEYDOWN,256
4154,0,1,MESSAGE PUMP,WM_GETOBJECT,61
4154,2,1,MESSAGE PUMP,WM_GETOBJECT,61
4154,2,1,MESSAGE PUMP,WM_KEYUP,257
4154,4,1,MESSAGE PUMP,Unknown,356
4186,0,1,MESSAGE PUMP,WM_KEYUP,257
4246,0,1,MESSAGE PUMP,WM_KEYDOWN,256
4246,0,1,MESSAGE PUMP,WM_CHAR,258
4248,0,1,MESSAGE PUMP,WM_KEYUP,257
4308,0,1,MESSAGE PUMP,WM_KEYDOWN,256
4310,0,1,MESSAGE PUMP,WM_GETOBJECT,61
4310,0,1,MESSAGE PUMP,WM_KEYUP,257
4310,1,1,MESSAGE PUMP,Unknown,356
4310,6,1,MESSAGE PUMP,WM_GETOBJECT,61
4311,0,1,MESSAGE PUMP,WM_GETOBJECT,61
4342,0,1,MESSAGE PUMP,WM_KEYDOWN,256
4344,0,1,MESSAGE PUMP,WM_GETOBJECT,61
4344,0,1,MESSAGE PUMP,WM_KEYUP,257
4344,1,1,MESSAGE PUMP,WM_GETOBJECT,61
4345,2,1,MESSAGE PUMP,Unknown,356
4406,0,1,MESSAGE PUMP,WM_KEYDOWN,256
4406,0,1,MESSAGE PUMP,WM_CHAR,258
4407,2,1,MESSAGE PUMP,WM_GETOBJECT,61
4408,0,1,MESSAGE PUMP,WM_KEYUP,257
4408,2,1,MESSAGE PUMP,Unknown,356
4408,9,1,MESSAGE PUMP,WM_GETOBJECT,61
4410,1,1,MESSAGE PUMP,WM_GETOBJECT,61
4411,0,1,MESSAGE PUMP,Unknown,356
4468,0,1,MESSAGE PUMP,WM_KEYDOWN,256
4500,0,1,MESSAGE PUMP,WM_KEYDOWN,256
4502,0,1,MESSAGE PUMP,WM_GETOBJECT,61
4502,0,1,MESSAGE PUMP,WM_KEYUP,257
4502,1,1,MESSAGE PUMP,WM_GETOBJECT,61
4502,3,1,MESSAGE PUMP,Unknown,356
4534,7,1,MESSAGE PUMP,WM_KEYUP,257
4595,0,1,MESSAGE PUMP,WM_KEYDOWN,256
4597,0,1,MESSAGE PUMP,WM_GETOBJECT,61
4597,0,1,MESSAGE PUMP,WM_KEYUP,257
4597,1,1,MESSAGE PUMP,WM_GETOBJECT,61
4597,11,1,MESSAGE PUMP,Unknown,356
4657,0,1,MESSAGE PUMP,WM_KEYDOWN,256
4659,0,1,MESSAGE PUMP,WM_GETOBJECT,61
4659,0,1,MESSAGE PUMP,WM_KEYUP,257
4659,1,1,MESSAGE PUMP,WM_GETOBJECT,61
4660,0,1,MESSAGE PUMP,Unknown,356
4691,0,1,MESSAGE PUMP,WM_KEYDOWN,256
4693,0,1,MESSAGE PUMP,WM_GETOBJECT,61
4693,2,1,MESSAGE PUMP,WM_GETOBJECT,61
4693,2,1,MESSAGE PUMP,WM_KEYUP,257
4693,3,1,MESSAGE PUMP,Unknown,356
4724,0,1,MESSAGE PUMP,WM_KEYDOWN,256
4726,0,1,MESSAGE PUMP,WM_GETOBJECT,61
4726,0,1,MESSAGE PUMP,WM_KEYUP,257
4726,1,1,MESSAGE PUMP,WM_GETOBJECT,61
4726,11,1,MESSAGE PUMP,Unknown,356
4786,1,1,MESSAGE PUMP,WM_KEYDOWN,256
4786,1,1,MESSAGE PUMP,WM_CHAR,258
4788,4,1,MESSAGE PUMP,WM_KEYUP,257
4849,0,1,MESSAGE PUMP,WM_KEYDOWN,256
4851,0,1,MESSAGE PUMP,WM_GETOBJECT,61
4851,2,1,MESSAGE PUMP,WM_GETOBJECT,61
4851,2,1,MESSAGE PUMP,WM_KEYUP,257
4851,3,1,MESSAGE PUMP,Unknown,356
4912,1,1,MESSAGE PUMP,WM_KEYDOWN,256
4914,0,1,MESSAGE PUMP,WM_GETOBJECT,61
4914,1,1,MESSAGE PUMP,WM_KEYUP,257
4914,2,1,MESSAGE PUMP,WM_GETOBJECT,61
4915,0,1,MESSAGE PUMP,Unknown,356
4945,0,1,MESSAGE PUMP,WM_KEYDOWN,256
4947,0,1,MESSAGE PUMP,WM_GETOBJECT,61
4947,0,1,MESSAGE PUMP,WM_KEYUP,257
4947,1,1,MESSAGE PUMP,WM_GETOBJECT,61
4948,0,1,MESSAGE PUMP,Unknown,356
4978,2,1,MESSAGE PUMP,WM_KEYDOWN,256
4980,0,1,MESSAGE PUMP,WM_GETOBJECT,61
4980,2,1,MESSAGE PUMP,WM_GETOBJECT,61
4980,2,1,MESSAGE PUMP,WM_KEYUP,257
4980,3,1,MESSAGE PUMP,Unknown,356
5011,0,1,MESSAGE PUMP,WM_KEYDOWN,256
5013,0,1,MESSAGE PUMP,WM_GETOBJECT,61
5013,0,1,MESSAGE PUMP,WM_KEYUP,257
5013,1,1,MESSAGE PUMP,Unknown,356
5013,10,1,MESSAGE PUMP,WM_GETOBJECT,61
5014,1,1,MESSAGE PUMP,WM_GETOBJECT,61
5045,0,1,MESSAGE PUMP,WM_KEYDOWN,256
5047,0,1,MESSAGE PUMP,WM_GETOBJECT,61
5047,0,1,MESSAGE PUMP,WM_KEYUP,257
5047,1,1,MESSAGE PUMP,WM_GETOBJECT,61
5047,3,1,MESSAGE PUMP,Unknown,356
5107,1,1,MESSAGE PUMP,WM_KEYDOWN,256
5107,1,1,MESSAGE PUMP,WM_CHAR,258
5108,1,1,MESSAGE PUMP,WM_GETOBJECT,61
5109,1,1,MESSAGE PUMP,WM_GETOBJECT,61
5109,1,1,MESSAGE PUMP,WM_KEYUP,257
5110,0,1,MESSAGE PUMP,Unknown,356
5111,8,1,MESSAGE PUMP,WM_GETOBJECT,61
5112,2,1,MESSAGE PUMP,Unknown,356
5169,0,1,MESSAGE PUMP,WM_KEYDOWN,256
5170,1,1,MESSAGE PUMP,WM_GETOBJECT,61
5171,1,1,MESSAGE PUMP,WM_GETOBJECT,61
5172,0,1,MESSAGE PUMP,WM_KEYUP,257
5172,1,1,MESSAGE PUMP,Unknown,356
5234,0,1,MESSAGE PUMP,WM_KEYDOWN,256
5266,1,1,MESSAGE PUMP,WM_KEYDOWN,256
5267,1,1,MESSAGE PUMP,WM_GETOBJECT,61
5267,3,1,MESSAGE PUMP,WM_GETOBJECT,61
5268,1,1,MESSAGE PUMP,Unknown,356
5268,20,1,MESSAGE PUMP,WM_KEYUP,257
5301,0,1,MESSAGE PUMP,WM_KEYUP,257
5363,0,1,MESSAGE PUMP,WM_KEYDOWN,256
5365,0,1,MESSAGE PUMP,WM_GETOBJECT,61
5365,0,1,MESSAGE PUMP,WM_KEYUP,257
5365,1,1,MESSAGE PUMP,WM_GETOBJECT,61
5366,1,1,MESSAGE PUMP,Unknown,356
5397,0,1,MESSAGE PUMP,WM_KEYDOWN,256
5399,0,1,MESSAGE PUMP,WM_GETOBJECT,61
5399,0,1,MESSAGE PUMP,WM_KEYUP,257
5399,1,1,MESSAGE PUMP,WM_GETOBJECT,61
5400,0,1,MESSAGE PUMP,Unknown,356
5460,0,1,MESSAGE PUMP,WM_KEYDOWN,256
5460,0,1,MESSAGE PUMP,WM_CHAR,258
5462,2,1,MESSAGE PUMP,WM_KEYUP,257
6385,0,1,MESSAGE PUMP,WM_KEYDOWN,256
6415,0,1,MESSAGE PUMP,WM_KEYDOWN,256
6416,0,1,MESSAGE PUMP,WM_KEYUP,257
6449,1,1,MESSAGE PUMP,WM_KEYUP,257
6571,1,1,MESSAGE PUMP,WM_SYSKEYDOWN,260
6604,0,1,MESSAGE PUMP,WM_SYSKEYDOWN,260
6604,0,1,MESSAGE PUMP,WM_SYSCOMMAND,274
6604,0,1,MESSAGE PUMP,WM_CLOSE,16
6604,27,0,MESSAGE PUMP,Unknown,144
6604,27,0,MESSAGE PUMP,WM_WINDOWPOSCHANGING,70
6604,27,0,MESSAGE PUMP,WM_WINDOWPOSCHANGED,71
6604,27,0,MESSAGE PUMP,WM_NCACTIVATE,134
6604,27,0,MESSAGE PUMP,WM_GETICON,127
6604,27,0,MESSAGE PUMP,WM_ACTIVATE,6
6604,27,0,MESSAGE PUMP,WM_ACTIVATEAPP,28
6604,27,0,MESSAGE PUMP,WM_KILLFOCUS,8
6604,27,0,MESSAGE PUMP,WM_IME_SETCONTEXT,641
6604,27,0,MESSAGE PUMP,WM_IME_NOTIFY,642
6604,27,0,MESSAGE PUMP,WM_DESTROY,2
6604,27,0,MESSAGE PUMP,WM_NCDESTROY,130
