Frame,Poll Count,Is Polling,Source,Event Name,Event Code
0,0,0,MESSAGE PUMP,WM_GETMINMAXINFO,36
0,0,0,MESSAGE PUMP,WM_WINDOWPOSCHANGING,70
0,0,0,MESSAGE PUMP,WM_GETMINMAXINFO,36
0,0,0,MESSAGE PUMP,WM_NCCALCSIZE,131
0,0,0,MESSAGE PUMP,WM_WINDOWPOSCHANGING,70
0,0,0,MESSAGE PUMP,WM_ACTIVATEAPP,28
0,0,0,MESSAGE PUMP,WM_NCACTIVATE,134
0,0,0,MESSAGE PUMP,WM_ACTIVATE,6
0,0,0,MESSAGE PUMP,WM_IME_SETCONTEXT,641
0,0,0,MESSAGE PUMP,WM_IME_NOTIFY,642
0,0,0,MESSAGE PUMP,WM_SETFOCUS,7
0,0,0,MESSAGE PUMP,WM_NCPAINT,133
0,0,0,MESSAGE PUMP,WM_ERASEBKGND,20
0,0,0,MESSAGE PUMP,WM_WINDOWPOSCHANGED,71
0,0,0,MESSAGE PUMP,WM_MOVE,3
0,0,0,MESSAGE PUMP,WM_SIZE,5
0,0,0,MESSAGE PUMP,WM_WINDOWPOSCHANGING,70
0,0,0,MESSAGE PUMP,WM_GETMINMAXINFO,36
0,0,0,MESSAGE PUMP,WM_NCPAINT,133
0,0,0,MESSAGE PUMP,WM_ERASEBKGND,20
0,0,0,MESSAGE PUMP,WM_WINDOWPOSCHANGED,71
0,0,0,MESSAGE PUMP,WM_MOVE,3
0,0,0,MESSAGE PUMP,WM_SETICON,128
0,0,0,MESSAGE PUMP,Unknown,174
0,0,0,MESSAGE PUMP,WM_SETICON,128
0,0,0,MESSAGE PUMP,Unknown,174
0,0,0,MESSAGE PUMP,WM_WINDOWPOSCHANGING,70
0,0,0,MESSAGE PUMP,WM_GETOBJECT,61
0,0,0,MESSAGE PUMP,WM_GETICON,127
0,0,0,MESSAGE PUMP,WM_WINDOWPOSCHANGING,70
1,0,1,MESSAGE PUMP,WM_GETICON,127
1,0,1,MESSAGE PUMP,Unknown,799
1,0,1,MESSAGE PUMP,Unknown,49351
1,0,1,MESSAGE PUMP,WM_GETMINMAXINFO,36
1,0,1,MESSAGE PUMP,WM_NCHITTEST,132
1,0,1,MESSAGE PUMP,WM_SETCURSOR,32
1,0,1,MESSAGE PUMP,WM_MOUSEFIRST,512
1,0,1,MESSAGE PUMP,WM_PAINT,15
1,0,1,MESSAGE PUMP,WM_GETOBJECT,61
1,0,1,MESSAGE PUMP,Unknown,356
1,0,1,MESSAGE PUMP,WM_GETOBJECT,61
1,0,1,MESSAGE PUMP,WM_GETOBJECT,61
4,8,1,MESSAGE PUMP,WM_GETOBJECT,61
6,18,1,MESSAGE PUMP,WM_GETOBJECT,61
7,0,1,MESSAGE PUMP,Unknown,356
8,9,1,MESSAGE PUMP,Unknown,356
8,12,1,MESSAGE PUMP,WM_GETOBJECT,61
9,0,1,MESSAGE PUMP,Unknown,356
9,14,1,MESSAGE PUMP,Unknown,356
10,5,1,MESSAGE PUMP,Unknown,356
10,9,1,MESSAGE PUMP,WM_GETOBJECT,61
10,9,1,MESSAGE PUMP,WM_GETOBJECT,61
10,9,1,MESSAGE PUMP,WM_GETOBJECT,61
10,9,1,MESSAGE PUMP,Unknown,356
10,9,1,MESSAGE PUMP,WM_GETOBJECT,61
11,0,1,MESSAGE PUMP,WM_GETOBJECT,61
11,6,1,MESSAGE PUMP,WM_GETOBJECT,61
13,0,1,MESSAGE PUMP,Unknown,356
13,0,1,MESSAGE PUMP,WM_GETOBJECT,61
13,3,1,MESSAGE PUMP,WM_GETOBJECT,61
13,10,1,MESSAGE PUMP,Unknown,356
14,1,1,MESSAGE PUMP,WM_GETOBJECT,61
16,1,1,MESSAGE PUMP,Unknown,356
16,8,1,MESSAGE PUMP,WM_GETOBJECT,61
16,8,1,MESSAGE PUMP,Unknown,356
17,0,1,MESSAGE PUMP,Unknown,356
17,4,1,MESSAGE PUMP,Unknown,356
17,4,1,MESSAGE PUMP,WM_GETOBJECT,61
17,9,1,MESSAGE PUMP,Unknown,356
18,0,1,MESSAGE PUMP,WM_GETOBJECT,61
18,0,1,MESSAGE PUMP,WM_GETOBJECT,61
18,0,1,MESSAGE PUMP,WM_GETOBJECT,61
18,1,1,MESSAGE PUMP,WM_GETOBJECT,61
18,1,1,MESSAGE PUMP,WM_GETOBJECT,61
19,0,1,MESSAGE PUMP,WM_GETOBJECT,61
19,2,1,MESSAGE PUMP,Unknown,356
19,2,1,MESSAGE PUMP,WM_GETOBJECT,61
19,4,1,MESSAGE PUMP,Unknown,356
19,9,1,MESSAGE PUMP,Unknown,356
19,9,1,MESSAGE PUMP,WM_GETOBJECT,61
19,12,1,MESSAGE PUMP,Unknown,356
19,26,1,MESSAGE PUMP,WM_GETOBJECT,61
20,3,1,MESSAGE PUMP,Unknown,356
23,1,1,MESSAGE PUMP,WM_GETOBJECT,61
26,0,1,MESSAGE PUMP,Unknown,356
26,21,1,MESSAGE PUMP,WM_GETOBJECT,61
27,0,1,MESSAGE PUMP,Unknown,356
27,22,1,MESSAGE PUMP,WM_GETOBJECT,61
28,1,1,MESSAGE PUMP,WM_GETOBJECT,61
30,0,1,MESSAGE PUMP,Unknown,356
30,21,1,MESSAGE PUMP,WM_GETOBJECT,61
31,0,1,MESSAGE PUMP,Unknown,356
31,17,1,MESSAGE PUMP,WM_GETOBJECT,61
31,31,1,MESSAGE PUMP,Unknown,356
32,19,1,MESSAGE PUMP,WM_GETOBJECT,61
33,0,1,MESSAGE PUMP,Unknown,356
35,1,1,MESSAGE PUMP,WM_GETOBJECT,61
36,1,1,MESSAGE PUMP,Unknown,356
36,16,1,MESSAGE PUMP,WM_GETOBJECT,61
37,1,1,MESSAGE PUMP,Unknown,356
37,18,1,MESSAGE PUMP,WM_GETOBJECT,61
37,30,1,MESSAGE PUMP,Unknown,356
38,16,1,MESSAGE PUMP,WM_GETOBJECT,61
39,0,1,MESSAGE PUMP,Unknown,356
39,18,1,MESSAGE PUMP,WM_GETOBJECT,61
40,2,1,MESSAGE PUMP,Unknown,356
40,17,1,MESSAGE PUMP,WM_GETOBJECT,61
40,29,1,MESSAGE PUMP,Unknown,356
41,19,1,MESSAGE PUMP,WM_GETOBJECT,61
42,2,1,MESSAGE PUMP,Unknown,356
42,17,1,MESSAGE PUMP,WM_GETOBJECT,61
43,3,1,MESSAGE PUMP,Unknown,356
43,21,1,MESSAGE PUMP,WM_GETOBJECT,61
43,32,1,MESSAGE PUMP,Unknown,356
44,13,1,MESSAGE PUMP,WM_GETOBJECT,61
45,2,1,MESSAGE PUMP,Unknown,356
45,20,1,MESSAGE PUMP,WM_GETOBJECT,61
46,2,1,MESSAGE PUMP,Unknown,356
46,17,1,MESSAGE PUMP,WM_GETOBJECT,61
47,3,1,MESSAGE PUMP,Unknown,356
47,22,1,MESSAGE PUMP,WM_GETOBJECT,61
47,32,1,MESSAGE PUMP,Unknown,356
48,12,1,MESSAGE PUMP,WM_GETOBJECT,61
49,3,1,MESSAGE PUMP,Unknown,356
49,22,1,MESSAGE PUMP,WM_GETOBJECT,61
50,0,1,MESSAGE PUMP,Unknown,356
51,20,1,MESSAGE PUMP,WM_GETOBJECT,61
52,1,1,MESSAGE PUMP,Unknown,356
52,16,1,MESSAGE PUMP,WM_GETOBJECT,61
53,2,1,MESSAGE PUMP,Unknown,356
53,21,1,MESSAGE PUMP,WM_GETOBJECT,61
53,33,1,MESSAGE PUMP,Unknown,356
54,14,1,MESSAGE PUMP,WM_GETOBJECT,61
55,1,1,MESSAGE PUMP,WM_GETOBJECT,61
56,1,1,MESSAGE PUMP,Unknown,356
56,21,1,MESSAGE PUMP,WM_GETOBJECT,61
57,2,1,MESSAGE PUMP,Unknown,356
57,17,1,MESSAGE PUMP,WM_GETOBJECT,61
58,2,1,MESSAGE PUMP,Unknown,356
58,20,1,MESSAGE PUMP,WM_GETOBJECT,61
59,2,1,MESSAGE PUMP,Unknown,356
59,18,1,MESSAGE PUMP,WM_GETOBJECT,61
59,28,1,MESSAGE PUMP,Unknown,356
60,19,1,MESSAGE PUMP,WM_GETOBJECT,61
61,3,1,MESSAGE PUMP,Unknown,356
61,21,1,MESSAGE PUMP,WM_GETOBJECT,61
62,2,1,MESSAGE PUMP,Unknown,356
62,17,1,MESSAGE PUMP,WM_GETOBJECT,61
63,3,1,MESSAGE PUMP,Unknown,356
63,21,1,MESSAGE PUMP,WM_GETOBJECT,61
64,0,1,MESSAGE PUMP,Unknown,356
64,15,1,MESSAGE PUMP,WM_GETOBJECT,61
65,3,1,MESSAGE PUMP,Unknown,356
65,22,1,MESSAGE PUMP,WM_GETOBJECT,61
66,2,1,MESSAGE PUMP,Unknown,356
66,17,1,MESSAGE PUMP,WM_GETOBJECT,61
67,1,1,MESSAGE PUMP,Unknown,356
67,16,1,MESSAGE PUMP,WM_GETOBJECT,61
68,3,1,MESSAGE PUMP,Unknown,356
68,21,1,MESSAGE PUMP,WM_GETOBJECT,61
69,2,1,MESSAGE PUMP,Unknown,356
69,17,1,MESSAGE PUMP,WM_GETOBJECT,61
70,3,1,MESSAGE PUMP,Unknown,356
70,22,1,MESSAGE PUMP,WM_GETOBJECT,61
71,0,1,MESSAGE PUMP,Unknown,356
71,15,1,MESSAGE PUMP,WM_GETOBJECT,61
72,3,1,MESSAGE PUMP,Unknown,356
72,21,1,MESSAGE PUMP,WM_GETOBJECT,61
72,33,1,MESSAGE PUMP,Unknown,356
73,14,1,MESSAGE PUMP,WM_GETOBJECT,61
74,2,1,MESSAGE PUMP,Unknown,356
74,20,1,MESSAGE PUMP,WM_GETOBJECT,61
75,2,1,MESSAGE PUMP,Unknown,356
75,18,1,MESSAGE PUMP,WM_GETOBJECT,61
76,3,1,MESSAGE PUMP,Unknown,356
76,21,1,MESSAGE PUMP,WM_GETOBJECT,61
76,32,1,MESSAGE PUMP,Unknown,356
77,14,1,MESSAGE PUMP,WM_GETOBJECT,61
78,0,1,MESSAGE PUMP,Unknown,356
78,19,1,MESSAGE PUMP,WM_GETOBJECT,61
79,2,1,MESSAGE PUMP,Unknown,356
79,17,1,MESSAGE PUMP,WM_GETOBJECT,61
80,3,1,MESSAGE PUMP,Unknown,356
80,21,1,MESSAGE PUMP,WM_GETOBJECT,61
81,2,1,MESSAGE PUMP,Unknown,356
81,18,1,MESSAGE PUMP,WM_GETOBJECT,61
82,1,1,MESSAGE PUMP,Unknown,356
82,17,1,MESSAGE PUMP,WM_GETOBJECT,61
83,3,1,MESSAGE PUMP,Unknown,356
83,21,1,MESSAGE PUMP,WM_GETOBJECT,61
84,0,1,MESSAGE PUMP,Unknown,356
84,21,1,MESSAGE PUMP,WM_GETOBJECT,61
85,2,1,MESSAGE PUMP,Unknown,356
85,18,1,MESSAGE PUMP,WM_GETOBJECT,61
86,1,1,MESSAGE PUMP,WM_GETOBJECT,61
87,2,1,MESSAGE PUMP,Unknown,356
87,22,1,MESSAGE PUMP,WM_GETOBJECT,61
87,32,1,MESSAGE PUMP,Unknown,356
88,14,1,MESSAGE PUMP,WM_GETOBJECT,61
89,3,1,MESSAGE PUMP,Unknown,356
89,21,1,MESSAGE PUMP,WM_GETOBJECT,61
90,2,1,MESSAGE PUMP,Unknown,356
90,17,1,MESSAGE PUMP,WM_GETOBJECT,61
91,2,1,MESSAGE PUMP,Unknown,356
91,20,1,MESSAGE PUMP,WM_GETOBJECT,61
92,2,1,MESSAGE PUMP,Unknown,356
92,17,1,MESSAGE PUMP,WM_GETOBJECT,61
93,2,1,MESSAGE PUMP,Unknown,356
93,21,1,MESSAGE PUMP,WM_GETOBJECT,61
94,0,1,MESSAGE PUMP,Unknown,356
94,15,1,MESSAGE PUMP,WM_GETOBJECT,61
96,1,1,MESSAGE PUMP,Unknown,356
96,20,1,MESSAGE PUMP,WM_GETOBJECT,61
97,3,1,MESSAGE PUMP,Unknown,356
97,21,1,MESSAGE PUMP,WM_GETOBJECT,61
98,2,1,MESSAGE PUMP,Unknown,356
98,18,1,MESSAGE PUMP,WM_GETOBJECT,61
99,0,1,MESSAGE PUMP,Unknown,356
99,22,1,MESSAGE PUMP,WM_GETOBJECT,61
99,31,1,MESSAGE PUMP,Unknown,356
100,13,1,MESSAGE PUMP,WM_GETOBJECT,61
101,3,1,MESSAGE PUMP,Unknown,356
101,21,1,MESSAGE PUMP,WM_GETOBJECT,61
102,2,1,MESSAGE PUMP,Unknown,356
102,17,1,MESSAGE PUMP,WM_GETOBJECT,61
103,2,1,MESSAGE PUMP,Unknown,356
103,22,1,MESSAGE PUMP,WM_GETOBJECT,61
104,2,1,MESSAGE PUMP,Unknown,356
104,21,1,MESSAGE PUMP,WM_GETOBJECT,61
105,3,1,MESSAGE PUMP,Unknown,356
105,22,1,MESSAGE PUMP,WM_GETOBJECT,61
106,2,1,MESSAGE PUMP,Unknown,356
106,17,1,MESSAGE PUMP,WM_GETOBJECT,61
107,3,1,MESSAGE PUMP,Unknown,356
107,22,1,MESSAGE PUMP,WM_GETOBJECT,61
108,4,1,MESSAGE PUMP,Unknown,356
108,23,1,MESSAGE PUMP,WM_GETOBJECT,61
109,3,1,MESSAGE PUMP,Unknown,356
109,22,1,MESSAGE PUMP,WM_GETOBJECT,61
110,2,1,MESSAGE PUMP,Unknown,356
110,21,1,MESSAGE PUMP,WM_GETOBJECT,61
111,2,1,MESSAGE PUMP,Unknown,356
111,17,1,MESSAGE PUMP,WM_GETOBJECT,61
111,30,1,MESSAGE PUMP,Unknown,356
112,18,1,MESSAGE PUMP,WM_GETOBJECT,61
113,0,1,MESSAGE PUMP,Unknown,356
113,21,1,MESSAGE PUMP,WM_GETOBJECT,61
113,34,1,MESSAGE PUMP,Unknown,356
114,12,1,MESSAGE PUMP,WM_GETOBJECT,61
115,2,1,MESSAGE PUMP,Unknown,356
115,17,1,MESSAGE PUMP,WM_GETOBJECT,61
115,28,1,MESSAGE PUMP,Unknown,356
116,20,1,MESSAGE PUMP,WM_GETOBJECT,61
117,0,1,MESSAGE PUMP,Unknown,356
117,22,1,MESSAGE PUMP,WM_GETOBJECT,61
118,3,1,MESSAGE PUMP,Unknown,356
118,22,1,MESSAGE PUMP,WM_GETOBJECT,61
119,2,1,MESSAGE PUMP,Unknown,356
119,21,1,MESSAGE PUMP,WM_GETOBJECT,61
120,2,1,MESSAGE PUMP,Unknown,356
120,19,1,MESSAGE PUMP,WM_GETOBJECT,61
121,2,1,MESSAGE PUMP,Unknown,356
121,17,1,MESSAGE PUMP,WM_GETOBJECT,61
122,0,1,MESSAGE PUMP,Unknown,356
122,21,1,MESSAGE PUMP,WM_GETOBJECT,61
122,34,1,MESSAGE PUMP,Unknown,356
124,1,1,MESSAGE PUMP,WM_GETOBJECT,61
124,14,1,MESSAGE PUMP,WM_GETOBJECT,61
125,2,1,MESSAGE PUMP,Unknown,356
125,17,1,MESSAGE PUMP,WM_GETOBJECT,61
126,3,1,MESSAGE PUMP,Unknown,356
129,1,1,MESSAGE PUMP,WM_GETOBJECT,61
129,14,1,MESSAGE PUMP,Unknown,356
130,14,1,MESSAGE PUMP,WM_GETOBJECT,61
130,27,1,MESSAGE PUMP,Unknown,356
136,1,1,MESSAGE PUMP,WM_GETOBJECT,61
137,1,1,MESSAGE PUMP,Unknown,356
137,16,1,MESSAGE PUMP,WM_GETOBJECT,61
138,3,1,MESSAGE PUMP,Unknown,356
141,1,1,MESSAGE PUMP,WM_GETOBJECT,61
141,13,1,MESSAGE PUMP,Unknown,356
142,14,1,MESSAGE PUMP,WM_GETOBJECT,61
143,0,1,MESSAGE PUMP,Unknown,356
148,1,1,MESSAGE PUMP,WM_GETOBJECT,61
149,1,1,MESSAGE PUMP,Unknown,356
149,16,1,MESSAGE PUMP,WM_GETOBJECT,61
150,3,1,MESSAGE PUMP,Unknown,356
150,22,1,MESSAGE PUMP,WM_GETOBJECT,61
151,1,1,MESSAGE PUMP,Unknown,356
151,16,1,MESSAGE PUMP,WM_GETOBJECT,61
152,1,1,MESSAGE PUMP,Unknown,356
152,16,1,MESSAGE PUMP,WM_GETOBJECT,61
153,1,1,MESSAGE PUMP,WM_GETOBJECT,61
154,0,1,MESSAGE PUMP,Unknown,356
154,21,1,MESSAGE PUMP,WM_GETOBJECT,61
155,1,1,MESSAGE PUMP,Unknown,356
155,16,1,MESSAGE PUMP,WM_GETOBJECT,61
156,1,1,MESSAGE PUMP,Unknown,356
156,16,1,MESSAGE PUMP,WM_GETOBJECT,61
157,2,1,MESSAGE PUMP,Unknown,356
157,20,1,MESSAGE PUMP,WM_GETOBJECT,61
158,2,1,MESSAGE PUMP,Unknown,356
158,18,1,MESSAGE PUMP,WM_GETOBJECT,61
159,0,1,MESSAGE PUMP,Unknown,356
159,21,1,MESSAGE PUMP,WM_GETOBJECT,61
159,36,1,MESSAGE PUMP,Unknown,356
160,10,1,MESSAGE PUMP,WM_GETOBJECT,61
160,25,1,MESSAGE PUMP,Unknown,356
161,17,1,MESSAGE PUMP,WM_GETOBJECT,61
162,2,1,MESSAGE PUMP,Unknown,356
162,17,1,MESSAGE PUMP,WM_GETOBJECT,61
163,2,1,MESSAGE PUMP,Unknown,356
163,20,1,MESSAGE PUMP,WM_GETOBJECT,61
164,2,1,MESSAGE PUMP,Unknown,356
164,18,1,MESSAGE PUMP,WM_GETOBJECT,61
164,34,1,MESSAGE PUMP,Unknown,356
165,13,1,MESSAGE PUMP,WM_GETOBJECT,61
166,1,1,MESSAGE PUMP,Unknown,356
166,19,1,MESSAGE PUMP,WM_GETOBJECT,61
166,38,1,MESSAGE PUMP,Unknown,356
169,1,1,MESSAGE PUMP,WM_GETOBJECT,61
170,0,1,MESSAGE PUMP,Unknown,356
170,15,1,MESSAGE PUMP,WM_GETOBJECT,61
171,1,1,MESSAGE PUMP,Unknown,356
173,1,1,MESSAGE PUMP,WM_GETOBJECT,61
174,0,1,MESSAGE PUMP,Unknown,356
174,16,1,MESSAGE PUMP,WM_GETOBJECT,61
175,3,1,MESSAGE PUMP,Unknown,356
178,1,1,MESSAGE PUMP,WM_GETOBJECT,61
179,2,1,MESSAGE PUMP,Unknown,356
179,17,1,MESSAGE PUMP,WM_GETOBJECT,61
180,2,1,MESSAGE PUMP,Unknown,356
180,21,1,MESSAGE PUMP,WM_GETOBJECT,61
180,35,1,MESSAGE PUMP,Unknown,356
181,1,1,MESSAGE PUMP,WM_GETOBJECT,61
182,10,1,MESSAGE PUMP,WM_GETOBJECT,61
182,20,1,MESSAGE PUMP,Unknown,356
186,1,1,MESSAGE PUMP,WM_GETOBJECT,61
187,2,1,MESSAGE PUMP,Unknown,356
187,17,1,MESSAGE PUMP,WM_GETOBJECT,61
188,3,1,MESSAGE PUMP,Unknown,356
192,1,1,MESSAGE PUMP,WM_GETOBJECT,61
193,2,1,MESSAGE PUMP,Unknown,356
193,17,1,MESSAGE PUMP,WM_GETOBJECT,61
194,2,1,MESSAGE PUMP,Unknown,356
194,20,1,MESSAGE PUMP,WM_GETOBJECT,61
195,2,1,MESSAGE PUMP,Unknown,356
195,17,1,MESSAGE PUMP,WM_GETOBJECT,61
195,27,1,MESSAGE PUMP,Unknown,356
196,18,1,MESSAGE PUMP,WM_GETOBJECT,61
197,2,1,MESSAGE PUMP,Unknown,356
197,17,1,MESSAGE PUMP,WM_GETOBJECT,61
198,2,1,MESSAGE PUMP,Unknown,356
198,20,1,MESSAGE PUMP,WM_GETOBJECT,61
199,2,1,MESSAGE PUMP,Unknown,356
199,17,1,MESSAGE PUMP,WM_GETOBJECT,61
200,1,1,MESSAGE PUMP,Unknown,356
200,19,1,MESSAGE PUMP,WM_GETOBJECT,61
201,2,1,MESSAGE PUMP,Unknown,356
201,17,1,MESSAGE PUMP,WM_GETOBJECT,61
202,0,1,MESSAGE PUMP,Unknown,356
202,20,1,MESSAGE PUMP,WM_GETOBJECT,61
203,0,1,MESSAGE PUMP,Unknown,356
203,16,1,MESSAGE PUMP,WM_GETOBJECT,61
204,3,1,MESSAGE PUMP,Unknown,356
204,21,1,MESSAGE PUMP,WM_GETOBJECT,61
205,0,1,MESSAGE PUMP,Unknown,356
205,15,1,MESSAGE PUMP,WM_GETOBJECT,61
206,2,1,MESSAGE PUMP,Unknown,356
206,21,1,MESSAGE PUMP,WM_GETOBJECT,61
207,0,1,MESSAGE PUMP,Unknown,356
207,16,1,MESSAGE PUMP,WM_GETOBJECT,61
208,1,1,MESSAGE PUMP,WM_GETOBJECT,61
209,1,1,MESSAGE PUMP,Unknown,356
209,20,1,MESSAGE PUMP,WM_GETOBJECT,61
210,2,1,MESSAGE PUMP,Unknown,356
210,17,1,MESSAGE PUMP,WM_GETOBJECT,61
211,2,1,MESSAGE PUMP,Unknown,356
211,17,1,MESSAGE PUMP,WM_GETOBJECT,61
212,2,1,MESSAGE PUMP,Unknown,356
212,20,1,MESSAGE PUMP,WM_GETOBJECT,61
213,2,1,MESSAGE PUMP,Unknown,356
213,18,1,MESSAGE PUMP,WM_GETOBJECT,61
213,29,1,MESSAGE PUMP,Unknown,356
214,17,1,MESSAGE PUMP,WM_GETOBJECT,61
215,2,1,MESSAGE PUMP,Unknown,356
215,17,1,MESSAGE PUMP,WM_GETOBJECT,61
216,2,1,MESSAGE PUMP,Unknown,356
216,21,1,MESSAGE PUMP,WM_GETOBJECT,61
217,0,1,MESSAGE PUMP,Unknown,356
217,21,1,MESSAGE PUMP,WM_GETOBJECT,61
218,0,1,MESSAGE PUMP,Unknown,356
218,21,1,MESSAGE PUMP,WM_GETOBJECT,61
219,1,1,MESSAGE PUMP,Unknown,356
220,1,1,MESSAGE PUMP,WM_GETOBJECT,61
221,1,1,MESSAGE PUMP,Unknown,356
221,16,1,MESSAGE PUMP,WM_GETOBJECT,61
222,0,1,MESSAGE PUMP,Unknown,356
222,21,1,MESSAGE PUMP,WM_GETOBJECT,61
222,34,1,MESSAGE PUMP,Unknown,356
223,14,1,MESSAGE PUMP,WM_GETOBJECT,61
224,3,1,MESSAGE PUMP,Unknown,356
224,21,1,MESSAGE PUMP,WM_GETOBJECT,61
224,34,1,MESSAGE PUMP,Unknown,356
225,14,1,MESSAGE PUMP,WM_GETOBJECT,61
226,3,1,MESSAGE PUMP,Unknown,356
226,22,1,MESSAGE PUMP,WM_GETOBJECT,61
227,2,1,MESSAGE PUMP,Unknown,356
227,17,1,MESSAGE PUMP,WM_GETOBJECT,61
228,0,1,MESSAGE PUMP,Unknown,356
228,18,1,MESSAGE PUMP,WM_GETOBJECT,61
229,0,1,MESSAGE PUMP,Unknown,356
229,16,1,MESSAGE PUMP,WM_GETOBJECT,61
230,3,1,MESSAGE PUMP,Unknown,356
230,22,1,MESSAGE PUMP,WM_GETOBJECT,61
231,1,1,MESSAGE PUMP,Unknown,356
231,19,1,MESSAGE PUMP,WM_GETOBJECT,61
232,2,1,MESSAGE PUMP,Unknown,356
232,18,1,MESSAGE PUMP,WM_GETOBJECT,61
233,1,1,MESSAGE PUMP,Unknown,356
233,20,1,MESSAGE PUMP,WM_GETOBJECT,61
234,1,1,MESSAGE PUMP,Unknown,356
235,2,1,MESSAGE PUMP,WM_GETOBJECT,61
235,16,1,MESSAGE PUMP,Unknown,356
236,12,1,MESSAGE PUMP,WM_GETOBJECT,61
237,0,1,MESSAGE PUMP,Unknown,356
237,19,1,MESSAGE PUMP,WM_GETOBJECT,61
238,3,1,MESSAGE PUMP,Unknown,356
238,17,1,MESSAGE PUMP,WM_GETOBJECT,61
238,40,1,MESSAGE PUMP,Unknown,356
240,1,1,MESSAGE PUMP,WM_GETOBJECT,61
241,1,1,MESSAGE PUMP,WM_GETOBJECT,61
242,1,1,MESSAGE PUMP,Unknown,356
242,16,1,MESSAGE PUMP,WM_GETOBJECT,61
243,3,1,MESSAGE PUMP,Unknown,356
243,22,1,MESSAGE PUMP,WM_GETOBJECT,61
244,1,1,MESSAGE PUMP,Unknown,356
244,16,1,MESSAGE PUMP,WM_GETOBJECT,61
244,34,1,MESSAGE PUMP,Unknown,356
245,17,1,MESSAGE PUMP,WM_GETOBJECT,61
245,32,1,MESSAGE PUMP,Unknown,356
246,10,1,MESSAGE PUMP,WM_GETOBJECT,61
246,29,1,MESSAGE PUMP,Unknown,356
247,18,1,MESSAGE PUMP,WM_GETOBJECT,61
248,2,1,MESSAGE PUMP,Unknown,356
248,17,1,MESSAGE PUMP,WM_GETOBJECT,61
248,19,1,MESSAGE PUMP,Unknown,356
249,12,1,MESSAGE PUMP,WM_GETOBJECT,61
250,1,1,MESSAGE PUMP,Unknown,356
250,15,1,MESSAGE PUMP,WM_GETOBJECT,61
250,17,1,MESSAGE PUMP,Unknown,356
251,11,1,MESSAGE PUMP,WM_GETOBJECT,61
251,31,0,MESSAGE PUMP,Unknown,356
251,31,0,MESSAGE PUMP,WM_GETOBJECT,61
251,31,0,MESSAGE PUMP,Unknown,356
253,1,1,MESSAGE PUMP,WM_GETOBJECT,61
254,1,1,MESSAGE PUMP,Unknown,356
254,15,1,MESSAGE PUMP,WM_GETOBJECT,61
254,35,1,MESSAGE PUMP,Unknown,356
255,10,1,MESSAGE PUMP,WM_GETOBJECT,61
256,2,1,MESSAGE PUMP,Unknown,356
256,10,1,MESSAGE PUMP,WM_GETOBJECT,61
257,1,1,MESSAGE PUMP,Unknown,356
257,9,1,MESSAGE PUMP,WM_GETOBJECT,61
258,1,1,MESSAGE PUMP,Unknown,356
259,22,1,MESSAGE PUMP,WM_GETOBJECT,61
260,2,1,MESSAGE PUMP,Unknown,356
264,5,1,MESSAGE PUMP,WM_GETOBJECT,61
264,21,1,MESSAGE PUMP,Unknown,356
265,6,1,MESSAGE PUMP,WM_GETOBJECT,61
265,8,1,MESSAGE PUMP,Unknown,356
266,6,1,MESSAGE PUMP,Unknown,356
413,0,1,MESSAGE PUMP,WM_KEYDOWN,256
413,0,1,MESSAGE PUMP,WM_CHAR,258
414,0,1,MESSAGE PUMP,WM_KEYUP,257
415,0,1,MESSAGE PUMP,WM_GETOBJECT,61
415,3,1,MESSAGE PUMP,Unknown,356
415,8,1,MESSAGE PUMP,WM_GETOBJECT,61
416,4,1,MESSAGE PUMP,WM_GETOBJECT,61
416,7,1,MESSAGE PUMP,Unknown,356
419,14,1,MESSAGE PUMP,WM_GETOBJECT,61
420,1,1,MESSAGE PUMP,Unknown,356
420,8,1,MESSAGE PUMP,WM_GETOBJECT,61
420,22,1,MESSAGE PUMP,Unknown,356
421,6,1,MESSAGE PUMP,Unknown,356
490,1,1,MESSAGE PUMP,WM_KEYDOWN,256
523,0,1,MESSAGE PUMP,WM_KEYDOWN,256
524,1,1,MESSAGE PUMP,WM_GETOBJECT,61
524,1,1,MESSAGE PUMP,WM_KEYUP,257
525,0,1,MESSAGE PUMP,WM_GETOBJECT,61
525,2,1,MESSAGE PUMP,Unknown,356
528,24,1,MESSAGE PUMP,WM_GETOBJECT,61
528,26,1,MESSAGE PUMP,Unknown,356
529,1,1,MESSAGE PUMP,WM_GETOBJECT,61
529,22,1,MESSAGE PUMP,Unknown,356
530,6,1,MESSAGE PUMP,Unknown,356
547,0,1,MESSAGE PUMP,WM_KEYUP,257
638,0,1,MESSAGE PUMP,WM_KEYDOWN,256
669,0,1,MESSAGE PUMP,WM_KEYDOWN,256
670,0,1,MESSAGE PUMP,WM_KEYUP,257
671,0,1,MESSAGE PUMP,WM_GETOBJECT,61
671,2,1,MESSAGE PUMP,Unknown,356
671,4,1,MESSAGE PUMP,WM_GETOBJECT,61
671,42,1,MESSAGE PUMP,WM_GETOBJECT,61
672,3,1,MESSAGE PUMP,WM_GETOBJECT,61
673,0,1,MESSAGE PUMP,Unknown,356
674,2,1,MESSAGE PUMP,WM_GETOBJECT,61
675,0,1,MESSAGE PUMP,Unknown,356
676,6,1,MESSAGE PUMP,WM_GETOBJECT,61
676,20,1,MESSAGE PUMP,Unknown,356
677,10,1,MESSAGE PUMP,WM_GETOBJECT,61
678,2,1,MESSAGE PUMP,Unknown,356
678,30,1,MESSAGE PUMP,WM_GETOBJECT,61
679,1,1,MESSAGE PUMP,Unknown,356
680,4,1,MESSAGE PUMP,Unknown,356
702,0,1,MESSAGE PUMP,WM_KEYUP,257
791,1,1,MESSAGE PUMP,WM_KEYDOWN,256
817,0,1,MESSAGE PUMP,WM_KEYDOWN,256
818,0,1,MESSAGE PUMP,WM_KEYUP,257
819,0,1,MESSAGE PUMP,WM_GETOBJECT,61
819,2,1,MESSAGE PUMP,WM_GETOBJECT,61
819,19,1,MESSAGE PUMP,Unknown,356
821,0,1,MESSAGE PUMP,WM_GETOBJECT,61
821,3,1,MESSAGE PUMP,Unknown,356
825,2,1,MESSAGE PUMP,WM_GETOBJECT,61
826,0,1,MESSAGE PUMP,Unknown,356
826,8,1,MESSAGE PUMP,WM_GETOBJECT,61
826,23,1,MESSAGE PUMP,Unknown,356
827,7,1,MESSAGE PUMP,Unknown,356
850,0,1,MESSAGE PUMP,WM_KEYUP,257
1717,0,1,MESSAGE PUMP,WM_KEYDOWN,256
1719,0,1,MESSAGE PUMP,WM_GETOBJECT,61
1719,2,1,MESSAGE PUMP,WM_GETOBJECT,61
1719,2,1,MESSAGE PUMP,WM_KEYUP,257
1719,3,1,MESSAGE PUMP,Unknown,356
1751,0,1,MESSAGE PUMP,WM_KEYDOWN,256
1753,0,1,MESSAGE PUMP,WM_GETOBJECT,61
1753,0,1,MESSAGE PUMP,WM_KEYUP,257
1753,1,1,MESSAGE PUMP,Unknown,356
1753,2,1,MESSAGE PUMP,WM_GETOBJECT,61
1784,1,1,MESSAGE PUMP,WM_KEYDOWN,256
1786,0,1,MESSAGE PUMP,WM_GETOBJECT,61
1786,2,1,MESSAGE PUMP,WM_GETOBJECT,61
1786,2,1,MESSAGE PUMP,WM_KEYUP,257
1786,12,1,MESSAGE PUMP,Unknown,356
1819,0,1,MESSAGE PUMP,WM_KEYDOWN,256
1821,0,1,MESSAGE PUMP,WM_GETOBJECT,61
1821,0,1,MESSAGE PUMP,WM_KEYUP,257
1821,1,1,MESSAGE PUMP,Unknown,356
1822,0,1,MESSAGE PUMP,WM_GETOBJECT,61
1822,2,1,MESSAGE PUMP,WM_GETOBJECT,61
1851,1,1,MESSAGE PUMP,WM_KEYDOWN,256
1853,0,1,MESSAGE PUMP,WM_GETOBJECT,61
1853,0,1,MESSAGE PUMP,WM_KEYUP,257
1853,1,1,MESSAGE PUMP,WM_GETOBJECT,61
1854,0,1,MESSAGE PUMP,Unknown,356
1885,0,1,MESSAGE PUMP,WM_KEYDOWN,256
1887,0,1,MESSAGE PUMP,WM_GETOBJECT,61
1887,0,1,MESSAGE PUMP,WM_KEYUP,257
1887,1,1,MESSAGE PUMP,WM_GETOBJECT,61
1888,0,1,MESSAGE PUMP,Unknown,356
1947,0,1,MESSAGE PUMP,WM_KEYDOWN,256
1947,0,1,MESSAGE PUMP,WM_CHAR,258
1947,0,0,MESSAGE PUMP,WM_GETOBJECT,61
1947,0,0,MESSAGE PUMP,WM_GETOBJECT,61
1947,0,0,MESSAGE PUMP,WM_GETOBJECT,61
1947,0,0,MESSAGE PUMP,WM_GETOBJECT,61
1947,0,0,MESSAGE PUMP,WM_GETOBJECT,61
1947,0,0,MESSAGE PUMP,WM_GETOBJECT,61
1947,0,0,MESSAGE PUMP,WM_GETOBJECT,61
1947,0,0,MESSAGE PUMP,WM_GETOBJECT,61
1947,0,0,MESSAGE PUMP,WM_GETOBJECT,61
1947,0,0,MESSAGE PUMP,WM_GETOBJECT,61
1947,0,0,MESSAGE PUMP,WM_GETOBJECT,61
1947,0,0,MESSAGE PUMP,WM_GETOBJECT,61
1947,0,0,MESSAGE PUMP,WM_GETOBJECT,61
1947,0,0,MESSAGE PUMP,WM_GETOBJECT,61
1947,0,0,MESSAGE PUMP,WM_GETOBJECT,61
1947,0,0,MESSAGE PUMP,WM_GETOBJECT,61
1947,0,0,MESSAGE PUMP,WM_GETOBJECT,61
1947,0,0,MESSAGE PUMP,WM_GETOBJECT,61
1947,0,0,MESSAGE PUMP,WM_GETOBJECT,61
1947,0,0,MESSAGE PUMP,WM_GETOBJECT,61
1947,0,0,MESSAGE PUMP,WM_GETOBJECT,61
1947,0,0,MESSAGE PUMP,WM_GETOBJECT,61
1947,0,0,MESSAGE PUMP,WM_GETOBJECT,61
1947,0,0,MESSAGE PUMP,WM_GETOBJECT,61
1947,0,0,MESSAGE PUMP,WM_GETOBJECT,61
1947,0,0,MESSAGE PUMP,WM_GETOBJECT,61
1947,0,0,MESSAGE PUMP,WM_GETOBJECT,61
1947,0,0,MESSAGE PUMP,WM_GETOBJECT,61
1947,0,0,MESSAGE PUMP,WM_GETOBJECT,61
1947,0,0,MESSAGE PUMP,WM_GETOBJECT,61
1947,0,0,MESSAGE PUMP,WM_GETOBJECT,61
1947,0,0,MESSAGE PUMP,WM_GETOBJECT,61
1947,0,0,MESSAGE PUMP,WM_GETOBJECT,61
1947,0,0,MESSAGE PUMP,WM_GETOBJECT,61
1947,0,0,MESSAGE PUMP,WM_GETOBJECT,61
1948,0,1,MESSAGE PUMP,WM_KEYUP,257
1949,0,1,MESSAGE PUMP,WM_GETOBJECT,61
1949,2,1,MESSAGE PUMP,Unknown,356
1949,7,1,MESSAGE PUMP,WM_GETOBJECT,61
1949,25,1,MESSAGE PUMP,WM_GETOBJECT,61
1950,7,1,MESSAGE PUMP,WM_GETOBJECT,61
1950,27,1,MESSAGE PUMP,Unknown,356
1951,6,1,MESSAGE PUMP,WM_GETOBJECT,61
1952,0,1,MESSAGE PUMP,Unknown,356
1952,8,1,MESSAGE PUMP,WM_GETOBJECT,61
1952,29,1,MESSAGE PUMP,Unknown,356
1953,5,1,MESSAGE PUMP,WM_GETOBJECT,61
1953,22,1,MESSAGE PUMP,Unknown,356
1954,10,1,MESSAGE PUMP,WM_GETOBJECT,61
1954,31,1,MESSAGE PUMP,Unknown,356
1955,7,1,MESSAGE PUMP,WM_GETOBJECT,61
1955,10,1,MESSAGE PUMP,Unknown,356
1955,43,1,MESSAGE PUMP,WM_GETOBJECT,61
1956,0,1,MESSAGE PUMP,Unknown,356
1956,13,1,MESSAGE PUMP,WM_GETOBJECT,61
1956,39,1,MESSAGE PUMP,Unknown,356
1957,14,1,MESSAGE PUMP,WM_GETOBJECT,61
1957,35,1,MESSAGE PUMP,Unknown,356
1958,11,1,MESSAGE PUMP,WM_GETOBJECT,61
1958,37,1,MESSAGE PUMP,Unknown,356
1961,12,1,MESSAGE PUMP,WM_GETOBJECT,61
1961,32,1,MESSAGE PUMP,Unknown,356
1962,12,1,MESSAGE PUMP,WM_GETOBJECT,61
1963,2,1,MESSAGE PUMP,Unknown,356
1963,17,1,MESSAGE PUMP,WM_GETOBJECT,61
1964,0,1,MESSAGE PUMP,Unknown,356
1964,14,1,MESSAGE PUMP,WM_GETOBJECT,61
1965,1,1,MESSAGE PUMP,Unknown,356
1965,36,1,MESSAGE PUMP,WM_GETOBJECT,61
1965,50,1,MESSAGE PUMP,Unknown,356
1966,12,1,MESSAGE PUMP,WM_GETOBJECT,61
1966,27,1,MESSAGE PUMP,Unknown,356
1967,9,1,MESSAGE PUMP,WM_GETOBJECT,61
1967,22,1,MESSAGE PUMP,Unknown,356
1968,9,1,MESSAGE PUMP,WM_GETOBJECT,61
1968,26,1,MESSAGE PUMP,Unknown,356
1969,10,1,MESSAGE PUMP,WM_GETOBJECT,61
1970,2,1,MESSAGE PUMP,Unknown,356
1970,15,1,MESSAGE PUMP,WM_GETOBJECT,61
1970,30,1,MESSAGE PUMP,Unknown,356
1971,6,1,MESSAGE PUMP,WM_GETOBJECT,61
1971,25,1,MESSAGE PUMP,Unknown,356
1973,1,1,MESSAGE PUMP,WM_GETOBJECT,61
1974,1,1,MESSAGE PUMP,Unknown,356
1974,10,1,MESSAGE PUMP,Unknown,356
2007,1,1,MESSAGE PUMP,WM_KEYDOWN,256
2010,0,1,MESSAGE PUMP,WM_KEYUP,257
2011,1,1,MESSAGE PUMP,WM_GETOBJECT,61
2011,17,1,MESSAGE PUMP,Unknown,356
2012,5,1,MESSAGE PUMP,WM_GETOBJECT,61
2013,0,1,MESSAGE PUMP,Unknown,356
2042,1,1,MESSAGE PUMP,WM_KEYDOWN,256
2044,1,1,MESSAGE PUMP,WM_KEYUP,257
2045,1,1,MESSAGE PUMP,WM_GETOBJECT,61
2045,17,1,MESSAGE PUMP,Unknown,356
2046,5,1,MESSAGE PUMP,WM_GETOBJECT,61
2046,21,1,MESSAGE PUMP,Unknown,356
2077,0,1,MESSAGE PUMP,WM_KEYDOWN,256
2079,1,1,MESSAGE PUMP,WM_KEYUP,257
2080,1,1,MESSAGE PUMP,WM_GETOBJECT,61
2080,17,1,MESSAGE PUMP,Unknown,356
2081,4,1,MESSAGE PUMP,WM_GETOBJECT,61
2081,6,1,MESSAGE PUMP,Unknown,356
2111,1,1,MESSAGE PUMP,WM_KEYDOWN,256
2114,0,1,MESSAGE PUMP,WM_KEYUP,257
2115,1,1,MESSAGE PUMP,WM_GETOBJECT,61
2115,17,1,MESSAGE PUMP,Unknown,356
2116,6,1,MESSAGE PUMP,WM_GETOBJECT,61
2117,0,1,MESSAGE PUMP,Unknown,356
2146,1,1,MESSAGE PUMP,WM_KEYDOWN,256
2149,0,1,MESSAGE PUMP,WM_KEYUP,257
2150,1,1,MESSAGE PUMP,WM_GETOBJECT,61
2151,0,1,MESSAGE PUMP,Unknown,356
2151,7,1,MESSAGE PUMP,WM_GETOBJECT,61
2151,22,1,MESSAGE PUMP,Unknown,356
2181,1,1,MESSAGE PUMP,WM_KEYDOWN,256
2183,1,1,MESSAGE PUMP,WM_KEYUP,257
2184,1,1,MESSAGE PUMP,WM_GETOBJECT,61
2184,16,1,MESSAGE PUMP,Unknown,356
2185,5,1,MESSAGE PUMP,WM_GETOBJECT,61
2186,1,1,MESSAGE PUMP,Unknown,356
2246,0,1,MESSAGE PUMP,WM_KEYDOWN,256
2246,0,1,MESSAGE PUMP,WM_CHAR,258
2247,0,1,MESSAGE PUMP,WM_KEYUP,257
2248,0,1,MESSAGE PUMP,WM_GETOBJECT,61
2248,2,1,MESSAGE PUMP,WM_GETOBJECT,61
2249,1,1,MESSAGE PUMP,Unknown,356
2249,14,1,MESSAGE PUMP,WM_GETOBJECT,61
2250,1,1,MESSAGE PUMP,Unknown,356
2252,11,1,MESSAGE PUMP,WM_GETOBJECT,61
2252,26,1,MESSAGE PUMP,Unknown,356
2253,6,1,MESSAGE PUMP,WM_GETOBJECT,61
2253,22,1,MESSAGE PUMP,Unknown,356
2254,6,1,MESSAGE PUMP,Unknown,356
2308,0,1,MESSAGE PUMP,WM_KEYDOWN,256
2310,0,1,MESSAGE PUMP,WM_GETOBJECT,61
2310,2,1,MESSAGE PUMP,WM_GETOBJECT,61
2310,2,1,MESSAGE PUMP,WM_KEYUP,257
2310,3,1,MESSAGE PUMP,Unknown,356
2341,0,1,MESSAGE PUMP,WM_KEYDOWN,256
2343,0,1,MESSAGE PUMP,WM_GETOBJECT,61
2343,0,1,MESSAGE PUMP,WM_KEYUP,257
2343,1,1,MESSAGE PUMP,WM_GETOBJECT,61
2344,0,1,MESSAGE PUMP,Unknown,356
2402,1,1,MESSAGE PUMP,WM_KEYDOWN,256
2402,1,1,MESSAGE PUMP,WM_CHAR,258
2402,1,0,MESSAGE PUMP,WM_GETOBJECT,61
2402,1,0,MESSAGE PUMP,WM_GETOBJECT,61
2402,1,0,MESSAGE PUMP,WM_GETOBJECT,61
2402,1,0,MESSAGE PUMP,WM_GETOBJECT,61
2402,1,0,MESSAGE PUMP,WM_GETOBJECT,61
2402,1,0,MESSAGE PUMP,WM_GETOBJECT,61
2402,1,0,MESSAGE PUMP,WM_GETOBJECT,61
2402,1,0,MESSAGE PUMP,WM_GETOBJECT,61
2402,1,0,MESSAGE PUMP,WM_GETOBJECT,61
2402,1,0,MESSAGE PUMP,WM_GETOBJECT,61
2402,1,0,MESSAGE PUMP,WM_GETOBJECT,61
2402,1,0,MESSAGE PUMP,WM_GETOBJECT,61
2402,1,0,MESSAGE PUMP,WM_GETOBJECT,61
2402,1,0,MESSAGE PUMP,WM_GETOBJECT,61
2402,1,0,MESSAGE PUMP,WM_GETOBJECT,61
2402,1,0,MESSAGE PUMP,WM_GETOBJECT,61
2402,1,0,MESSAGE PUMP,WM_GETOBJECT,61
2402,1,0,MESSAGE PUMP,WM_GETOBJECT,61
2402,1,0,MESSAGE PUMP,WM_GETOBJECT,61
2402,1,0,MESSAGE PUMP,WM_GETOBJECT,61
2402,1,0,MESSAGE PUMP,WM_GETOBJECT,61
2402,1,0,MESSAGE PUMP,WM_GETOBJECT,61
2402,1,0,MESSAGE PUMP,WM_GETOBJECT,61
2402,1,0,MESSAGE PUMP,WM_GETOBJECT,61
2402,1,0,MESSAGE PUMP,WM_GETOBJECT,61
2402,1,0,MESSAGE PUMP,WM_GETOBJECT,61
2402,1,0,MESSAGE PUMP,WM_GETOBJECT,61
2402,1,0,MESSAGE PUMP,WM_GETOBJECT,61
2402,1,0,MESSAGE PUMP,WM_GETOBJECT,61
2402,1,0,MESSAGE PUMP,WM_GETOBJECT,61
2402,1,0,MESSAGE PUMP,WM_GETOBJECT,61
2402,1,0,MESSAGE PUMP,WM_GETOBJECT,61
2402,1,0,MESSAGE PUMP,WM_GETOBJECT,61
2402,1,0,MESSAGE PUMP,WM_GETOBJECT,61
2402,1,0,MESSAGE PUMP,WM_GETOBJECT,61
2403,0,1,MESSAGE PUMP,WM_KEYUP,257
2403,0,1,MESSAGE PUMP,WM_GETOBJECT,61
2404,1,1,MESSAGE PUMP,WM_GETOBJECT,61
2404,5,1,MESSAGE PUMP,Unknown,356
2405,6,1,MESSAGE PUMP,WM_GETOBJECT,61
2406,10,1,MESSAGE PUMP,Unknown,356
2409,0,1,MESSAGE PUMP,WM_GETOBJECT,61
2409,3,1,MESSAGE PUMP,Unknown,356
2409,11,1,MESSAGE PUMP,WM_GETOBJECT,61
2410,1,1,MESSAGE PUMP,Unknown,356
2410,9,1,MESSAGE PUMP,WM_GETOBJECT,61
2410,22,1,MESSAGE PUMP,Unknown,356
2411,12,1,MESSAGE PUMP,WM_GETOBJECT,61
2412,0,1,MESSAGE PUMP,Unknown,356
2412,13,1,MESSAGE PUMP,WM_GETOBJECT,61
2412,27,1,MESSAGE PUMP,Unknown,356
2413,11,1,MESSAGE PUMP,WM_GETOBJECT,61
2414,2,1,MESSAGE PUMP,Unknown,356
2414,15,1,MESSAGE PUMP,WM_GETOBJECT,61
2415,0,1,MESSAGE PUMP,Unknown,356
2415,14,1,MESSAGE PUMP,WM_GETOBJECT,61
2416,1,1,MESSAGE PUMP,Unknown,356
2416,15,1,MESSAGE PUMP,WM_GETOBJECT,61
2416,30,1,MESSAGE PUMP,Unknown,356
2417,12,1,MESSAGE PUMP,WM_GETOBJECT,61
2417,28,1,MESSAGE PUMP,Unknown,356
2418,15,1,MESSAGE PUMP,WM_GETOBJECT,61
2419,2,1,MESSAGE PUMP,Unknown,356
2419,16,1,MESSAGE PUMP,WM_GETOBJECT,61
2420,2,1,MESSAGE PUMP,Unknown,356
2420,15,1,MESSAGE PUMP,WM_GETOBJECT,61
2421,0,1,MESSAGE PUMP,Unknown,356
2421,13,1,MESSAGE PUMP,WM_GETOBJECT,61
2421,29,1,MESSAGE PUMP,Unknown,356
2422,14,1,MESSAGE PUMP,WM_GETOBJECT,61
2422,29,1,MESSAGE PUMP,Unknown,356
2423,12,1,MESSAGE PUMP,WM_GETOBJECT,61
2423,27,1,MESSAGE PUMP,Unknown,356
2424,11,1,MESSAGE PUMP,WM_GETOBJECT,61
2425,1,1,MESSAGE PUMP,Unknown,356
2425,15,1,MESSAGE PUMP,WM_GETOBJECT,61
2426,0,1,MESSAGE PUMP,Unknown,356
2426,13,1,MESSAGE PUMP,WM_GETOBJECT,61
2426,29,1,MESSAGE PUMP,Unknown,356
2427,7,1,MESSAGE PUMP,WM_GETOBJECT,61
2427,21,1,MESSAGE PUMP,Unknown,356
2429,1,1,MESSAGE PUMP,WM_GETOBJECT,61
2429,16,1,MESSAGE PUMP,Unknown,356
2430,6,1,MESSAGE PUMP,Unknown,356
2463,1,1,MESSAGE PUMP,WM_KEYDOWN,256
2465,1,1,MESSAGE PUMP,WM_KEYUP,257
2498,0,1,MESSAGE PUMP,WM_KEYDOWN,256
2500,1,1,MESSAGE PUMP,WM_KEYUP,257
2563,0,1,MESSAGE PUMP,WM_KEYDOWN,256
2565,1,1,MESSAGE PUMP,WM_KEYUP,257
2566,1,1,MESSAGE PUMP,WM_GETOBJECT,61
2566,3,1,MESSAGE PUMP,Unknown,356
2568,0,1,MESSAGE PUMP,WM_GETOBJECT,61
2568,16,1,MESSAGE PUMP,Unknown,356
2598,0,1,MESSAGE PUMP,WM_KEYDOWN,256
2600,0,1,MESSAGE PUMP,WM_KEYUP,257
2601,1,1,MESSAGE PUMP,WM_GETOBJECT,61
2601,16,1,MESSAGE PUMP,Unknown,356
2602,5,1,MESSAGE PUMP,WM_GETOBJECT,61
2602,7,1,MESSAGE PUMP,Unknown,356
2632,1,1,MESSAGE PUMP,WM_KEYDOWN,256
2635,0,1,MESSAGE PUMP,WM_KEYUP,257
2637,0,1,MESSAGE PUMP,WM_GETOBJECT,61
2637,12,1,MESSAGE PUMP,Unknown,356
2642,16,1,MESSAGE PUMP,WM_GETOBJECT,61
2643,10,1,MESSAGE PUMP,Unknown,356
2666,0,1,MESSAGE PUMP,WM_KEYDOWN,256
2668,1,1,MESSAGE PUMP,WM_KEYUP,257
2670,0,1,MESSAGE PUMP,WM_GETOBJECT,61
2670,11,1,MESSAGE PUMP,Unknown,356
2672,5,1,MESSAGE PUMP,WM_GETOBJECT,61
2673,0,1,MESSAGE PUMP,Unknown,356
2700,1,1,MESSAGE PUMP,WM_KEYDOWN,256
2703,0,1,MESSAGE PUMP,WM_KEYUP,257
2704,1,1,MESSAGE PUMP,WM_GETOBJECT,61
2705,1,1,MESSAGE PUMP,Unknown,356
2705,8,1,MESSAGE PUMP,WM_GETOBJECT,61
2705,10,1,MESSAGE PUMP,Unknown,356
2735,0,1,MESSAGE PUMP,WM_KEYDOWN,256
2737,1,1,MESSAGE PUMP,WM_KEYUP,257
2738,1,1,MESSAGE PUMP,WM_GETOBJECT,61
2738,20,1,MESSAGE PUMP,Unknown,356
2739,6,1,MESSAGE PUMP,WM_GETOBJECT,61
2740,1,1,MESSAGE PUMP,Unknown,356
2769,1,1,MESSAGE PUMP,WM_KEYDOWN,256
2771,0,1,MESSAGE PUMP,WM_KEYUP,257
2773,0,1,MESSAGE PUMP,WM_GETOBJECT,61
2773,2,1,MESSAGE PUMP,Unknown,356
2773,9,1,MESSAGE PUMP,WM_GETOBJECT,61
2773,23,1,MESSAGE PUMP,Unknown,356
2834,0,1,MESSAGE PUMP,WM_KEYDOWN,256
2834,0,1,MESSAGE PUMP,WM_CHAR,258
2835,0,1,MESSAGE PUMP,WM_KEYUP,257
2836,0,1,MESSAGE PUMP,WM_GETOBJECT,61
2836,2,1,MESSAGE PUMP,WM_GETOBJECT,61
2837,1,1,MESSAGE PUMP,Unknown,356
2838,6,1,MESSAGE PUMP,WM_GETOBJECT,61
2839,0,1,MESSAGE PUMP,Unknown,356
2843,0,1,MESSAGE PUMP,WM_GETOBJECT,61
2843,2,1,MESSAGE PUMP,Unknown,356
2844,2,1,MESSAGE PUMP,WM_GETOBJECT,61
2845,1,1,MESSAGE PUMP,Unknown,356
2846,3,1,MESSAGE PUMP,Unknown,356
2894,0,1,MESSAGE PUMP,WM_KEYDOWN,256
2896,0,1,MESSAGE PUMP,WM_GETOBJECT,61
2896,0,1,MESSAGE PUMP,WM_KEYUP,257
2896,1,1,MESSAGE PUMP,Unknown,356
2897,0,1,MESSAGE PUMP,WM_GETOBJECT,61
2897,2,1,MESSAGE PUMP,WM_GETOBJECT,61
2927,0,1,MESSAGE PUMP,WM_KEYDOWN,256
2929,0,1,MESSAGE PUMP,WM_GETOBJECT,61
2929,0,1,MESSAGE PUMP,WM_KEYUP,257
2929,1,1,MESSAGE PUMP,WM_GETOBJECT,61
2930,2,1,MESSAGE PUMP,Unknown,356
2990,0,1,MESSAGE PUMP,WM_KEYDOWN,256
2990,0,1,MESSAGE PUMP,WM_CHAR,258
2990,0,0,MESSAGE PUMP,WM_GETOBJECT,61
2990,0,0,MESSAGE PUMP,WM_GETOBJECT,61
2990,0,0,MESSAGE PUMP,WM_GETOBJECT,61
2990,0,0,MESSAGE PUMP,WM_GETOBJECT,61
2990,0,0,MESSAGE PUMP,WM_GETOBJECT,61
2990,0,0,MESSAGE PUMP,WM_GETOBJECT,61
2990,0,0,MESSAGE PUMP,WM_GETOBJECT,61
2990,0,0,MESSAGE PUMP,WM_GETOBJECT,61
2990,0,0,MESSAGE PUMP,WM_GETOBJECT,61
2990,0,0,MESSAGE PUMP,WM_GETOBJECT,61
2990,0,0,MESSAGE PUMP,WM_GETOBJECT,61
2990,0,0,MESSAGE PUMP,WM_GETOBJECT,61
2990,0,0,MESSAGE PUMP,WM_GETOBJECT,61
2990,0,0,MESSAGE PUMP,WM_GETOBJECT,61
2990,0,0,MESSAGE PUMP,WM_GETOBJECT,61
2990,0,0,MESSAGE PUMP,WM_GETOBJECT,61
2990,0,0,MESSAGE PUMP,WM_GETOBJECT,61
2990,0,0,MESSAGE PUMP,WM_GETOBJECT,61
2990,0,0,MESSAGE PUMP,WM_GETOBJECT,61
2990,0,0,MESSAGE PUMP,WM_GETOBJECT,61
2990,0,0,MESSAGE PUMP,WM_GETOBJECT,61
2990,0,0,MESSAGE PUMP,WM_GETOBJECT,61
2990,0,0,MESSAGE PUMP,WM_GETOBJECT,61
2990,0,0,MESSAGE PUMP,WM_GETOBJECT,61
2990,0,0,MESSAGE PUMP,WM_GETOBJECT,61
2990,0,0,MESSAGE PUMP,WM_GETOBJECT,61
2990,0,0,MESSAGE PUMP,WM_GETOBJECT,61
2990,0,0,MESSAGE PUMP,WM_GETOBJECT,61
2990,0,0,MESSAGE PUMP,WM_GETOBJECT,61
2990,0,0,MESSAGE PUMP,WM_GETOBJECT,61
2990,0,0,MESSAGE PUMP,WM_GETOBJECT,61
2990,0,0,MESSAGE PUMP,WM_GETOBJECT,61
2990,0,0,MESSAGE PUMP,WM_GETOBJECT,61
2990,0,0,MESSAGE PUMP,WM_GETOBJECT,61
2990,0,0,MESSAGE PUMP,WM_GETOBJECT,61
2991,0,1,MESSAGE PUMP,WM_KEYUP,257
2992,0,1,MESSAGE PUMP,WM_GETOBJECT,61
2992,3,1,MESSAGE PUMP,Unknown,356
2992,9,1,MESSAGE PUMP,WM_GETOBJECT,61
2993,0,1,MESSAGE PUMP,WM_GETOBJECT,61
2993,2,1,MESSAGE PUMP,Unknown,356
2993,10,1,MESSAGE PUMP,WM_GETOBJECT,61
2993,12,1,MESSAGE PUMP,Unknown,356
2994,0,1,MESSAGE PUMP,WM_GETOBJECT,61
2994,2,1,MESSAGE PUMP,Unknown,356
2994,11,1,MESSAGE PUMP,WM_GETOBJECT,61
2995,1,1,MESSAGE PUMP,Unknown,356
2995,14,1,MESSAGE PUMP,WM_GETOBJECT,61
2997,0,1,MESSAGE PUMP,Unknown,356
2999,12,1,MESSAGE PUMP,WM_GETOBJECT,61
2999,27,1,MESSAGE PUMP,Unknown,356
3000,12,1,MESSAGE PUMP,WM_GETOBJECT,61
3001,2,1,MESSAGE PUMP,Unknown,356
3001,15,1,MESSAGE PUMP,WM_GETOBJECT,61
3001,28,1,MESSAGE PUMP,Unknown,356
3002,9,1,MESSAGE PUMP,WM_GETOBJECT,61
3002,12,1,MESSAGE PUMP,Unknown,356
3003,2,1,MESSAGE PUMP,WM_GETOBJECT,61
3004,2,1,MESSAGE PUMP,Unknown,356
3004,33,1,MESSAGE PUMP,WM_GETOBJECT,61
3004,46,1,MESSAGE PUMP,Unknown,356
3010,2,1,MESSAGE PUMP,WM_GETOBJECT,61
3010,18,1,MESSAGE PUMP,Unknown,356
3011,11,1,MESSAGE PUMP,WM_GETOBJECT,61
3012,2,1,MESSAGE PUMP,Unknown,356
3012,15,1,MESSAGE PUMP,WM_GETOBJECT,61
3012,31,1,MESSAGE PUMP,Unknown,356
3013,9,1,MESSAGE PUMP,WM_GETOBJECT,61
3014,12,1,MESSAGE PUMP,Unknown,356
3020,1,1,MESSAGE PUMP,WM_GETOBJECT,61
3020,3,1,MESSAGE PUMP,Unknown,356
3021,2,1,MESSAGE PUMP,WM_GETOBJECT,61
3022,0,1,MESSAGE PUMP,Unknown,356
3022,5,1,MESSAGE PUMP,WM_GETOBJECT,61
3023,6,1,MESSAGE PUMP,WM_GETOBJECT,61
3023,17,1,MESSAGE PUMP,Unknown,356
3029,3,1,MESSAGE PUMP,WM_GETOBJECT,61
3029,5,1,MESSAGE PUMP,Unknown,356
3029,39,1,MESSAGE PUMP,WM_GETOBJECT,61
3030,0,1,MESSAGE PUMP,Unknown,356
3030,8,1,MESSAGE PUMP,WM_GETOBJECT,61
3031,0,1,MESSAGE PUMP,Unknown,356
3032,1,1,MESSAGE PUMP,WM_GETOBJECT,61
3032,17,1,MESSAGE PUMP,Unknown,356
3033,6,1,MESSAGE PUMP,Unknown,356
3051,1,1,MESSAGE PUMP,WM_KEYDOWN,256
3054,0,1,MESSAGE PUMP,WM_KEYUP,257
3086,1,1,MESSAGE PUMP,WM_KEYDOWN,256
3088,1,1,MESSAGE PUMP,WM_KEYUP,257
3151,1,1,MESSAGE PUMP,WM_KEYDOWN,256
3153,1,1,MESSAGE PUMP,WM_KEYUP,257
3154,1,1,MESSAGE PUMP,WM_GETOBJECT,61
3154,17,1,MESSAGE PUMP,Unknown,356
3155,4,1,MESSAGE PUMP,WM_GETOBJECT,61
3156,1,1,MESSAGE PUMP,Unknown,356
3186,0,1,MESSAGE PUMP,WM_KEYDOWN,256
3188,1,1,MESSAGE PUMP,WM_KEYUP,257
3189,1,1,MESSAGE PUMP,WM_GETOBJECT,61
3190,0,1,MESSAGE PUMP,Unknown,356
3190,7,1,MESSAGE PUMP,WM_GETOBJECT,61
3191,1,1,MESSAGE PUMP,Unknown,356
3220,1,1,MESSAGE PUMP,WM_KEYDOWN,256
3223,0,1,MESSAGE PUMP,WM_KEYUP,257
3224,1,1,MESSAGE PUMP,WM_GETOBJECT,61
3225,1,1,MESSAGE PUMP,Unknown,356
3225,9,1,MESSAGE PUMP,WM_GETOBJECT,61
3226,1,1,MESSAGE PUMP,Unknown,356
3285,0,1,MESSAGE PUMP,WM_KEYDOWN,256
3285,0,1,MESSAGE PUMP,WM_CHAR,258
3286,0,1,MESSAGE PUMP,WM_KEYUP,257
3287,0,1,MESSAGE PUMP,WM_GETOBJECT,61
3287,2,1,MESSAGE PUMP,Unknown,356
3287,5,1,MESSAGE PUMP,WM_GETOBJECT,61
3288,4,1,MESSAGE PUMP,WM_GETOBJECT,61
3289,9,1,MESSAGE PUMP,WM_GETOBJECT,61
3289,25,1,MESSAGE PUMP,Unknown,356
3291,15,1,MESSAGE PUMP,WM_GETOBJECT,61
3291,17,1,MESSAGE PUMP,Unknown,356
3292,4,1,MESSAGE PUMP,WM_GETOBJECT,61
3293,0,1,MESSAGE PUMP,Unknown,356
3293,9,1,MESSAGE PUMP,Unknown,356
3348,0,1,MESSAGE PUMP,WM_KEYDOWN,256
3350,0,1,MESSAGE PUMP,WM_GETOBJECT,61
3350,0,1,MESSAGE PUMP,WM_KEYUP,257
3350,1,1,MESSAGE PUMP,WM_GETOBJECT,61
3351,0,1,MESSAGE PUMP,Unknown,356
3382,0,1,MESSAGE PUMP,WM_KEYDOWN,256
3384,0,1,MESSAGE PUMP,WM_GETOBJECT,61
3384,0,1,MESSAGE PUMP,WM_KEYUP,257
3384,2,1,MESSAGE PUMP,Unknown,356
3384,15,1,MESSAGE PUMP,WM_GETOBJECT,61
3385,1,1,MESSAGE PUMP,WM_GETOBJECT,61
3444,1,1,MESSAGE PUMP,WM_KEYDOWN,256
3446,0,1,MESSAGE PUMP,WM_GETOBJECT,61
3446,2,1,MESSAGE PUMP,Unknown,356
3446,7,1,MESSAGE PUMP,WM_GETOBJECT,61
3446,7,1,MESSAGE PUMP,WM_KEYUP,257
3446,8,1,MESSAGE PUMP,WM_GETOBJECT,61
3479,1,1,MESSAGE PUMP,WM_KEYDOWN,256
3480,1,1,MESSAGE PUMP,WM_GETOBJECT,61
3481,1,1,MESSAGE PUMP,WM_GETOBJECT,61
3481,1,1,MESSAGE PUMP,WM_KEYUP,257
3481,2,1,MESSAGE PUMP,Unknown,356
3513,0,1,MESSAGE PUMP,WM_KEYDOWN,256
3515,0,1,MESSAGE PUMP,WM_GETOBJECT,61
3515,0,1,MESSAGE PUMP,WM_KEYUP,257
3515,1,1,MESSAGE PUMP,WM_GETOBJECT,61
3516,0,1,MESSAGE PUMP,Unknown,356
3546,0,1,MESSAGE PUMP,WM_KEYDOWN,256
3548,0,1,MESSAGE PUMP,WM_GETOBJECT,61
3548,0,1,MESSAGE PUMP,WM_KEYUP,257
3548,1,1,MESSAGE PUMP,WM_GETOBJECT,61
3549,1,1,MESSAGE PUMP,Unknown,356
3579,0,1,MESSAGE PUMP,WM_KEYDOWN,256
3581,0,1,MESSAGE PUMP,WM_GETOBJECT,61
3581,0,1,MESSAGE PUMP,WM_KEYUP,257
3581,1,1,MESSAGE PUMP,WM_GETOBJECT,61
3582,0,1,MESSAGE PUMP,Unknown,356
3612,0,1,MESSAGE PUMP,WM_KEYDOWN,256
3614,0,1,MESSAGE PUMP,WM_GETOBJECT,61
3614,2,1,MESSAGE PUMP,WM_GETOBJECT,61
3614,2,1,MESSAGE PUMP,WM_KEYUP,257
3615,0,1,MESSAGE PUMP,Unknown,356
3646,0,1,MESSAGE PUMP,WM_KEYDOWN,256
3646,0,1,MESSAGE PUMP,WM_KEYUP,257
3673,1,1,MESSAGE PUMP,WM_KEYDOWN,256
3675,0,1,MESSAGE PUMP,WM_GETOBJECT,61
3675,2,1,MESSAGE PUMP,WM_GETOBJECT,61
3675,2,1,MESSAGE PUMP,WM_KEYUP,257
3675,12,1,MESSAGE PUMP,Unknown,356
3735,2,1,MESSAGE PUMP,WM_KEYDOWN,256
3737,0,1,MESSAGE PUMP,WM_GETOBJECT,61
3737,2,1,MESSAGE PUMP,WM_GETOBJECT,61
3737,2,1,MESSAGE PUMP,WM_KEYUP,257
3737,4,1,MESSAGE PUMP,Unknown,356
3798,0,1,MESSAGE PUMP,WM_KEYDOWN,256
3798,0,1,MESSAGE PUMP,WM_CHAR,258
3799,2,1,MESSAGE PUMP,WM_GETOBJECT,61
3800,1,1,MESSAGE PUMP,WM_KEYUP,257
3800,1,1,MESSAGE PUMP,Unknown,356
3801,0,1,MESSAGE PUMP,WM_GETOBJECT,61
3801,2,1,MESSAGE PUMP,WM_GETOBJECT,61
3803,2,1,MESSAGE PUMP,WM_GETOBJECT,61
3803,4,1,MESSAGE PUMP,Unknown,356
3861,0,1,MESSAGE PUMP,WM_KEYDOWN,256
3863,0,1,MESSAGE PUMP,WM_GETOBJECT,61
3863,0,1,MESSAGE PUMP,WM_KEYUP,257
3863,1,1,MESSAGE PUMP,WM_GETOBJECT,61
3864,0,1,MESSAGE PUMP,Unknown,356
3923,1,1,MESSAGE PUMP,WM_KEYDOWN,256
3925,0,1,MESSAGE PUMP,WM_GETOBJECT,61
3925,2,1,MESSAGE PUMP,WM_GETOBJECT,61
3925,2,1,MESSAGE PUMP,WM_KEYUP,257
3926,0,1,MESSAGE PUMP,Unknown,356
3956,0,1,MESSAGE PUMP,WM_KEYDOWN,256
3958,0,1,MESSAGE PUMP,WM_GETOBJECT,61
3958,0,1,MESSAGE PUMP,WM_KEYUP,257
3958,1,1,MESSAGE PUMP,WM_GETOBJECT,61
3959,0,1,MESSAGE PUMP,Unknown,356
3990,0,1,MESSAGE PUMP,WM_KEYDOWN,256
3992,0,1,MESSAGE PUMP,WM_GETOBJECT,61
3992,0,1,MESSAGE PUMP,WM_KEYUP,257
3992,1,1,MESSAGE PUMP,WM_GETOBJECT,61
3993,0,1,MESSAGE PUMP,Unknown,356
4022,0,1,MESSAGE PUMP,WM_KEYDOWN,256
4024,0,1,MESSAGE PUMP,WM_GETOBJECT,61
4024,0,1,MESSAGE PUMP,WM_KEYUP,257
4024,1,1,MESSAGE PUMP,WM_GETOBJECT,61
4025,0,1,MESSAGE PUMP,Unknown,356
4056,0,1,MESSAGE PUMP,WM_KEYDOWN,256
4058,0,1,MESSAGE PUMP,WM_GETOBJECT,61
4058,0,1,MESSAGE PUMP,WM_KEYUP,257
4058,1,1,MESSAGE PUMP,WM_GETOBJECT,61
4059,2,1,MESSAGE PUMP,Unknown,356
4118,0,1,MESSAGE PUMP,WM_KEYDOWN,256
4150,0,1,MESSAGE PUMP,WM_KEYDOWN,256
4152,0,1,MESSAGE PUMP,WM_GETOBJECT,61
4152,0,1,MESSAGE PUMP,WM_KEYUP,257
4152,1,1,MESSAGE PUMP,WM_GETOBJECT,61
4152,3,1,MESSAGE PUMP,Unknown,356
4182,1,1,MESSAGE PUMP,WM_KEYUP,257
4241,1,1,MESSAGE PUMP,WM_KEYDOWN,256
4241,1,1,MESSAGE PUMP,WM_CHAR,258
4243,1,1,MESSAGE PUMP,WM_KEYUP,257
4302,12,1,MESSAGE PUMP,WM_KEYDOWN,256
4304,0,1,MESSAGE PUMP,WM_GETOBJECT,61
4304,0,1,MESSAGE PUMP,WM_KEYUP,257
4304,1,1,MESSAGE PUMP,WM_GETOBJECT,61
4304,15,1,MESSAGE PUMP,Unknown,356
4336,1,1,MESSAGE PUMP,WM_KEYDOWN,256
4338,0,1,MESSAGE PUMP,WM_GETOBJECT,61
4338,2,1,MESSAGE PUMP,WM_GETOBJECT,61
4338,2,1,MESSAGE PUMP,WM_KEYUP,257
4339,0,1,MESSAGE PUMP,Unknown,356
4399,0,1,MESSAGE PUMP,WM_KEYDOWN,256
4399,0,1,MESSAGE PUMP,WM_CHAR,258
4400,1,1,MESSAGE PUMP,WM_GETOBJECT,61
4401,0,1,MESSAGE PUMP,WM_GETOBJECT,61
4401,0,1,MESSAGE PUMP,WM_KEYUP,257
4401,2,1,MESSAGE PUMP,Unknown,356
4403,0,1,MESSAGE PUMP,WM_GETOBJECT,61
4403,3,1,MESSAGE PUMP,Unknown,356
4459,2,1,MESSAGE PUMP,WM_KEYDOWN,256
4490,1,1,MESSAGE PUMP,WM_KEYDOWN,256
4492,0,1,MESSAGE PUMP,WM_GETOBJECT,61
4492,2,1,MESSAGE PUMP,WM_GETOBJECT,61
4492,2,1,MESSAGE PUMP,WM_KEYUP,257
4493,0,1,MESSAGE PUMP,Unknown,356
4524,0,1,MESSAGE PUMP,WM_KEYUP,257
4583,0,1,MESSAGE PUMP,WM_KEYDOWN,256
4585,0,1,MESSAGE PUMP,WM_GETOBJECT,61
4585,0,1,MESSAGE PUMP,WM_KEYUP,257
4585,1,1,MESSAGE PUMP,Unknown,356
4585,3,1,MESSAGE PUMP,WM_GETOBJECT,61
4645,0,1,MESSAGE PUMP,WM_KEYDOWN,256
4647,0,1,MESSAGE PUMP,WM_GETOBJECT,61
4647,2,1,MESSAGE PUMP,WM_GETOBJECT,61
4647,2,1,MESSAGE PUMP,WM_KEYUP,257
4647,4,1,MESSAGE PUMP,Unknown,356
4679,0,1,MESSAGE PUMP,WM_KEYDOWN,256
4681,0,1,MESSAGE PUMP,WM_GETOBJECT,61
4681,0,1,MESSAGE PUMP,WM_KEYUP,257
4681,1,1,MESSAGE PUMP,WM_GETOBJECT,61
4682,0,1,MESSAGE PUMP,Unknown,356
4712,1,1,MESSAGE PUMP,WM_KEYDOWN,256
4714,0,1,MESSAGE PUMP,WM_GETOBJECT,61
4714,2,1,MESSAGE PUMP,WM_GETOBJECT,61
4714,2,1,MESSAGE PUMP,WM_KEYUP,257
4714,4,1,MESSAGE PUMP,Unknown,356
4774,0,1,MESSAGE PUMP,WM_KEYDOWN,256
4774,0,1,MESSAGE PUMP,WM_CHAR,258
4776,0,1,MESSAGE PUMP,WM_KEYUP,257
4836,0,1,MESSAGE PUMP,WM_KEYDOWN,256
4838,0,1,MESSAGE PUMP,WM_GETOBJECT,61
4838,1,1,MESSAGE PUMP,WM_KEYUP,257
4838,1,1,MESSAGE PUMP,WM_GETOBJECT,61
4838,3,1,MESSAGE PUMP,Unknown,356
4900,0,1,MESSAGE PUMP,WM_KEYDOWN,256
4902,0,1,MESSAGE PUMP,WM_GETOBJECT,61
4902,0,1,MESSAGE PUMP,WM_KEYUP,257
4902,1,1,MESSAGE PUMP,WM_GETOBJECT,61
4903,0,1,MESSAGE PUMP,Unknown,356
4933,0,1,MESSAGE PUMP,WM_KEYDOWN,256
4935,0,1,MESSAGE PUMP,WM_GETOBJECT,61
4935,0,1,MESSAGE PUMP,WM_KEYUP,257
4935,1,1,MESSAGE PUMP,WM_GETOBJECT,61
4936,1,1,MESSAGE PUMP,Unknown,356
4966,0,1,MESSAGE PUMP,WM_KEYDOWN,256
4968,0,1,MESSAGE PUMP,WM_GETOBJECT,61
4968,0,1,MESSAGE PUMP,WM_KEYUP,257
4968,1,1,MESSAGE PUMP,WM_GETOBJECT,61
4969,0,1,MESSAGE PUMP,Unknown,356
5000,0,1,MESSAGE PUMP,WM_KEYDOWN,256
5002,0,1,MESSAGE PUMP,WM_GETOBJECT,61
5002,2,1,MESSAGE PUMP,WM_GETOBJECT,61
5002,2,1,MESSAGE PUMP,WM_KEYUP,257
5002,5,1,MESSAGE PUMP,Unknown,356
5033,0,1,MESSAGE PUMP,WM_KEYDOWN,256
5035,0,1,MESSAGE PUMP,WM_GETOBJECT,61
5035,2,1,MESSAGE PUMP,WM_GETOBJECT,61
5035,2,1,MESSAGE PUMP,WM_KEYUP,257
5035,4,1,MESSAGE PUMP,Unknown,356
5096,0,1,MESSAGE PUMP,WM_KEYDOWN,256
5096,0,1,MESSAGE PUMP,WM_CHAR,258
5097,3,1,MESSAGE PUMP,WM_GETOBJECT,61
5098,0,1,MESSAGE PUMP,Unknown,356
5098,0,1,MESSAGE PUMP,WM_KEYUP,257
5098,1,1,MESSAGE PUMP,WM_GETOBJECT,61
5100,0,1,MESSAGE PUMP,WM_GETOBJECT,61
5100,2,1,MESSAGE PUMP,Unknown,356
5159,1,1,MESSAGE PUMP,WM_KEYDOWN,256
5161,0,1,MESSAGE PUMP,WM_GETOBJECT,61
5161,2,1,MESSAGE PUMP,WM_GETOBJECT,61
5161,18,1,MESSAGE PUMP,Unknown,356
5162,0,1,MESSAGE PUMP,WM_KEYUP,257
5222,0,1,MESSAGE PUMP,WM_KEYDOWN,256
5253,2,1,MESSAGE PUMP,WM_KEYDOWN,256
5255,0,1,MESSAGE PUMP,WM_GETOBJECT,61
5255,2,1,MESSAGE PUMP,WM_GETOBJECT,61
5255,2,1,MESSAGE PUMP,WM_KEYUP,257
5255,4,1,MESSAGE PUMP,Unknown,356
5286,1,1,MESSAGE PUMP,WM_KEYUP,257
5347,0,1,MESSAGE PUMP,WM_KEYDOWN,256
5349,0,1,MESSAGE PUMP,WM_GETOBJECT,61
5349,0,1,MESSAGE PUMP,WM_KEYUP,257
5349,1,1,MESSAGE PUMP,Unknown,356
5349,6,1,MESSAGE PUMP,WM_GETOBJECT,61
5349,23,1,MESSAGE PUMP,WM_GETOBJECT,61
5382,0,1,MESSAGE PUMP,WM_KEYDOWN,256
5384,0,1,MESSAGE PUMP,WM_GETOBJECT,61
5384,0,1,MESSAGE PUMP,WM_KEYUP,257
5384,1,1,MESSAGE PUMP,WM_GETOBJECT,61
5385,0,1,MESSAGE PUMP,Unknown,356
5445,0,1,MESSAGE PUMP,WM_KEYDOWN,256
5445,0,1,MESSAGE PUMP,WM_CHAR,258
5447,0,1,MESSAGE PUMP,WM_KEYUP,257
6372,0,1,MESSAGE PUMP,WM_KEYDOWN,256
6403,0,1,MESSAGE PUMP,WM_KEYDOWN,256
6405,0,1,MESSAGE PUMP,WM_KEYUP,257
6437,0,1,MESSAGE PUMP,WM_KEYUP,257
6559,0,1,MESSAGE PUMP,WM_SYSKEYDOWN,260
6592,0,1,MESSAGE PUMP,WM_SYSKEYDOWN,260
6592,0,1,MESSAGE PUMP,WM_SYSCOMMAND,274
6592,0,1,MESSAGE PUMP,WM_CLOSE,16
6592,18,0,MESSAGE PUMP,Unknown,144
6592,18,0,MESSAGE PUMP,WM_WINDOWPOSCHANGING,70
6592,18,0,MESSAGE PUMP,WM_WINDOWPOSCHANGED,71
6592,18,0,MESSAGE PUMP,WM_NCACTIVATE,134
6592,18,0,MESSAGE PUMP,WM_GETICON,127
6592,18,0,MESSAGE PUMP,WM_ACTIVATE,6
6592,18,0,MESSAGE PUMP,WM_ACTIVATEAPP,28
6592,18,0,MESSAGE PUMP,WM_KILLFOCUS,8
6592,18,0,MESSAGE PUMP,WM_IME_SETCONTEXT,641
6592,18,0,MESSAGE PUMP,WM_IME_NOTIFY,642
6592,18,0,MESSAGE PUMP,WM_DESTROY,2
6592,18,0,MESSAGE PUMP,WM_NCDESTROY,130
