Frame,Poll Count,Is Polling,Source,Event Name,Event Code
0,0,0,MESSAGE PUMP,WM_SHOWWINDOW,24
0,0,0,MESSAGE PUMP,WM_WINDOWPOSCHANGING,70
0,0,0,MESSAGE PUMP,WM_WINDOWPOSCHANGING,70
0,0,0,MESSAGE PUMP,WM_ACTIVATEAPP,28
0,0,0,MESSAGE PUMP,WM_NCACTIVATE,134
0,0,0,MESSAGE PUMP,WM_ACTIVATE,6
0,0,0,MESSAGE PUMP,WM_IME_SETCONTEXT,641
0,0,0,MESSAGE PUMP,WM_IME_NOTIFY,642
0,0,0,MESSAGE PUMP,WM_SETFOCUS,7
0,0,0,MESSAGE PUMP,WM_NCPAINT,133
0,0,0,MESSAGE PUMP,WM_ERASEBKGND,20
0,0,0,MESSAGE PUMP,WM_WINDOWPOSCHANGED,71
0,0,0,MESSAGE PUMP,WM_SIZE,5
0,0,0,MESSAGE PUMP,WM_MOVE,3
0,0,0,MESSAGE PUMP,WM_WINDOWPOSCHANGING,70
1,0,1,MESSAGE PUMP,WM_GETICON,127
1,0,1,MESSAGE PUMP,Unknown,799
1,0,1,MESSAGE PUMP,WM_GETICON,127
1,0,1,MESSAGE PUMP,Unknown,49351
1,0,1,MESSAGE PUMP,WM_GETICON,127
1,0,1,MESSAGE PUMP,WM_PAINT,15
295,0,1,MESSAGE PUMP,WM_KEYDOWN,256
295,0,1,MESSAGE PUMP,WM_CHAR,258
295,0,1,MESSAGE PUMP,WM_KEYUP,257
296,0,1,MESSAGE PUMP,WM_KEYDOWN,256
296,0,1,MESSAGE PUMP,WM_CHAR,258
296,0,1,MESSAGE PUMP,WM_KEYUP,257
296,0,1,MESSAGE PUMP,WM_KEYDOWN,256
296,0,1,MESSAGE PUMP,WM_CHAR,258
297,0,1,MESSAGE PUMP,WM_KEYUP,257
313,0,1,MESSAGE PUMP,WM_KEYDOWN,256
313,0,1,MESSAGE PUMP,WM_KEYUP,257
332,0,1,MESSAGE PUMP,WM_KEYDOWN,256
332,0,1,MESSAGE PUMP,WM_KEYUP,257
355,0,1,MESSAGE PUMP,WM_KEYDOWN,256
355,0,1,MESSAGE PUMP,WM_KEYUP,257
356,0,1,MESSAGE PUMP,WM_KEYDOWN,256
357,0,1,MESSAGE PUMP,WM_KEYUP,257
357,0,1,MESSAGE PUMP,WM_KEYDOWN,256
358,0,1,MESSAGE PUMP,WM_KEYUP,257
358,0,1,MESSAGE PUMP,WM_KEYDOWN,256
359,0,1,MESSAGE PUMP,WM_KEYUP,257
377,0,1,MESSAGE PUMP,WM_KEYDOWN,256
377,0,1,MESSAGE PUMP,WM_KEYUP,257
396,0,1,MESSAGE PUMP,WM_KEYDOWN,256
396,0,1,MESSAGE PUMP,WM_KEYUP,257
397,0,1,MESSAGE PUMP,WM_KEYDOWN,256
398,0,1,MESSAGE PUMP,WM_KEYUP,257
415,2,1,MESSAGE PUMP,WM_KEYDOWN,256
415,2,1,MESSAGE PUMP,WM_CHAR,258
416,0,1,MESSAGE PUMP,WM_KEYUP,257
461,2,1,MESSAGE PUMP,WM_KEYDOWN,256
462,1,1,MESSAGE PUMP,WM_KEYDOWN,256
462,1,1,MESSAGE PUMP,WM_CHAR,258
463,0,1,MESSAGE PUMP,WM_KEYUP,257
463,1,1,MESSAGE PUMP,WM_KEYUP,257
463,3,1,MESSAGE PUMP,WM_KEYDOWN,256
463,3,1,MESSAGE PUMP,WM_CHAR,258
464,1,1,MESSAGE PUMP,WM_KEYUP,257
464,2,1,MESSAGE PUMP,WM_KEYDOWN,256
464,2,1,MESSAGE PUMP,WM_CHAR,258
465,1,1,MESSAGE PUMP,WM_KEYUP,257
465,2,1,MESSAGE PUMP,WM_KEYDOWN,256
465,2,1,MESSAGE PUMP,WM_CHAR,258
466,1,1,MESSAGE PUMP,WM_KEYUP,257
466,3,1,MESSAGE PUMP,WM_KEYDOWN,256
466,3,1,MESSAGE PUMP,WM_CHAR,258
467,1,1,MESSAGE PUMP,WM_KEYUP,257
467,2,1,MESSAGE PUMP,WM_KEYDOWN,256
467,2,1,MESSAGE PUMP,WM_CHAR,258
468,1,1,MESSAGE PUMP,WM_KEYUP,257
468,3,1,MESSAGE PUMP,WM_KEYDOWN,256
468,3,1,MESSAGE PUMP,WM_CHAR,258
469,1,1,MESSAGE PUMP,WM_KEYUP,257
469,2,1,MESSAGE PUMP,WM_KEYDOWN,256
469,2,1,MESSAGE PUMP,WM_CHAR,258
470,2,1,MESSAGE PUMP,WM_KEYUP,257
470,3,1,MESSAGE PUMP,WM_KEYDOWN,256
470,3,1,MESSAGE PUMP,WM_CHAR,258
471,1,1,MESSAGE PUMP,WM_KEYUP,257
471,3,1,MESSAGE PUMP,WM_KEYDOWN,256
471,3,1,MESSAGE PUMP,WM_CHAR,258
472,1,1,MESSAGE PUMP,WM_KEYUP,257
472,2,1,MESSAGE PUMP,WM_KEYDOWN,256
472,2,1,MESSAGE PUMP,WM_CHAR,258
473,2,1,MESSAGE PUMP,WM_KEYUP,257
513,0,1,MESSAGE PUMP,WM_SYSKEYDOWN,260
513,2,1,MESSAGE PUMP,WM_SYSKEYDOWN,260
513,2,1,MESSAGE PUMP,WM_SYSCHAR,262
513,4,1,MESSAGE PUMP,WM_SYSKEYUP,261
513,10,1,MESSAGE PUMP,WM_KEYUP,257
550,0,1,MESSAGE PUMP,WM_KEYDOWN,256
550,0,1,MESSAGE PUMP,WM_KEYDOWN,256
550,0,1,MESSAGE PUMP,WM_CHAR,258
551,0,1,MESSAGE PUMP,WM_KEYUP,257
551,0,1,MESSAGE PUMP,WM_KEYUP,257
551,2,1,MESSAGE PUMP,WM_KEYDOWN,256
551,2,1,MESSAGE PUMP,WM_CHAR,258
552,0,1,MESSAGE PUMP,WM_KEYUP,257
552,0,1,MESSAGE PUMP,WM_KEYDOWN,256
552,0,1,MESSAGE PUMP,WM_CHAR,258
552,0,1,MESSAGE PUMP,WM_KEYUP,257
552,0,1,MESSAGE PUMP,WM_KEYDOWN,256
552,0,1,MESSAGE PUMP,WM_CHAR,258
552,0,1,MESSAGE PUMP,WM_KEYUP,257
553,0,1,MESSAGE PUMP,WM_KEYDOWN,256
553,0,1,MESSAGE PUMP,WM_CHAR,258
554,0,1,MESSAGE PUMP,WM_KEYUP,257
554,1,1,MESSAGE PUMP,WM_KEYDOWN,256
554,1,1,MESSAGE PUMP,WM_CHAR,258
555,1,1,MESSAGE PUMP,WM_KEYUP,257
555,3,1,MESSAGE PUMP,WM_KEYDOWN,256
555,3,1,MESSAGE PUMP,WM_CHAR,258
556,1,1,MESSAGE PUMP,WM_KEYUP,257
556,2,1,MESSAGE PUMP,WM_KEYDOWN,256
556,2,1,MESSAGE PUMP,WM_CHAR,258
557,1,1,MESSAGE PUMP,WM_KEYUP,257
557,2,1,MESSAGE PUMP,WM_KEYDOWN,256
557,2,1,MESSAGE PUMP,WM_CHAR,258
558,1,1,MESSAGE PUMP,WM_KEYUP,257
558,3,1,MESSAGE PUMP,WM_KEYDOWN,256
558,3,1,MESSAGE PUMP,WM_CHAR,258
559,1,1,MESSAGE PUMP,WM_KEYUP,257
559,2,1,MESSAGE PUMP,WM_KEYDOWN,256
559,2,1,MESSAGE PUMP,WM_CHAR,258
560,1,1,MESSAGE PUMP,WM_KEYUP,257
560,2,1,MESSAGE PUMP,WM_KEYDOWN,256
560,2,1,MESSAGE PUMP,WM_CHAR,258
561,1,1,MESSAGE PUMP,WM_KEYUP,257
561,2,1,MESSAGE PUMP,WM_KEYDOWN,256
561,2,1,MESSAGE PUMP,WM_CHAR,258
562,1,1,MESSAGE PUMP,WM_KEYUP,257
562,2,1,MESSAGE PUMP,WM_KEYDOWN,256
562,2,1,MESSAGE PUMP,WM_CHAR,258
563,1,1,MESSAGE PUMP,WM_KEYUP,257
563,2,1,MESSAGE PUMP,WM_KEYDOWN,256
563,2,1,MESSAGE PUMP,WM_CHAR,258
564,1,1,MESSAGE PUMP,WM_KEYUP,257
564,2,1,MESSAGE PUMP,WM_KEYDOWN,256
564,2,1,MESSAGE PUMP,WM_CHAR,258
565,1,1,MESSAGE PUMP,WM_KEYUP,257
565,2,1,MESSAGE PUMP,WM_KEYDOWN,256
565,2,1,MESSAGE PUMP,WM_CHAR,258
566,1,1,MESSAGE PUMP,WM_KEYUP,257
566,2,1,MESSAGE PUMP,WM_KEYDOWN,256
566,2,1,MESSAGE PUMP,WM_CHAR,258
567,1,1,MESSAGE PUMP,WM_KEYUP,257
567,2,1,MESSAGE PUMP,WM_KEYDOWN,256
567,2,1,MESSAGE PUMP,WM_CHAR,258
568,1,1,MESSAGE PUMP,WM_KEYUP,257
568,2,1,MESSAGE PUMP,WM_KEYDOWN,256
568,2,1,MESSAGE PUMP,WM_CHAR,258
569,1,1,MESSAGE PUMP,WM_KEYUP,257
569,2,1,MESSAGE PUMP,WM_KEYDOWN,256
569,2,1,MESSAGE PUMP,WM_CHAR,258
570,1,1,MESSAGE PUMP,WM_KEYUP,257
570,2,1,MESSAGE PUMP,WM_KEYDOWN,256
570,2,1,MESSAGE PUMP,WM_CHAR,258
571,1,1,MESSAGE PUMP,WM_KEYUP,257
571,2,1,MESSAGE PUMP,WM_KEYDOWN,256
571,2,1,MESSAGE PUMP,WM_CHAR,258
572,1,1,MESSAGE PUMP,WM_KEYUP,257
572,2,1,MESSAGE PUMP,WM_KEYDOWN,256
572,2,1,MESSAGE PUMP,WM_CHAR,258
573,1,1,MESSAGE PUMP,WM_KEYUP,257
615,2,1,MESSAGE PUMP,WM_KEYDOWN,256
615,2,1,MESSAGE PUMP,WM_CHAR,258
616,0,1,MESSAGE PUMP,WM_KEYUP,257
653,0,1,MESSAGE PUMP,WM_KEYDOWN,256
653,0,1,MESSAGE PUMP,WM_KEYDOWN,256
653,0,1,MESSAGE PUMP,WM_CHAR,258
653,0,1,MESSAGE PUMP,WM_KEYUP,257
654,0,1,MESSAGE PUMP,WM_KEYUP,257
654,2,1,MESSAGE PUMP,WM_KEYDOWN,256
654,2,1,MESSAGE PUMP,WM_CHAR,258
655,0,1,MESSAGE PUMP,WM_KEYUP,257
655,2,1,MESSAGE PUMP,WM_KEYDOWN,256
655,2,1,MESSAGE PUMP,WM_CHAR,258
656,1,1,MESSAGE PUMP,WM_KEYUP,257
656,2,1,MESSAGE PUMP,WM_KEYDOWN,256
656,2,1,MESSAGE PUMP,WM_CHAR,258
657,1,1,MESSAGE PUMP,WM_KEYUP,257
657,2,1,MESSAGE PUMP,WM_KEYDOWN,256
657,2,1,MESSAGE PUMP,WM_CHAR,258
658,1,1,MESSAGE PUMP,WM_KEYUP,257
658,2,1,MESSAGE PUMP,WM_KEYDOWN,256
658,2,1,MESSAGE PUMP,WM_CHAR,258
659,1,1,MESSAGE PUMP,WM_KEYUP,257
659,2,1,MESSAGE PUMP,WM_KEYDOWN,256
659,2,1,MESSAGE PUMP,WM_CHAR,258
660,1,1,MESSAGE PUMP,WM_KEYUP,257
660,3,1,MESSAGE PUMP,WM_KEYDOWN,256
660,3,1,MESSAGE PUMP,WM_CHAR,258
661,1,1,MESSAGE PUMP,WM_KEYUP,257
661,2,1,MESSAGE PUMP,WM_KEYDOWN,256
661,2,1,MESSAGE PUMP,WM_CHAR,258
662,1,1,MESSAGE PUMP,WM_KEYUP,257
662,3,1,MESSAGE PUMP,WM_KEYDOWN,256
662,3,1,MESSAGE PUMP,WM_CHAR,258
663,1,1,MESSAGE PUMP,WM_KEYUP,257
663,2,1,MESSAGE PUMP,WM_KEYDOWN,256
663,2,1,MESSAGE PUMP,WM_CHAR,258
664,2,1,MESSAGE PUMP,WM_KEYUP,257
664,3,1,MESSAGE PUMP,WM_KEYDOWN,256
664,3,1,MESSAGE PUMP,WM_CHAR,258
665,1,1,MESSAGE PUMP,WM_KEYUP,257
665,3,1,MESSAGE PUMP,WM_KEYDOWN,256
665,3,1,MESSAGE PUMP,WM_CHAR,258
666,1,1,MESSAGE PUMP,WM_KEYUP,257
666,2,1,MESSAGE PUMP,WM_KEYDOWN,256
666,2,1,MESSAGE PUMP,WM_CHAR,258
667,2,1,MESSAGE PUMP,WM_KEYUP,257
667,3,1,MESSAGE PUMP,WM_KEYDOWN,256
667,3,1,MESSAGE PUMP,WM_CHAR,258
668,1,1,MESSAGE PUMP,WM_KEYUP,257
668,2,1,MESSAGE PUMP,WM_KEYDOWN,256
668,2,1,MESSAGE PUMP,WM_CHAR,258
669,1,1,MESSAGE PUMP,WM_KEYUP,257
669,2,1,MESSAGE PUMP,WM_KEYDOWN,256
669,2,1,MESSAGE PUMP,WM_CHAR,258
670,1,1,MESSAGE PUMP,WM_KEYUP,257
670,3,1,MESSAGE PUMP,WM_KEYDOWN,256
670,3,1,MESSAGE PUMP,WM_CHAR,258
671,1,1,MESSAGE PUMP,WM_KEYUP,257
671,2,1,MESSAGE PUMP,WM_KEYDOWN,256
671,2,1,MESSAGE PUMP,WM_CHAR,258
672,1,1,MESSAGE PUMP,WM_KEYUP,257
672,2,1,MESSAGE PUMP,WM_KEYDOWN,256
672,2,1,MESSAGE PUMP,WM_CHAR,258
673,1,1,MESSAGE PUMP,WM_KEYUP,257
673,2,1,MESSAGE PUMP,WM_KEYDOWN,256
673,2,1,MESSAGE PUMP,WM_CHAR,258
674,1,1,MESSAGE PUMP,WM_KEYUP,257
674,2,1,MESSAGE PUMP,WM_KEYDOWN,256
674,2,1,MESSAGE PUMP,WM_CHAR,258
675,1,1,MESSAGE PUMP,WM_KEYUP,257
675,2,1,MESSAGE PUMP,WM_KEYDOWN,256
675,2,1,MESSAGE PUMP,WM_CHAR,258
676,1,1,MESSAGE PUMP,WM_KEYUP,257
676,2,1,MESSAGE PUMP,WM_KEYDOWN,256
676,2,1,MESSAGE PUMP,WM_CHAR,258
677,1,1,MESSAGE PUMP,WM_KEYUP,257
677,2,1,MESSAGE PUMP,WM_KEYDOWN,256
677,2,1,MESSAGE PUMP,WM_CHAR,258
678,1,1,MESSAGE PUMP,WM_KEYUP,257
678,2,1,MESSAGE PUMP,WM_KEYDOWN,256
678,2,1,MESSAGE PUMP,WM_CHAR,258
679,1,1,MESSAGE PUMP,WM_KEYUP,257
679,2,1,MESSAGE PUMP,WM_KEYDOWN,256
679,2,1,MESSAGE PUMP,WM_CHAR,258
680,1,1,MESSAGE PUMP,WM_KEYUP,257
680,2,1,MESSAGE PUMP,WM_KEYDOWN,256
680,2,1,MESSAGE PUMP,WM_CHAR,258
681,1,1,MESSAGE PUMP,WM_KEYUP,257
681,2,1,MESSAGE PUMP,WM_KEYDOWN,256
681,2,1,MESSAGE PUMP,WM_CHAR,258
682,1,1,MESSAGE PUMP,WM_KEYUP,257
682,2,1,MESSAGE PUMP,WM_KEYDOWN,256
682,2,1,MESSAGE PUMP,WM_CHAR,258
683,1,1,MESSAGE PUMP,WM_KEYUP,257
683,2,1,MESSAGE PUMP,WM_KEYDOWN,256
683,2,1,MESSAGE PUMP,WM_CHAR,258
684,1,1,MESSAGE PUMP,WM_KEYUP,257
684,2,1,MESSAGE PUMP,WM_KEYDOWN,256
684,2,1,MESSAGE PUMP,WM_CHAR,258
685,1,1,MESSAGE PUMP,WM_KEYUP,257
685,2,1,MESSAGE PUMP,WM_KEYDOWN,256
685,2,1,MESSAGE PUMP,WM_CHAR,258
686,1,1,MESSAGE PUMP,WM_KEYUP,257
686,2,1,MESSAGE PUMP,WM_KEYDOWN,256
686,2,1,MESSAGE PUMP,WM_CHAR,258
687,1,1,MESSAGE PUMP,WM_KEYUP,257
687,2,1,MESSAGE PUMP,WM_KEYDOWN,256
687,2,1,MESSAGE PUMP,WM_CHAR,258
688,1,1,MESSAGE PUMP,WM_KEYUP,257
688,2,1,MESSAGE PUMP,WM_KEYDOWN,256
688,2,1,MESSAGE PUMP,WM_CHAR,258
689,1,1,MESSAGE PUMP,WM_KEYUP,257
689,2,1,MESSAGE PUMP,WM_KEYDOWN,256
689,2,1,MESSAGE PUMP,WM_CHAR,258
690,1,1,MESSAGE PUMP,WM_KEYUP,257
690,1,1,MESSAGE PUMP,WM_KEYDOWN,256
690,1,1,MESSAGE PUMP,WM_CHAR,258
691,0,1,MESSAGE PUMP,WM_KEYUP,257
691,1,1,MESSAGE PUMP,WM_KEYDOWN,256
691,1,1,MESSAGE PUMP,WM_CHAR,258
692,1,1,MESSAGE PUMP,WM_KEYUP,257
692,2,1,MESSAGE PUMP,WM_KEYDOWN,256
692,2,1,MESSAGE PUMP,WM_CHAR,258
693,1,1,MESSAGE PUMP,WM_KEYUP,257
693,2,1,MESSAGE PUMP,WM_KEYDOWN,256
693,2,1,MESSAGE PUMP,WM_CHAR,258
694,1,1,MESSAGE PUMP,WM_KEYUP,257
694,2,1,MESSAGE PUMP,WM_KEYDOWN,256
694,2,1,MESSAGE PUMP,WM_CHAR,258
695,1,1,MESSAGE PUMP,WM_KEYUP,257
695,2,1,MESSAGE PUMP,WM_KEYDOWN,256
695,2,1,MESSAGE PUMP,WM_CHAR,258
696,1,1,MESSAGE PUMP,WM_KEYUP,257
696,2,1,MESSAGE PUMP,WM_KEYDOWN,256
696,2,1,MESSAGE PUMP,WM_CHAR,258
697,1,1,MESSAGE PUMP,WM_KEYUP,257
697,2,1,MESSAGE PUMP,WM_KEYDOWN,256
697,2,1,MESSAGE PUMP,WM_CHAR,258
698,0,1,MESSAGE PUMP,WM_KEYUP,257
698,1,1,MESSAGE PUMP,WM_KEYDOWN,256
698,1,1,MESSAGE PUMP,WM_CHAR,258
699,1,1,MESSAGE PUMP,WM_KEYUP,257
699,2,1,MESSAGE PUMP,WM_KEYDOWN,256
699,2,1,MESSAGE PUMP,WM_CHAR,258
700,1,1,MESSAGE PUMP,WM_KEYUP,257
700,2,1,MESSAGE PUMP,WM_KEYDOWN,256
700,2,1,MESSAGE PUMP,WM_CHAR,258
701,1,1,MESSAGE PUMP,WM_KEYUP,257
701,2,1,MESSAGE PUMP,WM_KEYDOWN,256
701,2,1,MESSAGE PUMP,WM_CHAR,258
702,1,1,MESSAGE PUMP,WM_KEYUP,257
702,2,1,MESSAGE PUMP,WM_KEYDOWN,256
702,2,1,MESSAGE PUMP,WM_CHAR,258
703,1,1,MESSAGE PUMP,WM_KEYUP,257
703,2,1,MESSAGE PUMP,WM_KEYDOWN,256
703,2,1,MESSAGE PUMP,WM_CHAR,258
704,0,1,MESSAGE PUMP,WM_KEYUP,257
704,1,1,MESSAGE PUMP,WM_KEYDOWN,256
704,1,1,MESSAGE PUMP,WM_CHAR,258
705,1,1,MESSAGE PUMP,WM_KEYUP,257
705,2,1,MESSAGE PUMP,WM_KEYDOWN,256
705,2,1,MESSAGE PUMP,WM_CHAR,258
706,1,1,MESSAGE PUMP,WM_KEYUP,257
706,2,1,MESSAGE PUMP,WM_KEYDOWN,256
706,2,1,MESSAGE PUMP,WM_CHAR,258
707,1,1,MESSAGE PUMP,WM_KEYUP,257
707,2,1,MESSAGE PUMP,WM_KEYDOWN,256
707,2,1,MESSAGE PUMP,WM_CHAR,258
708,1,1,MESSAGE PUMP,WM_KEYUP,257
708,2,1,MESSAGE PUMP,WM_KEYDOWN,256
708,2,1,MESSAGE PUMP,WM_CHAR,258
709,1,1,MESSAGE PUMP,WM_KEYUP,257
709,2,1,MESSAGE PUMP,WM_KEYDOWN,256
709,2,1,MESSAGE PUMP,WM_CHAR,258
710,1,1,MESSAGE PUMP,WM_KEYUP,257
710,2,1,MESSAGE PUMP,WM_KEYDOWN,256
710,2,1,MESSAGE PUMP,WM_CHAR,258
711,1,1,MESSAGE PUMP,WM_KEYUP,257
711,2,1,MESSAGE PUMP,WM_KEYDOWN,256
711,2,1,MESSAGE PUMP,WM_CHAR,258
712,1,1,MESSAGE PUMP,WM_KEYUP,257
712,2,1,MESSAGE PUMP,WM_KEYDOWN,256
712,2,1,MESSAGE PUMP,WM_CHAR,258
713,1,1,MESSAGE PUMP,WM_KEYUP,257
713,2,1,MESSAGE PUMP,WM_KEYDOWN,256
713,2,1,MESSAGE PUMP,WM_CHAR,258
714,1,1,MESSAGE PUMP,WM_KEYUP,257
714,2,1,MESSAGE PUMP,WM_KEYDOWN,256
714,2,1,MESSAGE PUMP,WM_CHAR,258
715,1,1,MESSAGE PUMP,WM_KEYUP,257
715,2,1,MESSAGE PUMP,WM_KEYDOWN,256
715,2,1,MESSAGE PUMP,WM_CHAR,258
716,1,1,MESSAGE PUMP,WM_KEYUP,257
716,2,1,MESSAGE PUMP,WM_KEYDOWN,256
716,2,1,MESSAGE PUMP,WM_CHAR,258
717,1,1,MESSAGE PUMP,WM_KEYUP,257
717,2,1,MESSAGE PUMP,WM_KEYDOWN,256
717,2,1,MESSAGE PUMP,WM_CHAR,258
718,1,1,MESSAGE PUMP,WM_KEYUP,257
718,2,1,MESSAGE PUMP,WM_KEYDOWN,256
718,2,1,MESSAGE PUMP,WM_CHAR,258
719,1,1,MESSAGE PUMP,WM_KEYUP,257
719,2,1,MESSAGE PUMP,WM_KEYDOWN,256
719,2,1,MESSAGE PUMP,WM_CHAR,258
720,1,1,MESSAGE PUMP,WM_KEYUP,257
771,0,1,MESSAGE PUMP,WM_KEYDOWN,256
771,0,1,MESSAGE PUMP,WM_CHAR,258
771,0,1,MESSAGE PUMP,WM_KEYUP,257
807,0,1,MESSAGE PUMP,WM_KEYDOWN,256
808,0,1,MESSAGE PUMP,WM_KEYDOWN,256
808,0,1,MESSAGE PUMP,WM_CHAR,258
809,0,1,MESSAGE PUMP,WM_KEYUP,257
809,1,1,MESSAGE PUMP,WM_KEYUP,257
809,3,1,MESSAGE PUMP,WM_KEYDOWN,256
809,3,1,MESSAGE PUMP,WM_CHAR,258
810,1,1,MESSAGE PUMP,WM_KEYUP,257
810,2,1,MESSAGE PUMP,WM_KEYDOWN,256
810,2,1,MESSAGE PUMP,WM_CHAR,258
811,1,1,MESSAGE PUMP,WM_KEYUP,257
811,2,1,MESSAGE PUMP,WM_KEYDOWN,256
811,2,1,MESSAGE PUMP,WM_CHAR,258
812,1,1,MESSAGE PUMP,WM_KEYUP,257
812,3,1,MESSAGE PUMP,WM_KEYDOWN,256
812,3,1,MESSAGE PUMP,WM_CHAR,258
813,1,1,MESSAGE PUMP,WM_KEYUP,257
813,2,1,MESSAGE PUMP,WM_KEYDOWN,256
813,2,1,MESSAGE PUMP,WM_CHAR,258
814,1,1,MESSAGE PUMP,WM_KEYUP,257
814,2,1,MESSAGE PUMP,WM_KEYDOWN,256
814,2,1,MESSAGE PUMP,WM_CHAR,258
815,1,1,MESSAGE PUMP,WM_KEYUP,257
815,3,1,MESSAGE PUMP,WM_KEYDOWN,256
815,3,1,MESSAGE PUMP,WM_CHAR,258
816,1,1,MESSAGE PUMP,WM_KEYUP,257
816,2,1,MESSAGE PUMP,WM_KEYDOWN,256
816,2,1,MESSAGE PUMP,WM_CHAR,258
817,1,1,MESSAGE PUMP,WM_KEYUP,257
817,3,1,MESSAGE PUMP,WM_KEYDOWN,256
817,3,1,MESSAGE PUMP,WM_CHAR,258
818,1,1,MESSAGE PUMP,WM_KEYUP,257
818,2,1,MESSAGE PUMP,WM_KEYDOWN,256
818,2,1,MESSAGE PUMP,WM_CHAR,258
819,2,1,MESSAGE PUMP,WM_KEYUP,257
819,3,1,MESSAGE PUMP,WM_KEYDOWN,256
819,3,1,MESSAGE PUMP,WM_CHAR,258
820,1,1,MESSAGE PUMP,WM_KEYUP,257
820,2,1,MESSAGE PUMP,WM_KEYDOWN,256
820,2,1,MESSAGE PUMP,WM_CHAR,258
821,1,1,MESSAGE PUMP,WM_KEYUP,257
821,2,1,MESSAGE PUMP,WM_KEYDOWN,256
821,2,1,MESSAGE PUMP,WM_CHAR,258
822,1,1,MESSAGE PUMP,WM_KEYUP,257
822,3,1,MESSAGE PUMP,WM_KEYDOWN,256
822,3,1,MESSAGE PUMP,WM_CHAR,258
823,1,1,MESSAGE PUMP,WM_KEYUP,257
823,2,1,MESSAGE PUMP,WM_KEYDOWN,256
823,2,1,MESSAGE PUMP,WM_CHAR,258
824,1,1,MESSAGE PUMP,WM_KEYUP,257
824,2,1,MESSAGE PUMP,WM_KEYDOWN,256
824,2,1,MESSAGE PUMP,WM_CHAR,258
825,1,1,MESSAGE PUMP,WM_KEYUP,257
825,3,1,MESSAGE PUMP,WM_KEYDOWN,256
825,3,1,MESSAGE PUMP,WM_CHAR,258
826,1,1,MESSAGE PUMP,WM_KEYUP,257
826,2,1,MESSAGE PUMP,WM_KEYDOWN,256
826,2,1,MESSAGE PUMP,WM_CHAR,258
827,1,1,MESSAGE PUMP,WM_KEYUP,257
827,3,1,MESSAGE PUMP,WM_KEYDOWN,256
827,3,1,MESSAGE PUMP,WM_CHAR,258
828,1,1,MESSAGE PUMP,WM_KEYUP,257
828,2,1,MESSAGE PUMP,WM_KEYDOWN,256
828,2,1,MESSAGE PUMP,WM_CHAR,258
829,2,1,MESSAGE PUMP,WM_KEYUP,257
829,3,1,MESSAGE PUMP,WM_KEYDOWN,256
829,3,1,MESSAGE PUMP,WM_CHAR,258
830,1,1,MESSAGE PUMP,WM_KEYUP,257
830,3,1,MESSAGE PUMP,WM_KEYDOWN,256
830,3,1,MESSAGE PUMP,WM_CHAR,258
831,1,1,MESSAGE PUMP,WM_KEYUP,257
831,2,1,MESSAGE PUMP,WM_KEYDOWN,256
831,2,1,MESSAGE PUMP,WM_CHAR,258
832,2,1,MESSAGE PUMP,WM_KEYUP,257
832,3,1,MESSAGE PUMP,WM_KEYDOWN,256
832,3,1,MESSAGE PUMP,WM_CHAR,258
833,1,1,MESSAGE PUMP,WM_KEYUP,257
833,3,1,MESSAGE PUMP,WM_KEYDOWN,256
833,3,1,MESSAGE PUMP,WM_CHAR,258
834,1,1,MESSAGE PUMP,WM_KEYUP,257
834,2,1,MESSAGE PUMP,WM_KEYDOWN,256
834,2,1,MESSAGE PUMP,WM_CHAR,258
835,1,1,MESSAGE PUMP,WM_KEYUP,257
835,3,1,MESSAGE PUMP,WM_KEYDOWN,256
835,3,1,MESSAGE PUMP,WM_CHAR,258
836,1,1,MESSAGE PUMP,WM_KEYUP,257
836,2,1,MESSAGE PUMP,WM_KEYDOWN,256
836,2,1,MESSAGE PUMP,WM_CHAR,258
837,1,1,MESSAGE PUMP,WM_KEYUP,257
837,2,1,MESSAGE PUMP,WM_KEYDOWN,256
837,2,1,MESSAGE PUMP,WM_CHAR,258
838,1,1,MESSAGE PUMP,WM_KEYUP,257
838,2,1,MESSAGE PUMP,WM_KEYDOWN,256
838,2,1,MESSAGE PUMP,WM_CHAR,258
839,1,1,MESSAGE PUMP,WM_KEYUP,257
839,2,1,MESSAGE PUMP,WM_KEYDOWN,256
839,2,1,MESSAGE PUMP,WM_CHAR,258
840,1,1,MESSAGE PUMP,WM_KEYUP,257
840,2,1,MESSAGE PUMP,WM_KEYDOWN,256
840,2,1,MESSAGE PUMP,WM_CHAR,258
841,1,1,MESSAGE PUMP,WM_KEYUP,257
841,2,1,MESSAGE PUMP,WM_KEYDOWN,256
841,2,1,MESSAGE PUMP,WM_CHAR,258
842,1,1,MESSAGE PUMP,WM_KEYUP,257
842,2,1,MESSAGE PUMP,WM_KEYDOWN,256
842,2,1,MESSAGE PUMP,WM_CHAR,258
843,1,1,MESSAGE PUMP,WM_KEYUP,257
843,2,1,MESSAGE PUMP,WM_KEYDOWN,256
843,2,1,MESSAGE PUMP,WM_CHAR,258
844,1,1,MESSAGE PUMP,WM_KEYUP,257
844,2,1,MESSAGE PUMP,WM_KEYDOWN,256
844,2,1,MESSAGE PUMP,WM_CHAR,258
845,1,1,MESSAGE PUMP,WM_KEYUP,257
845,2,1,MESSAGE PUMP,WM_KEYDOWN,256
845,2,1,MESSAGE PUMP,WM_CHAR,258
846,1,1,MESSAGE PUMP,WM_KEYUP,257
846,2,1,MESSAGE PUMP,WM_KEYDOWN,256
846,2,1,MESSAGE PUMP,WM_CHAR,258
847,1,1,MESSAGE PUMP,WM_KEYUP,257
847,2,1,MESSAGE PUMP,WM_KEYDOWN,256
847,2,1,MESSAGE PUMP,WM_CHAR,258
848,1,1,MESSAGE PUMP,WM_KEYUP,257
848,2,1,MESSAGE PUMP,WM_KEYDOWN,256
848,2,1,MESSAGE PUMP,WM_CHAR,258
849,1,1,MESSAGE PUMP,WM_KEYUP,257
849,2,1,MESSAGE PUMP,WM_KEYDOWN,256
849,2,1,MESSAGE PUMP,WM_CHAR,258
850,1,1,MESSAGE PUMP,WM_KEYUP,257
850,2,1,MESSAGE PUMP,WM_KEYDOWN,256
850,2,1,MESSAGE PUMP,WM_CHAR,258
851,1,1,MESSAGE PUMP,WM_KEYUP,257
851,2,1,MESSAGE PUMP,WM_KEYDOWN,256
851,2,1,MESSAGE PUMP,WM_CHAR,258
852,1,1,MESSAGE PUMP,WM_KEYUP,257
852,2,1,MESSAGE PUMP,WM_KEYDOWN,256
852,2,1,MESSAGE PUMP,WM_CHAR,258
853,1,1,MESSAGE PUMP,WM_KEYUP,257
853,2,1,MESSAGE PUMP,WM_KEYDOWN,256
853,2,1,MESSAGE PUMP,WM_CHAR,258
854,1,1,MESSAGE PUMP,WM_KEYUP,257
854,2,1,MESSAGE PUMP,WM_KEYDOWN,256
854,2,1,MESSAGE PUMP,WM_CHAR,258
855,1,1,MESSAGE PUMP,WM_KEYUP,257
895,0,1,MESSAGE PUMP,WM_KEYDOWN,256
895,0,1,MESSAGE PUMP,WM_CHAR,258
895,0,1,MESSAGE PUMP,WM_KEYUP,257
927,2,1,MESSAGE PUMP,WM_KEYDOWN,256
928,0,1,MESSAGE PUMP,WM_KEYUP,257
928,0,1,MESSAGE PUMP,WM_KEYDOWN,256
929,0,1,MESSAGE PUMP,WM_KEYUP,257
965,3,1,MESSAGE PUMP,WM_KEYDOWN,256
966,1,1,MESSAGE PUMP,WM_KEYUP,257
966,2,1,MESSAGE PUMP,WM_KEYDOWN,256
967,1,1,MESSAGE PUMP,WM_KEYUP,257
967,3,1,MESSAGE PUMP,WM_KEYDOWN,256
968,0,1,MESSAGE PUMP,WM_KEYUP,257
968,1,1,MESSAGE PUMP,WM_KEYDOWN,256
969,0,1,MESSAGE PUMP,WM_KEYUP,257
969,1,1,MESSAGE PUMP,WM_KEYDOWN,256
970,0,1,MESSAGE PUMP,WM_KEYUP,257
1029,0,1,MESSAGE PUMP,WM_KEYDOWN,256
1029,0,1,MESSAGE PUMP,WM_CHAR,258
1029,0,1,MESSAGE PUMP,WM_KEYUP,257
1063,0,1,MESSAGE PUMP,WM_SYSKEYDOWN,260
1079,0,1,MESSAGE PUMP,WM_SYSKEYDOWN,260
1079,0,1,MESSAGE PUMP,WM_SYSCOMMAND,274
1079,0,1,MESSAGE PUMP,WM_CLOSE,16
1079,1,1,MESSAGE PUMP,WM_SYSKEYUP,261
1079,4,0,MESSAGE PUMP,Unknown,144
1079,4,0,MESSAGE PUMP,WM_WINDOWPOSCHANGING,70
1079,4,0,MESSAGE PUMP,WM_WINDOWPOSCHANGED,71
1079,4,0,MESSAGE PUMP,WM_NCACTIVATE,134
1079,4,0,MESSAGE PUMP,WM_ACTIVATE,6
1079,4,0,MESSAGE PUMP,WM_ACTIVATEAPP,28
1079,4,0,MESSAGE PUMP,WM_KILLFOCUS,8
1079,4,0,MESSAGE PUMP,WM_IME_SETCONTEXT,641
1079,4,0,MESSAGE PUMP,WM_IME_NOTIFY,642
1079,4,0,MESSAGE PUMP,WM_DESTROY,2
1079,4,0,MESSAGE PUMP,WM_NCDESTROY,130
