Frame,Poll Count,Is Polling,Source,Event Name,Event Code
0,0,0,MESSAGE PUMP,WM_SHOWWINDOW,24
0,0,0,MESSAGE PUMP,WM_WINDOWPOSCHANGING,70
0,0,0,MESSAGE PUMP,WM_WINDOWPOSCHANGING,70
0,0,0,MESSAGE PUMP,WM_ACTIVATEAPP,28
0,0,0,MESSAGE PUMP,WM_NCACTIVATE,134
0,0,0,MESSAGE PUMP,WM_ACTIVATE,6
0,0,0,MESSAGE PUMP,WM_IME_SETCONTEXT,641
0,0,0,MESSAGE PUMP,WM_IME_NOTIFY,642
0,0,0,MESSAGE PUMP,WM_SETFOCUS,7
0,0,0,MESSAGE PUMP,WM_NCPAINT,133
0,0,0,MESSAGE PUMP,WM_ERASEBKGND,20
0,0,0,MESSAGE PUMP,WM_WINDOWPOSCHANGED,71
0,0,0,MESSAGE PUMP,WM_SIZE,5
0,0,0,MESSAGE PUMP,WM_MOVE,3
0,0,0,MESSAGE PUMP,WM_WINDOWPOSCHANGING,70
1,0,1,MESSAGE PUMP,WM_GETICON,127
1,0,1,MESSAGE PUMP,WM_GETICON,127
1,0,1,MESSAGE PUMP,Unknown,799
1,0,1,MESSAGE PUMP,WM_GETICON,127
1,0,1,MESSAGE PUMP,Unknown,49351
1,0,1,MESSAGE PUMP,WM_PAINT,15
322,2,1,MESSAGE PUMP,WM_KEYDOWN,256
322,2,1,MESSAGE PUMP,WM_CHAR,258
323,0,1,MESSAGE PUMP,WM_KEYUP,257
323,0,1,MESSAGE PUMP,WM_KEYDOWN,256
323,0,1,MESSAGE PUMP,WM_CHAR,258
323,0,1,MESSAGE PUMP,WM_KEYUP,257
324,0,1,MESSAGE PUMP,WM_KEYDOWN,256
324,0,1,MESSAGE PUMP,WM_CHAR,258
325,0,1,MESSAGE PUMP,WM_KEYUP,257
343,0,1,MESSAGE PUMP,WM_KEYDOWN,256
343,0,1,MESSAGE PUMP,WM_KEYUP,257
360,0,1,MESSAGE PUMP,WM_KEYDOWN,256
361,0,1,MESSAGE PUMP,WM_KEYUP,257
382,4,1,MESSAGE PUMP,WM_KEYDOWN,256
383,0,1,MESSAGE PUMP,WM_KEYUP,257
383,0,1,MESSAGE PUMP,WM_KEYDOWN,256
383,0,1,MESSAGE PUMP,WM_KEYUP,257
383,0,1,MESSAGE PUMP,WM_KEYDOWN,256
383,0,1,MESSAGE PUMP,WM_KEYUP,257
384,0,1,MESSAGE PUMP,WM_KEYDOWN,256
385,1,1,MESSAGE PUMP,WM_KEYUP,257
403,0,1,MESSAGE PUMP,WM_KEYDOWN,256
403,0,1,MESSAGE PUMP,WM_KEYUP,257
423,0,1,MESSAGE PUMP,WM_KEYDOWN,256
423,0,1,MESSAGE PUMP,WM_KEYUP,257
424,0,1,MESSAGE PUMP,WM_KEYDOWN,256
424,0,1,MESSAGE PUMP,WM_KEYUP,257
440,2,1,MESSAGE PUMP,WM_KEYDOWN,256
440,2,1,MESSAGE PUMP,WM_CHAR,258
441,0,1,MESSAGE PUMP,WM_KEYUP,257
482,4,1,MESSAGE PUMP,WM_KEYDOWN,256
483,1,1,MESSAGE PUMP,WM_KEYDOWN,256
483,1,1,MESSAGE PUMP,WM_CHAR,258
484,1,1,MESSAGE PUMP,WM_KEYUP,257
484,2,1,MESSAGE PUMP,WM_KEYUP,257
484,4,1,MESSAGE PUMP,WM_KEYDOWN,256
484,4,1,MESSAGE PUMP,WM_CHAR,258
485,0,1,MESSAGE PUMP,WM_KEYUP,257
485,1,1,MESSAGE PUMP,WM_KEYDOWN,256
485,1,1,MESSAGE PUMP,WM_CHAR,258
486,1,1,MESSAGE PUMP,WM_KEYUP,257
486,2,1,MESSAGE PUMP,WM_KEYDOWN,256
486,2,1,MESSAGE PUMP,WM_CHAR,258
487,1,1,MESSAGE PUMP,WM_KEYUP,257
487,2,1,MESSAGE PUMP,WM_KEYDOWN,256
487,2,1,MESSAGE PUMP,WM_CHAR,258
488,1,1,MESSAGE PUMP,WM_KEYUP,257
488,2,1,MESSAGE PUMP,WM_KEYDOWN,256
488,2,1,MESSAGE PUMP,WM_CHAR,258
489,1,1,MESSAGE PUMP,WM_KEYUP,257
489,3,1,MESSAGE PUMP,WM_KEYDOWN,256
489,3,1,MESSAGE PUMP,WM_CHAR,258
490,1,1,MESSAGE PUMP,WM_KEYUP,257
490,2,1,MESSAGE PUMP,WM_KEYDOWN,256
490,2,1,MESSAGE PUMP,WM_CHAR,258
491,2,1,MESSAGE PUMP,WM_KEYUP,257
491,3,1,MESSAGE PUMP,WM_KEYDOWN,256
491,3,1,MESSAGE PUMP,WM_CHAR,258
492,1,1,MESSAGE PUMP,WM_KEYUP,257
492,3,1,MESSAGE PUMP,WM_KEYDOWN,256
492,3,1,MESSAGE PUMP,WM_CHAR,258
493,1,1,MESSAGE PUMP,WM_KEYUP,257
493,2,1,MESSAGE PUMP,WM_KEYDOWN,256
493,2,1,MESSAGE PUMP,WM_CHAR,258
494,2,1,MESSAGE PUMP,WM_KEYUP,257
540,2,1,MESSAGE PUMP,WM_SYSKEYDOWN,260
541,0,1,MESSAGE PUMP,WM_SYSKEYDOWN,260
541,0,1,MESSAGE PUMP,WM_SYSCHAR,262
541,2,1,MESSAGE PUMP,WM_SYSKEYUP,261
541,5,1,MESSAGE PUMP,WM_KEYUP,257
573,0,1,MESSAGE PUMP,WM_KEYDOWN,256
574,0,1,MESSAGE PUMP,WM_KEYDOWN,256
574,0,1,MESSAGE PUMP,WM_CHAR,258
575,0,1,MESSAGE PUMP,WM_KEYUP,257
575,1,1,MESSAGE PUMP,WM_KEYUP,257
575,3,1,MESSAGE PUMP,WM_KEYDOWN,256
575,3,1,MESSAGE PUMP,WM_CHAR,258
576,1,1,MESSAGE PUMP,WM_KEYUP,257
576,1,1,MESSAGE PUMP,WM_KEYDOWN,256
576,1,1,MESSAGE PUMP,WM_CHAR,258
576,1,1,MESSAGE PUMP,WM_KEYUP,257
577,1,1,MESSAGE PUMP,WM_KEYDOWN,256
577,1,1,MESSAGE PUMP,WM_CHAR,258
578,1,1,MESSAGE PUMP,WM_KEYUP,257
578,3,1,MESSAGE PUMP,WM_KEYDOWN,256
578,3,1,MESSAGE PUMP,WM_CHAR,258
579,1,1,MESSAGE PUMP,WM_KEYUP,257
579,2,1,MESSAGE PUMP,WM_KEYDOWN,256
579,2,1,MESSAGE PUMP,WM_CHAR,258
580,1,1,MESSAGE PUMP,WM_KEYUP,257
580,3,1,MESSAGE PUMP,WM_KEYDOWN,256
580,3,1,MESSAGE PUMP,WM_CHAR,258
581,1,1,MESSAGE PUMP,WM_KEYUP,257
581,2,1,MESSAGE PUMP,WM_KEYDOWN,256
581,2,1,MESSAGE PUMP,WM_CHAR,258
582,2,1,MESSAGE PUMP,WM_KEYUP,257
582,3,1,MESSAGE PUMP,WM_KEYDOWN,256
582,3,1,MESSAGE PUMP,WM_CHAR,258
583,1,1,MESSAGE PUMP,WM_KEYUP,257
583,3,1,MESSAGE PUMP,WM_KEYDOWN,256
583,3,1,MESSAGE PUMP,WM_CHAR,258
584,1,1,MESSAGE PUMP,WM_KEYUP,257
584,2,1,MESSAGE PUMP,WM_KEYDOWN,256
584,2,1,MESSAGE PUMP,WM_CHAR,258
585,1,1,MESSAGE PUMP,WM_KEYUP,257
585,2,1,MESSAGE PUMP,WM_KEYDOWN,256
585,2,1,MESSAGE PUMP,WM_CHAR,258
586,1,1,MESSAGE PUMP,WM_KEYUP,257
586,3,1,MESSAGE PUMP,WM_KEYDOWN,256
586,3,1,MESSAGE PUMP,WM_CHAR,258
587,1,1,MESSAGE PUMP,WM_KEYUP,257
587,2,1,MESSAGE PUMP,WM_KEYDOWN,256
587,2,1,MESSAGE PUMP,WM_CHAR,258
588,1,1,MESSAGE PUMP,WM_KEYUP,257
588,2,1,MESSAGE PUMP,WM_KEYDOWN,256
588,2,1,MESSAGE PUMP,WM_CHAR,258
589,1,1,MESSAGE PUMP,WM_KEYUP,257
589,2,1,MESSAGE PUMP,WM_KEYDOWN,256
589,2,1,MESSAGE PUMP,WM_CHAR,258
590,1,1,MESSAGE PUMP,WM_KEYUP,257
590,3,1,MESSAGE PUMP,WM_KEYDOWN,256
590,3,1,MESSAGE PUMP,WM_CHAR,258
591,1,1,MESSAGE PUMP,WM_KEYUP,257
591,2,1,MESSAGE PUMP,WM_KEYDOWN,256
591,2,1,MESSAGE PUMP,WM_CHAR,258
592,1,1,MESSAGE PUMP,WM_KEYUP,257
592,2,1,MESSAGE PUMP,WM_KEYDOWN,256
592,2,1,MESSAGE PUMP,WM_CHAR,258
593,1,1,MESSAGE PUMP,WM_KEYUP,257
593,3,1,MESSAGE PUMP,WM_KEYDOWN,256
593,3,1,MESSAGE PUMP,WM_CHAR,258
594,1,1,MESSAGE PUMP,WM_KEYUP,257
594,2,1,MESSAGE PUMP,WM_KEYDOWN,256
594,2,1,MESSAGE PUMP,WM_CHAR,258
595,1,1,MESSAGE PUMP,WM_KEYUP,257
595,2,1,MESSAGE PUMP,WM_KEYDOWN,256
595,2,1,MESSAGE PUMP,WM_CHAR,258
596,1,1,MESSAGE PUMP,WM_KEYUP,257
596,3,1,MESSAGE PUMP,WM_KEYDOWN,256
596,3,1,MESSAGE PUMP,WM_CHAR,258
597,1,1,MESSAGE PUMP,WM_KEYUP,257
597,2,1,MESSAGE PUMP,WM_KEYDOWN,256
597,2,1,MESSAGE PUMP,WM_CHAR,258
598,2,1,MESSAGE PUMP,WM_KEYUP,257
638,0,1,MESSAGE PUMP,WM_KEYDOWN,256
638,0,1,MESSAGE PUMP,WM_CHAR,258
638,0,1,MESSAGE PUMP,WM_KEYUP,257
674,0,1,MESSAGE PUMP,WM_KEYDOWN,256
674,0,1,MESSAGE PUMP,WM_KEYDOWN,256
674,0,1,MESSAGE PUMP,WM_CHAR,258
674,0,1,MESSAGE PUMP,WM_KEYUP,257
675,0,1,MESSAGE PUMP,WM_KEYUP,257
675,2,1,MESSAGE PUMP,WM_KEYDOWN,256
675,2,1,MESSAGE PUMP,WM_CHAR,258
676,0,1,MESSAGE PUMP,WM_KEYUP,257
676,2,1,MESSAGE PUMP,WM_KEYDOWN,256
676,2,1,MESSAGE PUMP,WM_CHAR,258
677,1,1,MESSAGE PUMP,WM_KEYUP,257
677,2,1,MESSAGE PUMP,WM_KEYDOWN,256
677,2,1,MESSAGE PUMP,WM_CHAR,258
678,1,1,MESSAGE PUMP,WM_KEYUP,257
678,2,1,MESSAGE PUMP,WM_KEYDOWN,256
678,2,1,MESSAGE PUMP,WM_CHAR,258
679,1,1,MESSAGE PUMP,WM_KEYUP,257
679,2,1,MESSAGE PUMP,WM_KEYDOWN,256
679,2,1,MESSAGE PUMP,WM_CHAR,258
680,1,1,MESSAGE PUMP,WM_KEYUP,257
680,2,1,MESSAGE PUMP,WM_KEYDOWN,256
680,2,1,MESSAGE PUMP,WM_CHAR,258
681,1,1,MESSAGE PUMP,WM_KEYUP,257
681,3,1,MESSAGE PUMP,WM_KEYDOWN,256
681,3,1,MESSAGE PUMP,WM_CHAR,258
682,1,1,MESSAGE PUMP,WM_KEYUP,257
682,2,1,MESSAGE PUMP,WM_KEYDOWN,256
682,2,1,MESSAGE PUMP,WM_CHAR,258
683,1,1,MESSAGE PUMP,WM_KEYUP,257
683,3,1,MESSAGE PUMP,WM_KEYDOWN,256
683,3,1,MESSAGE PUMP,WM_CHAR,258
684,1,1,MESSAGE PUMP,WM_KEYUP,257
684,2,1,MESSAGE PUMP,WM_KEYDOWN,256
684,2,1,MESSAGE PUMP,WM_CHAR,258
685,2,1,MESSAGE PUMP,WM_KEYUP,257
685,3,1,MESSAGE PUMP,WM_KEYDOWN,256
685,3,1,MESSAGE PUMP,WM_CHAR,258
686,1,1,MESSAGE PUMP,WM_KEYUP,257
686,3,1,MESSAGE PUMP,WM_KEYDOWN,256
686,3,1,MESSAGE PUMP,WM_CHAR,258
687,1,1,MESSAGE PUMP,WM_KEYUP,257
687,2,1,MESSAGE PUMP,WM_KEYDOWN,256
687,2,1,MESSAGE PUMP,WM_CHAR,258
688,2,1,MESSAGE PUMP,WM_KEYUP,257
688,3,1,MESSAGE PUMP,WM_KEYDOWN,256
688,3,1,MESSAGE PUMP,WM_CHAR,258
689,1,1,MESSAGE PUMP,WM_KEYUP,257
689,2,1,MESSAGE PUMP,WM_KEYDOWN,256
689,2,1,MESSAGE PUMP,WM_CHAR,258
690,1,1,MESSAGE PUMP,WM_KEYUP,257
690,2,1,MESSAGE PUMP,WM_KEYDOWN,256
690,2,1,MESSAGE PUMP,WM_CHAR,258
691,1,1,MESSAGE PUMP,WM_KEYUP,257
691,3,1,MESSAGE PUMP,WM_KEYDOWN,256
691,3,1,MESSAGE PUMP,WM_CHAR,258
692,1,1,MESSAGE PUMP,WM_KEYUP,257
692,2,1,MESSAGE PUMP,WM_KEYDOWN,256
692,2,1,MESSAGE PUMP,WM_CHAR,258
693,1,1,MESSAGE PUMP,WM_KEYUP,257
693,2,1,MESSAGE PUMP,WM_KEYDOWN,256
693,2,1,MESSAGE PUMP,WM_CHAR,258
694,1,1,MESSAGE PUMP,WM_KEYUP,257
694,2,1,MESSAGE PUMP,WM_KEYDOWN,256
694,2,1,MESSAGE PUMP,WM_CHAR,258
695,1,1,MESSAGE PUMP,WM_KEYUP,257
695,2,1,MESSAGE PUMP,WM_KEYDOWN,256
695,2,1,MESSAGE PUMP,WM_CHAR,258
696,1,1,MESSAGE PUMP,WM_KEYUP,257
696,2,1,MESSAGE PUMP,WM_KEYDOWN,256
696,2,1,MESSAGE PUMP,WM_CHAR,258
697,1,1,MESSAGE PUMP,WM_KEYUP,257
697,2,1,MESSAGE PUMP,WM_KEYDOWN,256
697,2,1,MESSAGE PUMP,WM_CHAR,258
698,1,1,MESSAGE PUMP,WM_KEYUP,257
698,2,1,MESSAGE PUMP,WM_KEYDOWN,256
698,2,1,MESSAGE PUMP,WM_CHAR,258
699,1,1,MESSAGE PUMP,WM_KEYUP,257
699,2,1,MESSAGE PUMP,WM_KEYDOWN,256
699,2,1,MESSAGE PUMP,WM_CHAR,258
700,1,1,MESSAGE PUMP,WM_KEYUP,257
700,2,1,MESSAGE PUMP,WM_KEYDOWN,256
700,2,1,MESSAGE PUMP,WM_CHAR,258
701,1,1,MESSAGE PUMP,WM_KEYUP,257
701,2,1,MESSAGE PUMP,WM_KEYDOWN,256
701,2,1,MESSAGE PUMP,WM_CHAR,258
702,1,1,MESSAGE PUMP,WM_KEYUP,257
702,2,1,MESSAGE PUMP,WM_KEYDOWN,256
702,2,1,MESSAGE PUMP,WM_CHAR,258
703,1,1,MESSAGE PUMP,WM_KEYUP,257
703,2,1,MESSAGE PUMP,WM_KEYDOWN,256
703,2,1,MESSAGE PUMP,WM_CHAR,258
704,1,1,MESSAGE PUMP,WM_KEYUP,257
704,2,1,MESSAGE PUMP,WM_KEYDOWN,256
704,2,1,MESSAGE PUMP,WM_CHAR,258
705,1,1,MESSAGE PUMP,WM_KEYUP,257
705,2,1,MESSAGE PUMP,WM_KEYDOWN,256
705,2,1,MESSAGE PUMP,WM_CHAR,258
706,1,1,MESSAGE PUMP,WM_KEYUP,257
706,2,1,MESSAGE PUMP,WM_KEYDOWN,256
706,2,1,MESSAGE PUMP,WM_CHAR,258
707,1,1,MESSAGE PUMP,WM_KEYUP,257
707,2,1,MESSAGE PUMP,WM_KEYDOWN,256
707,2,1,MESSAGE PUMP,WM_CHAR,258
708,1,1,MESSAGE PUMP,WM_KEYUP,257
708,2,1,MESSAGE PUMP,WM_KEYDOWN,256
708,2,1,MESSAGE PUMP,WM_CHAR,258
709,1,1,MESSAGE PUMP,WM_KEYUP,257
709,2,1,MESSAGE PUMP,WM_KEYDOWN,256
709,2,1,MESSAGE PUMP,WM_CHAR,258
710,1,1,MESSAGE PUMP,WM_KEYUP,257
710,2,1,MESSAGE PUMP,WM_KEYDOWN,256
710,2,1,MESSAGE PUMP,WM_CHAR,258
711,1,1,MESSAGE PUMP,WM_KEYUP,257
711,1,1,MESSAGE PUMP,WM_KEYDOWN,256
711,1,1,MESSAGE PUMP,WM_CHAR,258
712,0,1,MESSAGE PUMP,WM_KEYUP,257
712,1,1,MESSAGE PUMP,WM_KEYDOWN,256
712,1,1,MESSAGE PUMP,WM_CHAR,258
713,1,1,MESSAGE PUMP,WM_KEYUP,257
713,2,1,MESSAGE PUMP,WM_KEYDOWN,256
713,2,1,MESSAGE PUMP,WM_CHAR,258
714,1,1,MESSAGE PUMP,WM_KEYUP,257
714,2,1,MESSAGE PUMP,WM_KEYDOWN,256
714,2,1,MESSAGE PUMP,WM_CHAR,258
715,1,1,MESSAGE PUMP,WM_KEYUP,257
715,2,1,MESSAGE PUMP,WM_KEYDOWN,256
715,2,1,MESSAGE PUMP,WM_CHAR,258
716,1,1,MESSAGE PUMP,WM_KEYUP,257
716,2,1,MESSAGE PUMP,WM_KEYDOWN,256
716,2,1,MESSAGE PUMP,WM_CHAR,258
717,0,1,MESSAGE PUMP,WM_KEYUP,257
717,1,1,MESSAGE PUMP,WM_KEYDOWN,256
717,1,1,MESSAGE PUMP,WM_CHAR,258
718,1,1,MESSAGE PUMP,WM_KEYUP,257
718,2,1,MESSAGE PUMP,WM_KEYDOWN,256
718,2,1,MESSAGE PUMP,WM_CHAR,258
719,1,1,MESSAGE PUMP,WM_KEYUP,257
719,2,1,MESSAGE PUMP,WM_KEYDOWN,256
719,2,1,MESSAGE PUMP,WM_CHAR,258
720,0,1,MESSAGE PUMP,WM_KEYUP,257
720,1,1,MESSAGE PUMP,WM_KEYDOWN,256
720,1,1,MESSAGE PUMP,WM_CHAR,258
721,0,1,MESSAGE PUMP,WM_KEYUP,257
721,1,1,MESSAGE PUMP,WM_KEYDOWN,256
721,1,1,MESSAGE PUMP,WM_CHAR,258
722,0,1,MESSAGE PUMP,WM_KEYUP,257
722,2,1,MESSAGE PUMP,WM_KEYDOWN,256
722,2,1,MESSAGE PUMP,WM_CHAR,258
723,0,1,MESSAGE PUMP,WM_KEYUP,257
723,1,1,MESSAGE PUMP,WM_KEYDOWN,256
723,1,1,MESSAGE PUMP,WM_CHAR,258
724,0,1,MESSAGE PUMP,WM_KEYUP,257
724,1,1,MESSAGE PUMP,WM_KEYDOWN,256
724,1,1,MESSAGE PUMP,WM_CHAR,258
725,0,1,MESSAGE PUMP,WM_KEYUP,257
725,1,1,MESSAGE PUMP,WM_KEYDOWN,256
725,1,1,MESSAGE PUMP,WM_CHAR,258
726,0,1,MESSAGE PUMP,WM_KEYUP,257
726,1,1,MESSAGE PUMP,WM_KEYDOWN,256
726,1,1,MESSAGE PUMP,WM_CHAR,258
727,0,1,MESSAGE PUMP,WM_KEYUP,257
727,1,1,MESSAGE PUMP,WM_KEYDOWN,256
727,1,1,MESSAGE PUMP,WM_CHAR,258
728,0,1,MESSAGE PUMP,WM_KEYUP,257
728,1,1,MESSAGE PUMP,WM_KEYDOWN,256
728,1,1,MESSAGE PUMP,WM_CHAR,258
729,0,1,MESSAGE PUMP,WM_KEYUP,257
729,1,1,MESSAGE PUMP,WM_KEYDOWN,256
729,1,1,MESSAGE PUMP,WM_CHAR,258
730,1,1,MESSAGE PUMP,WM_KEYUP,257
730,2,1,MESSAGE PUMP,WM_KEYDOWN,256
730,2,1,MESSAGE PUMP,WM_CHAR,258
731,0,1,MESSAGE PUMP,WM_KEYUP,257
731,2,1,MESSAGE PUMP,WM_KEYDOWN,256
731,2,1,MESSAGE PUMP,WM_CHAR,258
732,1,1,MESSAGE PUMP,WM_KEYUP,257
732,2,1,MESSAGE PUMP,WM_KEYDOWN,256
732,2,1,MESSAGE PUMP,WM_CHAR,258
733,1,1,MESSAGE PUMP,WM_KEYUP,257
733,2,1,MESSAGE PUMP,WM_KEYDOWN,256
733,2,1,MESSAGE PUMP,WM_CHAR,258
734,0,1,MESSAGE PUMP,WM_KEYUP,257
734,1,1,MESSAGE PUMP,WM_KEYDOWN,256
734,1,1,MESSAGE PUMP,WM_CHAR,258
735,1,1,MESSAGE PUMP,WM_KEYUP,257
735,3,1,MESSAGE PUMP,WM_KEYDOWN,256
735,3,1,MESSAGE PUMP,WM_CHAR,258
736,1,1,MESSAGE PUMP,WM_KEYUP,257
736,2,1,MESSAGE PUMP,WM_KEYDOWN,256
736,2,1,MESSAGE PUMP,WM_CHAR,258
737,0,1,MESSAGE PUMP,WM_KEYUP,257
737,1,1,MESSAGE PUMP,WM_KEYDOWN,256
737,1,1,MESSAGE PUMP,WM_CHAR,258
738,1,1,MESSAGE PUMP,WM_KEYUP,257
738,3,1,MESSAGE PUMP,WM_KEYDOWN,256
738,3,1,MESSAGE PUMP,WM_CHAR,258
739,1,1,MESSAGE PUMP,WM_KEYUP,257
739,2,1,MESSAGE PUMP,WM_KEYDOWN,256
739,2,1,MESSAGE PUMP,WM_CHAR,258
740,0,1,MESSAGE PUMP,WM_KEYUP,257
740,1,1,MESSAGE PUMP,WM_KEYDOWN,256
740,1,1,MESSAGE PUMP,WM_CHAR,258
741,0,1,MESSAGE PUMP,WM_KEYUP,257
779,0,1,MESSAGE PUMP,WM_KEYDOWN,256
779,0,1,MESSAGE PUMP,WM_CHAR,258
779,0,1,MESSAGE PUMP,WM_KEYUP,257
816,0,1,MESSAGE PUMP,WM_KEYDOWN,256
816,0,1,MESSAGE PUMP,WM_KEYDOWN,256
816,0,1,MESSAGE PUMP,WM_CHAR,258
817,0,1,MESSAGE PUMP,WM_KEYUP,257
817,0,1,MESSAGE PUMP,WM_KEYUP,257
817,2,1,MESSAGE PUMP,WM_KEYDOWN,256
817,2,1,MESSAGE PUMP,WM_CHAR,258
818,0,1,MESSAGE PUMP,WM_KEYUP,257
818,2,1,MESSAGE PUMP,WM_KEYDOWN,256
818,2,1,MESSAGE PUMP,WM_CHAR,258
819,0,1,MESSAGE PUMP,WM_KEYUP,257
819,1,1,MESSAGE PUMP,WM_KEYDOWN,256
819,1,1,MESSAGE PUMP,WM_CHAR,258
820,0,1,MESSAGE PUMP,WM_KEYUP,257
820,1,1,MESSAGE PUMP,WM_KEYDOWN,256
820,1,1,MESSAGE PUMP,WM_CHAR,258
821,1,1,MESSAGE PUMP,WM_KEYUP,257
821,2,1,MESSAGE PUMP,WM_KEYDOWN,256
821,2,1,MESSAGE PUMP,WM_CHAR,258
822,1,1,MESSAGE PUMP,WM_KEYUP,257
822,2,1,MESSAGE PUMP,WM_KEYDOWN,256
822,2,1,MESSAGE PUMP,WM_CHAR,258
823,1,1,MESSAGE PUMP,WM_KEYUP,257
823,3,1,MESSAGE PUMP,WM_KEYDOWN,256
823,3,1,MESSAGE PUMP,WM_CHAR,258
824,1,1,MESSAGE PUMP,WM_KEYUP,257
824,2,1,MESSAGE PUMP,WM_KEYDOWN,256
824,2,1,MESSAGE PUMP,WM_CHAR,258
825,1,1,MESSAGE PUMP,WM_KEYUP,257
825,3,1,MESSAGE PUMP,WM_KEYDOWN,256
825,3,1,MESSAGE PUMP,WM_CHAR,258
826,1,1,MESSAGE PUMP,WM_KEYUP,257
826,2,1,MESSAGE PUMP,WM_KEYDOWN,256
826,2,1,MESSAGE PUMP,WM_CHAR,258
827,2,1,MESSAGE PUMP,WM_KEYUP,257
827,3,1,MESSAGE PUMP,WM_KEYDOWN,256
827,3,1,MESSAGE PUMP,WM_CHAR,258
828,1,1,MESSAGE PUMP,WM_KEYUP,257
828,3,1,MESSAGE PUMP,WM_KEYDOWN,256
828,3,1,MESSAGE PUMP,WM_CHAR,258
829,1,1,MESSAGE PUMP,WM_KEYUP,257
829,2,1,MESSAGE PUMP,WM_KEYDOWN,256
829,2,1,MESSAGE PUMP,WM_CHAR,258
830,2,1,MESSAGE PUMP,WM_KEYUP,257
830,3,1,MESSAGE PUMP,WM_KEYDOWN,256
830,3,1,MESSAGE PUMP,WM_CHAR,258
831,1,1,MESSAGE PUMP,WM_KEYUP,257
831,3,1,MESSAGE PUMP,WM_KEYDOWN,256
831,3,1,MESSAGE PUMP,WM_CHAR,258
832,1,1,MESSAGE PUMP,WM_KEYUP,257
832,2,1,MESSAGE PUMP,WM_KEYDOWN,256
832,2,1,MESSAGE PUMP,WM_CHAR,258
833,1,1,MESSAGE PUMP,WM_KEYUP,257
833,2,1,MESSAGE PUMP,WM_KEYDOWN,256
833,2,1,MESSAGE PUMP,WM_CHAR,258
834,1,1,MESSAGE PUMP,WM_KEYUP,257
834,2,1,MESSAGE PUMP,WM_KEYDOWN,256
834,2,1,MESSAGE PUMP,WM_CHAR,258
835,1,1,MESSAGE PUMP,WM_KEYUP,257
835,2,1,MESSAGE PUMP,WM_KEYDOWN,256
835,2,1,MESSAGE PUMP,WM_CHAR,258
836,1,1,MESSAGE PUMP,WM_KEYUP,257
836,2,1,MESSAGE PUMP,WM_KEYDOWN,256
836,2,1,MESSAGE PUMP,WM_CHAR,258
837,1,1,MESSAGE PUMP,WM_KEYUP,257
837,2,1,MESSAGE PUMP,WM_KEYDOWN,256
837,2,1,MESSAGE PUMP,WM_CHAR,258
838,1,1,MESSAGE PUMP,WM_KEYUP,257
838,2,1,MESSAGE PUMP,WM_KEYDOWN,256
838,2,1,MESSAGE PUMP,WM_CHAR,258
839,1,1,MESSAGE PUMP,WM_KEYUP,257
839,2,1,MESSAGE PUMP,WM_KEYDOWN,256
839,2,1,MESSAGE PUMP,WM_CHAR,258
840,1,1,MESSAGE PUMP,WM_KEYUP,257
840,2,1,MESSAGE PUMP,WM_KEYDOWN,256
840,2,1,MESSAGE PUMP,WM_CHAR,258
841,1,1,MESSAGE PUMP,WM_KEYUP,257
841,2,1,MESSAGE PUMP,WM_KEYDOWN,256
841,2,1,MESSAGE PUMP,WM_CHAR,258
842,0,1,MESSAGE PUMP,WM_KEYUP,257
842,1,1,MESSAGE PUMP,WM_KEYDOWN,256
842,1,1,MESSAGE PUMP,WM_CHAR,258
843,1,1,MESSAGE PUMP,WM_KEYUP,257
843,2,1,MESSAGE PUMP,WM_KEYDOWN,256
843,2,1,MESSAGE PUMP,WM_CHAR,258
844,1,1,MESSAGE PUMP,WM_KEYUP,257
844,2,1,MESSAGE PUMP,WM_KEYDOWN,256
844,2,1,MESSAGE PUMP,WM_CHAR,258
845,1,1,MESSAGE PUMP,WM_KEYUP,257
845,2,1,MESSAGE PUMP,WM_KEYDOWN,256
845,2,1,MESSAGE PUMP,WM_CHAR,258
846,1,1,MESSAGE PUMP,WM_KEYUP,257
846,2,1,MESSAGE PUMP,WM_KEYDOWN,256
846,2,1,MESSAGE PUMP,WM_CHAR,258
847,1,1,MESSAGE PUMP,WM_KEYUP,257
847,2,1,MESSAGE PUMP,WM_KEYDOWN,256
847,2,1,MESSAGE PUMP,WM_CHAR,258
848,1,1,MESSAGE PUMP,WM_KEYUP,257
848,2,1,MESSAGE PUMP,WM_KEYDOWN,256
848,2,1,MESSAGE PUMP,WM_CHAR,258
849,1,1,MESSAGE PUMP,WM_KEYUP,257
849,2,1,MESSAGE PUMP,WM_KEYDOWN,256
849,2,1,MESSAGE PUMP,WM_CHAR,258
850,1,1,MESSAGE PUMP,WM_KEYUP,257
850,2,1,MESSAGE PUMP,WM_KEYDOWN,256
850,2,1,MESSAGE PUMP,WM_CHAR,258
851,1,1,MESSAGE PUMP,WM_KEYUP,257
851,2,1,MESSAGE PUMP,WM_KEYDOWN,256
851,2,1,MESSAGE PUMP,WM_CHAR,258
852,1,1,MESSAGE PUMP,WM_KEYUP,257
852,2,1,MESSAGE PUMP,WM_KEYDOWN,256
852,2,1,MESSAGE PUMP,WM_CHAR,258
853,1,1,MESSAGE PUMP,WM_KEYUP,257
853,2,1,MESSAGE PUMP,WM_KEYDOWN,256
853,2,1,MESSAGE PUMP,WM_CHAR,258
854,1,1,MESSAGE PUMP,WM_KEYUP,257
854,2,1,MESSAGE PUMP,WM_KEYDOWN,256
854,2,1,MESSAGE PUMP,WM_CHAR,258
855,1,1,MESSAGE PUMP,WM_KEYUP,257
855,2,1,MESSAGE PUMP,WM_KEYDOWN,256
855,2,1,MESSAGE PUMP,WM_CHAR,258
856,1,1,MESSAGE PUMP,WM_KEYUP,257
856,2,1,MESSAGE PUMP,WM_KEYDOWN,256
856,2,1,MESSAGE PUMP,WM_CHAR,258
857,0,1,MESSAGE PUMP,WM_KEYUP,257
857,1,1,MESSAGE PUMP,WM_KEYDOWN,256
857,1,1,MESSAGE PUMP,WM_CHAR,258
858,1,1,MESSAGE PUMP,WM_KEYUP,257
858,2,1,MESSAGE PUMP,WM_KEYDOWN,256
858,2,1,MESSAGE PUMP,WM_CHAR,258
859,1,1,MESSAGE PUMP,WM_KEYUP,257
859,2,1,MESSAGE PUMP,WM_KEYDOWN,256
859,2,1,MESSAGE PUMP,WM_CHAR,258
860,1,1,MESSAGE PUMP,WM_KEYUP,257
860,2,1,MESSAGE PUMP,WM_KEYDOWN,256
860,2,1,MESSAGE PUMP,WM_CHAR,258
861,1,1,MESSAGE PUMP,WM_KEYUP,257
861,2,1,MESSAGE PUMP,WM_KEYDOWN,256
861,2,1,MESSAGE PUMP,WM_CHAR,258
862,1,1,MESSAGE PUMP,WM_KEYUP,257
862,2,1,MESSAGE PUMP,WM_KEYDOWN,256
862,2,1,MESSAGE PUMP,WM_CHAR,258
863,1,1,MESSAGE PUMP,WM_KEYUP,257
900,2,1,MESSAGE PUMP,WM_KEYDOWN,256
900,2,1,MESSAGE PUMP,WM_CHAR,258
901,0,1,MESSAGE PUMP,WM_KEYUP,257
935,2,1,MESSAGE PUMP,WM_KEYDOWN,256
936,0,1,MESSAGE PUMP,WM_KEYUP,257
936,0,1,MESSAGE PUMP,WM_KEYDOWN,256
937,0,1,MESSAGE PUMP,WM_KEYUP,257
974,0,1,MESSAGE PUMP,WM_KEYDOWN,256
974,0,1,MESSAGE PUMP,WM_KEYUP,257
975,0,1,MESSAGE PUMP,WM_KEYDOWN,256
976,0,1,MESSAGE PUMP,WM_KEYUP,257
976,1,1,MESSAGE PUMP,WM_KEYDOWN,256
977,0,1,MESSAGE PUMP,WM_KEYUP,257
977,1,1,MESSAGE PUMP,WM_KEYDOWN,256
978,0,1,MESSAGE PUMP,WM_KEYUP,257
978,1,1,MESSAGE PUMP,WM_KEYDOWN,256
979,0,1,MESSAGE PUMP,WM_KEYUP,257
1040,0,1,MESSAGE PUMP,WM_KEYDOWN,256
1040,0,1,MESSAGE PUMP,WM_CHAR,258
1040,0,1,MESSAGE PUMP,WM_KEYUP,257
1074,0,1,MESSAGE PUMP,WM_SYSKEYDOWN,260
1093,0,1,MESSAGE PUMP,WM_SYSKEYDOWN,260
1093,0,1,MESSAGE PUMP,WM_SYSCOMMAND,274
1093,0,1,MESSAGE PUMP,WM_CLOSE,16
1093,0,1,MESSAGE PUMP,WM_SYSKEYUP,261
1093,3,0,MESSAGE PUMP,Unknown,144
1093,3,0,MESSAGE PUMP,WM_WINDOWPOSCHANGING,70
1093,3,0,MESSAGE PUMP,WM_WINDOWPOSCHANGED,71
1093,3,0,MESSAGE PUMP,WM_NCACTIVATE,134
1093,3,0,MESSAGE PUMP,WM_ACTIVATE,6
1093,3,0,MESSAGE PUMP,WM_ACTIVATEAPP,28
1093,3,0,MESSAGE PUMP,WM_KILLFOCUS,8
1093,3,0,MESSAGE PUMP,WM_IME_SETCONTEXT,641
1093,3,0,MESSAGE PUMP,WM_IME_NOTIFY,642
1093,3,0,MESSAGE PUMP,WM_DESTROY,2
1093,3,0,MESSAGE PUMP,WM_NCDESTROY,130
