Frame,Poll Count,Is Polling,Source,Event Name,Event Code
0,0,0,MESSAGE PUMP,WM_SHOWWINDOW,24
0,0,0,MESSAGE PUMP,WM_WINDOWPOSCHANGING,70
0,0,0,MESSAGE PUMP,WM_WINDOWPOSCHANGING,70
0,0,0,MESSAGE PUMP,WM_ACTIVATEAPP,28
0,0,0,MESSAGE PUMP,WM_NCACTIVATE,134
0,0,0,MESSAGE PUMP,WM_ACTIVATE,6
0,0,0,MESSAGE PUMP,WM_IME_SETCONTEXT,641
0,0,0,MESSAGE PUMP,WM_IME_NOTIFY,642
0,0,0,MESSAGE PUMP,WM_SETFOCUS,7
0,0,0,MESSAGE PUMP,WM_NCPAINT,133
0,0,0,MESSAGE PUMP,WM_ERASEBKGND,20
0,0,0,MESSAGE PUMP,WM_WINDOWPOSCHANGED,71
0,0,0,MESSAGE PUMP,WM_SIZE,5
0,0,0,MESSAGE PUMP,WM_MOVE,3
0,0,0,MESSAGE PUMP,WM_WINDOWPOSCHANGING,70
1,0,1,MESSAGE PUMP,WM_GETICON,127
1,0,1,MESSAGE PUMP,Unknown,799
1,0,1,MESSAGE PUMP,WM_GETICON,127
1,0,1,MESSAGE PUMP,Unknown,49351
1,0,1,MESSAGE PUMP,WM_GETICON,127
1,0,1,MESSAGE PUMP,WM_PAINT,15
296,0,1,MESSAGE PUMP,WM_KEYDOWN,256
296,0,1,MESSAGE PUMP,WM_CHAR,258
296,0,1,MESSAGE PUMP,WM_KEYUP,257
297,0,1,MESSAGE PUMP,WM_KEYDOWN,256
297,0,1,MESSAGE PUMP,WM_CHAR,258
297,0,1,MESSAGE PUMP,WM_KEYUP,257
297,0,1,MESSAGE PUMP,WM_KEYDOWN,256
297,0,1,MESSAGE PUMP,WM_CHAR,258
298,0,1,MESSAGE PUMP,WM_KEYUP,257
315,0,1,MESSAGE PUMP,WM_KEYDOWN,256
315,0,1,MESSAGE PUMP,WM_KEYUP,257
332,2,1,MESSAGE PUMP,WM_KEYDOWN,256
333,0,1,MESSAGE PUMP,WM_KEYUP,257
356,2,1,MESSAGE PUMP,WM_KEYDOWN,256
357,0,1,MESSAGE PUMP,WM_KEYUP,257
357,1,1,MESSAGE PUMP,WM_KEYDOWN,256
358,0,1,MESSAGE PUMP,WM_KEYUP,257
358,1,1,MESSAGE PUMP,WM_KEYDOWN,256
359,0,1,MESSAGE PUMP,WM_KEYUP,257
359,1,1,MESSAGE PUMP,WM_KEYDOWN,256
360,0,1,MESSAGE PUMP,WM_KEYUP,257
378,0,1,MESSAGE PUMP,WM_KEYDOWN,256
378,0,1,MESSAGE PUMP,WM_KEYUP,257
399,0,1,MESSAGE PUMP,WM_KEYDOWN,256
399,0,1,MESSAGE PUMP,WM_KEYUP,257
400,0,1,MESSAGE PUMP,WM_KEYDOWN,256
400,0,1,MESSAGE PUMP,WM_KEYUP,257
420,2,1,MESSAGE PUMP,WM_KEYDOWN,256
420,2,1,MESSAGE PUMP,WM_CHAR,258
421,0,1,MESSAGE PUMP,WM_KEYUP,257
465,0,1,MESSAGE PUMP,WM_KEYDOWN,256
465,0,1,MESSAGE PUMP,WM_KEYDOWN,256
465,0,1,MESSAGE PUMP,WM_CHAR,258
465,0,1,MESSAGE PUMP,WM_KEYUP,257
466,0,1,MESSAGE PUMP,WM_KEYUP,257
466,2,1,MESSAGE PUMP,WM_KEYDOWN,256
466,2,1,MESSAGE PUMP,WM_CHAR,258
467,0,1,MESSAGE PUMP,WM_KEYUP,257
467,0,1,MESSAGE PUMP,WM_KEYDOWN,256
467,0,1,MESSAGE PUMP,WM_CHAR,258
468,0,1,MESSAGE PUMP,WM_KEYUP,257
468,1,1,MESSAGE PUMP,WM_KEYDOWN,256
468,1,1,MESSAGE PUMP,WM_CHAR,258
469,1,1,MESSAGE PUMP,WM_KEYUP,257
469,3,1,MESSAGE PUMP,WM_KEYDOWN,256
469,3,1,MESSAGE PUMP,WM_CHAR,258
470,1,1,MESSAGE PUMP,WM_KEYUP,257
470,2,1,MESSAGE PUMP,WM_KEYDOWN,256
470,2,1,MESSAGE PUMP,WM_CHAR,258
471,1,1,MESSAGE PUMP,WM_KEYUP,257
471,2,1,MESSAGE PUMP,WM_KEYDOWN,256
471,2,1,MESSAGE PUMP,WM_CHAR,258
472,1,1,MESSAGE PUMP,WM_KEYUP,257
472,3,1,MESSAGE PUMP,WM_KEYDOWN,256
472,3,1,MESSAGE PUMP,WM_CHAR,258
473,1,1,MESSAGE PUMP,WM_KEYUP,257
473,2,1,MESSAGE PUMP,WM_KEYDOWN,256
473,2,1,MESSAGE PUMP,WM_CHAR,258
474,1,1,MESSAGE PUMP,WM_KEYUP,257
474,3,1,MESSAGE PUMP,WM_KEYDOWN,256
474,3,1,MESSAGE PUMP,WM_CHAR,258
475,1,1,MESSAGE PUMP,WM_KEYUP,257
475,2,1,MESSAGE PUMP,WM_KEYDOWN,256
475,2,1,MESSAGE PUMP,WM_CHAR,258
476,2,1,MESSAGE PUMP,WM_KEYUP,257
514,2,1,MESSAGE PUMP,WM_SYSKEYDOWN,260
515,1,1,MESSAGE PUMP,WM_SYSKEYDOWN,260
515,1,1,MESSAGE PUMP,WM_SYSCHAR,262
515,3,1,MESSAGE PUMP,WM_SYSKEYUP,261
515,5,1,MESSAGE PUMP,WM_KEYUP,257
551,0,1,MESSAGE PUMP,WM_KEYDOWN,256
551,0,1,MESSAGE PUMP,WM_KEYDOWN,256
551,0,1,MESSAGE PUMP,WM_CHAR,258
552,0,1,MESSAGE PUMP,WM_KEYUP,257
552,0,1,MESSAGE PUMP,WM_KEYUP,257
552,2,1,MESSAGE PUMP,WM_KEYDOWN,256
552,2,1,MESSAGE PUMP,WM_CHAR,258
553,0,1,MESSAGE PUMP,WM_KEYUP,257
553,0,1,MESSAGE PUMP,WM_KEYDOWN,256
553,0,1,MESSAGE PUMP,WM_CHAR,258
553,0,1,MESSAGE PUMP,WM_KEYUP,257
553,0,1,MESSAGE PUMP,WM_KEYDOWN,256
553,0,1,MESSAGE PUMP,WM_CHAR,258
554,0,1,MESSAGE PUMP,WM_KEYUP,257
554,1,1,MESSAGE PUMP,WM_KEYDOWN,256
554,1,1,MESSAGE PUMP,WM_CHAR,258
555,1,1,MESSAGE PUMP,WM_KEYUP,257
555,2,1,MESSAGE PUMP,WM_KEYDOWN,256
555,2,1,MESSAGE PUMP,WM_CHAR,258
556,1,1,MESSAGE PUMP,WM_KEYUP,257
556,3,1,MESSAGE PUMP,WM_KEYDOWN,256
556,3,1,MESSAGE PUMP,WM_CHAR,258
557,1,1,MESSAGE PUMP,WM_KEYUP,257
557,2,1,MESSAGE PUMP,WM_KEYDOWN,256
557,2,1,MESSAGE PUMP,WM_CHAR,258
558,1,1,MESSAGE PUMP,WM_KEYUP,257
558,2,1,MESSAGE PUMP,WM_KEYDOWN,256
558,2,1,MESSAGE PUMP,WM_CHAR,258
559,1,1,MESSAGE PUMP,WM_KEYUP,257
559,3,1,MESSAGE PUMP,WM_KEYDOWN,256
559,3,1,MESSAGE PUMP,WM_CHAR,258
560,1,1,MESSAGE PUMP,WM_KEYUP,257
560,2,1,MESSAGE PUMP,WM_KEYDOWN,256
560,2,1,MESSAGE PUMP,WM_CHAR,258
561,2,1,MESSAGE PUMP,WM_KEYUP,257
561,3,1,MESSAGE PUMP,WM_KEYDOWN,256
561,3,1,MESSAGE PUMP,WM_CHAR,258
562,1,1,MESSAGE PUMP,WM_KEYUP,257
562,3,1,MESSAGE PUMP,WM_KEYDOWN,256
562,3,1,MESSAGE PUMP,WM_CHAR,258
563,1,1,MESSAGE PUMP,WM_KEYUP,257
563,2,1,MESSAGE PUMP,WM_KEYDOWN,256
563,2,1,MESSAGE PUMP,WM_CHAR,258
564,2,1,MESSAGE PUMP,WM_KEYUP,257
564,3,1,MESSAGE PUMP,WM_KEYDOWN,256
564,3,1,MESSAGE PUMP,WM_CHAR,258
565,1,1,MESSAGE PUMP,WM_KEYUP,257
565,2,1,MESSAGE PUMP,WM_KEYDOWN,256
565,2,1,MESSAGE PUMP,WM_CHAR,258
566,1,1,MESSAGE PUMP,WM_KEYUP,257
566,3,1,MESSAGE PUMP,WM_KEYDOWN,256
566,3,1,MESSAGE PUMP,WM_CHAR,258
567,1,1,MESSAGE PUMP,WM_KEYUP,257
567,2,1,MESSAGE PUMP,WM_KEYDOWN,256
567,2,1,MESSAGE PUMP,WM_CHAR,258
568,1,1,MESSAGE PUMP,WM_KEYUP,257
568,2,1,MESSAGE PUMP,WM_KEYDOWN,256
568,2,1,MESSAGE PUMP,WM_CHAR,258
569,1,1,MESSAGE PUMP,WM_KEYUP,257
569,3,1,MESSAGE PUMP,WM_KEYDOWN,256
569,3,1,MESSAGE PUMP,WM_CHAR,258
570,1,1,MESSAGE PUMP,WM_KEYUP,257
570,2,1,MESSAGE PUMP,WM_KEYDOWN,256
570,2,1,MESSAGE PUMP,WM_CHAR,258
571,1,1,MESSAGE PUMP,WM_KEYUP,257
571,2,1,MESSAGE PUMP,WM_KEYDOWN,256
571,2,1,MESSAGE PUMP,WM_CHAR,258
572,1,1,MESSAGE PUMP,WM_KEYUP,257
572,3,1,MESSAGE PUMP,WM_KEYDOWN,256
572,3,1,MESSAGE PUMP,WM_CHAR,258
573,1,1,MESSAGE PUMP,WM_KEYUP,257
573,2,1,MESSAGE PUMP,WM_KEYDOWN,256
573,2,1,MESSAGE PUMP,WM_CHAR,258
574,1,1,MESSAGE PUMP,WM_KEYUP,257
612,5,1,MESSAGE PUMP,WM_KEYDOWN,256
612,5,1,MESSAGE PUMP,WM_CHAR,258
613,0,1,MESSAGE PUMP,WM_KEYUP,257
652,0,1,MESSAGE PUMP,WM_KEYDOWN,256
652,0,1,MESSAGE PUMP,WM_KEYDOWN,256
652,0,1,MESSAGE PUMP,WM_CHAR,258
652,0,1,MESSAGE PUMP,WM_KEYUP,257
653,0,1,MESSAGE PUMP,WM_KEYUP,257
653,2,1,MESSAGE PUMP,WM_KEYDOWN,256
653,2,1,MESSAGE PUMP,WM_CHAR,258
654,0,1,MESSAGE PUMP,WM_KEYUP,257
654,1,1,MESSAGE PUMP,WM_KEYDOWN,256
654,1,1,MESSAGE PUMP,WM_CHAR,258
655,1,1,MESSAGE PUMP,WM_KEYUP,257
655,2,1,MESSAGE PUMP,WM_KEYDOWN,256
655,2,1,MESSAGE PUMP,WM_CHAR,258
656,1,1,MESSAGE PUMP,WM_KEYUP,257
656,3,1,MESSAGE PUMP,WM_KEYDOWN,256
656,3,1,MESSAGE PUMP,WM_CHAR,258
657,1,1,MESSAGE PUMP,WM_KEYUP,257
657,2,1,MESSAGE PUMP,WM_KEYDOWN,256
657,2,1,MESSAGE PUMP,WM_CHAR,258
658,1,1,MESSAGE PUMP,WM_KEYUP,257
658,2,1,MESSAGE PUMP,WM_KEYDOWN,256
658,2,1,MESSAGE PUMP,WM_CHAR,258
659,1,1,MESSAGE PUMP,WM_KEYUP,257
659,3,1,MESSAGE PUMP,WM_KEYDOWN,256
659,3,1,MESSAGE PUMP,WM_CHAR,258
660,1,1,MESSAGE PUMP,WM_KEYUP,257
660,2,1,MESSAGE PUMP,WM_KEYDOWN,256
660,2,1,MESSAGE PUMP,WM_CHAR,258
661,1,1,MESSAGE PUMP,WM_KEYUP,257
661,2,1,MESSAGE PUMP,WM_KEYDOWN,256
661,2,1,MESSAGE PUMP,WM_CHAR,258
662,1,1,MESSAGE PUMP,WM_KEYUP,257
662,2,1,MESSAGE PUMP,WM_KEYDOWN,256
662,2,1,MESSAGE PUMP,WM_CHAR,258
663,1,1,MESSAGE PUMP,WM_KEYUP,257
663,2,1,MESSAGE PUMP,WM_KEYDOWN,256
663,2,1,MESSAGE PUMP,WM_CHAR,258
664,1,1,MESSAGE PUMP,WM_KEYUP,257
664,2,1,MESSAGE PUMP,WM_KEYDOWN,256
664,2,1,MESSAGE PUMP,WM_CHAR,258
665,1,1,MESSAGE PUMP,WM_KEYUP,257
665,2,1,MESSAGE PUMP,WM_KEYDOWN,256
665,2,1,MESSAGE PUMP,WM_CHAR,258
666,1,1,MESSAGE PUMP,WM_KEYUP,257
666,2,1,MESSAGE PUMP,WM_KEYDOWN,256
666,2,1,MESSAGE PUMP,WM_CHAR,258
667,1,1,MESSAGE PUMP,WM_KEYUP,257
667,2,1,MESSAGE PUMP,WM_KEYDOWN,256
667,2,1,MESSAGE PUMP,WM_CHAR,258
668,1,1,MESSAGE PUMP,WM_KEYUP,257
668,2,1,MESSAGE PUMP,WM_KEYDOWN,256
668,2,1,MESSAGE PUMP,WM_CHAR,258
669,1,1,MESSAGE PUMP,WM_KEYUP,257
669,2,1,MESSAGE PUMP,WM_KEYDOWN,256
669,2,1,MESSAGE PUMP,WM_CHAR,258
670,1,1,MESSAGE PUMP,WM_KEYUP,257
670,2,1,MESSAGE PUMP,WM_KEYDOWN,256
670,2,1,MESSAGE PUMP,WM_CHAR,258
671,1,1,MESSAGE PUMP,WM_KEYUP,257
671,2,1,MESSAGE PUMP,WM_KEYDOWN,256
671,2,1,MESSAGE PUMP,WM_CHAR,258
672,1,1,MESSAGE PUMP,WM_KEYUP,257
672,2,1,MESSAGE PUMP,WM_KEYDOWN,256
672,2,1,MESSAGE PUMP,WM_CHAR,258
673,1,1,MESSAGE PUMP,WM_KEYUP,257
673,2,1,MESSAGE PUMP,WM_KEYDOWN,256
673,2,1,MESSAGE PUMP,WM_CHAR,258
674,1,1,MESSAGE PUMP,WM_KEYUP,257
674,2,1,MESSAGE PUMP,WM_KEYDOWN,256
674,2,1,MESSAGE PUMP,WM_CHAR,258
675,1,1,MESSAGE PUMP,WM_KEYUP,257
675,2,1,MESSAGE PUMP,WM_KEYDOWN,256
675,2,1,MESSAGE PUMP,WM_CHAR,258
676,1,1,MESSAGE PUMP,WM_KEYUP,257
676,2,1,MESSAGE PUMP,WM_KEYDOWN,256
676,2,1,MESSAGE PUMP,WM_CHAR,258
677,1,1,MESSAGE PUMP,WM_KEYUP,257
677,2,1,MESSAGE PUMP,WM_KEYDOWN,256
677,2,1,MESSAGE PUMP,WM_CHAR,258
678,1,1,MESSAGE PUMP,WM_KEYUP,257
678,2,1,MESSAGE PUMP,WM_KEYDOWN,256
678,2,1,MESSAGE PUMP,WM_CHAR,258
679,1,1,MESSAGE PUMP,WM_KEYUP,257
679,2,1,MESSAGE PUMP,WM_KEYDOWN,256
679,2,1,MESSAGE PUMP,WM_CHAR,258
680,1,1,MESSAGE PUMP,WM_KEYUP,257
680,2,1,MESSAGE PUMP,WM_KEYDOWN,256
680,2,1,MESSAGE PUMP,WM_CHAR,258
681,1,1,MESSAGE PUMP,WM_KEYUP,257
681,2,1,MESSAGE PUMP,WM_KEYDOWN,256
681,2,1,MESSAGE PUMP,WM_CHAR,258
682,1,1,MESSAGE PUMP,WM_KEYUP,257
682,2,1,MESSAGE PUMP,WM_KEYDOWN,256
682,2,1,MESSAGE PUMP,WM_CHAR,258
683,1,1,MESSAGE PUMP,WM_KEYUP,257
683,2,1,MESSAGE PUMP,WM_KEYDOWN,256
683,2,1,MESSAGE PUMP,WM_CHAR,258
684,1,1,MESSAGE PUMP,WM_KEYUP,257
684,2,1,MESSAGE PUMP,WM_KEYDOWN,256
684,2,1,MESSAGE PUMP,WM_CHAR,258
685,1,1,MESSAGE PUMP,WM_KEYUP,257
685,2,1,MESSAGE PUMP,WM_KEYDOWN,256
685,2,1,MESSAGE PUMP,WM_CHAR,258
686,1,1,MESSAGE PUMP,WM_KEYUP,257
686,2,1,MESSAGE PUMP,WM_KEYDOWN,256
686,2,1,MESSAGE PUMP,WM_CHAR,258
687,1,1,MESSAGE PUMP,WM_KEYUP,257
687,2,1,MESSAGE PUMP,WM_KEYDOWN,256
687,2,1,MESSAGE PUMP,WM_CHAR,258
688,1,1,MESSAGE PUMP,WM_KEYUP,257
688,2,1,MESSAGE PUMP,WM_KEYDOWN,256
688,2,1,MESSAGE PUMP,WM_CHAR,258
689,1,1,MESSAGE PUMP,WM_KEYUP,257
689,1,1,MESSAGE PUMP,WM_KEYDOWN,256
689,1,1,MESSAGE PUMP,WM_CHAR,258
690,0,1,MESSAGE PUMP,WM_KEYUP,257
690,1,1,MESSAGE PUMP,WM_KEYDOWN,256
690,1,1,MESSAGE PUMP,WM_CHAR,258
691,0,1,MESSAGE PUMP,WM_KEYUP,257
691,1,1,MESSAGE PUMP,WM_KEYDOWN,256
691,1,1,MESSAGE PUMP,WM_CHAR,258
692,1,1,MESSAGE PUMP,WM_KEYUP,257
692,2,1,MESSAGE PUMP,WM_KEYDOWN,256
692,2,1,MESSAGE PUMP,WM_CHAR,258
693,1,1,MESSAGE PUMP,WM_KEYUP,257
693,3,1,MESSAGE PUMP,WM_KEYDOWN,256
693,3,1,MESSAGE PUMP,WM_CHAR,258
694,1,1,MESSAGE PUMP,WM_KEYUP,257
694,2,1,MESSAGE PUMP,WM_KEYDOWN,256
694,2,1,MESSAGE PUMP,WM_CHAR,258
695,1,1,MESSAGE PUMP,WM_KEYUP,257
695,2,1,MESSAGE PUMP,WM_KEYDOWN,256
695,2,1,MESSAGE PUMP,WM_CHAR,258
696,0,1,MESSAGE PUMP,WM_KEYUP,257
696,2,1,MESSAGE PUMP,WM_KEYDOWN,256
696,2,1,MESSAGE PUMP,WM_CHAR,258
697,0,1,MESSAGE PUMP,WM_KEYUP,257
697,1,1,MESSAGE PUMP,WM_KEYDOWN,256
697,1,1,MESSAGE PUMP,WM_CHAR,258
698,0,1,MESSAGE PUMP,WM_KEYUP,257
698,1,1,MESSAGE PUMP,WM_KEYDOWN,256
698,1,1,MESSAGE PUMP,WM_CHAR,258
699,0,1,MESSAGE PUMP,WM_KEYUP,257
699,2,1,MESSAGE PUMP,WM_KEYDOWN,256
699,2,1,MESSAGE PUMP,WM_CHAR,258
700,1,1,MESSAGE PUMP,WM_KEYUP,257
700,2,1,MESSAGE PUMP,WM_KEYDOWN,256
700,2,1,MESSAGE PUMP,WM_CHAR,258
701,0,1,MESSAGE PUMP,WM_KEYUP,257
701,1,1,MESSAGE PUMP,WM_KEYDOWN,256
701,1,1,MESSAGE PUMP,WM_CHAR,258
702,1,1,MESSAGE PUMP,WM_KEYUP,257
702,2,1,MESSAGE PUMP,WM_KEYDOWN,256
702,2,1,MESSAGE PUMP,WM_CHAR,258
703,2,1,MESSAGE PUMP,WM_KEYUP,257
703,3,1,MESSAGE PUMP,WM_KEYDOWN,256
703,3,1,MESSAGE PUMP,WM_CHAR,258
704,1,1,MESSAGE PUMP,WM_KEYUP,257
704,3,1,MESSAGE PUMP,WM_KEYDOWN,256
704,3,1,MESSAGE PUMP,WM_CHAR,258
705,1,1,MESSAGE PUMP,WM_KEYUP,257
705,2,1,MESSAGE PUMP,WM_KEYDOWN,256
705,2,1,MESSAGE PUMP,WM_CHAR,258
706,1,1,MESSAGE PUMP,WM_KEYUP,257
706,3,1,MESSAGE PUMP,WM_KEYDOWN,256
706,3,1,MESSAGE PUMP,WM_CHAR,258
707,1,1,MESSAGE PUMP,WM_KEYUP,257
707,2,1,MESSAGE PUMP,WM_KEYDOWN,256
707,2,1,MESSAGE PUMP,WM_CHAR,258
708,1,1,MESSAGE PUMP,WM_KEYUP,257
708,2,1,MESSAGE PUMP,WM_KEYDOWN,256
708,2,1,MESSAGE PUMP,WM_CHAR,258
709,1,1,MESSAGE PUMP,WM_KEYUP,257
709,3,1,MESSAGE PUMP,WM_KEYDOWN,256
709,3,1,MESSAGE PUMP,WM_CHAR,258
710,1,1,MESSAGE PUMP,WM_KEYUP,257
710,2,1,MESSAGE PUMP,WM_KEYDOWN,256
710,2,1,MESSAGE PUMP,WM_CHAR,258
711,1,1,MESSAGE PUMP,WM_KEYUP,257
711,2,1,MESSAGE PUMP,WM_KEYDOWN,256
711,2,1,MESSAGE PUMP,WM_CHAR,258
712,1,1,MESSAGE PUMP,WM_KEYUP,257
712,2,1,MESSAGE PUMP,WM_KEYDOWN,256
712,2,1,MESSAGE PUMP,WM_CHAR,258
713,1,1,MESSAGE PUMP,WM_KEYUP,257
713,2,1,MESSAGE PUMP,WM_KEYDOWN,256
713,2,1,MESSAGE PUMP,WM_CHAR,258
714,1,1,MESSAGE PUMP,WM_KEYUP,257
714,2,1,MESSAGE PUMP,WM_KEYDOWN,256
714,2,1,MESSAGE PUMP,WM_CHAR,258
715,1,1,MESSAGE PUMP,WM_KEYUP,257
715,2,1,MESSAGE PUMP,WM_KEYDOWN,256
715,2,1,MESSAGE PUMP,WM_CHAR,258
716,1,1,MESSAGE PUMP,WM_KEYUP,257
716,2,1,MESSAGE PUMP,WM_KEYDOWN,256
716,2,1,MESSAGE PUMP,WM_CHAR,258
717,1,1,MESSAGE PUMP,WM_KEYUP,257
717,2,1,MESSAGE PUMP,WM_KEYDOWN,256
717,2,1,MESSAGE PUMP,WM_CHAR,258
718,1,1,MESSAGE PUMP,WM_KEYUP,257
718,2,1,MESSAGE PUMP,WM_KEYDOWN,256
718,2,1,MESSAGE PUMP,WM_CHAR,258
719,1,1,MESSAGE PUMP,WM_KEYUP,257
762,0,1,MESSAGE PUMP,WM_KEYDOWN,256
762,0,1,MESSAGE PUMP,WM_CHAR,258
762,0,1,MESSAGE PUMP,WM_KEYUP,257
809,0,1,MESSAGE PUMP,WM_KEYDOWN,256
809,0,1,MESSAGE PUMP,WM_KEYDOWN,256
809,0,1,MESSAGE PUMP,WM_CHAR,258
810,0,1,MESSAGE PUMP,WM_KEYUP,257
810,0,1,MESSAGE PUMP,WM_KEYUP,257
810,2,1,MESSAGE PUMP,WM_KEYDOWN,256
810,2,1,MESSAGE PUMP,WM_CHAR,258
811,0,1,MESSAGE PUMP,WM_KEYUP,257
811,2,1,MESSAGE PUMP,WM_KEYDOWN,256
811,2,1,MESSAGE PUMP,WM_CHAR,258
812,1,1,MESSAGE PUMP,WM_KEYUP,257
812,2,1,MESSAGE PUMP,WM_KEYDOWN,256
812,2,1,MESSAGE PUMP,WM_CHAR,258
813,1,1,MESSAGE PUMP,WM_KEYUP,257
813,2,1,MESSAGE PUMP,WM_KEYDOWN,256
813,2,1,MESSAGE PUMP,WM_CHAR,258
814,1,1,MESSAGE PUMP,WM_KEYUP,257
814,2,1,MESSAGE PUMP,WM_KEYDOWN,256
814,2,1,MESSAGE PUMP,WM_CHAR,258
815,1,1,MESSAGE PUMP,WM_KEYUP,257
815,2,1,MESSAGE PUMP,WM_KEYDOWN,256
815,2,1,MESSAGE PUMP,WM_CHAR,258
816,1,1,MESSAGE PUMP,WM_KEYUP,257
816,3,1,MESSAGE PUMP,WM_KEYDOWN,256
816,3,1,MESSAGE PUMP,WM_CHAR,258
817,1,1,MESSAGE PUMP,WM_KEYUP,257
817,2,1,MESSAGE PUMP,WM_KEYDOWN,256
817,2,1,MESSAGE PUMP,WM_CHAR,258
818,1,1,MESSAGE PUMP,WM_KEYUP,257
818,3,1,MESSAGE PUMP,WM_KEYDOWN,256
818,3,1,MESSAGE PUMP,WM_CHAR,258
819,1,1,MESSAGE PUMP,WM_KEYUP,257
819,2,1,MESSAGE PUMP,WM_KEYDOWN,256
819,2,1,MESSAGE PUMP,WM_CHAR,258
820,2,1,MESSAGE PUMP,WM_KEYUP,257
820,3,1,MESSAGE PUMP,WM_KEYDOWN,256
820,3,1,MESSAGE PUMP,WM_CHAR,258
821,1,1,MESSAGE PUMP,WM_KEYUP,257
821,3,1,MESSAGE PUMP,WM_KEYDOWN,256
821,3,1,MESSAGE PUMP,WM_CHAR,258
822,1,1,MESSAGE PUMP,WM_KEYUP,257
822,2,1,MESSAGE PUMP,WM_KEYDOWN,256
822,2,1,MESSAGE PUMP,WM_CHAR,258
823,2,1,MESSAGE PUMP,WM_KEYUP,257
823,3,1,MESSAGE PUMP,WM_KEYDOWN,256
823,3,1,MESSAGE PUMP,WM_CHAR,258
824,1,1,MESSAGE PUMP,WM_KEYUP,257
824,3,1,MESSAGE PUMP,WM_KEYDOWN,256
824,3,1,MESSAGE PUMP,WM_CHAR,258
825,1,1,MESSAGE PUMP,WM_KEYUP,257
825,2,1,MESSAGE PUMP,WM_KEYDOWN,256
825,2,1,MESSAGE PUMP,WM_CHAR,258
826,1,1,MESSAGE PUMP,WM_KEYUP,257
826,2,1,MESSAGE PUMP,WM_KEYDOWN,256
826,2,1,MESSAGE PUMP,WM_CHAR,258
827,1,1,MESSAGE PUMP,WM_KEYUP,257
827,2,1,MESSAGE PUMP,WM_KEYDOWN,256
827,2,1,MESSAGE PUMP,WM_CHAR,258
828,1,1,MESSAGE PUMP,WM_KEYUP,257
828,2,1,MESSAGE PUMP,WM_KEYDOWN,256
828,2,1,MESSAGE PUMP,WM_CHAR,258
829,1,1,MESSAGE PUMP,WM_KEYUP,257
829,2,1,MESSAGE PUMP,WM_KEYDOWN,256
829,2,1,MESSAGE PUMP,WM_CHAR,258
830,1,1,MESSAGE PUMP,WM_KEYUP,257
830,2,1,MESSAGE PUMP,WM_KEYDOWN,256
830,2,1,MESSAGE PUMP,WM_CHAR,258
831,1,1,MESSAGE PUMP,WM_KEYUP,257
831,2,1,MESSAGE PUMP,WM_KEYDOWN,256
831,2,1,MESSAGE PUMP,WM_CHAR,258
832,1,1,MESSAGE PUMP,WM_KEYUP,257
832,2,1,MESSAGE PUMP,WM_KEYDOWN,256
832,2,1,MESSAGE PUMP,WM_CHAR,258
833,1,1,MESSAGE PUMP,WM_KEYUP,257
833,2,1,MESSAGE PUMP,WM_KEYDOWN,256
833,2,1,MESSAGE PUMP,WM_CHAR,258
834,1,1,MESSAGE PUMP,WM_KEYUP,257
834,2,1,MESSAGE PUMP,WM_KEYDOWN,256
834,2,1,MESSAGE PUMP,WM_CHAR,258
835,1,1,MESSAGE PUMP,WM_KEYUP,257
835,2,1,MESSAGE PUMP,WM_KEYDOWN,256
835,2,1,MESSAGE PUMP,WM_CHAR,258
836,1,1,MESSAGE PUMP,WM_KEYUP,257
836,2,1,MESSAGE PUMP,WM_KEYDOWN,256
836,2,1,MESSAGE PUMP,WM_CHAR,258
837,1,1,MESSAGE PUMP,WM_KEYUP,257
837,2,1,MESSAGE PUMP,WM_KEYDOWN,256
837,2,1,MESSAGE PUMP,WM_CHAR,258
838,1,1,MESSAGE PUMP,WM_KEYUP,257
838,2,1,MESSAGE PUMP,WM_KEYDOWN,256
838,2,1,MESSAGE PUMP,WM_CHAR,258
839,1,1,MESSAGE PUMP,WM_KEYUP,257
839,2,1,MESSAGE PUMP,WM_KEYDOWN,256
839,2,1,MESSAGE PUMP,WM_CHAR,258
840,1,1,MESSAGE PUMP,WM_KEYUP,257
840,2,1,MESSAGE PUMP,WM_KEYDOWN,256
840,2,1,MESSAGE PUMP,WM_CHAR,258
841,1,1,MESSAGE PUMP,WM_KEYUP,257
841,2,1,MESSAGE PUMP,WM_KEYDOWN,256
841,2,1,MESSAGE PUMP,WM_CHAR,258
842,1,1,MESSAGE PUMP,WM_KEYUP,257
842,2,1,MESSAGE PUMP,WM_KEYDOWN,256
842,2,1,MESSAGE PUMP,WM_CHAR,258
843,1,1,MESSAGE PUMP,WM_KEYUP,257
843,2,1,MESSAGE PUMP,WM_KEYDOWN,256
843,2,1,MESSAGE PUMP,WM_CHAR,258
844,1,1,MESSAGE PUMP,WM_KEYUP,257
844,2,1,MESSAGE PUMP,WM_KEYDOWN,256
844,2,1,MESSAGE PUMP,WM_CHAR,258
845,1,1,MESSAGE PUMP,WM_KEYUP,257
845,2,1,MESSAGE PUMP,WM_KEYDOWN,256
845,2,1,MESSAGE PUMP,WM_CHAR,258
846,1,1,MESSAGE PUMP,WM_KEYUP,257
846,2,1,MESSAGE PUMP,WM_KEYDOWN,256
846,2,1,MESSAGE PUMP,WM_CHAR,258
847,1,1,MESSAGE PUMP,WM_KEYUP,257
847,2,1,MESSAGE PUMP,WM_KEYDOWN,256
847,2,1,MESSAGE PUMP,WM_CHAR,258
848,1,1,MESSAGE PUMP,WM_KEYUP,257
848,2,1,MESSAGE PUMP,WM_KEYDOWN,256
848,2,1,MESSAGE PUMP,WM_CHAR,258
849,0,1,MESSAGE PUMP,WM_KEYUP,257
849,2,1,MESSAGE PUMP,WM_KEYDOWN,256
849,2,1,MESSAGE PUMP,WM_CHAR,258
850,1,1,MESSAGE PUMP,WM_KEYUP,257
850,2,1,MESSAGE PUMP,WM_KEYDOWN,256
850,2,1,MESSAGE PUMP,WM_CHAR,258
851,1,1,MESSAGE PUMP,WM_KEYUP,257
851,2,1,MESSAGE PUMP,WM_KEYDOWN,256
851,2,1,MESSAGE PUMP,WM_CHAR,258
852,1,1,MESSAGE PUMP,WM_KEYUP,257
852,2,1,MESSAGE PUMP,WM_KEYDOWN,256
852,2,1,MESSAGE PUMP,WM_CHAR,258
853,1,1,MESSAGE PUMP,WM_KEYUP,257
853,3,1,MESSAGE PUMP,WM_KEYDOWN,256
853,3,1,MESSAGE PUMP,WM_CHAR,258
854,1,1,MESSAGE PUMP,WM_KEYUP,257
854,2,1,MESSAGE PUMP,WM_KEYDOWN,256
854,2,1,MESSAGE PUMP,WM_CHAR,258
855,1,1,MESSAGE PUMP,WM_KEYUP,257
855,3,1,MESSAGE PUMP,WM_KEYDOWN,256
855,3,1,MESSAGE PUMP,WM_CHAR,258
856,1,1,MESSAGE PUMP,WM_KEYUP,257
895,0,1,MESSAGE PUMP,WM_KEYDOWN,256
895,0,1,MESSAGE PUMP,WM_CHAR,258
895,0,1,MESSAGE PUMP,WM_KEYUP,257
926,0,1,MESSAGE PUMP,WM_KEYDOWN,256
926,0,1,MESSAGE PUMP,WM_KEYUP,257
927,0,1,MESSAGE PUMP,WM_KEYDOWN,256
928,0,1,MESSAGE PUMP,WM_KEYUP,257
967,2,1,MESSAGE PUMP,WM_KEYDOWN,256
968,0,1,MESSAGE PUMP,WM_KEYUP,257
968,0,1,MESSAGE PUMP,WM_KEYDOWN,256
968,0,1,MESSAGE PUMP,WM_KEYUP,257
969,1,1,MESSAGE PUMP,WM_KEYDOWN,256
970,1,1,MESSAGE PUMP,WM_KEYUP,257
970,2,1,MESSAGE PUMP,WM_KEYDOWN,256
971,1,1,MESSAGE PUMP,WM_KEYUP,257
971,2,1,MESSAGE PUMP,WM_KEYDOWN,256
972,1,1,MESSAGE PUMP,WM_KEYUP,257
1032,0,1,MESSAGE PUMP,WM_KEYDOWN,256
1032,0,1,MESSAGE PUMP,WM_CHAR,258
1032,0,1,MESSAGE PUMP,WM_KEYUP,257
1068,0,1,MESSAGE PUMP,WM_SYSKEYDOWN,260
1084,0,1,MESSAGE PUMP,WM_SYSKEYDOWN,260
1084,0,1,MESSAGE PUMP,WM_SYSCOMMAND,274
1084,0,1,MESSAGE PUMP,WM_CLOSE,16
1084,2,1,MESSAGE PUMP,WM_SYSKEYUP,261
1084,15,0,MESSAGE PUMP,Unknown,144
1084,15,0,MESSAGE PUMP,WM_WINDOWPOSCHANGING,70
1084,15,0,MESSAGE PUMP,WM_WINDOWPOSCHANGED,71
1084,15,0,MESSAGE PUMP,WM_NCACTIVATE,134
1084,15,0,MESSAGE PUMP,WM_ACTIVATE,6
1084,15,0,MESSAGE PUMP,WM_ACTIVATEAPP,28
1084,15,0,MESSAGE PUMP,WM_KILLFOCUS,8
1084,15,0,MESSAGE PUMP,WM_IME_SETCONTEXT,641
1084,15,0,MESSAGE PUMP,WM_IME_NOTIFY,642
1084,15,0,MESSAGE PUMP,WM_DESTROY,2
1084,15,0,MESSAGE PUMP,WM_NCDESTROY,130
