Frame,Poll Count,Is Polling,Source,Event Name,Event Code
0,0,0,MESSAGE PUMP,WM_GETMINMAXINFO,36
0,0,0,MESSAGE PUMP,WM_WINDOWPOSCHANGING,70
0,0,0,MESSAGE PUMP,WM_GETMINMAXINFO,36
0,0,0,MESSAGE PUMP,WM_NCCALCSIZE,131
0,0,0,MESSAGE PUMP,WM_WINDOWPOSCHANGING,70
0,0,0,MESSAGE PUMP,WM_ACTIVATEAPP,28
0,0,0,MESSAGE PUMP,WM_NCACTIVATE,134
0,0,0,MESSAGE PUMP,WM_ACTIVATE,6
0,0,0,MESSAGE PUMP,WM_IME_SETCONTEXT,641
0,0,0,MESSAGE PUMP,WM_IME_NOTIFY,642
0,0,0,MESSAGE PUMP,WM_SETFOCUS,7
0,0,0,MESSAGE PUMP,WM_NCPAINT,133
0,0,0,MESSAGE PUMP,WM_ERASEBKGND,20
0,0,0,MESSAGE PUMP,WM_WINDOWPOSCHANGED,71
0,0,0,MESSAGE PUMP,WM_MOVE,3
0,0,0,MESSAGE PUMP,WM_SIZE,5
0,0,0,MESSAGE PUMP,WM_WINDOWPOSCHANGING,70
0,0,0,MESSAGE PUMP,WM_GETMINMAXINFO,36
0,0,0,MESSAGE PUMP,WM_NCPAINT,133
0,0,0,MESSAGE PUMP,WM_ERASEBKGND,20
0,0,0,MESSAGE PUMP,WM_WINDOWPOSCHANGED,71
0,0,0,MESSAGE PUMP,WM_MOVE,3
0,0,0,MESSAGE PUMP,WM_SETICON,128
0,0,0,MESSAGE PUMP,Unknown,174
0,0,0,MESSAGE PUMP,WM_SETICON,128
0,0,0,MESSAGE PUMP,Unknown,174
0,0,0,MESSAGE PUMP,WM_WINDOWPOSCHANGING,70
0,0,0,MESSAGE PUMP,WM_GETICON,127
0,0,0,MESSAGE PUMP,WM_WINDOWPOSCHANGING,70
1,0,1,MESSAGE PUMP,WM_GETICON,127
1,0,1,MESSAGE PUMP,Unknown,799
1,0,1,MESSAGE PUMP,Unknown,49322
1,0,1,MESSAGE PUMP,WM_GETMINMAXINFO,36
1,0,1,MESSAGE PUMP,WM_NCHITTEST,132
1,0,1,MESSAGE PUMP,WM_SETCURSOR,32
1,0,1,MESSAGE PUMP,WM_MOUSEFIRST,512
1,0,1,MESSAGE PUMP,WM_PAINT,15
1094,0,1,MESSAGE PUMP,WM_KEYDOWN,256
1094,0,1,MESSAGE PUMP,WM_CHAR,258
1095,0,1,MESSAGE PUMP,WM_KEYUP,257
1262,0,1,MESSAGE PUMP,WM_KEYDOWN,256
1333,0,1,MESSAGE PUMP,WM_KEYDOWN,256
1337,0,1,MESSAGE PUMP,WM_KEYUP,257
1412,0,1,MESSAGE PUMP,WM_KEYUP,257
1625,0,1,MESSAGE PUMP,WM_KEYDOWN,256
1701,0,1,MESSAGE PUMP,WM_KEYDOWN,256
1704,0,1,MESSAGE PUMP,WM_KEYUP,257
1758,0,1,MESSAGE PUMP,WM_KEYUP,257
1977,0,1,MESSAGE PUMP,WM_KEYDOWN,256
2054,0,1,MESSAGE PUMP,WM_KEYDOWN,256
2059,0,1,MESSAGE PUMP,WM_KEYUP,257
2134,0,1,MESSAGE PUMP,WM_NCHITTEST,132
2134,0,1,MESSAGE PUMP,WM_SETCURSOR,32
2134,0,1,MESSAGE PUMP,WM_MOUSEFIRST,512
2134,0,1,MESSAGE PUMP,WM_KEYUP,257
3085,0,1,MESSAGE PUMP,WM_KEYDOWN,256
3098,0,1,MESSAGE PUMP,WM_KEYUP,257
3098,0,1,MESSAGE PUMP,WM_NCACTIVATE,134
3098,0,1,MESSAGE PUMP,WM_GETICON,127
3098,0,1,MESSAGE PUMP,WM_ACTIVATE,6
3098,0,1,MESSAGE PUMP,WM_ACTIVATEAPP,28
3098,0,1,MESSAGE PUMP,WM_KILLFOCUS,8
3098,0,1,MESSAGE PUMP,WM_IME_SETCONTEXT,641
3098,0,1,MESSAGE PUMP,WM_IME_NOTIFY,642
3099,0,1,MESSAGE PUMP,WM_NCHITTEST,132
3099,0,1,MESSAGE PUMP,WM_SETCURSOR,32
3099,0,1,MESSAGE PUMP,WM_MOUSEFIRST,512
3100,0,1,MESSAGE PUMP,WM_NCHITTEST,132
3100,0,1,MESSAGE PUMP,WM_SETCURSOR,32
3100,0,1,MESSAGE PUMP,WM_MOUSEFIRST,512
3101,0,1,MESSAGE PUMP,WM_NCHITTEST,132
3101,0,1,MESSAGE PUMP,WM_SETCURSOR,32
3101,0,1,MESSAGE PUMP,WM_MOUSEFIRST,512
3105,0,1,MESSAGE PUMP,WM_NCHITTEST,132
3105,0,1,MESSAGE PUMP,WM_SETCURSOR,32
3105,0,1,MESSAGE PUMP,WM_MOUSEFIRST,512
3109,0,1,MESSAGE PUMP,WM_NCHITTEST,132
3109,0,1,MESSAGE PUMP,WM_SETCURSOR,32
3109,0,1,MESSAGE PUMP,WM_MOUSEFIRST,512
3112,0,1,MESSAGE PUMP,WM_NCHITTEST,132
3112,0,1,MESSAGE PUMP,WM_SETCURSOR,32
3112,0,1,MESSAGE PUMP,WM_MOUSEFIRST,512
3140,0,1,MESSAGE PUMP,WM_NCHITTEST,132
3140,0,1,MESSAGE PUMP,WM_SETCURSOR,32
3140,0,1,MESSAGE PUMP,WM_MOUSEFIRST,512
3181,0,1,MESSAGE PUMP,WM_NCHITTEST,132
3181,0,1,MESSAGE PUMP,WM_SETCURSOR,32
3181,0,1,MESSAGE PUMP,WM_MOUSEFIRST,512
3183,0,1,MESSAGE PUMP,WM_NCHITTEST,132
3183,0,1,MESSAGE PUMP,WM_SETCURSOR,32
3183,0,1,MESSAGE PUMP,WM_MOUSEFIRST,512
3208,0,1,MESSAGE PUMP,WM_WININICHANGE,26
3212,0,1,MESSAGE PUMP,WM_NCHITTEST,132
3212,0,1,MESSAGE PUMP,WM_SETCURSOR,32
3212,0,1,MESSAGE PUMP,WM_MOUSEFIRST,512
3215,0,1,MESSAGE PUMP,WM_NCHITTEST,132
3215,0,1,MESSAGE PUMP,WM_SETCURSOR,32
3215,0,1,MESSAGE PUMP,WM_MOUSEFIRST,512
3315,0,1,MESSAGE PUMP,Unknown,49750
3323,0,1,MESSAGE PUMP,WM_GETOBJECT,61
3327,0,1,MESSAGE PUMP,Unknown,356
3339,0,1,MESSAGE PUMP,WM_GETOBJECT,61
3341,0,1,MESSAGE PUMP,Unknown,356
3352,0,1,MESSAGE PUMP,WM_GETOBJECT,61
3354,0,1,MESSAGE PUMP,WM_NCHITTEST,132
3355,0,1,MESSAGE PUMP,WM_GETOBJECT,61
3356,0,1,MESSAGE PUMP,WM_GETOBJECT,61
3357,0,1,MESSAGE PUMP,WM_NCHITTEST,132
3358,0,1,MESSAGE PUMP,WM_GETOBJECT,61
3360,0,1,MESSAGE PUMP,Unknown,356
3370,0,1,MESSAGE PUMP,Unknown,356
4651,0,1,MESSAGE PUMP,WM_NCHITTEST,132
4651,0,1,MESSAGE PUMP,WM_MOUSEACTIVATE,33
4651,0,1,MESSAGE PUMP,WM_WINDOWPOSCHANGING,70
4651,0,1,MESSAGE PUMP,WM_WINDOWPOSCHANGED,71
4651,0,1,MESSAGE PUMP,WM_ACTIVATEAPP,28
4651,0,1,MESSAGE PUMP,WM_NCACTIVATE,134
4651,0,1,MESSAGE PUMP,WM_ACTIVATE,6
4651,0,1,MESSAGE PUMP,WM_IME_SETCONTEXT,641
4651,0,1,MESSAGE PUMP,WM_IME_NOTIFY,642
4651,0,1,MESSAGE PUMP,WM_SETFOCUS,7
4651,0,1,MESSAGE PUMP,WM_SETCURSOR,32
4651,0,1,MESSAGE PUMP,WM_LBUTTONDOWN,513
4651,0,1,MESSAGE PUMP,WM_GETOBJECT,61
4651,0,1,MESSAGE PUMP,WM_KEYDOWN,256
4651,0,1,MESSAGE PUMP,WM_MOUSEFIRST,512
4651,0,1,MESSAGE PUMP,WM_GETOBJECT,61
4652,0,1,MESSAGE PUMP,WM_GETOBJECT,61
4652,0,1,MESSAGE PUMP,WM_KEYUP,257
4655,0,1,MESSAGE PUMP,WM_LBUTTONUP,514
4655,0,1,MESSAGE PUMP,WM_CAPTURECHANGED,533
4657,0,1,MESSAGE PUMP,WM_NCHITTEST,132
4657,0,1,MESSAGE PUMP,WM_SETCURSOR,32
4657,0,1,MESSAGE PUMP,WM_MOUSEFIRST,512
4657,0,1,MESSAGE PUMP,WM_GETOBJECT,61
4659,0,1,MESSAGE PUMP,Unknown,356
4670,0,1,MESSAGE PUMP,WM_GETOBJECT,61
4676,0,1,MESSAGE PUMP,WM_GETOBJECT,61
4678,0,1,MESSAGE PUMP,Unknown,356
4701,0,1,MESSAGE PUMP,WM_GETOBJECT,61
4703,0,1,MESSAGE PUMP,WM_GETOBJECT,61
4705,0,1,MESSAGE PUMP,Unknown,356
4705,0,1,MESSAGE PUMP,Unknown,356
4714,0,1,MESSAGE PUMP,WM_GETOBJECT,61
4716,0,1,MESSAGE PUMP,Unknown,356
4724,0,1,MESSAGE PUMP,Unknown,356
4725,0,1,MESSAGE PUMP,Unknown,356
4726,0,1,MESSAGE PUMP,WM_GETOBJECT,61
4729,0,1,MESSAGE PUMP,WM_GETOBJECT,61
4731,0,1,MESSAGE PUMP,Unknown,356
4737,0,1,MESSAGE PUMP,Unknown,356
4806,0,1,MESSAGE PUMP,WM_KEYDOWN,256
4806,0,1,MESSAGE PUMP,WM_CHAR,258
4810,0,1,MESSAGE PUMP,WM_GETOBJECT,61
4811,0,1,MESSAGE PUMP,WM_KEYUP,257
4812,0,1,MESSAGE PUMP,WM_GETOBJECT,61
4814,0,1,MESSAGE PUMP,Unknown,356
4825,0,1,MESSAGE PUMP,WM_GETOBJECT,61
4827,0,1,MESSAGE PUMP,Unknown,356
4965,0,1,MESSAGE PUMP,WM_KEYDOWN,256
4967,0,1,MESSAGE PUMP,WM_GETOBJECT,61
4969,0,1,MESSAGE PUMP,WM_GETOBJECT,61
4969,0,1,MESSAGE PUMP,WM_KEYUP,257
4970,0,1,MESSAGE PUMP,Unknown,356
5050,0,1,MESSAGE PUMP,WM_KEYDOWN,256
5052,0,1,MESSAGE PUMP,WM_GETOBJECT,61
5054,0,1,MESSAGE PUMP,Unknown,356
5054,0,1,MESSAGE PUMP,WM_KEYUP,257
5054,0,1,MESSAGE PUMP,WM_GETOBJECT,61
5122,0,1,MESSAGE PUMP,WM_KEYDOWN,256
5124,0,1,MESSAGE PUMP,WM_GETOBJECT,61
5124,0,1,MESSAGE PUMP,WM_KEYUP,257
5125,0,1,MESSAGE PUMP,Unknown,356
5127,0,1,MESSAGE PUMP,WM_GETOBJECT,61
5205,0,1,MESSAGE PUMP,WM_KEYDOWN,256
5207,0,1,MESSAGE PUMP,WM_GETOBJECT,61
5209,0,1,MESSAGE PUMP,WM_GETOBJECT,61
5210,0,1,MESSAGE PUMP,WM_KEYUP,257
5211,0,1,MESSAGE PUMP,Unknown,356
5276,0,1,MESSAGE PUMP,WM_KEYDOWN,256
5278,0,1,MESSAGE PUMP,WM_GETOBJECT,61
5278,0,1,MESSAGE PUMP,WM_KEYUP,257
5279,0,1,MESSAGE PUMP,WM_GETOBJECT,61
5281,0,1,MESSAGE PUMP,Unknown,356
5353,0,1,MESSAGE PUMP,WM_KEYDOWN,256
5355,0,1,MESSAGE PUMP,WM_GETOBJECT,61
5357,0,1,MESSAGE PUMP,WM_GETOBJECT,61
5357,0,1,MESSAGE PUMP,WM_KEYUP,257
5358,0,1,MESSAGE PUMP,Unknown,356
5509,0,1,MESSAGE PUMP,WM_KEYDOWN,256
5509,0,1,MESSAGE PUMP,WM_CHAR,258
5514,0,1,MESSAGE PUMP,WM_KEYUP,257
5669,0,1,MESSAGE PUMP,WM_KEYDOWN,256
5671,0,1,MESSAGE PUMP,WM_GETOBJECT,61
5673,0,1,MESSAGE PUMP,WM_GETOBJECT,61
5674,0,1,MESSAGE PUMP,WM_KEYUP,257
5675,0,1,MESSAGE PUMP,Unknown,356
5729,0,1,MESSAGE PUMP,WM_KEYDOWN,256
5731,0,1,MESSAGE PUMP,WM_GETOBJECT,61
5731,0,1,MESSAGE PUMP,WM_KEYUP,257
5732,0,1,MESSAGE PUMP,WM_GETOBJECT,61
5734,0,1,MESSAGE PUMP,Unknown,356
5875,0,1,MESSAGE PUMP,WM_KEYDOWN,256
5875,0,1,MESSAGE PUMP,WM_CHAR,258
5877,0,1,MESSAGE PUMP,WM_GETOBJECT,61
5879,0,1,MESSAGE PUMP,WM_GETOBJECT,61
5880,0,1,MESSAGE PUMP,WM_KEYUP,257
5881,0,1,MESSAGE PUMP,Unknown,356
5893,0,1,MESSAGE PUMP,WM_GETOBJECT,61
5895,0,1,MESSAGE PUMP,Unknown,356
6033,0,1,MESSAGE PUMP,WM_KEYDOWN,256
6035,0,1,MESSAGE PUMP,WM_GETOBJECT,61
6037,0,1,MESSAGE PUMP,WM_GETOBJECT,61
6038,0,1,MESSAGE PUMP,WM_KEYUP,257
6039,0,1,MESSAGE PUMP,Unknown,356
6111,0,1,MESSAGE PUMP,WM_KEYDOWN,256
6113,0,1,MESSAGE PUMP,WM_GETOBJECT,61
6115,0,1,MESSAGE PUMP,WM_GETOBJECT,61
6116,0,1,MESSAGE PUMP,WM_KEYUP,257
6117,0,1,MESSAGE PUMP,Unknown,356
6273,0,1,MESSAGE PUMP,WM_KEYDOWN,256
6275,0,1,MESSAGE PUMP,WM_GETOBJECT,61
6277,0,1,MESSAGE PUMP,WM_GETOBJECT,61
6278,0,1,MESSAGE PUMP,WM_KEYUP,257
6279,0,1,MESSAGE PUMP,Unknown,356
6359,0,1,MESSAGE PUMP,WM_KEYDOWN,256
6361,0,1,MESSAGE PUMP,WM_GETOBJECT,61
6363,0,1,MESSAGE PUMP,WM_GETOBJECT,61
6364,0,1,MESSAGE PUMP,WM_KEYUP,257
6365,0,1,MESSAGE PUMP,Unknown,356
6445,0,1,MESSAGE PUMP,WM_KEYDOWN,256
6447,0,1,MESSAGE PUMP,WM_GETOBJECT,61
6449,0,1,MESSAGE PUMP,WM_GETOBJECT,61
6449,0,1,MESSAGE PUMP,WM_KEYUP,257
6450,0,1,MESSAGE PUMP,Unknown,356
6529,0,1,MESSAGE PUMP,WM_KEYDOWN,256
6531,0,1,MESSAGE PUMP,WM_GETOBJECT,61
6533,0,1,MESSAGE PUMP,Unknown,356
6534,0,1,MESSAGE PUMP,WM_GETOBJECT,61
6534,0,1,MESSAGE PUMP,WM_KEYUP,257
6615,0,1,MESSAGE PUMP,WM_KEYDOWN,256
6617,0,1,MESSAGE PUMP,WM_GETOBJECT,61
6619,0,1,MESSAGE PUMP,WM_GETOBJECT,61
6620,0,1,MESSAGE PUMP,WM_KEYUP,257
6621,0,1,MESSAGE PUMP,Unknown,356
6701,0,1,MESSAGE PUMP,WM_KEYDOWN,256
6703,0,1,MESSAGE PUMP,WM_GETOBJECT,61
6705,0,1,MESSAGE PUMP,WM_GETOBJECT,61
6706,0,1,MESSAGE PUMP,WM_KEYUP,257
6707,0,1,MESSAGE PUMP,Unknown,356
6787,0,1,MESSAGE PUMP,WM_KEYDOWN,256
6789,0,1,MESSAGE PUMP,WM_GETOBJECT,61
6791,0,1,MESSAGE PUMP,WM_GETOBJECT,61
6793,0,1,MESSAGE PUMP,Unknown,356
6793,0,1,MESSAGE PUMP,WM_KEYUP,257
6926,0,1,MESSAGE PUMP,WM_KEYDOWN,256
6926,0,1,MESSAGE PUMP,WM_CHAR,258
6931,0,1,MESSAGE PUMP,WM_KEYUP,257
7088,0,1,MESSAGE PUMP,WM_KEYDOWN,256
7090,0,1,MESSAGE PUMP,WM_GETOBJECT,61
7092,0,1,MESSAGE PUMP,WM_GETOBJECT,61
7092,0,1,MESSAGE PUMP,WM_KEYUP,257
7093,0,1,MESSAGE PUMP,Unknown,356
7156,0,1,MESSAGE PUMP,WM_KEYDOWN,256
7158,0,1,MESSAGE PUMP,WM_GETOBJECT,61
7160,0,1,MESSAGE PUMP,WM_GETOBJECT,61
7160,0,1,MESSAGE PUMP,WM_KEYUP,257
7161,0,1,MESSAGE PUMP,Unknown,356
7316,0,1,MESSAGE PUMP,WM_KEYDOWN,256
7316,0,1,MESSAGE PUMP,WM_CHAR,258
7318,0,1,MESSAGE PUMP,WM_GETOBJECT,61
7320,0,1,MESSAGE PUMP,WM_GETOBJECT,61
7321,0,1,MESSAGE PUMP,WM_KEYUP,257
7322,0,1,MESSAGE PUMP,Unknown,356
7335,0,1,MESSAGE PUMP,WM_GETOBJECT,61
7337,0,1,MESSAGE PUMP,Unknown,356
7478,0,1,MESSAGE PUMP,WM_KEYDOWN,256
7480,0,1,MESSAGE PUMP,WM_GETOBJECT,61
7482,0,1,MESSAGE PUMP,WM_GETOBJECT,61
7482,0,1,MESSAGE PUMP,WM_KEYUP,257
7483,0,1,MESSAGE PUMP,Unknown,356
7555,0,1,MESSAGE PUMP,WM_KEYDOWN,256
7557,0,1,MESSAGE PUMP,WM_GETOBJECT,61
7559,0,1,MESSAGE PUMP,WM_GETOBJECT,61
7560,0,1,MESSAGE PUMP,WM_KEYUP,257
7561,0,1,MESSAGE PUMP,Unknown,356
7715,0,1,MESSAGE PUMP,WM_KEYDOWN,256
7717,0,1,MESSAGE PUMP,WM_GETOBJECT,61
7719,0,1,MESSAGE PUMP,WM_GETOBJECT,61
7720,0,1,MESSAGE PUMP,WM_KEYUP,257
7721,0,1,MESSAGE PUMP,Unknown,356
7799,0,1,MESSAGE PUMP,WM_KEYDOWN,256
7801,0,1,MESSAGE PUMP,WM_GETOBJECT,61
7803,0,1,MESSAGE PUMP,WM_GETOBJECT,61
7804,0,1,MESSAGE PUMP,WM_KEYUP,257
7805,0,1,MESSAGE PUMP,Unknown,356
7885,0,1,MESSAGE PUMP,WM_KEYDOWN,256
7887,0,1,MESSAGE PUMP,WM_GETOBJECT,61
7889,0,1,MESSAGE PUMP,WM_GETOBJECT,61
7890,0,1,MESSAGE PUMP,WM_KEYUP,257
7891,0,1,MESSAGE PUMP,Unknown,356
8038,0,1,MESSAGE PUMP,WM_KEYDOWN,256
8038,0,1,MESSAGE PUMP,WM_CHAR,258
8043,0,1,MESSAGE PUMP,WM_KEYUP,257
8193,0,1,MESSAGE PUMP,WM_KEYDOWN,256
8195,0,1,MESSAGE PUMP,WM_GETOBJECT,61
8197,0,1,MESSAGE PUMP,WM_GETOBJECT,61
8198,0,1,MESSAGE PUMP,WM_KEYUP,257
8199,0,1,MESSAGE PUMP,Unknown,356
8280,0,1,MESSAGE PUMP,WM_KEYDOWN,256
8282,0,1,MESSAGE PUMP,WM_GETOBJECT,61
8284,0,1,MESSAGE PUMP,Unknown,356
8285,0,1,MESSAGE PUMP,WM_GETOBJECT,61
8285,0,1,MESSAGE PUMP,WM_KEYUP,257
8444,0,1,MESSAGE PUMP,WM_KEYDOWN,256
8446,0,1,MESSAGE PUMP,WM_GETOBJECT,61
8448,0,1,MESSAGE PUMP,WM_GETOBJECT,61
8449,0,1,MESSAGE PUMP,WM_KEYUP,257
8450,0,1,MESSAGE PUMP,Unknown,356
8520,0,1,MESSAGE PUMP,WM_KEYDOWN,256
8522,0,1,MESSAGE PUMP,WM_GETOBJECT,61
8524,0,1,MESSAGE PUMP,Unknown,356
8525,0,1,MESSAGE PUMP,WM_GETOBJECT,61
8525,0,1,MESSAGE PUMP,WM_KEYUP,257
8607,0,1,MESSAGE PUMP,WM_KEYDOWN,256
8609,0,1,MESSAGE PUMP,WM_GETOBJECT,61
8611,0,1,MESSAGE PUMP,WM_GETOBJECT,61
8612,0,1,MESSAGE PUMP,WM_KEYUP,257
8613,0,1,MESSAGE PUMP,Unknown,356
8679,0,1,MESSAGE PUMP,WM_KEYDOWN,256
8681,0,1,MESSAGE PUMP,WM_GETOBJECT,61
8681,0,1,MESSAGE PUMP,WM_KEYUP,257
8682,0,1,MESSAGE PUMP,Unknown,356
8683,0,1,MESSAGE PUMP,WM_GETOBJECT,61
8744,0,1,MESSAGE PUMP,WM_KEYDOWN,256
8746,0,1,MESSAGE PUMP,WM_GETOBJECT,61
8748,0,1,MESSAGE PUMP,WM_GETOBJECT,61
8749,0,1,MESSAGE PUMP,WM_KEYUP,257
8750,0,1,MESSAGE PUMP,Unknown,356
8830,0,1,MESSAGE PUMP,WM_KEYDOWN,256
8832,0,1,MESSAGE PUMP,WM_GETOBJECT,61
8834,0,1,MESSAGE PUMP,WM_GETOBJECT,61
8835,0,1,MESSAGE PUMP,WM_KEYUP,257
8836,0,1,MESSAGE PUMP,Unknown,356
8917,0,1,MESSAGE PUMP,WM_KEYDOWN,256
8919,0,1,MESSAGE PUMP,WM_GETOBJECT,61
8921,0,1,MESSAGE PUMP,WM_GETOBJECT,61
8921,0,1,MESSAGE PUMP,WM_KEYUP,257
8922,0,1,MESSAGE PUMP,Unknown,356
8993,0,1,MESSAGE PUMP,WM_KEYDOWN,256
8995,0,1,MESSAGE PUMP,WM_GETOBJECT,61
8997,0,1,MESSAGE PUMP,WM_GETOBJECT,61
8998,0,1,MESSAGE PUMP,WM_KEYUP,257
8999,0,1,MESSAGE PUMP,Unknown,356
9158,0,1,MESSAGE PUMP,WM_KEYDOWN,256
9160,0,1,MESSAGE PUMP,WM_GETOBJECT,61
9162,0,1,MESSAGE PUMP,WM_GETOBJECT,61
9162,0,1,MESSAGE PUMP,WM_KEYUP,257
9163,0,1,MESSAGE PUMP,Unknown,356
9320,0,1,MESSAGE PUMP,WM_KEYDOWN,256
9320,0,1,MESSAGE PUMP,WM_CHAR,258
9322,0,1,MESSAGE PUMP,WM_GETOBJECT,61
9324,0,1,MESSAGE PUMP,WM_GETOBJECT,61
9325,0,1,MESSAGE PUMP,WM_KEYUP,257
9326,0,1,MESSAGE PUMP,Unknown,356
9338,0,1,MESSAGE PUMP,WM_GETOBJECT,61
9340,0,1,MESSAGE PUMP,Unknown,356
9485,0,1,MESSAGE PUMP,WM_KEYDOWN,256
9487,0,1,MESSAGE PUMP,WM_GETOBJECT,61
9488,0,1,MESSAGE PUMP,WM_KEYUP,257
9489,0,1,MESSAGE PUMP,WM_GETOBJECT,61
9491,0,1,MESSAGE PUMP,Unknown,356
9648,0,1,MESSAGE PUMP,WM_KEYDOWN,256
9650,0,1,MESSAGE PUMP,WM_GETOBJECT,61
9652,0,1,MESSAGE PUMP,WM_GETOBJECT,61
9653,0,1,MESSAGE PUMP,WM_KEYUP,257
9654,0,1,MESSAGE PUMP,Unknown,356
9735,0,1,MESSAGE PUMP,WM_KEYDOWN,256
9737,0,1,MESSAGE PUMP,WM_GETOBJECT,61
9739,0,1,MESSAGE PUMP,WM_GETOBJECT,61
9740,0,1,MESSAGE PUMP,WM_KEYUP,257
9741,0,1,MESSAGE PUMP,Unknown,356
9808,0,1,MESSAGE PUMP,WM_KEYDOWN,256
9810,0,1,MESSAGE PUMP,WM_GETOBJECT,61
9812,0,1,MESSAGE PUMP,WM_GETOBJECT,61
9812,0,1,MESSAGE PUMP,WM_KEYUP,257
9813,0,1,MESSAGE PUMP,Unknown,356
9879,0,1,MESSAGE PUMP,WM_KEYDOWN,256
9881,0,1,MESSAGE PUMP,WM_GETOBJECT,61
9883,0,1,MESSAGE PUMP,Unknown,356
9883,0,1,MESSAGE PUMP,WM_KEYUP,257
9883,0,1,MESSAGE PUMP,WM_GETOBJECT,61
9963,0,1,MESSAGE PUMP,WM_KEYDOWN,256
9965,0,1,MESSAGE PUMP,WM_GETOBJECT,61
9967,0,1,MESSAGE PUMP,WM_GETOBJECT,61
9968,0,1,MESSAGE PUMP,WM_KEYUP,257
9969,0,1,MESSAGE PUMP,Unknown,356
10126,0,1,MESSAGE PUMP,WM_KEYDOWN,256
10208,0,1,MESSAGE PUMP,WM_KEYDOWN,256
10210,0,1,MESSAGE PUMP,WM_GETOBJECT,61
10212,0,1,MESSAGE PUMP,WM_GETOBJECT,61
10213,0,1,MESSAGE PUMP,WM_KEYUP,257
10214,0,1,MESSAGE PUMP,Unknown,356
10293,0,1,MESSAGE PUMP,WM_KEYUP,257
10454,0,1,MESSAGE PUMP,WM_KEYDOWN,256
10454,0,1,MESSAGE PUMP,WM_CHAR,258
10459,0,1,MESSAGE PUMP,WM_KEYUP,257
10615,0,1,MESSAGE PUMP,WM_KEYDOWN,256
10617,0,1,MESSAGE PUMP,WM_GETOBJECT,61
10619,0,1,MESSAGE PUMP,WM_GETOBJECT,61
10619,0,1,MESSAGE PUMP,WM_KEYUP,257
10620,0,1,MESSAGE PUMP,Unknown,356
10701,0,1,MESSAGE PUMP,WM_KEYDOWN,256
10703,0,1,MESSAGE PUMP,WM_GETOBJECT,61
10705,0,1,MESSAGE PUMP,WM_GETOBJECT,61
10706,0,1,MESSAGE PUMP,WM_KEYUP,257
10707,0,1,MESSAGE PUMP,Unknown,356
10854,0,1,MESSAGE PUMP,WM_KEYDOWN,256
10854,0,1,MESSAGE PUMP,WM_CHAR,258
10856,0,1,MESSAGE PUMP,WM_GETOBJECT,61
10858,0,1,MESSAGE PUMP,WM_GETOBJECT,61
10859,0,1,MESSAGE PUMP,WM_KEYUP,257
10860,0,1,MESSAGE PUMP,Unknown,356
10871,0,1,MESSAGE PUMP,WM_GETOBJECT,61
10873,0,1,MESSAGE PUMP,Unknown,356
10994,0,1,MESSAGE PUMP,WM_KEYDOWN,256
11069,0,1,MESSAGE PUMP,WM_KEYDOWN,256
11071,0,1,MESSAGE PUMP,WM_GETOBJECT,61
11071,0,1,MESSAGE PUMP,WM_KEYUP,257
11072,0,1,MESSAGE PUMP,WM_GETOBJECT,61
11073,0,1,MESSAGE PUMP,Unknown,356
11143,0,1,MESSAGE PUMP,WM_KEYUP,257
11301,0,1,MESSAGE PUMP,WM_KEYDOWN,256
11303,0,1,MESSAGE PUMP,WM_GETOBJECT,61
11305,0,1,MESSAGE PUMP,WM_GETOBJECT,61
11306,0,1,MESSAGE PUMP,WM_KEYUP,257
11307,0,1,MESSAGE PUMP,Unknown,356
11455,0,1,MESSAGE PUMP,WM_KEYDOWN,256
11457,0,1,MESSAGE PUMP,WM_GETOBJECT,61
11459,0,1,MESSAGE PUMP,WM_GETOBJECT,61
11460,0,1,MESSAGE PUMP,WM_KEYUP,257
11461,0,1,MESSAGE PUMP,Unknown,356
11543,0,1,MESSAGE PUMP,WM_KEYDOWN,256
11545,0,1,MESSAGE PUMP,WM_GETOBJECT,61
11547,0,1,MESSAGE PUMP,WM_GETOBJECT,61
11548,0,1,MESSAGE PUMP,WM_KEYUP,257
11549,0,1,MESSAGE PUMP,Unknown,356
11619,0,1,MESSAGE PUMP,WM_KEYDOWN,256
11621,0,1,MESSAGE PUMP,WM_GETOBJECT,61
11623,0,1,MESSAGE PUMP,WM_GETOBJECT,61
11624,0,1,MESSAGE PUMP,WM_KEYUP,257
11625,0,1,MESSAGE PUMP,Unknown,356
11752,0,1,MESSAGE PUMP,WM_KEYDOWN,256
11752,0,1,MESSAGE PUMP,WM_CHAR,258
11757,0,1,MESSAGE PUMP,WM_KEYUP,257
11916,0,1,MESSAGE PUMP,WM_KEYDOWN,256
11918,0,1,MESSAGE PUMP,WM_GETOBJECT,61
11920,0,1,MESSAGE PUMP,WM_GETOBJECT,61
11921,0,1,MESSAGE PUMP,WM_KEYUP,257
11922,0,1,MESSAGE PUMP,Unknown,356
12078,0,1,MESSAGE PUMP,WM_KEYDOWN,256
12080,0,1,MESSAGE PUMP,WM_GETOBJECT,61
12082,0,1,MESSAGE PUMP,WM_GETOBJECT,61
12082,0,1,MESSAGE PUMP,WM_KEYUP,257
12083,0,1,MESSAGE PUMP,Unknown,356
12162,0,1,MESSAGE PUMP,WM_KEYDOWN,256
12164,0,1,MESSAGE PUMP,WM_GETOBJECT,61
12164,0,1,MESSAGE PUMP,WM_KEYUP,257
12165,0,1,MESSAGE PUMP,Unknown,356
12166,0,1,MESSAGE PUMP,WM_GETOBJECT,61
12241,0,1,MESSAGE PUMP,WM_KEYDOWN,256
12243,0,1,MESSAGE PUMP,WM_GETOBJECT,61
12245,0,1,MESSAGE PUMP,WM_GETOBJECT,61
12246,0,1,MESSAGE PUMP,WM_KEYUP,257
12247,0,1,MESSAGE PUMP,Unknown,356
12325,0,1,MESSAGE PUMP,WM_KEYDOWN,256
12327,0,1,MESSAGE PUMP,WM_GETOBJECT,61
12327,0,1,MESSAGE PUMP,WM_KEYUP,257
12328,0,1,MESSAGE PUMP,WM_GETOBJECT,61
12330,0,1,MESSAGE PUMP,Unknown,356
12406,0,1,MESSAGE PUMP,WM_KEYDOWN,256
12408,0,1,MESSAGE PUMP,WM_GETOBJECT,61
12410,0,1,MESSAGE PUMP,WM_GETOBJECT,61
12411,0,1,MESSAGE PUMP,WM_KEYUP,257
12412,0,1,MESSAGE PUMP,Unknown,356
12561,0,1,MESSAGE PUMP,WM_KEYDOWN,256
12561,0,1,MESSAGE PUMP,WM_CHAR,258
12563,0,1,MESSAGE PUMP,WM_GETOBJECT,61
12565,0,1,MESSAGE PUMP,WM_GETOBJECT,61
12566,0,1,MESSAGE PUMP,WM_KEYUP,257
12567,0,1,MESSAGE PUMP,Unknown,356
12579,0,1,MESSAGE PUMP,WM_GETOBJECT,61
12581,0,1,MESSAGE PUMP,Unknown,356
12687,0,1,MESSAGE PUMP,WM_KEYDOWN,256
12689,0,1,MESSAGE PUMP,WM_GETOBJECT,61
12691,0,1,MESSAGE PUMP,WM_GETOBJECT,61
12692,0,1,MESSAGE PUMP,WM_KEYUP,257
12693,0,1,MESSAGE PUMP,Unknown,356
12849,0,1,MESSAGE PUMP,WM_KEYDOWN,256
12931,0,1,MESSAGE PUMP,WM_KEYDOWN,256
12933,0,1,MESSAGE PUMP,WM_GETOBJECT,61
12935,0,1,MESSAGE PUMP,WM_GETOBJECT,61
12936,0,1,MESSAGE PUMP,WM_KEYUP,257
12937,0,1,MESSAGE PUMP,Unknown,356
13018,0,1,MESSAGE PUMP,WM_KEYUP,257
13167,0,1,MESSAGE PUMP,WM_KEYDOWN,256
13169,0,1,MESSAGE PUMP,WM_GETOBJECT,61
13171,0,1,MESSAGE PUMP,WM_GETOBJECT,61
13171,0,1,MESSAGE PUMP,WM_KEYUP,257
13172,0,1,MESSAGE PUMP,Unknown,356
13250,0,1,MESSAGE PUMP,WM_KEYDOWN,256
13252,0,1,MESSAGE PUMP,WM_GETOBJECT,61
13254,0,1,MESSAGE PUMP,Unknown,356
13255,0,1,MESSAGE PUMP,WM_GETOBJECT,61
13255,0,1,MESSAGE PUMP,WM_KEYUP,257
13400,0,1,MESSAGE PUMP,WM_KEYDOWN,256
13400,0,1,MESSAGE PUMP,WM_CHAR,258
13405,0,1,MESSAGE PUMP,WM_KEYUP,257
15847,0,1,MESSAGE PUMP,WM_KEYDOWN,256
15929,0,1,MESSAGE PUMP,WM_KEYDOWN,256
15934,0,1,MESSAGE PUMP,WM_KEYUP,257
16031,0,1,MESSAGE PUMP,WM_KEYUP,257
16400,0,1,MESSAGE PUMP,WM_SYSKEYDOWN,260
16498,0,1,MESSAGE PUMP,WM_SYSKEYDOWN,260
16498,0,1,MESSAGE PUMP,WM_SYSCOMMAND,274
16498,0,1,MESSAGE PUMP,WM_CLOSE,16
16498,0,0,MESSAGE PUMP,Unknown,144
16498,0,0,MESSAGE PUMP,WM_WINDOWPOSCHANGING,70
16498,0,0,MESSAGE PUMP,WM_WINDOWPOSCHANGED,71
16498,0,0,MESSAGE PUMP,WM_NCACTIVATE,134
16498,0,0,MESSAGE PUMP,WM_ACTIVATE,6
16498,0,0,MESSAGE PUMP,WM_ACTIVATEAPP,28
16498,0,0,MESSAGE PUMP,WM_KILLFOCUS,8
16498,0,0,MESSAGE PUMP,WM_IME_SETCONTEXT,641
16498,0,0,MESSAGE PUMP,WM_IME_NOTIFY,642
16498,0,0,MESSAGE PUMP,WM_DESTROY,2
16498,0,0,MESSAGE PUMP,WM_NCDESTROY,130
