Frame,Poll Count,Is Polling,Source,Event Name,Event Code
0,0,0,MESSAGE PUMP,WM_GETMINMAXINFO,36
0,0,0,MESSAGE PUMP,WM_WINDOWPOSCHANGING,70
0,0,0,MESSAGE PUMP,WM_GETMINMAXINFO,36
0,0,0,MESSAGE PUMP,WM_NCCALCSIZE,131
0,0,0,MESSAGE PUMP,WM_GETOBJECT,61
0,0,0,MESSAGE PUMP,WM_GETOBJECT,61
0,0,0,MESSAGE PUMP,WM_GETMINMAXINFO,36
0,0,0,MESSAGE PUMP,WM_GETOBJECT,61
0,0,0,MESSAGE PUMP,WM_PAINT,15
0,0,0,MESSAGE PUMP,WM_NCPAINT,133
0,0,0,MESSAGE PUMP,WM_ERASEBKGND,20
0,0,0,MESSAGE PUMP,Unknown,49820
0,0,0,MESSAGE PUMP,WM_GETOBJECT,61
0,0,0,MESSAGE PUMP,Unknown,356
0,0,0,MESSAGE PUMP,WM_GETOBJECT,61
0,0,0,MESSAGE PUMP,WM_GETOBJECT,61
0,0,0,MESSAGE PUMP,WM_GETOBJECT,61
0,0,0,MESSAGE PUMP,WM_GETOBJECT,61
0,0,0,MESSAGE PUMP,WM_WINDOWPOSCHANGING,70
0,0,0,MESSAGE PUMP,WM_ACTIVATEAPP,28
0,0,0,MESSAGE PUMP,WM_NCACTIVATE,134
0,0,0,MESSAGE PUMP,WM_ACTIVATE,6
0,0,0,MESSAGE PUMP,WM_IME_SETCONTEXT,641
0,0,0,MESSAGE PUMP,WM_IME_NOTIFY,642
0,0,0,MESSAGE PUMP,WM_GETOBJECT,61
0,0,0,MESSAGE PUMP,WM_GETOBJECT,61
0,0,0,MESSAGE PUMP,WM_GETOBJECT,61
0,0,0,MESSAGE PUMP,WM_GETOBJECT,61
0,0,0,MESSAGE PUMP,WM_GETOBJECT,61
0,0,0,MESSAGE PUMP,WM_GETOBJECT,61
0,0,0,MESSAGE PUMP,WM_GETOBJECT,61
0,0,0,MESSAGE PUMP,WM_GETOBJECT,61
0,0,0,MESSAGE PUMP,WM_GETOBJECT,61
0,0,0,MESSAGE PUMP,WM_GETOBJECT,61
0,0,0,MESSAGE PUMP,WM_GETOBJECT,61
0,0,0,MESSAGE PUMP,WM_GETOBJECT,61
0,0,0,MESSAGE PUMP,WM_GETOBJECT,61
0,0,0,MESSAGE PUMP,WM_GETOBJECT,61
0,0,0,MESSAGE PUMP,WM_GETOBJECT,61
0,0,0,MESSAGE PUMP,WM_GETOBJECT,61
0,0,0,MESSAGE PUMP,WM_GETOBJECT,61
0,0,0,MESSAGE PUMP,WM_GETOBJECT,61
0,0,0,MESSAGE PUMP,WM_GETOBJECT,61
0,0,0,MESSAGE PUMP,WM_GETOBJECT,61
0,0,0,MESSAGE PUMP,WM_GETOBJECT,61
0,0,0,MESSAGE PUMP,WM_GETOBJECT,61
0,0,0,MESSAGE PUMP,WM_GETOBJECT,61
0,0,0,MESSAGE PUMP,WM_GETOBJECT,61
0,0,0,MESSAGE PUMP,WM_GETTEXTLENGTH,14
0,0,0,MESSAGE PUMP,WM_GETTEXT,13
0,0,0,MESSAGE PUMP,WM_GETOBJECT,61
0,0,0,MESSAGE PUMP,WM_GETOBJECT,61
0,0,0,MESSAGE PUMP,WM_GETICON,127
0,0,0,MESSAGE PUMP,WM_GETICON,127
0,0,0,MESSAGE PUMP,WM_GETOBJECT,61
0,0,0,MESSAGE PUMP,WM_GETOBJECT,61
0,0,0,MESSAGE PUMP,WM_GETOBJECT,61
0,0,0,MESSAGE PUMP,WM_GETOBJECT,61
0,0,0,MESSAGE PUMP,WM_GETOBJECT,61
0,0,0,MESSAGE PUMP,WM_GETOBJECT,61
0,0,0,MESSAGE PUMP,WM_GETOBJECT,61
0,0,0,MESSAGE PUMP,WM_GETOBJECT,61
0,0,0,MESSAGE PUMP,WM_GETOBJECT,61
0,0,0,MESSAGE PUMP,WM_GETOBJECT,61
0,0,0,MESSAGE PUMP,WM_GETOBJECT,61
0,0,0,MESSAGE PUMP,WM_GETOBJECT,61
0,0,0,MESSAGE PUMP,WM_GETTEXTLENGTH,14
0,0,0,MESSAGE PUMP,WM_GETTEXT,13
0,0,0,MESSAGE PUMP,WM_GETICON,127
0,0,0,MESSAGE PUMP,WM_GETOBJECT,61
0,0,0,MESSAGE PUMP,WM_GETOBJECT,61
0,0,0,MESSAGE PUMP,WM_GETOBJECT,61
0,0,0,MESSAGE PUMP,WM_GETOBJECT,61
0,0,0,MESSAGE PUMP,WM_GETOBJECT,61
0,0,0,MESSAGE PUMP,WM_GETOBJECT,61
0,0,0,MESSAGE PUMP,WM_GETOBJECT,61
0,0,0,MESSAGE PUMP,WM_GETOBJECT,61
0,0,0,MESSAGE PUMP,WM_GETOBJECT,61
0,0,0,MESSAGE PUMP,WM_GETOBJECT,61
0,0,0,MESSAGE PUMP,WM_GETOBJECT,61
0,0,0,MESSAGE PUMP,WM_GETOBJECT,61
0,0,0,MESSAGE PUMP,WM_GETOBJECT,61
0,0,0,MESSAGE PUMP,WM_GETOBJECT,61
0,0,0,MESSAGE PUMP,WM_GETOBJECT,61
0,0,0,MESSAGE PUMP,WM_GETOBJECT,61
0,0,0,MESSAGE PUMP,WM_GETOBJECT,61
0,0,0,MESSAGE PUMP,WM_GETOBJECT,61
0,0,0,MESSAGE PUMP,WM_GETOBJECT,61
0,0,0,MESSAGE PUMP,WM_GETOBJECT,61
0,0,0,MESSAGE PUMP,WM_GETOBJECT,61
0,0,0,MESSAGE PUMP,WM_GETOBJECT,61
0,0,0,MESSAGE PUMP,WM_GETOBJECT,61
0,0,0,MESSAGE PUMP,WM_GETOBJECT,61
0,0,0,MESSAGE PUMP,WM_GETOBJECT,61
0,0,0,MESSAGE PUMP,WM_GETOBJECT,61
0,0,0,MESSAGE PUMP,WM_SETFOCUS,7
0,0,0,MESSAGE PUMP,WM_WINDOWPOSCHANGED,71
0,0,0,MESSAGE PUMP,WM_MOVE,3
0,0,0,MESSAGE PUMP,WM_SIZE,5
0,0,0,MESSAGE PUMP,WM_GETOBJECT,61
0,0,0,MESSAGE PUMP,WM_GETOBJECT,61
0,0,0,MESSAGE PUMP,WM_GETOBJECT,61
0,0,0,MESSAGE PUMP,WM_GETOBJECT,61
0,0,0,MESSAGE PUMP,WM_WINDOWPOSCHANGING,70
0,0,0,MESSAGE PUMP,WM_GETMINMAXINFO,36
0,0,0,MESSAGE PUMP,WM_NCPAINT,133
0,0,0,MESSAGE PUMP,WM_ERASEBKGND,20
0,0,0,MESSAGE PUMP,WM_WINDOWPOSCHANGED,71
0,0,0,MESSAGE PUMP,WM_MOVE,3
0,0,0,MESSAGE PUMP,WM_SETICON,128
0,0,0,MESSAGE PUMP,Unknown,174
0,0,0,MESSAGE PUMP,WM_SETICON,128
0,0,0,MESSAGE PUMP,Unknown,174
0,0,0,MESSAGE PUMP,WM_WINDOWPOSCHANGING,70
0,0,0,MESSAGE PUMP,WM_WINDOWPOSCHANGING,70
0,0,0,MESSAGE PUMP,WM_GETOBJECT,61
0,0,0,MESSAGE PUMP,WM_GETOBJECT,61
0,0,0,MESSAGE PUMP,WM_GETOBJECT,61
0,0,0,MESSAGE PUMP,WM_GETOBJECT,61
0,0,0,MESSAGE PUMP,WM_GETOBJECT,61
0,0,0,MESSAGE PUMP,WM_GETOBJECT,61
0,0,0,MESSAGE PUMP,WM_GETOBJECT,61
0,0,0,MESSAGE PUMP,WM_GETOBJECT,61
1,0,1,MESSAGE PUMP,WM_GETICON,127
1,0,1,MESSAGE PUMP,Unknown,799
1,0,1,MESSAGE PUMP,Unknown,49350
1,0,1,MESSAGE PUMP,Unknown,49310
1,0,1,MESSAGE PUMP,Unknown,49500
1,0,1,MESSAGE PUMP,WM_NULL,0
1,0,1,MESSAGE PUMP,WM_NCHITTEST,132
1,0,1,MESSAGE PUMP,WM_SETCURSOR,32
1,0,1,MESSAGE PUMP,WM_MOUSEFIRST,512
1,0,1,MESSAGE PUMP,WM_PAINT,15
2,0,1,MESSAGE PUMP,WM_GETOBJECT,61
2,0,1,MESSAGE PUMP,WM_GETOBJECT,61
2,0,1,MESSAGE PUMP,WM_GETOBJECT,61
2,4,1,MESSAGE PUMP,Unknown,356
6,1,1,MESSAGE PUMP,WM_NULL,0
8,0,0,MESSAGE PUMP,WM_GETOBJECT,61
8,0,0,MESSAGE PUMP,WM_GETOBJECT,61
8,0,0,MESSAGE PUMP,WM_GETOBJECT,61
8,0,0,MESSAGE PUMP,WM_GETOBJECT,61
8,0,0,MESSAGE PUMP,WM_GETOBJECT,61
8,0,0,MESSAGE PUMP,WM_GETOBJECT,61
8,0,0,MESSAGE PUMP,WM_GETOBJECT,61
8,0,0,MESSAGE PUMP,WM_GETOBJECT,61
8,0,0,MESSAGE PUMP,WM_GETOBJECT,61
8,0,0,MESSAGE PUMP,WM_GETOBJECT,61
8,0,0,MESSAGE PUMP,WM_GETOBJECT,61
8,0,0,MESSAGE PUMP,WM_GETOBJECT,61
8,0,0,MESSAGE PUMP,WM_GETOBJECT,61
8,0,0,MESSAGE PUMP,WM_GETOBJECT,61
8,0,0,MESSAGE PUMP,WM_GETOBJECT,61
8,0,0,MESSAGE PUMP,WM_GETOBJECT,61
10,40,0,MESSAGE PUMP,WM_GETOBJECT,61
10,40,0,MESSAGE PUMP,WM_GETOBJECT,61
10,40,0,MESSAGE PUMP,WM_GETOBJECT,61
10,40,0,MESSAGE PUMP,WM_GETOBJECT,61
10,40,0,MESSAGE PUMP,WM_GETOBJECT,61
10,40,0,MESSAGE PUMP,WM_GETOBJECT,61
10,40,0,MESSAGE PUMP,WM_GETOBJECT,61
10,40,0,MESSAGE PUMP,WM_GETOBJECT,61
10,40,0,MESSAGE PUMP,WM_GETOBJECT,61
10,40,0,MESSAGE PUMP,WM_GETOBJECT,61
10,40,0,MESSAGE PUMP,WM_GETOBJECT,61
10,40,0,MESSAGE PUMP,WM_GETOBJECT,61
10,40,0,MESSAGE PUMP,WM_GETOBJECT,61
10,40,0,MESSAGE PUMP,WM_GETOBJECT,61
10,40,0,MESSAGE PUMP,WM_GETOBJECT,61
10,40,0,MESSAGE PUMP,WM_GETOBJECT,61
12,0,0,MESSAGE PUMP,WM_GETOBJECT,61
12,0,0,MESSAGE PUMP,WM_GETOBJECT,61
12,0,0,MESSAGE PUMP,WM_GETOBJECT,61
12,0,0,MESSAGE PUMP,WM_GETOBJECT,61
12,0,0,MESSAGE PUMP,WM_GETOBJECT,61
12,0,0,MESSAGE PUMP,WM_GETOBJECT,61
12,0,0,MESSAGE PUMP,WM_GETOBJECT,61
12,0,0,MESSAGE PUMP,WM_GETOBJECT,61
12,0,0,MESSAGE PUMP,WM_GETOBJECT,61
12,0,0,MESSAGE PUMP,WM_GETOBJECT,61
12,0,0,MESSAGE PUMP,WM_GETOBJECT,61
12,0,0,MESSAGE PUMP,WM_GETOBJECT,61
12,0,0,MESSAGE PUMP,WM_GETOBJECT,61
12,0,0,MESSAGE PUMP,WM_GETOBJECT,61
12,0,0,MESSAGE PUMP,WM_GETOBJECT,61
12,0,0,MESSAGE PUMP,WM_GETOBJECT,61
13,10,0,MESSAGE PUMP,WM_GETOBJECT,61
13,10,0,MESSAGE PUMP,WM_GETOBJECT,61
13,10,0,MESSAGE PUMP,WM_GETOBJECT,61
13,10,0,MESSAGE PUMP,WM_GETOBJECT,61
13,10,0,MESSAGE PUMP,WM_GETOBJECT,61
13,10,0,MESSAGE PUMP,WM_GETOBJECT,61
13,10,0,MESSAGE PUMP,WM_GETOBJECT,61
13,10,0,MESSAGE PUMP,WM_GETOBJECT,61
13,10,0,MESSAGE PUMP,WM_GETOBJECT,61
13,10,0,MESSAGE PUMP,WM_GETOBJECT,61
13,10,0,MESSAGE PUMP,WM_GETOBJECT,61
13,10,0,MESSAGE PUMP,WM_GETOBJECT,61
13,10,0,MESSAGE PUMP,WM_GETOBJECT,61
13,10,0,MESSAGE PUMP,WM_GETOBJECT,61
13,10,0,MESSAGE PUMP,WM_GETOBJECT,61
13,10,0,MESSAGE PUMP,WM_GETOBJECT,61
15,1,0,MESSAGE PUMP,WM_GETOBJECT,61
15,1,0,MESSAGE PUMP,WM_GETOBJECT,61
15,1,0,MESSAGE PUMP,WM_GETOBJECT,61
15,1,0,MESSAGE PUMP,WM_GETOBJECT,61
15,1,0,MESSAGE PUMP,WM_GETOBJECT,61
15,1,0,MESSAGE PUMP,WM_GETOBJECT,61
15,1,0,MESSAGE PUMP,WM_GETOBJECT,61
15,1,0,MESSAGE PUMP,WM_GETOBJECT,61
15,1,0,MESSAGE PUMP,WM_GETOBJECT,61
15,1,0,MESSAGE PUMP,WM_GETOBJECT,61
15,1,0,MESSAGE PUMP,WM_GETOBJECT,61
15,1,0,MESSAGE PUMP,WM_GETOBJECT,61
15,1,0,MESSAGE PUMP,WM_GETOBJECT,61
15,1,0,MESSAGE PUMP,WM_GETOBJECT,61
15,1,0,MESSAGE PUMP,WM_GETOBJECT,61
15,1,0,MESSAGE PUMP,WM_GETOBJECT,61
16,74,0,MESSAGE PUMP,WM_GETOBJECT,61
16,74,0,MESSAGE PUMP,WM_GETOBJECT,61
16,74,0,MESSAGE PUMP,WM_GETOBJECT,61
16,74,0,MESSAGE PUMP,WM_GETOBJECT,61
16,74,0,MESSAGE PUMP,WM_GETOBJECT,61
16,74,0,MESSAGE PUMP,WM_GETOBJECT,61
16,74,0,MESSAGE PUMP,WM_GETOBJECT,61
16,74,0,MESSAGE PUMP,WM_GETOBJECT,61
16,74,0,MESSAGE PUMP,WM_GETOBJECT,61
16,74,0,MESSAGE PUMP,WM_GETOBJECT,61
16,74,0,MESSAGE PUMP,WM_GETOBJECT,61
16,74,0,MESSAGE PUMP,WM_GETOBJECT,61
16,74,0,MESSAGE PUMP,WM_GETOBJECT,61
16,74,0,MESSAGE PUMP,WM_GETOBJECT,61
16,74,0,MESSAGE PUMP,WM_GETOBJECT,61
16,74,0,MESSAGE PUMP,WM_GETOBJECT,61
17,6,0,MESSAGE PUMP,WM_GETOBJECT,61
17,6,0,MESSAGE PUMP,WM_GETOBJECT,61
17,6,0,MESSAGE PUMP,WM_GETOBJECT,61
17,6,0,MESSAGE PUMP,WM_GETOBJECT,61
17,6,0,MESSAGE PUMP,WM_GETOBJECT,61
17,6,0,MESSAGE PUMP,WM_GETOBJECT,61
17,6,0,MESSAGE PUMP,WM_GETOBJECT,61
17,6,0,MESSAGE PUMP,WM_GETOBJECT,61
17,6,0,MESSAGE PUMP,WM_GETOBJECT,61
17,6,0,MESSAGE PUMP,WM_GETOBJECT,61
17,6,0,MESSAGE PUMP,WM_GETOBJECT,61
17,6,0,MESSAGE PUMP,WM_GETOBJECT,61
17,6,0,MESSAGE PUMP,WM_GETOBJECT,61
17,6,0,MESSAGE PUMP,WM_GETOBJECT,61
17,6,0,MESSAGE PUMP,WM_GETOBJECT,61
17,6,0,MESSAGE PUMP,WM_GETOBJECT,61
18,0,0,MESSAGE PUMP,WM_GETOBJECT,61
18,0,0,MESSAGE PUMP,WM_GETOBJECT,61
18,0,0,MESSAGE PUMP,WM_GETOBJECT,61
18,0,0,MESSAGE PUMP,WM_GETOBJECT,61
18,0,0,MESSAGE PUMP,WM_GETOBJECT,61
18,0,0,MESSAGE PUMP,WM_GETOBJECT,61
18,0,0,MESSAGE PUMP,WM_GETOBJECT,61
18,0,0,MESSAGE PUMP,WM_GETOBJECT,61
18,0,0,MESSAGE PUMP,WM_GETOBJECT,61
18,0,0,MESSAGE PUMP,WM_GETOBJECT,61
18,0,0,MESSAGE PUMP,WM_GETOBJECT,61
18,0,0,MESSAGE PUMP,WM_GETOBJECT,61
18,0,0,MESSAGE PUMP,WM_GETOBJECT,61
18,0,0,MESSAGE PUMP,WM_GETOBJECT,61
18,0,0,MESSAGE PUMP,WM_GETOBJECT,61
18,0,0,MESSAGE PUMP,WM_GETOBJECT,61
19,2,0,MESSAGE PUMP,WM_GETOBJECT,61
19,2,0,MESSAGE PUMP,WM_GETOBJECT,61
19,2,0,MESSAGE PUMP,WM_GETOBJECT,61
19,2,0,MESSAGE PUMP,WM_GETOBJECT,61
19,2,0,MESSAGE PUMP,WM_GETOBJECT,61
19,2,0,MESSAGE PUMP,WM_GETOBJECT,61
19,2,0,MESSAGE PUMP,WM_GETOBJECT,61
19,2,0,MESSAGE PUMP,WM_GETOBJECT,61
19,2,0,MESSAGE PUMP,WM_GETOBJECT,61
19,2,0,MESSAGE PUMP,WM_GETOBJECT,61
19,2,0,MESSAGE PUMP,WM_GETOBJECT,61
19,2,0,MESSAGE PUMP,WM_GETOBJECT,61
19,2,0,MESSAGE PUMP,WM_GETOBJECT,61
19,2,0,MESSAGE PUMP,WM_GETOBJECT,61
19,2,0,MESSAGE PUMP,WM_GETOBJECT,61
19,2,0,MESSAGE PUMP,WM_GETOBJECT,61
20,1,0,MESSAGE PUMP,WM_GETOBJECT,61
20,1,0,MESSAGE PUMP,WM_GETOBJECT,61
20,1,0,MESSAGE PUMP,WM_GETOBJECT,61
20,1,0,MESSAGE PUMP,WM_GETOBJECT,61
20,1,0,MESSAGE PUMP,WM_GETOBJECT,61
20,1,0,MESSAGE PUMP,WM_GETOBJECT,61
20,1,0,MESSAGE PUMP,WM_GETOBJECT,61
20,1,0,MESSAGE PUMP,WM_GETOBJECT,61
20,1,0,MESSAGE PUMP,WM_GETOBJECT,61
20,1,0,MESSAGE PUMP,WM_GETOBJECT,61
20,1,0,MESSAGE PUMP,WM_GETOBJECT,61
20,1,0,MESSAGE PUMP,WM_GETOBJECT,61
20,1,0,MESSAGE PUMP,WM_GETOBJECT,61
20,1,0,MESSAGE PUMP,WM_GETOBJECT,61
20,1,0,MESSAGE PUMP,WM_GETOBJECT,61
20,1,0,MESSAGE PUMP,WM_GETOBJECT,61
21,58,0,MESSAGE PUMP,WM_GETOBJECT,61
21,58,0,MESSAGE PUMP,WM_GETOBJECT,61
21,58,0,MESSAGE PUMP,WM_GETOBJECT,61
21,58,0,MESSAGE PUMP,WM_GETOBJECT,61
21,58,0,MESSAGE PUMP,WM_GETOBJECT,61
21,58,0,MESSAGE PUMP,WM_GETOBJECT,61
21,58,0,MESSAGE PUMP,WM_GETOBJECT,61
21,58,0,MESSAGE PUMP,WM_GETOBJECT,61
21,58,0,MESSAGE PUMP,WM_GETOBJECT,61
21,58,0,MESSAGE PUMP,WM_GETOBJECT,61
21,58,0,MESSAGE PUMP,WM_GETOBJECT,61
21,58,0,MESSAGE PUMP,WM_GETOBJECT,61
21,58,0,MESSAGE PUMP,WM_GETOBJECT,61
21,58,0,MESSAGE PUMP,WM_GETOBJECT,61
21,58,0,MESSAGE PUMP,WM_GETOBJECT,61
21,58,0,MESSAGE PUMP,WM_GETOBJECT,61
22,1,0,MESSAGE PUMP,WM_GETOBJECT,61
22,1,0,MESSAGE PUMP,WM_GETOBJECT,61
22,1,0,MESSAGE PUMP,WM_GETOBJECT,61
22,1,0,MESSAGE PUMP,WM_GETOBJECT,61
22,1,0,MESSAGE PUMP,WM_GETOBJECT,61
22,1,0,MESSAGE PUMP,WM_GETOBJECT,61
22,1,0,MESSAGE PUMP,WM_GETOBJECT,61
22,1,0,MESSAGE PUMP,WM_GETOBJECT,61
22,1,0,MESSAGE PUMP,WM_GETOBJECT,61
22,1,0,MESSAGE PUMP,WM_GETOBJECT,61
22,1,0,MESSAGE PUMP,WM_GETOBJECT,61
22,1,0,MESSAGE PUMP,WM_GETOBJECT,61
22,1,0,MESSAGE PUMP,WM_GETOBJECT,61
22,1,0,MESSAGE PUMP,WM_GETOBJECT,61
22,1,0,MESSAGE PUMP,WM_GETOBJECT,61
22,1,0,MESSAGE PUMP,WM_GETOBJECT,61
24,1,0,MESSAGE PUMP,WM_GETOBJECT,61
24,1,0,MESSAGE PUMP,WM_GETOBJECT,61
24,1,0,MESSAGE PUMP,WM_GETOBJECT,61
24,1,0,MESSAGE PUMP,WM_GETOBJECT,61
24,1,0,MESSAGE PUMP,WM_GETOBJECT,61
24,1,0,MESSAGE PUMP,WM_GETOBJECT,61
24,1,0,MESSAGE PUMP,WM_GETOBJECT,61
24,1,0,MESSAGE PUMP,WM_GETOBJECT,61
24,1,0,MESSAGE PUMP,WM_GETOBJECT,61
24,1,0,MESSAGE PUMP,WM_GETOBJECT,61
24,1,0,MESSAGE PUMP,WM_GETOBJECT,61
24,1,0,MESSAGE PUMP,WM_GETOBJECT,61
24,1,0,MESSAGE PUMP,WM_GETOBJECT,61
24,1,0,MESSAGE PUMP,WM_GETOBJECT,61
24,1,0,MESSAGE PUMP,WM_GETOBJECT,61
24,1,0,MESSAGE PUMP,WM_GETOBJECT,61
25,45,0,MESSAGE PUMP,WM_GETOBJECT,61
25,45,0,MESSAGE PUMP,WM_GETOBJECT,61
25,45,0,MESSAGE PUMP,WM_GETOBJECT,61
25,45,0,MESSAGE PUMP,WM_GETOBJECT,61
25,45,0,MESSAGE PUMP,WM_GETOBJECT,61
25,45,0,MESSAGE PUMP,WM_GETOBJECT,61
25,45,0,MESSAGE PUMP,WM_GETOBJECT,61
25,45,0,MESSAGE PUMP,WM_GETOBJECT,61
25,45,0,MESSAGE PUMP,WM_GETOBJECT,61
25,45,0,MESSAGE PUMP,WM_GETOBJECT,61
25,45,0,MESSAGE PUMP,WM_GETOBJECT,61
25,45,0,MESSAGE PUMP,WM_GETOBJECT,61
25,45,0,MESSAGE PUMP,WM_GETOBJECT,61
25,45,0,MESSAGE PUMP,WM_GETOBJECT,61
25,45,0,MESSAGE PUMP,WM_GETOBJECT,61
25,45,0,MESSAGE PUMP,WM_GETOBJECT,61
26,1,0,MESSAGE PUMP,WM_GETOBJECT,61
26,1,0,MESSAGE PUMP,WM_GETOBJECT,61
26,1,0,MESSAGE PUMP,WM_GETOBJECT,61
26,1,0,MESSAGE PUMP,WM_GETOBJECT,61
26,1,0,MESSAGE PUMP,WM_GETOBJECT,61
26,1,0,MESSAGE PUMP,WM_GETOBJECT,61
26,1,0,MESSAGE PUMP,WM_GETOBJECT,61
26,1,0,MESSAGE PUMP,WM_GETOBJECT,61
26,1,0,MESSAGE PUMP,WM_GETOBJECT,61
26,1,0,MESSAGE PUMP,WM_GETOBJECT,61
26,1,0,MESSAGE PUMP,WM_GETOBJECT,61
26,1,0,MESSAGE PUMP,WM_GETOBJECT,61
26,1,0,MESSAGE PUMP,WM_GETOBJECT,61
26,1,0,MESSAGE PUMP,WM_GETOBJECT,61
26,1,0,MESSAGE PUMP,WM_GETOBJECT,61
26,1,0,MESSAGE PUMP,WM_GETOBJECT,61
27,58,0,MESSAGE PUMP,WM_GETOBJECT,61
27,58,0,MESSAGE PUMP,WM_GETOBJECT,61
27,58,0,MESSAGE PUMP,WM_GETOBJECT,61
27,58,0,MESSAGE PUMP,WM_GETOBJECT,61
27,58,0,MESSAGE PUMP,WM_GETOBJECT,61
27,58,0,MESSAGE PUMP,WM_GETOBJECT,61
27,58,0,MESSAGE PUMP,WM_GETOBJECT,61
27,58,0,MESSAGE PUMP,WM_GETOBJECT,61
27,58,0,MESSAGE PUMP,WM_GETOBJECT,61
27,58,0,MESSAGE PUMP,WM_GETOBJECT,61
27,58,0,MESSAGE PUMP,WM_GETOBJECT,61
27,58,0,MESSAGE PUMP,WM_GETOBJECT,61
27,58,0,MESSAGE PUMP,WM_GETOBJECT,61
27,58,0,MESSAGE PUMP,WM_GETOBJECT,61
27,58,0,MESSAGE PUMP,WM_GETOBJECT,61
27,58,0,MESSAGE PUMP,WM_GETOBJECT,61
28,1,0,MESSAGE PUMP,WM_GETOBJECT,61
28,1,0,MESSAGE PUMP,WM_GETOBJECT,61
28,1,0,MESSAGE PUMP,WM_GETOBJECT,61
28,1,0,MESSAGE PUMP,WM_GETOBJECT,61
28,1,0,MESSAGE PUMP,WM_GETOBJECT,61
28,1,0,MESSAGE PUMP,WM_GETOBJECT,61
28,1,0,MESSAGE PUMP,WM_GETOBJECT,61
28,1,0,MESSAGE PUMP,WM_GETOBJECT,61
28,1,0,MESSAGE PUMP,WM_GETOBJECT,61
28,1,0,MESSAGE PUMP,WM_GETOBJECT,61
28,1,0,MESSAGE PUMP,WM_GETOBJECT,61
28,1,0,MESSAGE PUMP,WM_GETOBJECT,61
28,1,0,MESSAGE PUMP,WM_GETOBJECT,61
28,1,0,MESSAGE PUMP,WM_GETOBJECT,61
28,1,0,MESSAGE PUMP,WM_GETOBJECT,61
28,1,0,MESSAGE PUMP,WM_GETOBJECT,61
29,0,0,MESSAGE PUMP,WM_GETOBJECT,61
29,0,0,MESSAGE PUMP,WM_GETOBJECT,61
29,0,0,MESSAGE PUMP,WM_GETOBJECT,61
29,0,0,MESSAGE PUMP,WM_GETOBJECT,61
29,0,0,MESSAGE PUMP,WM_GETOBJECT,61
29,0,0,MESSAGE PUMP,WM_GETOBJECT,61
29,0,0,MESSAGE PUMP,WM_GETOBJECT,61
29,0,0,MESSAGE PUMP,WM_GETOBJECT,61
29,0,0,MESSAGE PUMP,WM_GETOBJECT,61
29,0,0,MESSAGE PUMP,WM_GETOBJECT,61
29,0,0,MESSAGE PUMP,WM_GETOBJECT,61
29,0,0,MESSAGE PUMP,WM_GETOBJECT,61
29,0,0,MESSAGE PUMP,WM_GETOBJECT,61
29,0,0,MESSAGE PUMP,WM_GETOBJECT,61
29,0,0,MESSAGE PUMP,WM_GETOBJECT,61
29,0,0,MESSAGE PUMP,WM_GETOBJECT,61
30,78,0,MESSAGE PUMP,WM_GETOBJECT,61
30,78,0,MESSAGE PUMP,WM_GETOBJECT,61
30,78,0,MESSAGE PUMP,WM_GETOBJECT,61
30,78,0,MESSAGE PUMP,WM_GETOBJECT,61
30,78,0,MESSAGE PUMP,WM_GETOBJECT,61
30,78,0,MESSAGE PUMP,WM_GETOBJECT,61
30,78,0,MESSAGE PUMP,WM_GETOBJECT,61
30,78,0,MESSAGE PUMP,WM_GETOBJECT,61
30,78,0,MESSAGE PUMP,WM_GETOBJECT,61
30,78,0,MESSAGE PUMP,WM_GETOBJECT,61
30,78,0,MESSAGE PUMP,WM_GETOBJECT,61
30,78,0,MESSAGE PUMP,WM_GETOBJECT,61
30,78,0,MESSAGE PUMP,WM_GETOBJECT,61
30,78,0,MESSAGE PUMP,WM_GETOBJECT,61
30,78,0,MESSAGE PUMP,WM_GETOBJECT,61
30,78,0,MESSAGE PUMP,WM_GETOBJECT,61
31,1,0,MESSAGE PUMP,WM_GETOBJECT,61
31,1,0,MESSAGE PUMP,WM_GETOBJECT,61
31,1,0,MESSAGE PUMP,WM_GETOBJECT,61
31,1,0,MESSAGE PUMP,WM_GETOBJECT,61
31,1,0,MESSAGE PUMP,WM_GETOBJECT,61
31,1,0,MESSAGE PUMP,WM_GETOBJECT,61
31,1,0,MESSAGE PUMP,WM_GETOBJECT,61
31,1,0,MESSAGE PUMP,WM_GETOBJECT,61
31,1,0,MESSAGE PUMP,WM_GETOBJECT,61
31,1,0,MESSAGE PUMP,WM_GETOBJECT,61
31,1,0,MESSAGE PUMP,WM_GETOBJECT,61
31,1,0,MESSAGE PUMP,WM_GETOBJECT,61
31,1,0,MESSAGE PUMP,WM_GETOBJECT,61
31,1,0,MESSAGE PUMP,WM_GETOBJECT,61
31,1,0,MESSAGE PUMP,WM_GETOBJECT,61
31,1,0,MESSAGE PUMP,WM_GETOBJECT,61
32,1,0,MESSAGE PUMP,WM_GETOBJECT,61
32,1,0,MESSAGE PUMP,WM_GETOBJECT,61
32,1,0,MESSAGE PUMP,WM_GETOBJECT,61
32,1,0,MESSAGE PUMP,WM_GETOBJECT,61
32,1,0,MESSAGE PUMP,WM_GETOBJECT,61
32,1,0,MESSAGE PUMP,WM_GETOBJECT,61
32,1,0,MESSAGE PUMP,WM_GETOBJECT,61
32,1,0,MESSAGE PUMP,WM_GETOBJECT,61
32,1,0,MESSAGE PUMP,WM_GETOBJECT,61
32,1,0,MESSAGE PUMP,WM_GETOBJECT,61
32,1,0,MESSAGE PUMP,WM_GETOBJECT,61
32,1,0,MESSAGE PUMP,WM_GETOBJECT,61
32,1,0,MESSAGE PUMP,WM_GETOBJECT,61
32,1,0,MESSAGE PUMP,WM_GETOBJECT,61
32,1,0,MESSAGE PUMP,WM_GETOBJECT,61
32,1,0,MESSAGE PUMP,WM_GETOBJECT,61
33,45,0,MESSAGE PUMP,WM_GETOBJECT,61
33,45,0,MESSAGE PUMP,WM_GETOBJECT,61
33,45,0,MESSAGE PUMP,WM_GETOBJECT,61
33,45,0,MESSAGE PUMP,WM_GETOBJECT,61
33,45,0,MESSAGE PUMP,WM_GETOBJECT,61
33,45,0,MESSAGE PUMP,WM_GETOBJECT,61
33,45,0,MESSAGE PUMP,WM_GETOBJECT,61
33,45,0,MESSAGE PUMP,WM_GETOBJECT,61
33,45,0,MESSAGE PUMP,WM_GETOBJECT,61
33,45,0,MESSAGE PUMP,WM_GETOBJECT,61
33,45,0,MESSAGE PUMP,WM_GETOBJECT,61
33,45,0,MESSAGE PUMP,WM_GETOBJECT,61
33,45,0,MESSAGE PUMP,WM_GETOBJECT,61
33,45,0,MESSAGE PUMP,WM_GETOBJECT,61
33,45,0,MESSAGE PUMP,WM_GETOBJECT,61
33,45,0,MESSAGE PUMP,WM_GETOBJECT,61
34,1,0,MESSAGE PUMP,WM_GETOBJECT,61
34,1,0,MESSAGE PUMP,WM_GETOBJECT,61
34,1,0,MESSAGE PUMP,WM_GETOBJECT,61
34,1,0,MESSAGE PUMP,WM_GETOBJECT,61
34,1,0,MESSAGE PUMP,WM_GETOBJECT,61
34,1,0,MESSAGE PUMP,WM_GETOBJECT,61
34,1,0,MESSAGE PUMP,WM_GETOBJECT,61
34,1,0,MESSAGE PUMP,WM_GETOBJECT,61
34,1,0,MESSAGE PUMP,WM_GETOBJECT,61
34,1,0,MESSAGE PUMP,WM_GETOBJECT,61
34,1,0,MESSAGE PUMP,WM_GETOBJECT,61
34,1,0,MESSAGE PUMP,WM_GETOBJECT,61
34,1,0,MESSAGE PUMP,WM_GETOBJECT,61
34,1,0,MESSAGE PUMP,WM_GETOBJECT,61
34,1,0,MESSAGE PUMP,WM_GETOBJECT,61
34,1,0,MESSAGE PUMP,WM_GETOBJECT,61
35,2,0,MESSAGE PUMP,WM_GETOBJECT,61
35,2,0,MESSAGE PUMP,WM_GETOBJECT,61
35,2,0,MESSAGE PUMP,WM_GETOBJECT,61
35,2,0,MESSAGE PUMP,WM_GETOBJECT,61
35,2,0,MESSAGE PUMP,WM_GETOBJECT,61
35,2,0,MESSAGE PUMP,WM_GETOBJECT,61
35,2,0,MESSAGE PUMP,WM_GETOBJECT,61
35,2,0,MESSAGE PUMP,WM_GETOBJECT,61
35,2,0,MESSAGE PUMP,WM_GETOBJECT,61
35,2,0,MESSAGE PUMP,WM_GETOBJECT,61
35,2,0,MESSAGE PUMP,WM_GETOBJECT,61
35,2,0,MESSAGE PUMP,WM_GETOBJECT,61
35,2,0,MESSAGE PUMP,WM_GETOBJECT,61
35,2,0,MESSAGE PUMP,WM_GETOBJECT,61
35,2,0,MESSAGE PUMP,WM_GETOBJECT,61
35,2,0,MESSAGE PUMP,WM_GETOBJECT,61
36,1,0,MESSAGE PUMP,WM_GETOBJECT,61
36,1,0,MESSAGE PUMP,WM_GETOBJECT,61
36,1,0,MESSAGE PUMP,WM_GETOBJECT,61
36,1,0,MESSAGE PUMP,WM_GETOBJECT,61
36,1,0,MESSAGE PUMP,WM_GETOBJECT,61
36,1,0,MESSAGE PUMP,WM_GETOBJECT,61
36,1,0,MESSAGE PUMP,WM_GETOBJECT,61
36,1,0,MESSAGE PUMP,WM_GETOBJECT,61
36,1,0,MESSAGE PUMP,WM_GETOBJECT,61
36,1,0,MESSAGE PUMP,WM_GETOBJECT,61
36,1,0,MESSAGE PUMP,WM_GETOBJECT,61
36,1,0,MESSAGE PUMP,WM_GETOBJECT,61
36,1,0,MESSAGE PUMP,WM_GETOBJECT,61
36,1,0,MESSAGE PUMP,WM_GETOBJECT,61
36,1,0,MESSAGE PUMP,WM_GETOBJECT,61
36,1,0,MESSAGE PUMP,WM_GETOBJECT,61
37,1,0,MESSAGE PUMP,WM_GETOBJECT,61
37,1,0,MESSAGE PUMP,WM_GETOBJECT,61
37,1,0,MESSAGE PUMP,WM_GETOBJECT,61
37,1,0,MESSAGE PUMP,WM_GETOBJECT,61
37,1,0,MESSAGE PUMP,WM_GETOBJECT,61
37,1,0,MESSAGE PUMP,WM_GETOBJECT,61
37,1,0,MESSAGE PUMP,WM_GETOBJECT,61
37,1,0,MESSAGE PUMP,WM_GETOBJECT,61
37,1,0,MESSAGE PUMP,WM_GETOBJECT,61
37,1,0,MESSAGE PUMP,WM_GETOBJECT,61
37,1,0,MESSAGE PUMP,WM_GETOBJECT,61
37,1,0,MESSAGE PUMP,WM_GETOBJECT,61
37,1,0,MESSAGE PUMP,WM_GETOBJECT,61
37,1,0,MESSAGE PUMP,WM_GETOBJECT,61
37,1,0,MESSAGE PUMP,WM_GETOBJECT,61
37,1,0,MESSAGE PUMP,WM_GETOBJECT,61
39,2,0,MESSAGE PUMP,WM_GETOBJECT,61
39,2,0,MESSAGE PUMP,WM_GETOBJECT,61
39,2,0,MESSAGE PUMP,WM_GETOBJECT,61
39,2,0,MESSAGE PUMP,WM_GETOBJECT,61
39,2,0,MESSAGE PUMP,WM_GETOBJECT,61
39,2,0,MESSAGE PUMP,WM_GETOBJECT,61
39,2,0,MESSAGE PUMP,WM_GETOBJECT,61
39,2,0,MESSAGE PUMP,WM_GETOBJECT,61
39,2,0,MESSAGE PUMP,WM_GETOBJECT,61
39,2,0,MESSAGE PUMP,WM_GETOBJECT,61
39,2,0,MESSAGE PUMP,WM_GETOBJECT,61
39,2,0,MESSAGE PUMP,WM_GETOBJECT,61
39,2,0,MESSAGE PUMP,WM_GETOBJECT,61
39,2,0,MESSAGE PUMP,WM_GETOBJECT,61
39,2,0,MESSAGE PUMP,WM_GETOBJECT,61
39,2,0,MESSAGE PUMP,WM_GETOBJECT,61
40,35,0,MESSAGE PUMP,WM_GETOBJECT,61
40,35,0,MESSAGE PUMP,WM_GETOBJECT,61
40,35,0,MESSAGE PUMP,WM_GETOBJECT,61
40,35,0,MESSAGE PUMP,WM_GETOBJECT,61
40,35,0,MESSAGE PUMP,WM_GETOBJECT,61
40,35,0,MESSAGE PUMP,WM_GETOBJECT,61
40,35,0,MESSAGE PUMP,WM_GETOBJECT,61
40,35,0,MESSAGE PUMP,WM_GETOBJECT,61
40,35,0,MESSAGE PUMP,WM_GETOBJECT,61
40,35,0,MESSAGE PUMP,WM_GETOBJECT,61
40,35,0,MESSAGE PUMP,WM_GETOBJECT,61
40,35,0,MESSAGE PUMP,WM_GETOBJECT,61
40,35,0,MESSAGE PUMP,WM_GETOBJECT,61
40,35,0,MESSAGE PUMP,WM_GETOBJECT,61
40,35,0,MESSAGE PUMP,WM_GETOBJECT,61
40,35,0,MESSAGE PUMP,WM_GETOBJECT,61
41,29,0,MESSAGE PUMP,WM_GETOBJECT,61
41,29,0,MESSAGE PUMP,WM_GETOBJECT,61
41,29,0,MESSAGE PUMP,WM_GETOBJECT,61
41,29,0,MESSAGE PUMP,WM_GETOBJECT,61
41,29,0,MESSAGE PUMP,WM_GETOBJECT,61
41,29,0,MESSAGE PUMP,WM_GETOBJECT,61
41,29,0,MESSAGE PUMP,WM_GETOBJECT,61
41,29,0,MESSAGE PUMP,WM_GETOBJECT,61
41,29,0,MESSAGE PUMP,WM_GETOBJECT,61
41,29,0,MESSAGE PUMP,WM_GETOBJECT,61
41,29,0,MESSAGE PUMP,WM_GETOBJECT,61
41,29,0,MESSAGE PUMP,WM_GETOBJECT,61
41,29,0,MESSAGE PUMP,WM_GETOBJECT,61
41,29,0,MESSAGE PUMP,WM_GETOBJECT,61
41,29,0,MESSAGE PUMP,WM_GETOBJECT,61
41,29,0,MESSAGE PUMP,WM_GETOBJECT,61
49,1,0,MESSAGE PUMP,WM_GETOBJECT,61
49,1,0,MESSAGE PUMP,WM_GETOBJECT,61
49,1,0,MESSAGE PUMP,WM_GETOBJECT,61
49,1,0,MESSAGE PUMP,WM_GETOBJECT,61
49,1,0,MESSAGE PUMP,WM_GETOBJECT,61
49,1,0,MESSAGE PUMP,WM_GETOBJECT,61
49,1,0,MESSAGE PUMP,WM_GETOBJECT,61
49,1,0,MESSAGE PUMP,WM_GETOBJECT,61
49,1,0,MESSAGE PUMP,WM_GETOBJECT,61
49,1,0,MESSAGE PUMP,WM_GETOBJECT,61
49,1,0,MESSAGE PUMP,WM_GETOBJECT,61
49,1,0,MESSAGE PUMP,WM_GETOBJECT,61
49,1,0,MESSAGE PUMP,WM_GETOBJECT,61
49,1,0,MESSAGE PUMP,WM_GETOBJECT,61
49,1,0,MESSAGE PUMP,WM_GETOBJECT,61
49,1,0,MESSAGE PUMP,WM_GETOBJECT,61
51,2,0,MESSAGE PUMP,WM_GETOBJECT,61
51,2,0,MESSAGE PUMP,WM_GETOBJECT,61
51,2,0,MESSAGE PUMP,WM_GETOBJECT,61
51,2,0,MESSAGE PUMP,WM_GETOBJECT,61
51,2,0,MESSAGE PUMP,WM_GETOBJECT,61
51,2,0,MESSAGE PUMP,WM_GETOBJECT,61
51,2,0,MESSAGE PUMP,WM_GETOBJECT,61
51,2,0,MESSAGE PUMP,WM_GETOBJECT,61
51,2,0,MESSAGE PUMP,WM_GETOBJECT,61
51,2,0,MESSAGE PUMP,WM_GETOBJECT,61
51,2,0,MESSAGE PUMP,WM_GETOBJECT,61
51,2,0,MESSAGE PUMP,WM_GETOBJECT,61
51,2,0,MESSAGE PUMP,WM_GETOBJECT,61
51,2,0,MESSAGE PUMP,WM_GETOBJECT,61
51,2,0,MESSAGE PUMP,WM_GETOBJECT,61
51,2,0,MESSAGE PUMP,WM_GETOBJECT,61
53,32,0,MESSAGE PUMP,WM_GETOBJECT,61
53,32,0,MESSAGE PUMP,WM_GETOBJECT,61
53,32,0,MESSAGE PUMP,WM_GETOBJECT,61
53,32,0,MESSAGE PUMP,WM_GETOBJECT,61
53,32,0,MESSAGE PUMP,WM_GETOBJECT,61
53,32,0,MESSAGE PUMP,WM_GETOBJECT,61
53,32,0,MESSAGE PUMP,WM_GETOBJECT,61
53,32,0,MESSAGE PUMP,WM_GETOBJECT,61
53,32,0,MESSAGE PUMP,WM_GETOBJECT,61
53,32,0,MESSAGE PUMP,WM_GETOBJECT,61
53,32,0,MESSAGE PUMP,WM_GETOBJECT,61
53,32,0,MESSAGE PUMP,WM_GETOBJECT,61
53,32,0,MESSAGE PUMP,WM_GETOBJECT,61
53,32,0,MESSAGE PUMP,WM_GETOBJECT,61
53,32,0,MESSAGE PUMP,WM_GETOBJECT,61
53,32,0,MESSAGE PUMP,WM_GETOBJECT,61
54,3,0,MESSAGE PUMP,WM_GETOBJECT,61
54,3,0,MESSAGE PUMP,WM_GETOBJECT,61
54,3,0,MESSAGE PUMP,WM_GETOBJECT,61
54,3,0,MESSAGE PUMP,WM_GETOBJECT,61
54,3,0,MESSAGE PUMP,WM_GETOBJECT,61
54,3,0,MESSAGE PUMP,WM_GETOBJECT,61
54,3,0,MESSAGE PUMP,WM_GETOBJECT,61
54,3,0,MESSAGE PUMP,WM_GETOBJECT,61
54,3,0,MESSAGE PUMP,WM_GETOBJECT,61
54,3,0,MESSAGE PUMP,WM_GETOBJECT,61
54,3,0,MESSAGE PUMP,WM_GETOBJECT,61
54,3,0,MESSAGE PUMP,WM_GETOBJECT,61
54,3,0,MESSAGE PUMP,WM_GETOBJECT,61
54,3,0,MESSAGE PUMP,WM_GETOBJECT,61
54,3,0,MESSAGE PUMP,WM_GETOBJECT,61
54,3,0,MESSAGE PUMP,WM_GETOBJECT,61
57,2,0,MESSAGE PUMP,WM_GETOBJECT,61
57,2,0,MESSAGE PUMP,WM_GETOBJECT,61
57,2,0,MESSAGE PUMP,WM_GETOBJECT,61
57,2,0,MESSAGE PUMP,WM_GETOBJECT,61
57,2,0,MESSAGE PUMP,WM_GETOBJECT,61
57,2,0,MESSAGE PUMP,WM_GETOBJECT,61
57,2,0,MESSAGE PUMP,WM_GETOBJECT,61
57,2,0,MESSAGE PUMP,WM_GETOBJECT,61
57,2,0,MESSAGE PUMP,WM_GETOBJECT,61
57,2,0,MESSAGE PUMP,WM_GETOBJECT,61
57,2,0,MESSAGE PUMP,WM_GETOBJECT,61
57,2,0,MESSAGE PUMP,WM_GETOBJECT,61
57,2,0,MESSAGE PUMP,WM_GETOBJECT,61
57,2,0,MESSAGE PUMP,WM_GETOBJECT,61
57,2,0,MESSAGE PUMP,WM_GETOBJECT,61
57,2,0,MESSAGE PUMP,WM_GETOBJECT,61
58,2,0,MESSAGE PUMP,WM_GETOBJECT,61
58,2,0,MESSAGE PUMP,WM_GETOBJECT,61
58,2,0,MESSAGE PUMP,WM_GETOBJECT,61
58,2,0,MESSAGE PUMP,WM_GETOBJECT,61
58,2,0,MESSAGE PUMP,WM_GETOBJECT,61
58,2,0,MESSAGE PUMP,WM_GETOBJECT,61
58,2,0,MESSAGE PUMP,WM_GETOBJECT,61
58,2,0,MESSAGE PUMP,WM_GETOBJECT,61
58,2,0,MESSAGE PUMP,WM_GETOBJECT,61
58,2,0,MESSAGE PUMP,WM_GETOBJECT,61
58,2,0,MESSAGE PUMP,WM_GETOBJECT,61
58,2,0,MESSAGE PUMP,WM_GETOBJECT,61
58,2,0,MESSAGE PUMP,WM_GETOBJECT,61
58,2,0,MESSAGE PUMP,WM_GETOBJECT,61
58,2,0,MESSAGE PUMP,WM_GETOBJECT,61
58,2,0,MESSAGE PUMP,WM_GETOBJECT,61
59,42,0,MESSAGE PUMP,WM_GETOBJECT,61
59,42,0,MESSAGE PUMP,WM_GETOBJECT,61
59,42,0,MESSAGE PUMP,WM_GETOBJECT,61
59,42,0,MESSAGE PUMP,WM_GETOBJECT,61
59,42,0,MESSAGE PUMP,WM_GETOBJECT,61
59,42,0,MESSAGE PUMP,WM_GETOBJECT,61
59,42,0,MESSAGE PUMP,WM_GETOBJECT,61
59,42,0,MESSAGE PUMP,WM_GETOBJECT,61
59,42,0,MESSAGE PUMP,WM_GETOBJECT,61
59,42,0,MESSAGE PUMP,WM_GETOBJECT,61
59,42,0,MESSAGE PUMP,WM_GETOBJECT,61
59,42,0,MESSAGE PUMP,WM_GETOBJECT,61
59,42,0,MESSAGE PUMP,WM_GETOBJECT,61
59,42,0,MESSAGE PUMP,WM_GETOBJECT,61
59,42,0,MESSAGE PUMP,WM_GETOBJECT,61
59,42,0,MESSAGE PUMP,WM_GETOBJECT,61
60,18,0,MESSAGE PUMP,WM_GETOBJECT,61
60,18,0,MESSAGE PUMP,WM_GETOBJECT,61
60,18,0,MESSAGE PUMP,WM_GETOBJECT,61
60,18,0,MESSAGE PUMP,WM_GETOBJECT,61
60,18,0,MESSAGE PUMP,WM_GETOBJECT,61
60,18,0,MESSAGE PUMP,WM_GETOBJECT,61
60,18,0,MESSAGE PUMP,WM_GETOBJECT,61
60,18,0,MESSAGE PUMP,WM_GETOBJECT,61
60,18,0,MESSAGE PUMP,WM_GETOBJECT,61
60,18,0,MESSAGE PUMP,WM_GETOBJECT,61
60,18,0,MESSAGE PUMP,WM_GETOBJECT,61
60,18,0,MESSAGE PUMP,WM_GETOBJECT,61
60,18,0,MESSAGE PUMP,WM_GETOBJECT,61
60,18,0,MESSAGE PUMP,WM_GETOBJECT,61
60,18,0,MESSAGE PUMP,WM_GETOBJECT,61
60,18,0,MESSAGE PUMP,WM_GETOBJECT,61
61,11,0,MESSAGE PUMP,WM_GETOBJECT,61
61,11,0,MESSAGE PUMP,WM_GETOBJECT,61
61,11,0,MESSAGE PUMP,WM_GETOBJECT,61
61,11,0,MESSAGE PUMP,WM_GETOBJECT,61
61,11,0,MESSAGE PUMP,WM_GETOBJECT,61
61,11,0,MESSAGE PUMP,WM_GETOBJECT,61
61,11,0,MESSAGE PUMP,WM_GETOBJECT,61
61,11,0,MESSAGE PUMP,WM_GETOBJECT,61
61,11,0,MESSAGE PUMP,WM_GETOBJECT,61
61,11,0,MESSAGE PUMP,WM_GETOBJECT,61
61,11,0,MESSAGE PUMP,WM_GETOBJECT,61
61,11,0,MESSAGE PUMP,WM_GETOBJECT,61
61,11,0,MESSAGE PUMP,WM_GETOBJECT,61
61,11,0,MESSAGE PUMP,WM_GETOBJECT,61
61,11,0,MESSAGE PUMP,WM_GETOBJECT,61
61,11,0,MESSAGE PUMP,WM_GETOBJECT,61
63,1,0,MESSAGE PUMP,WM_GETOBJECT,61
63,1,0,MESSAGE PUMP,WM_GETOBJECT,61
63,1,0,MESSAGE PUMP,WM_GETOBJECT,61
63,1,0,MESSAGE PUMP,WM_GETOBJECT,61
63,1,0,MESSAGE PUMP,WM_GETOBJECT,61
63,1,0,MESSAGE PUMP,WM_GETOBJECT,61
63,1,0,MESSAGE PUMP,WM_GETOBJECT,61
63,1,0,MESSAGE PUMP,WM_GETOBJECT,61
63,1,0,MESSAGE PUMP,WM_GETOBJECT,61
63,1,0,MESSAGE PUMP,WM_GETOBJECT,61
63,1,0,MESSAGE PUMP,WM_GETOBJECT,61
63,1,0,MESSAGE PUMP,WM_GETOBJECT,61
63,1,0,MESSAGE PUMP,WM_GETOBJECT,61
63,1,0,MESSAGE PUMP,WM_GETOBJECT,61
63,1,0,MESSAGE PUMP,WM_GETOBJECT,61
63,1,0,MESSAGE PUMP,WM_GETOBJECT,61
64,64,0,MESSAGE PUMP,WM_GETOBJECT,61
64,64,0,MESSAGE PUMP,WM_GETOBJECT,61
64,64,0,MESSAGE PUMP,WM_GETOBJECT,61
64,64,0,MESSAGE PUMP,WM_GETOBJECT,61
64,64,0,MESSAGE PUMP,WM_GETOBJECT,61
64,64,0,MESSAGE PUMP,WM_GETOBJECT,61
64,64,0,MESSAGE PUMP,WM_GETOBJECT,61
64,64,0,MESSAGE PUMP,WM_GETOBJECT,61
64,64,0,MESSAGE PUMP,WM_GETOBJECT,61
64,64,0,MESSAGE PUMP,WM_GETOBJECT,61
64,64,0,MESSAGE PUMP,WM_GETOBJECT,61
64,64,0,MESSAGE PUMP,WM_GETOBJECT,61
64,64,0,MESSAGE PUMP,WM_GETOBJECT,61
64,64,0,MESSAGE PUMP,WM_GETOBJECT,61
64,64,0,MESSAGE PUMP,WM_GETOBJECT,61
64,64,0,MESSAGE PUMP,WM_GETOBJECT,61
65,29,0,MESSAGE PUMP,WM_GETOBJECT,61
65,29,0,MESSAGE PUMP,WM_GETOBJECT,61
65,29,0,MESSAGE PUMP,WM_GETOBJECT,61
65,29,0,MESSAGE PUMP,WM_GETOBJECT,61
65,29,0,MESSAGE PUMP,WM_GETOBJECT,61
65,29,0,MESSAGE PUMP,WM_GETOBJECT,61
65,29,0,MESSAGE PUMP,WM_GETOBJECT,61
65,29,0,MESSAGE PUMP,WM_GETOBJECT,61
65,29,0,MESSAGE PUMP,WM_GETOBJECT,61
65,29,0,MESSAGE PUMP,WM_GETOBJECT,61
65,29,0,MESSAGE PUMP,WM_GETOBJECT,61
65,29,0,MESSAGE PUMP,WM_GETOBJECT,61
65,29,0,MESSAGE PUMP,WM_GETOBJECT,61
65,29,0,MESSAGE PUMP,WM_GETOBJECT,61
65,29,0,MESSAGE PUMP,WM_GETOBJECT,61
65,29,0,MESSAGE PUMP,WM_GETOBJECT,61
66,25,0,MESSAGE PUMP,WM_GETOBJECT,61
66,25,0,MESSAGE PUMP,WM_GETOBJECT,61
66,25,0,MESSAGE PUMP,WM_GETOBJECT,61
66,25,0,MESSAGE PUMP,WM_GETOBJECT,61
66,25,0,MESSAGE PUMP,WM_GETOBJECT,61
66,25,0,MESSAGE PUMP,WM_GETOBJECT,61
66,25,0,MESSAGE PUMP,WM_GETOBJECT,61
66,25,0,MESSAGE PUMP,WM_GETOBJECT,61
66,25,0,MESSAGE PUMP,WM_GETOBJECT,61
66,25,0,MESSAGE PUMP,WM_GETOBJECT,61
66,25,0,MESSAGE PUMP,WM_GETOBJECT,61
66,25,0,MESSAGE PUMP,WM_GETOBJECT,61
66,25,0,MESSAGE PUMP,WM_GETOBJECT,61
66,25,0,MESSAGE PUMP,WM_GETOBJECT,61
66,25,0,MESSAGE PUMP,WM_GETOBJECT,61
66,25,0,MESSAGE PUMP,WM_GETOBJECT,61
68,20,0,MESSAGE PUMP,WM_GETOBJECT,61
68,20,0,MESSAGE PUMP,WM_GETOBJECT,61
68,20,0,MESSAGE PUMP,WM_GETOBJECT,61
68,20,0,MESSAGE PUMP,WM_GETOBJECT,61
68,20,0,MESSAGE PUMP,WM_GETOBJECT,61
68,20,0,MESSAGE PUMP,WM_GETOBJECT,61
68,20,0,MESSAGE PUMP,WM_GETOBJECT,61
68,20,0,MESSAGE PUMP,WM_GETOBJECT,61
68,20,0,MESSAGE PUMP,WM_GETOBJECT,61
68,20,0,MESSAGE PUMP,WM_GETOBJECT,61
68,20,0,MESSAGE PUMP,WM_GETOBJECT,61
68,20,0,MESSAGE PUMP,WM_GETOBJECT,61
68,20,0,MESSAGE PUMP,WM_GETOBJECT,61
68,20,0,MESSAGE PUMP,WM_GETOBJECT,61
68,20,0,MESSAGE PUMP,WM_GETOBJECT,61
68,20,0,MESSAGE PUMP,WM_GETOBJECT,61
69,1,0,MESSAGE PUMP,WM_GETOBJECT,61
69,1,0,MESSAGE PUMP,WM_GETOBJECT,61
69,1,0,MESSAGE PUMP,WM_GETOBJECT,61
69,1,0,MESSAGE PUMP,WM_GETOBJECT,61
69,1,0,MESSAGE PUMP,WM_GETOBJECT,61
69,1,0,MESSAGE PUMP,WM_GETOBJECT,61
69,1,0,MESSAGE PUMP,WM_GETOBJECT,61
69,1,0,MESSAGE PUMP,WM_GETOBJECT,61
69,1,0,MESSAGE PUMP,WM_GETOBJECT,61
69,1,0,MESSAGE PUMP,WM_GETOBJECT,61
69,1,0,MESSAGE PUMP,WM_GETOBJECT,61
69,1,0,MESSAGE PUMP,WM_GETOBJECT,61
69,1,0,MESSAGE PUMP,WM_GETOBJECT,61
69,1,0,MESSAGE PUMP,WM_GETOBJECT,61
69,1,0,MESSAGE PUMP,WM_GETOBJECT,61
69,1,0,MESSAGE PUMP,WM_GETOBJECT,61
70,39,0,MESSAGE PUMP,WM_GETOBJECT,61
70,39,0,MESSAGE PUMP,WM_GETOBJECT,61
70,39,0,MESSAGE PUMP,WM_GETOBJECT,61
70,39,0,MESSAGE PUMP,WM_GETOBJECT,61
70,39,0,MESSAGE PUMP,WM_GETOBJECT,61
70,39,0,MESSAGE PUMP,WM_GETOBJECT,61
70,39,0,MESSAGE PUMP,WM_GETOBJECT,61
70,39,0,MESSAGE PUMP,WM_GETOBJECT,61
70,39,0,MESSAGE PUMP,WM_GETOBJECT,61
70,39,0,MESSAGE PUMP,WM_GETOBJECT,61
70,39,0,MESSAGE PUMP,WM_GETOBJECT,61
70,39,0,MESSAGE PUMP,WM_GETOBJECT,61
70,39,0,MESSAGE PUMP,WM_GETOBJECT,61
70,39,0,MESSAGE PUMP,WM_GETOBJECT,61
70,39,0,MESSAGE PUMP,WM_GETOBJECT,61
70,39,0,MESSAGE PUMP,WM_GETOBJECT,61
72,41,0,MESSAGE PUMP,WM_GETOBJECT,61
72,41,0,MESSAGE PUMP,WM_GETOBJECT,61
72,41,0,MESSAGE PUMP,WM_GETOBJECT,61
72,41,0,MESSAGE PUMP,WM_GETOBJECT,61
72,41,0,MESSAGE PUMP,WM_GETOBJECT,61
72,41,0,MESSAGE PUMP,WM_GETOBJECT,61
72,41,0,MESSAGE PUMP,WM_GETOBJECT,61
72,41,0,MESSAGE PUMP,WM_GETOBJECT,61
72,41,0,MESSAGE PUMP,WM_GETOBJECT,61
72,41,0,MESSAGE PUMP,WM_GETOBJECT,61
72,41,0,MESSAGE PUMP,WM_GETOBJECT,61
72,41,0,MESSAGE PUMP,WM_GETOBJECT,61
72,41,0,MESSAGE PUMP,WM_GETOBJECT,61
72,41,0,MESSAGE PUMP,WM_GETOBJECT,61
72,41,0,MESSAGE PUMP,WM_GETOBJECT,61
72,41,0,MESSAGE PUMP,WM_GETOBJECT,61
75,2,0,MESSAGE PUMP,WM_GETOBJECT,61
75,2,0,MESSAGE PUMP,WM_GETOBJECT,61
75,2,0,MESSAGE PUMP,WM_GETOBJECT,61
75,2,0,MESSAGE PUMP,WM_GETOBJECT,61
75,2,0,MESSAGE PUMP,WM_GETOBJECT,61
75,2,0,MESSAGE PUMP,WM_GETOBJECT,61
75,2,0,MESSAGE PUMP,WM_GETOBJECT,61
75,2,0,MESSAGE PUMP,WM_GETOBJECT,61
75,2,0,MESSAGE PUMP,WM_GETOBJECT,61
75,2,0,MESSAGE PUMP,WM_GETOBJECT,61
75,2,0,MESSAGE PUMP,WM_GETOBJECT,61
75,2,0,MESSAGE PUMP,WM_GETOBJECT,61
75,2,0,MESSAGE PUMP,WM_GETOBJECT,61
75,2,0,MESSAGE PUMP,WM_GETOBJECT,61
75,2,0,MESSAGE PUMP,WM_GETOBJECT,61
75,2,0,MESSAGE PUMP,WM_GETOBJECT,61
76,1,0,MESSAGE PUMP,WM_GETOBJECT,61
76,1,0,MESSAGE PUMP,WM_GETOBJECT,61
76,1,0,MESSAGE PUMP,WM_GETOBJECT,61
76,1,0,MESSAGE PUMP,WM_GETOBJECT,61
76,1,0,MESSAGE PUMP,WM_GETOBJECT,61
76,1,0,MESSAGE PUMP,WM_GETOBJECT,61
76,1,0,MESSAGE PUMP,WM_GETOBJECT,61
76,1,0,MESSAGE PUMP,WM_GETOBJECT,61
76,1,0,MESSAGE PUMP,WM_GETOBJECT,61
76,1,0,MESSAGE PUMP,WM_GETOBJECT,61
76,1,0,MESSAGE PUMP,WM_GETOBJECT,61
76,1,0,MESSAGE PUMP,WM_GETOBJECT,61
76,1,0,MESSAGE PUMP,WM_GETOBJECT,61
76,1,0,MESSAGE PUMP,WM_GETOBJECT,61
76,1,0,MESSAGE PUMP,WM_GETOBJECT,61
76,1,0,MESSAGE PUMP,WM_GETOBJECT,61
77,2,0,MESSAGE PUMP,WM_GETOBJECT,61
77,2,0,MESSAGE PUMP,WM_GETOBJECT,61
77,2,0,MESSAGE PUMP,WM_GETOBJECT,61
77,2,0,MESSAGE PUMP,WM_GETOBJECT,61
77,2,0,MESSAGE PUMP,WM_GETOBJECT,61
77,2,0,MESSAGE PUMP,WM_GETOBJECT,61
77,2,0,MESSAGE PUMP,WM_GETOBJECT,61
77,2,0,MESSAGE PUMP,WM_GETOBJECT,61
77,2,0,MESSAGE PUMP,WM_GETOBJECT,61
77,2,0,MESSAGE PUMP,WM_GETOBJECT,61
77,2,0,MESSAGE PUMP,WM_GETOBJECT,61
77,2,0,MESSAGE PUMP,WM_GETOBJECT,61
77,2,0,MESSAGE PUMP,WM_GETOBJECT,61
77,2,0,MESSAGE PUMP,WM_GETOBJECT,61
77,2,0,MESSAGE PUMP,WM_GETOBJECT,61
77,2,0,MESSAGE PUMP,WM_GETOBJECT,61
78,1,0,MESSAGE PUMP,WM_GETOBJECT,61
78,1,0,MESSAGE PUMP,WM_GETOBJECT,61
78,1,0,MESSAGE PUMP,WM_GETOBJECT,61
78,1,0,MESSAGE PUMP,WM_GETOBJECT,61
78,1,0,MESSAGE PUMP,WM_GETOBJECT,61
78,1,0,MESSAGE PUMP,WM_GETOBJECT,61
78,1,0,MESSAGE PUMP,WM_GETOBJECT,61
78,1,0,MESSAGE PUMP,WM_GETOBJECT,61
78,1,0,MESSAGE PUMP,WM_GETOBJECT,61
78,1,0,MESSAGE PUMP,WM_GETOBJECT,61
78,1,0,MESSAGE PUMP,WM_GETOBJECT,61
78,1,0,MESSAGE PUMP,WM_GETOBJECT,61
78,1,0,MESSAGE PUMP,WM_GETOBJECT,61
78,1,0,MESSAGE PUMP,WM_GETOBJECT,61
78,1,0,MESSAGE PUMP,WM_GETOBJECT,61
78,1,0,MESSAGE PUMP,WM_GETOBJECT,61
79,24,0,MESSAGE PUMP,WM_GETOBJECT,61
79,24,0,MESSAGE PUMP,WM_GETOBJECT,61
79,24,0,MESSAGE PUMP,WM_GETOBJECT,61
79,24,0,MESSAGE PUMP,WM_GETOBJECT,61
79,24,0,MESSAGE PUMP,WM_GETOBJECT,61
79,24,0,MESSAGE PUMP,WM_GETOBJECT,61
79,24,0,MESSAGE PUMP,WM_GETOBJECT,61
79,24,0,MESSAGE PUMP,WM_GETOBJECT,61
79,24,0,MESSAGE PUMP,WM_GETOBJECT,61
79,24,0,MESSAGE PUMP,WM_GETOBJECT,61
79,24,0,MESSAGE PUMP,WM_GETOBJECT,61
79,24,0,MESSAGE PUMP,WM_GETOBJECT,61
79,24,0,MESSAGE PUMP,WM_GETOBJECT,61
79,24,0,MESSAGE PUMP,WM_GETOBJECT,61
79,24,0,MESSAGE PUMP,WM_GETOBJECT,61
79,24,0,MESSAGE PUMP,WM_GETOBJECT,61
80,1,0,MESSAGE PUMP,WM_GETOBJECT,61
80,1,0,MESSAGE PUMP,WM_GETOBJECT,61
80,1,0,MESSAGE PUMP,WM_GETOBJECT,61
80,1,0,MESSAGE PUMP,WM_GETOBJECT,61
80,1,0,MESSAGE PUMP,WM_GETOBJECT,61
80,1,0,MESSAGE PUMP,WM_GETOBJECT,61
80,1,0,MESSAGE PUMP,WM_GETOBJECT,61
80,1,0,MESSAGE PUMP,WM_GETOBJECT,61
80,1,0,MESSAGE PUMP,WM_GETOBJECT,61
80,1,0,MESSAGE PUMP,WM_GETOBJECT,61
80,1,0,MESSAGE PUMP,WM_GETOBJECT,61
80,1,0,MESSAGE PUMP,WM_GETOBJECT,61
80,1,0,MESSAGE PUMP,WM_GETOBJECT,61
80,1,0,MESSAGE PUMP,WM_GETOBJECT,61
80,1,0,MESSAGE PUMP,WM_GETOBJECT,61
80,1,0,MESSAGE PUMP,WM_GETOBJECT,61
81,47,0,MESSAGE PUMP,WM_GETOBJECT,61
81,47,0,MESSAGE PUMP,WM_GETOBJECT,61
81,47,0,MESSAGE PUMP,WM_GETOBJECT,61
81,47,0,MESSAGE PUMP,WM_GETOBJECT,61
81,47,0,MESSAGE PUMP,WM_GETOBJECT,61
81,47,0,MESSAGE PUMP,WM_GETOBJECT,61
81,47,0,MESSAGE PUMP,WM_GETOBJECT,61
81,47,0,MESSAGE PUMP,WM_GETOBJECT,61
81,47,0,MESSAGE PUMP,WM_GETOBJECT,61
81,47,0,MESSAGE PUMP,WM_GETOBJECT,61
81,47,0,MESSAGE PUMP,WM_GETOBJECT,61
81,47,0,MESSAGE PUMP,WM_GETOBJECT,61
81,47,0,MESSAGE PUMP,WM_GETOBJECT,61
81,47,0,MESSAGE PUMP,WM_GETOBJECT,61
81,47,0,MESSAGE PUMP,WM_GETOBJECT,61
81,47,0,MESSAGE PUMP,WM_GETOBJECT,61
82,54,0,MESSAGE PUMP,WM_GETOBJECT,61
82,54,0,MESSAGE PUMP,WM_GETOBJECT,61
82,54,0,MESSAGE PUMP,WM_GETOBJECT,61
82,54,0,MESSAGE PUMP,WM_GETOBJECT,61
82,54,0,MESSAGE PUMP,WM_GETOBJECT,61
82,54,0,MESSAGE PUMP,WM_GETOBJECT,61
82,54,0,MESSAGE PUMP,WM_GETOBJECT,61
82,54,0,MESSAGE PUMP,WM_GETOBJECT,61
82,54,0,MESSAGE PUMP,WM_GETOBJECT,61
82,54,0,MESSAGE PUMP,WM_GETOBJECT,61
82,54,0,MESSAGE PUMP,WM_GETOBJECT,61
82,54,0,MESSAGE PUMP,WM_GETOBJECT,61
82,54,0,MESSAGE PUMP,WM_GETOBJECT,61
82,54,0,MESSAGE PUMP,WM_GETOBJECT,61
82,54,0,MESSAGE PUMP,WM_GETOBJECT,61
82,54,0,MESSAGE PUMP,WM_GETOBJECT,61
83,31,0,MESSAGE PUMP,WM_GETOBJECT,61
83,31,0,MESSAGE PUMP,WM_GETOBJECT,61
83,31,0,MESSAGE PUMP,WM_GETOBJECT,61
83,31,0,MESSAGE PUMP,WM_GETOBJECT,61
83,31,0,MESSAGE PUMP,WM_GETOBJECT,61
83,31,0,MESSAGE PUMP,WM_GETOBJECT,61
83,31,0,MESSAGE PUMP,WM_GETOBJECT,61
83,31,0,MESSAGE PUMP,WM_GETOBJECT,61
83,31,0,MESSAGE PUMP,WM_GETOBJECT,61
83,31,0,MESSAGE PUMP,WM_GETOBJECT,61
83,31,0,MESSAGE PUMP,WM_GETOBJECT,61
83,31,0,MESSAGE PUMP,WM_GETOBJECT,61
83,31,0,MESSAGE PUMP,WM_GETOBJECT,61
83,31,0,MESSAGE PUMP,WM_GETOBJECT,61
83,31,0,MESSAGE PUMP,WM_GETOBJECT,61
83,31,0,MESSAGE PUMP,WM_GETOBJECT,61
84,2,0,MESSAGE PUMP,WM_GETOBJECT,61
84,2,0,MESSAGE PUMP,WM_GETOBJECT,61
84,2,0,MESSAGE PUMP,WM_GETOBJECT,61
84,2,0,MESSAGE PUMP,WM_GETOBJECT,61
84,2,0,MESSAGE PUMP,WM_GETOBJECT,61
84,2,0,MESSAGE PUMP,WM_GETOBJECT,61
84,2,0,MESSAGE PUMP,WM_GETOBJECT,61
84,2,0,MESSAGE PUMP,WM_GETOBJECT,61
84,2,0,MESSAGE PUMP,WM_GETOBJECT,61
84,2,0,MESSAGE PUMP,WM_GETOBJECT,61
84,2,0,MESSAGE PUMP,WM_GETOBJECT,61
84,2,0,MESSAGE PUMP,WM_GETOBJECT,61
84,2,0,MESSAGE PUMP,WM_GETOBJECT,61
84,2,0,MESSAGE PUMP,WM_GETOBJECT,61
84,2,0,MESSAGE PUMP,WM_GETOBJECT,61
84,2,0,MESSAGE PUMP,WM_GETOBJECT,61
86,1,0,MESSAGE PUMP,WM_GETOBJECT,61
86,1,0,MESSAGE PUMP,WM_GETOBJECT,61
86,1,0,MESSAGE PUMP,WM_GETOBJECT,61
86,1,0,MESSAGE PUMP,WM_GETOBJECT,61
86,1,0,MESSAGE PUMP,WM_GETOBJECT,61
86,1,0,MESSAGE PUMP,WM_GETOBJECT,61
86,1,0,MESSAGE PUMP,WM_GETOBJECT,61
86,1,0,MESSAGE PUMP,WM_GETOBJECT,61
86,1,0,MESSAGE PUMP,WM_GETOBJECT,61
86,1,0,MESSAGE PUMP,WM_GETOBJECT,61
86,1,0,MESSAGE PUMP,WM_GETOBJECT,61
86,1,0,MESSAGE PUMP,WM_GETOBJECT,61
86,1,0,MESSAGE PUMP,WM_GETOBJECT,61
86,1,0,MESSAGE PUMP,WM_GETOBJECT,61
86,1,0,MESSAGE PUMP,WM_GETOBJECT,61
86,1,0,MESSAGE PUMP,WM_GETOBJECT,61
88,39,0,MESSAGE PUMP,WM_GETOBJECT,61
88,39,0,MESSAGE PUMP,WM_GETOBJECT,61
88,39,0,MESSAGE PUMP,WM_GETOBJECT,61
88,39,0,MESSAGE PUMP,WM_GETOBJECT,61
88,39,0,MESSAGE PUMP,WM_GETOBJECT,61
88,39,0,MESSAGE PUMP,WM_GETOBJECT,61
88,39,0,MESSAGE PUMP,WM_GETOBJECT,61
88,39,0,MESSAGE PUMP,WM_GETOBJECT,61
88,39,0,MESSAGE PUMP,WM_GETOBJECT,61
88,39,0,MESSAGE PUMP,WM_GETOBJECT,61
88,39,0,MESSAGE PUMP,WM_GETOBJECT,61
88,39,0,MESSAGE PUMP,WM_GETOBJECT,61
88,39,0,MESSAGE PUMP,WM_GETOBJECT,61
88,39,0,MESSAGE PUMP,WM_GETOBJECT,61
88,39,0,MESSAGE PUMP,WM_GETOBJECT,61
88,39,0,MESSAGE PUMP,WM_GETOBJECT,61
89,27,0,MESSAGE PUMP,WM_GETOBJECT,61
89,27,0,MESSAGE PUMP,WM_GETOBJECT,61
89,27,0,MESSAGE PUMP,WM_GETOBJECT,61
89,27,0,MESSAGE PUMP,WM_GETOBJECT,61
89,27,0,MESSAGE PUMP,WM_GETOBJECT,61
89,27,0,MESSAGE PUMP,WM_GETOBJECT,61
89,27,0,MESSAGE PUMP,WM_GETOBJECT,61
89,27,0,MESSAGE PUMP,WM_GETOBJECT,61
89,27,0,MESSAGE PUMP,WM_GETOBJECT,61
89,27,0,MESSAGE PUMP,WM_GETOBJECT,61
89,27,0,MESSAGE PUMP,WM_GETOBJECT,61
89,27,0,MESSAGE PUMP,WM_GETOBJECT,61
89,27,0,MESSAGE PUMP,WM_GETOBJECT,61
89,27,0,MESSAGE PUMP,WM_GETOBJECT,61
89,27,0,MESSAGE PUMP,WM_GETOBJECT,61
89,27,0,MESSAGE PUMP,WM_GETOBJECT,61
90,7,0,MESSAGE PUMP,WM_GETOBJECT,61
90,7,0,MESSAGE PUMP,WM_GETOBJECT,61
90,7,0,MESSAGE PUMP,WM_GETOBJECT,61
90,7,0,MESSAGE PUMP,WM_GETOBJECT,61
90,7,0,MESSAGE PUMP,WM_GETOBJECT,61
90,7,0,MESSAGE PUMP,WM_GETOBJECT,61
90,7,0,MESSAGE PUMP,WM_GETOBJECT,61
90,7,0,MESSAGE PUMP,WM_GETOBJECT,61
90,7,0,MESSAGE PUMP,WM_GETOBJECT,61
90,7,0,MESSAGE PUMP,WM_GETOBJECT,61
90,7,0,MESSAGE PUMP,WM_GETOBJECT,61
90,7,0,MESSAGE PUMP,WM_GETOBJECT,61
90,7,0,MESSAGE PUMP,WM_GETOBJECT,61
90,7,0,MESSAGE PUMP,WM_GETOBJECT,61
90,7,0,MESSAGE PUMP,WM_GETOBJECT,61
90,7,0,MESSAGE PUMP,WM_GETOBJECT,61
91,83,0,MESSAGE PUMP,WM_GETOBJECT,61
91,83,0,MESSAGE PUMP,WM_GETOBJECT,61
91,83,0,MESSAGE PUMP,WM_GETOBJECT,61
91,83,0,MESSAGE PUMP,WM_GETOBJECT,61
91,83,0,MESSAGE PUMP,WM_GETOBJECT,61
91,83,0,MESSAGE PUMP,WM_GETOBJECT,61
91,83,0,MESSAGE PUMP,WM_GETOBJECT,61
91,83,0,MESSAGE PUMP,WM_GETOBJECT,61
91,83,0,MESSAGE PUMP,WM_GETOBJECT,61
91,83,0,MESSAGE PUMP,WM_GETOBJECT,61
91,83,0,MESSAGE PUMP,WM_GETOBJECT,61
91,83,0,MESSAGE PUMP,WM_GETOBJECT,61
91,83,0,MESSAGE PUMP,WM_GETOBJECT,61
91,83,0,MESSAGE PUMP,WM_GETOBJECT,61
91,83,0,MESSAGE PUMP,WM_GETOBJECT,61
91,83,0,MESSAGE PUMP,WM_GETOBJECT,61
93,97,0,MESSAGE PUMP,WM_GETOBJECT,61
93,97,0,MESSAGE PUMP,WM_GETOBJECT,61
93,97,0,MESSAGE PUMP,WM_GETOBJECT,61
93,97,0,MESSAGE PUMP,WM_GETOBJECT,61
93,97,0,MESSAGE PUMP,WM_GETOBJECT,61
93,97,0,MESSAGE PUMP,WM_GETOBJECT,61
93,97,0,MESSAGE PUMP,WM_GETOBJECT,61
93,97,0,MESSAGE PUMP,WM_GETOBJECT,61
93,97,0,MESSAGE PUMP,WM_GETOBJECT,61
93,97,0,MESSAGE PUMP,WM_GETOBJECT,61
93,97,0,MESSAGE PUMP,WM_GETOBJECT,61
93,97,0,MESSAGE PUMP,WM_GETOBJECT,61
93,97,0,MESSAGE PUMP,WM_GETOBJECT,61
93,97,0,MESSAGE PUMP,WM_GETOBJECT,61
93,97,0,MESSAGE PUMP,WM_GETOBJECT,61
93,97,0,MESSAGE PUMP,WM_GETOBJECT,61
94,86,0,MESSAGE PUMP,WM_GETOBJECT,61
94,86,0,MESSAGE PUMP,WM_GETOBJECT,61
94,86,0,MESSAGE PUMP,WM_GETOBJECT,61
94,86,0,MESSAGE PUMP,WM_GETOBJECT,61
94,86,0,MESSAGE PUMP,WM_GETOBJECT,61
94,86,0,MESSAGE PUMP,WM_GETOBJECT,61
94,86,0,MESSAGE PUMP,WM_GETOBJECT,61
94,86,0,MESSAGE PUMP,WM_GETOBJECT,61
94,86,0,MESSAGE PUMP,WM_GETOBJECT,61
94,86,0,MESSAGE PUMP,WM_GETOBJECT,61
94,86,0,MESSAGE PUMP,WM_GETOBJECT,61
94,86,0,MESSAGE PUMP,WM_GETOBJECT,61
94,86,0,MESSAGE PUMP,WM_GETOBJECT,61
94,86,0,MESSAGE PUMP,WM_GETOBJECT,61
94,86,0,MESSAGE PUMP,WM_GETOBJECT,61
94,86,0,MESSAGE PUMP,WM_GETOBJECT,61
95,0,0,MESSAGE PUMP,WM_GETOBJECT,61
95,0,0,MESSAGE PUMP,WM_GETOBJECT,61
95,0,0,MESSAGE PUMP,WM_GETOBJECT,61
95,0,0,MESSAGE PUMP,WM_GETOBJECT,61
95,0,0,MESSAGE PUMP,WM_GETOBJECT,61
95,0,0,MESSAGE PUMP,WM_GETOBJECT,61
95,0,0,MESSAGE PUMP,WM_GETOBJECT,61
95,0,0,MESSAGE PUMP,WM_GETOBJECT,61
95,0,0,MESSAGE PUMP,WM_GETOBJECT,61
95,0,0,MESSAGE PUMP,WM_GETOBJECT,61
95,0,0,MESSAGE PUMP,WM_GETOBJECT,61
95,0,0,MESSAGE PUMP,WM_GETOBJECT,61
95,0,0,MESSAGE PUMP,WM_GETOBJECT,61
95,0,0,MESSAGE PUMP,WM_GETOBJECT,61
95,0,0,MESSAGE PUMP,WM_GETOBJECT,61
95,0,0,MESSAGE PUMP,WM_GETOBJECT,61
95,0,0,MESSAGE PUMP,WM_GETOBJECT,61
95,0,0,MESSAGE PUMP,WM_GETOBJECT,61
95,0,0,MESSAGE PUMP,WM_GETOBJECT,61
95,0,0,MESSAGE PUMP,WM_GETOBJECT,61
95,0,0,MESSAGE PUMP,WM_GETOBJECT,61
95,0,0,MESSAGE PUMP,WM_GETOBJECT,61
95,0,0,MESSAGE PUMP,WM_GETOBJECT,61
95,0,0,MESSAGE PUMP,WM_GETOBJECT,61
95,0,0,MESSAGE PUMP,WM_GETOBJECT,61
95,0,0,MESSAGE PUMP,WM_GETOBJECT,61
95,0,0,MESSAGE PUMP,WM_GETOBJECT,61
95,0,0,MESSAGE PUMP,WM_GETOBJECT,61
95,0,0,MESSAGE PUMP,WM_GETOBJECT,61
95,0,0,MESSAGE PUMP,WM_GETOBJECT,61
95,0,0,MESSAGE PUMP,WM_GETOBJECT,61
95,0,0,MESSAGE PUMP,WM_GETOBJECT,61
95,0,0,MESSAGE PUMP,WM_GETOBJECT,61
95,0,0,MESSAGE PUMP,WM_GETOBJECT,61
95,0,0,MESSAGE PUMP,WM_GETOBJECT,61
95,0,0,MESSAGE PUMP,WM_GETOBJECT,61
95,0,0,MESSAGE PUMP,WM_GETOBJECT,61
95,0,0,MESSAGE PUMP,WM_GETOBJECT,61
95,0,0,MESSAGE PUMP,WM_GETOBJECT,61
95,0,0,MESSAGE PUMP,WM_GETOBJECT,61
100,0,1,MESSAGE PUMP,WM_NULL,0
534,1,1,MESSAGE PUMP,WM_KEYDOWN,256
534,1,1,MESSAGE PUMP,WM_CHAR,258
534,1,0,MESSAGE PUMP,WM_GETOBJECT,61
534,1,0,MESSAGE PUMP,WM_GETOBJECT,61
534,1,0,MESSAGE PUMP,WM_GETOBJECT,61
534,1,0,MESSAGE PUMP,WM_GETOBJECT,61
534,1,0,MESSAGE PUMP,WM_GETOBJECT,61
534,1,0,MESSAGE PUMP,WM_GETOBJECT,61
534,1,0,MESSAGE PUMP,WM_GETOBJECT,61
534,1,0,MESSAGE PUMP,WM_GETOBJECT,61
535,0,1,MESSAGE PUMP,WM_KEYUP,257
536,1,1,MESSAGE PUMP,WM_NULL,0
567,0,1,MESSAGE PUMP,WM_KEYDOWN,256
580,1,1,MESSAGE PUMP,WM_KEYDOWN,256
580,1,0,MESSAGE PUMP,WM_GETOBJECT,61
580,1,0,MESSAGE PUMP,WM_GETOBJECT,61
580,1,0,MESSAGE PUMP,WM_GETOBJECT,61
580,1,0,MESSAGE PUMP,WM_GETOBJECT,61
580,1,0,MESSAGE PUMP,WM_GETOBJECT,61
580,1,0,MESSAGE PUMP,WM_GETOBJECT,61
580,1,0,MESSAGE PUMP,WM_GETOBJECT,61
580,1,0,MESSAGE PUMP,WM_GETOBJECT,61
581,1,1,MESSAGE PUMP,WM_KEYUP,257
583,1,1,MESSAGE PUMP,WM_NULL,0
593,1,1,MESSAGE PUMP,WM_KEYUP,257
630,1,1,MESSAGE PUMP,WM_KEYDOWN,256
643,1,1,MESSAGE PUMP,WM_KEYDOWN,256
643,1,0,MESSAGE PUMP,WM_GETOBJECT,61
643,1,0,MESSAGE PUMP,WM_GETOBJECT,61
643,1,0,MESSAGE PUMP,WM_GETOBJECT,61
643,1,0,MESSAGE PUMP,WM_GETOBJECT,61
643,1,0,MESSAGE PUMP,WM_GETOBJECT,61
643,1,0,MESSAGE PUMP,WM_GETOBJECT,61
643,1,0,MESSAGE PUMP,WM_GETOBJECT,61
643,1,0,MESSAGE PUMP,WM_GETOBJECT,61
643,1,0,MESSAGE PUMP,WM_GETOBJECT,61
643,1,0,MESSAGE PUMP,WM_GETOBJECT,61
643,1,0,MESSAGE PUMP,WM_GETOBJECT,61
643,1,0,MESSAGE PUMP,WM_GETOBJECT,61
643,1,0,MESSAGE PUMP,WM_GETOBJECT,61
643,1,0,MESSAGE PUMP,WM_GETOBJECT,61
643,1,0,MESSAGE PUMP,WM_GETOBJECT,61
643,1,0,MESSAGE PUMP,WM_GETOBJECT,61
643,1,0,MESSAGE PUMP,WM_GETOBJECT,61
643,1,0,MESSAGE PUMP,WM_GETOBJECT,61
643,1,0,MESSAGE PUMP,WM_GETOBJECT,61
643,1,0,MESSAGE PUMP,WM_GETOBJECT,61
643,1,0,MESSAGE PUMP,WM_GETOBJECT,61
643,1,0,MESSAGE PUMP,WM_GETOBJECT,61
643,1,0,MESSAGE PUMP,WM_GETOBJECT,61
643,1,0,MESSAGE PUMP,WM_GETOBJECT,61
644,1,1,MESSAGE PUMP,WM_KEYUP,257
646,0,1,MESSAGE PUMP,WM_NULL,0
658,0,1,MESSAGE PUMP,WM_KEYUP,257
694,0,1,MESSAGE PUMP,WM_KEYDOWN,256
707,1,1,MESSAGE PUMP,WM_KEYDOWN,256
707,1,0,MESSAGE PUMP,WM_GETOBJECT,61
707,1,0,MESSAGE PUMP,WM_GETOBJECT,61
707,1,0,MESSAGE PUMP,WM_GETOBJECT,61
707,1,0,MESSAGE PUMP,WM_GETOBJECT,61
707,1,0,MESSAGE PUMP,WM_GETOBJECT,61
707,1,0,MESSAGE PUMP,WM_GETOBJECT,61
707,1,0,MESSAGE PUMP,WM_GETOBJECT,61
707,1,0,MESSAGE PUMP,WM_GETOBJECT,61
708,1,1,MESSAGE PUMP,WM_KEYUP,257
709,1,1,MESSAGE PUMP,WM_NULL,0
722,0,1,MESSAGE PUMP,WM_KEYUP,257
1080,1,1,MESSAGE PUMP,WM_KEYDOWN,256
1080,1,0,MESSAGE PUMP,WM_GETOBJECT,61
1080,1,0,MESSAGE PUMP,WM_GETOBJECT,61
1080,1,0,MESSAGE PUMP,WM_GETOBJECT,61
1080,1,0,MESSAGE PUMP,WM_GETOBJECT,61
1080,1,0,MESSAGE PUMP,WM_GETOBJECT,61
1080,1,0,MESSAGE PUMP,WM_GETOBJECT,61
1080,1,0,MESSAGE PUMP,WM_GETOBJECT,61
1080,1,0,MESSAGE PUMP,WM_GETOBJECT,61
1081,1,1,MESSAGE PUMP,WM_KEYUP,257
1084,1,1,MESSAGE PUMP,WM_NULL,0
1094,1,1,MESSAGE PUMP,WM_KEYDOWN,256
1094,1,0,MESSAGE PUMP,WM_GETOBJECT,61
1094,1,0,MESSAGE PUMP,WM_GETOBJECT,61
1094,1,0,MESSAGE PUMP,WM_GETOBJECT,61
1094,1,0,MESSAGE PUMP,WM_GETOBJECT,61
1094,1,0,MESSAGE PUMP,WM_GETOBJECT,61
1094,1,0,MESSAGE PUMP,WM_GETOBJECT,61
1094,1,0,MESSAGE PUMP,WM_GETOBJECT,61
1094,1,0,MESSAGE PUMP,WM_GETOBJECT,61
1095,1,1,MESSAGE PUMP,WM_KEYUP,257
1098,1,1,MESSAGE PUMP,WM_NULL,0
1108,1,1,MESSAGE PUMP,WM_KEYDOWN,256
1108,1,0,MESSAGE PUMP,WM_GETOBJECT,61
1108,1,0,MESSAGE PUMP,WM_GETOBJECT,61
1108,1,0,MESSAGE PUMP,WM_GETOBJECT,61
1108,1,0,MESSAGE PUMP,WM_GETOBJECT,61
1108,1,0,MESSAGE PUMP,WM_GETOBJECT,61
1108,1,0,MESSAGE PUMP,WM_GETOBJECT,61
1108,1,0,MESSAGE PUMP,WM_GETOBJECT,61
1108,1,0,MESSAGE PUMP,WM_GETOBJECT,61
1109,1,1,MESSAGE PUMP,WM_KEYUP,257
1113,1,1,MESSAGE PUMP,WM_NULL,0
1122,1,1,MESSAGE PUMP,WM_KEYDOWN,256
1122,1,0,MESSAGE PUMP,WM_GETOBJECT,61
1122,1,0,MESSAGE PUMP,WM_GETOBJECT,61
1122,1,0,MESSAGE PUMP,WM_GETOBJECT,61
1122,1,0,MESSAGE PUMP,WM_GETOBJECT,61
1122,1,0,MESSAGE PUMP,WM_GETOBJECT,61
1122,1,0,MESSAGE PUMP,WM_GETOBJECT,61
1122,1,0,MESSAGE PUMP,WM_GETOBJECT,61
1122,1,0,MESSAGE PUMP,WM_GETOBJECT,61
1123,1,1,MESSAGE PUMP,WM_KEYUP,257
1127,0,1,MESSAGE PUMP,WM_NULL,0
1136,1,1,MESSAGE PUMP,WM_KEYDOWN,256
1136,1,0,MESSAGE PUMP,WM_GETOBJECT,61
1136,1,0,MESSAGE PUMP,WM_GETOBJECT,61
1136,1,0,MESSAGE PUMP,WM_GETOBJECT,61
1136,1,0,MESSAGE PUMP,WM_GETOBJECT,61
1136,1,0,MESSAGE PUMP,WM_GETOBJECT,61
1136,1,0,MESSAGE PUMP,WM_GETOBJECT,61
1136,1,0,MESSAGE PUMP,WM_GETOBJECT,61
1136,1,0,MESSAGE PUMP,WM_GETOBJECT,61
1137,1,1,MESSAGE PUMP,WM_KEYUP,257
1140,1,1,MESSAGE PUMP,WM_NULL,0
1150,1,1,MESSAGE PUMP,WM_KEYDOWN,256
1150,1,0,MESSAGE PUMP,WM_GETOBJECT,61
1150,1,0,MESSAGE PUMP,WM_GETOBJECT,61
1150,1,0,MESSAGE PUMP,WM_GETOBJECT,61
1150,1,0,MESSAGE PUMP,WM_GETOBJECT,61
1150,1,0,MESSAGE PUMP,WM_GETOBJECT,61
1150,1,0,MESSAGE PUMP,WM_GETOBJECT,61
1150,1,0,MESSAGE PUMP,WM_GETOBJECT,61
1150,1,0,MESSAGE PUMP,WM_GETOBJECT,61
1151,1,1,MESSAGE PUMP,WM_KEYUP,257
1156,1,1,MESSAGE PUMP,WM_NULL,0
1176,1,1,MESSAGE PUMP,WM_KEYDOWN,256
1176,1,1,MESSAGE PUMP,WM_CHAR,258
1176,1,0,MESSAGE PUMP,WM_GETOBJECT,61
1176,1,0,MESSAGE PUMP,WM_GETOBJECT,61
1176,1,0,MESSAGE PUMP,WM_GETOBJECT,61
1176,1,0,MESSAGE PUMP,WM_GETOBJECT,61
1176,1,0,MESSAGE PUMP,WM_GETOBJECT,61
1176,1,0,MESSAGE PUMP,WM_GETOBJECT,61
1176,1,0,MESSAGE PUMP,WM_GETOBJECT,61
1176,1,0,MESSAGE PUMP,WM_GETOBJECT,61
1177,0,1,MESSAGE PUMP,WM_KEYUP,257
1179,0,1,MESSAGE PUMP,WM_NULL,0
1201,1,1,MESSAGE PUMP,WM_KEYDOWN,256
1202,1,1,MESSAGE PUMP,WM_KEYUP,257
1215,1,1,MESSAGE PUMP,WM_KEYDOWN,256
1216,1,1,MESSAGE PUMP,WM_KEYUP,257
1229,1,1,MESSAGE PUMP,WM_KEYDOWN,256
1230,1,1,MESSAGE PUMP,WM_KEYUP,257
1243,1,1,MESSAGE PUMP,WM_KEYDOWN,256
1244,1,1,MESSAGE PUMP,WM_KEYUP,257
1257,1,1,MESSAGE PUMP,WM_KEYDOWN,256
1258,1,1,MESSAGE PUMP,WM_KEYUP,257
1271,1,1,MESSAGE PUMP,WM_KEYDOWN,256
1272,1,1,MESSAGE PUMP,WM_KEYUP,257
1297,1,1,MESSAGE PUMP,WM_KEYDOWN,256
1297,1,1,MESSAGE PUMP,WM_CHAR,258
1297,1,0,MESSAGE PUMP,WM_GETOBJECT,61
1297,1,0,MESSAGE PUMP,WM_GETOBJECT,61
1297,1,0,MESSAGE PUMP,WM_GETOBJECT,61
1297,1,0,MESSAGE PUMP,WM_GETOBJECT,61
1297,1,0,MESSAGE PUMP,WM_GETOBJECT,61
1297,1,0,MESSAGE PUMP,WM_GETOBJECT,61
1297,1,0,MESSAGE PUMP,WM_GETOBJECT,61
1297,1,0,MESSAGE PUMP,WM_GETOBJECT,61
1298,0,1,MESSAGE PUMP,WM_KEYUP,257
1301,1,1,MESSAGE PUMP,WM_NULL,0
1323,1,1,MESSAGE PUMP,WM_KEYDOWN,256
1323,1,1,MESSAGE PUMP,WM_KEYUP,257
1336,0,1,MESSAGE PUMP,WM_KEYDOWN,256
1336,0,0,MESSAGE PUMP,WM_GETOBJECT,61
1336,0,0,MESSAGE PUMP,WM_GETOBJECT,61
1336,0,0,MESSAGE PUMP,WM_GETOBJECT,61
1336,0,0,MESSAGE PUMP,WM_GETOBJECT,61
1336,0,0,MESSAGE PUMP,WM_GETOBJECT,61
1336,0,0,MESSAGE PUMP,WM_GETOBJECT,61
1336,0,0,MESSAGE PUMP,WM_GETOBJECT,61
1336,0,0,MESSAGE PUMP,WM_GETOBJECT,61
1337,1,1,MESSAGE PUMP,WM_KEYUP,257
1342,1,1,MESSAGE PUMP,WM_NULL,0
1362,1,1,MESSAGE PUMP,WM_KEYDOWN,256
1362,1,1,MESSAGE PUMP,WM_CHAR,258
1362,1,0,MESSAGE PUMP,WM_GETOBJECT,61
1362,1,0,MESSAGE PUMP,WM_GETOBJECT,61
1362,1,0,MESSAGE PUMP,WM_GETOBJECT,61
1362,1,0,MESSAGE PUMP,WM_GETOBJECT,61
1362,1,0,MESSAGE PUMP,WM_GETOBJECT,61
1362,1,0,MESSAGE PUMP,WM_GETOBJECT,61
1362,1,0,MESSAGE PUMP,WM_GETOBJECT,61
1362,1,0,MESSAGE PUMP,WM_GETOBJECT,61
1363,0,1,MESSAGE PUMP,WM_KEYUP,257
1366,1,1,MESSAGE PUMP,WM_NULL,0
1388,1,1,MESSAGE PUMP,WM_KEYDOWN,256
1389,1,1,MESSAGE PUMP,WM_KEYUP,257
1402,1,1,MESSAGE PUMP,WM_KEYDOWN,256
1403,1,1,MESSAGE PUMP,WM_KEYUP,257
1428,1,1,MESSAGE PUMP,WM_KEYDOWN,256
1429,1,1,MESSAGE PUMP,WM_KEYUP,257
1442,1,1,MESSAGE PUMP,WM_KEYDOWN,256
1443,1,1,MESSAGE PUMP,WM_KEYUP,257
1456,1,1,MESSAGE PUMP,WM_KEYDOWN,256
1457,1,1,MESSAGE PUMP,WM_KEYUP,257
1470,1,1,MESSAGE PUMP,WM_KEYDOWN,256
1471,1,1,MESSAGE PUMP,WM_KEYUP,257
1484,1,1,MESSAGE PUMP,WM_KEYDOWN,256
1485,1,1,MESSAGE PUMP,WM_KEYUP,257
1498,1,1,MESSAGE PUMP,WM_KEYDOWN,256
1499,1,1,MESSAGE PUMP,WM_KEYUP,257
1512,1,1,MESSAGE PUMP,WM_KEYDOWN,256
1513,1,1,MESSAGE PUMP,WM_KEYUP,257
1538,1,1,MESSAGE PUMP,WM_KEYDOWN,256
1538,1,1,MESSAGE PUMP,WM_CHAR,258
1538,1,0,MESSAGE PUMP,WM_GETOBJECT,61
1538,1,0,MESSAGE PUMP,WM_GETOBJECT,61
1538,1,0,MESSAGE PUMP,WM_GETOBJECT,61
1538,1,0,MESSAGE PUMP,WM_GETOBJECT,61
1538,1,0,MESSAGE PUMP,WM_GETOBJECT,61
1538,1,0,MESSAGE PUMP,WM_GETOBJECT,61
1538,1,0,MESSAGE PUMP,WM_GETOBJECT,61
1538,1,0,MESSAGE PUMP,WM_GETOBJECT,61
1539,0,1,MESSAGE PUMP,WM_KEYUP,257
1541,1,1,MESSAGE PUMP,WM_NULL,0
1564,1,1,MESSAGE PUMP,WM_KEYDOWN,256
1564,1,0,MESSAGE PUMP,WM_GETOBJECT,61
1564,1,0,MESSAGE PUMP,WM_GETOBJECT,61
1564,1,0,MESSAGE PUMP,WM_GETOBJECT,61
1564,1,0,MESSAGE PUMP,WM_GETOBJECT,61
1564,1,0,MESSAGE PUMP,WM_GETOBJECT,61
1564,1,0,MESSAGE PUMP,WM_GETOBJECT,61
1564,1,0,MESSAGE PUMP,WM_GETOBJECT,61
1564,1,0,MESSAGE PUMP,WM_GETOBJECT,61
1565,1,1,MESSAGE PUMP,WM_KEYUP,257
1570,1,1,MESSAGE PUMP,WM_NULL,0
1578,1,1,MESSAGE PUMP,WM_KEYDOWN,256
1578,1,0,MESSAGE PUMP,WM_GETOBJECT,61
1578,1,0,MESSAGE PUMP,WM_GETOBJECT,61
1578,1,0,MESSAGE PUMP,WM_GETOBJECT,61
1578,1,0,MESSAGE PUMP,WM_GETOBJECT,61
1578,1,0,MESSAGE PUMP,WM_GETOBJECT,61
1578,1,0,MESSAGE PUMP,WM_GETOBJECT,61
1578,1,0,MESSAGE PUMP,WM_GETOBJECT,61
1578,1,0,MESSAGE PUMP,WM_GETOBJECT,61
1579,1,1,MESSAGE PUMP,WM_KEYUP,257
1583,1,1,MESSAGE PUMP,WM_NULL,0
1604,1,1,MESSAGE PUMP,WM_KEYDOWN,256
1604,1,1,MESSAGE PUMP,WM_CHAR,258
1604,1,0,MESSAGE PUMP,WM_GETOBJECT,61
1604,1,0,MESSAGE PUMP,WM_GETOBJECT,61
1604,1,0,MESSAGE PUMP,WM_GETOBJECT,61
1604,1,0,MESSAGE PUMP,WM_GETOBJECT,61
1604,1,0,MESSAGE PUMP,WM_GETOBJECT,61
1604,1,0,MESSAGE PUMP,WM_GETOBJECT,61
1604,1,0,MESSAGE PUMP,WM_GETOBJECT,61
1604,1,0,MESSAGE PUMP,WM_GETOBJECT,61
1605,0,1,MESSAGE PUMP,WM_KEYUP,257
1608,0,1,MESSAGE PUMP,WM_NULL,0
1630,1,1,MESSAGE PUMP,WM_KEYDOWN,256
1631,1,1,MESSAGE PUMP,WM_KEYUP,257
1644,1,1,MESSAGE PUMP,WM_KEYDOWN,256
1645,1,1,MESSAGE PUMP,WM_KEYUP,257
1671,0,1,MESSAGE PUMP,WM_KEYDOWN,256
1672,1,1,MESSAGE PUMP,WM_KEYUP,257
1685,1,1,MESSAGE PUMP,WM_KEYDOWN,256
1686,1,1,MESSAGE PUMP,WM_KEYUP,257
1699,1,1,MESSAGE PUMP,WM_KEYDOWN,256
1700,1,1,MESSAGE PUMP,WM_KEYUP,257
1726,0,1,MESSAGE PUMP,WM_KEYDOWN,256
1726,0,1,MESSAGE PUMP,WM_CHAR,258
1726,0,0,MESSAGE PUMP,WM_GETOBJECT,61
1726,0,0,MESSAGE PUMP,WM_GETOBJECT,61
1726,0,0,MESSAGE PUMP,WM_GETOBJECT,61
1726,0,0,MESSAGE PUMP,WM_GETOBJECT,61
1726,0,0,MESSAGE PUMP,WM_GETOBJECT,61
1726,0,0,MESSAGE PUMP,WM_GETOBJECT,61
1726,0,0,MESSAGE PUMP,WM_GETOBJECT,61
1726,0,0,MESSAGE PUMP,WM_GETOBJECT,61
1727,0,1,MESSAGE PUMP,WM_KEYUP,257
1728,1,1,MESSAGE PUMP,WM_NULL,0
1752,1,1,MESSAGE PUMP,WM_KEYDOWN,256
1752,1,0,MESSAGE PUMP,WM_GETOBJECT,61
1752,1,0,MESSAGE PUMP,WM_GETOBJECT,61
1752,1,0,MESSAGE PUMP,WM_GETOBJECT,61
1752,1,0,MESSAGE PUMP,WM_GETOBJECT,61
1752,1,0,MESSAGE PUMP,WM_GETOBJECT,61
1752,1,0,MESSAGE PUMP,WM_GETOBJECT,61
1752,1,0,MESSAGE PUMP,WM_GETOBJECT,61
1752,1,0,MESSAGE PUMP,WM_GETOBJECT,61
1753,1,1,MESSAGE PUMP,WM_KEYUP,257
1758,0,1,MESSAGE PUMP,WM_NULL,0
1766,1,1,MESSAGE PUMP,WM_KEYDOWN,256
1766,1,0,MESSAGE PUMP,WM_GETOBJECT,61
1766,1,0,MESSAGE PUMP,WM_GETOBJECT,61
1766,1,0,MESSAGE PUMP,WM_GETOBJECT,61
1766,1,0,MESSAGE PUMP,WM_GETOBJECT,61
1766,1,0,MESSAGE PUMP,WM_GETOBJECT,61
1766,1,0,MESSAGE PUMP,WM_GETOBJECT,61
1766,1,0,MESSAGE PUMP,WM_GETOBJECT,61
1766,1,0,MESSAGE PUMP,WM_GETOBJECT,61
1767,1,1,MESSAGE PUMP,WM_KEYUP,257
1771,1,1,MESSAGE PUMP,WM_NULL,0
1792,1,1,MESSAGE PUMP,WM_KEYDOWN,256
1792,1,0,MESSAGE PUMP,WM_GETOBJECT,61
1792,1,0,MESSAGE PUMP,WM_GETOBJECT,61
1792,1,0,MESSAGE PUMP,WM_GETOBJECT,61
1792,1,0,MESSAGE PUMP,WM_GETOBJECT,61
1792,1,0,MESSAGE PUMP,WM_GETOBJECT,61
1792,1,0,MESSAGE PUMP,WM_GETOBJECT,61
1792,1,0,MESSAGE PUMP,WM_GETOBJECT,61
1792,1,0,MESSAGE PUMP,WM_GETOBJECT,61
1793,1,1,MESSAGE PUMP,WM_KEYUP,257
1797,1,1,MESSAGE PUMP,WM_NULL,0
1806,1,1,MESSAGE PUMP,WM_KEYDOWN,256
1806,1,0,MESSAGE PUMP,WM_GETOBJECT,61
1806,1,0,MESSAGE PUMP,WM_GETOBJECT,61
1806,1,0,MESSAGE PUMP,WM_GETOBJECT,61
1806,1,0,MESSAGE PUMP,WM_GETOBJECT,61
1806,1,0,MESSAGE PUMP,WM_GETOBJECT,61
1806,1,0,MESSAGE PUMP,WM_GETOBJECT,61
1806,1,0,MESSAGE PUMP,WM_GETOBJECT,61
1806,1,0,MESSAGE PUMP,WM_GETOBJECT,61
1807,1,1,MESSAGE PUMP,WM_KEYUP,257
1811,0,1,MESSAGE PUMP,WM_NULL,0
1820,1,1,MESSAGE PUMP,WM_KEYDOWN,256
1820,1,0,MESSAGE PUMP,WM_GETOBJECT,61
1820,1,0,MESSAGE PUMP,WM_GETOBJECT,61
1820,1,0,MESSAGE PUMP,WM_GETOBJECT,61
1820,1,0,MESSAGE PUMP,WM_GETOBJECT,61
1820,1,0,MESSAGE PUMP,WM_GETOBJECT,61
1820,1,0,MESSAGE PUMP,WM_GETOBJECT,61
1820,1,0,MESSAGE PUMP,WM_GETOBJECT,61
1820,1,0,MESSAGE PUMP,WM_GETOBJECT,61
1821,1,1,MESSAGE PUMP,WM_KEYUP,257
1824,1,1,MESSAGE PUMP,WM_NULL,0
1834,1,1,MESSAGE PUMP,WM_KEYDOWN,256
1834,1,0,MESSAGE PUMP,WM_GETOBJECT,61
1834,1,0,MESSAGE PUMP,WM_GETOBJECT,61
1834,1,0,MESSAGE PUMP,WM_GETOBJECT,61
1834,1,0,MESSAGE PUMP,WM_GETOBJECT,61
1834,1,0,MESSAGE PUMP,WM_GETOBJECT,61
1834,1,0,MESSAGE PUMP,WM_GETOBJECT,61
1834,1,0,MESSAGE PUMP,WM_GETOBJECT,61
1834,1,0,MESSAGE PUMP,WM_GETOBJECT,61
1835,1,1,MESSAGE PUMP,WM_KEYUP,257
1840,0,1,MESSAGE PUMP,WM_NULL,0
1848,1,1,MESSAGE PUMP,WM_KEYDOWN,256
1848,1,0,MESSAGE PUMP,WM_GETOBJECT,61
1848,1,0,MESSAGE PUMP,WM_GETOBJECT,61
1848,1,0,MESSAGE PUMP,WM_GETOBJECT,61
1848,1,0,MESSAGE PUMP,WM_GETOBJECT,61
1848,1,0,MESSAGE PUMP,WM_GETOBJECT,61
1848,1,0,MESSAGE PUMP,WM_GETOBJECT,61
1848,1,0,MESSAGE PUMP,WM_GETOBJECT,61
1848,1,0,MESSAGE PUMP,WM_GETOBJECT,61
1849,1,1,MESSAGE PUMP,WM_KEYUP,257
1853,1,1,MESSAGE PUMP,WM_NULL,0
1862,1,1,MESSAGE PUMP,WM_KEYDOWN,256
1862,1,0,MESSAGE PUMP,WM_GETOBJECT,61
1862,1,0,MESSAGE PUMP,WM_GETOBJECT,61
1862,1,0,MESSAGE PUMP,WM_GETOBJECT,61
1862,1,0,MESSAGE PUMP,WM_GETOBJECT,61
1862,1,0,MESSAGE PUMP,WM_GETOBJECT,61
1862,1,0,MESSAGE PUMP,WM_GETOBJECT,61
1862,1,0,MESSAGE PUMP,WM_GETOBJECT,61
1862,1,0,MESSAGE PUMP,WM_GETOBJECT,61
1863,1,1,MESSAGE PUMP,WM_KEYUP,257
1866,1,1,MESSAGE PUMP,WM_NULL,0
1876,1,1,MESSAGE PUMP,WM_KEYDOWN,256
1876,1,0,MESSAGE PUMP,WM_GETOBJECT,61
1876,1,0,MESSAGE PUMP,WM_GETOBJECT,61
1876,1,0,MESSAGE PUMP,WM_GETOBJECT,61
1876,1,0,MESSAGE PUMP,WM_GETOBJECT,61
1876,1,0,MESSAGE PUMP,WM_GETOBJECT,61
1876,1,0,MESSAGE PUMP,WM_GETOBJECT,61
1876,1,0,MESSAGE PUMP,WM_GETOBJECT,61
1876,1,0,MESSAGE PUMP,WM_GETOBJECT,61
1877,1,1,MESSAGE PUMP,WM_KEYUP,257
1882,1,1,MESSAGE PUMP,WM_NULL,0
1890,1,1,MESSAGE PUMP,WM_KEYDOWN,256
1890,1,0,MESSAGE PUMP,WM_GETOBJECT,61
1890,1,0,MESSAGE PUMP,WM_GETOBJECT,61
1890,1,0,MESSAGE PUMP,WM_GETOBJECT,61
1890,1,0,MESSAGE PUMP,WM_GETOBJECT,61
1890,1,0,MESSAGE PUMP,WM_GETOBJECT,61
1890,1,0,MESSAGE PUMP,WM_GETOBJECT,61
1890,1,0,MESSAGE PUMP,WM_GETOBJECT,61
1890,1,0,MESSAGE PUMP,WM_GETOBJECT,61
1891,1,1,MESSAGE PUMP,WM_KEYUP,257
1896,1,1,MESSAGE PUMP,WM_NULL,0
1916,1,1,MESSAGE PUMP,WM_KEYDOWN,256
1916,1,0,MESSAGE PUMP,WM_GETOBJECT,61
1916,1,0,MESSAGE PUMP,WM_GETOBJECT,61
1916,1,0,MESSAGE PUMP,WM_GETOBJECT,61
1916,1,0,MESSAGE PUMP,WM_GETOBJECT,61
1916,1,0,MESSAGE PUMP,WM_GETOBJECT,61
1916,1,0,MESSAGE PUMP,WM_GETOBJECT,61
1916,1,0,MESSAGE PUMP,WM_GETOBJECT,61
1916,1,0,MESSAGE PUMP,WM_GETOBJECT,61
1917,1,1,MESSAGE PUMP,WM_KEYUP,257
1922,1,1,MESSAGE PUMP,WM_NULL,0
1942,1,1,MESSAGE PUMP,WM_KEYDOWN,256
1942,1,1,MESSAGE PUMP,WM_CHAR,258
1942,1,0,MESSAGE PUMP,WM_GETOBJECT,61
1942,1,0,MESSAGE PUMP,WM_GETOBJECT,61
1942,1,0,MESSAGE PUMP,WM_GETOBJECT,61
1942,1,0,MESSAGE PUMP,WM_GETOBJECT,61
1942,1,0,MESSAGE PUMP,WM_GETOBJECT,61
1942,1,0,MESSAGE PUMP,WM_GETOBJECT,61
1942,1,0,MESSAGE PUMP,WM_GETOBJECT,61
1942,1,0,MESSAGE PUMP,WM_GETOBJECT,61
1943,1,1,MESSAGE PUMP,WM_KEYUP,257
1944,1,1,MESSAGE PUMP,WM_NULL,0
1968,1,1,MESSAGE PUMP,WM_KEYDOWN,256
1968,1,0,MESSAGE PUMP,WM_GETOBJECT,61
1968,1,0,MESSAGE PUMP,WM_GETOBJECT,61
1968,1,0,MESSAGE PUMP,WM_GETOBJECT,61
1968,1,0,MESSAGE PUMP,WM_GETOBJECT,61
1968,1,0,MESSAGE PUMP,WM_GETOBJECT,61
1968,1,0,MESSAGE PUMP,WM_GETOBJECT,61
1968,1,0,MESSAGE PUMP,WM_GETOBJECT,61
1968,1,0,MESSAGE PUMP,WM_GETOBJECT,61
1969,1,1,MESSAGE PUMP,WM_KEYUP,257
1972,1,1,MESSAGE PUMP,WM_NULL,0
1994,1,1,MESSAGE PUMP,WM_KEYDOWN,256
1994,1,0,MESSAGE PUMP,WM_GETOBJECT,61
1994,1,0,MESSAGE PUMP,WM_GETOBJECT,61
1994,1,0,MESSAGE PUMP,WM_GETOBJECT,61
1994,1,0,MESSAGE PUMP,WM_GETOBJECT,61
1994,1,0,MESSAGE PUMP,WM_GETOBJECT,61
1994,1,0,MESSAGE PUMP,WM_GETOBJECT,61
1994,1,0,MESSAGE PUMP,WM_GETOBJECT,61
1994,1,0,MESSAGE PUMP,WM_GETOBJECT,61
1995,1,1,MESSAGE PUMP,WM_KEYUP,257
1999,0,1,MESSAGE PUMP,WM_NULL,0
2008,1,1,MESSAGE PUMP,WM_KEYDOWN,256
2008,1,0,MESSAGE PUMP,WM_GETOBJECT,61
2008,1,0,MESSAGE PUMP,WM_GETOBJECT,61
2008,1,0,MESSAGE PUMP,WM_GETOBJECT,61
2008,1,0,MESSAGE PUMP,WM_GETOBJECT,61
2008,1,0,MESSAGE PUMP,WM_GETOBJECT,61
2008,1,0,MESSAGE PUMP,WM_GETOBJECT,61
2008,1,0,MESSAGE PUMP,WM_GETOBJECT,61
2008,1,0,MESSAGE PUMP,WM_GETOBJECT,61
2009,1,1,MESSAGE PUMP,WM_KEYUP,257
2014,1,1,MESSAGE PUMP,WM_NULL,0
2022,1,1,MESSAGE PUMP,WM_KEYDOWN,256
2022,1,0,MESSAGE PUMP,WM_GETOBJECT,61
2022,1,0,MESSAGE PUMP,WM_GETOBJECT,61
2022,1,0,MESSAGE PUMP,WM_GETOBJECT,61
2022,1,0,MESSAGE PUMP,WM_GETOBJECT,61
2022,1,0,MESSAGE PUMP,WM_GETOBJECT,61
2022,1,0,MESSAGE PUMP,WM_GETOBJECT,61
2022,1,0,MESSAGE PUMP,WM_GETOBJECT,61
2022,1,0,MESSAGE PUMP,WM_GETOBJECT,61
2023,1,1,MESSAGE PUMP,WM_KEYUP,257
2027,1,1,MESSAGE PUMP,WM_NULL,0
2036,1,1,MESSAGE PUMP,WM_KEYDOWN,256
2036,1,0,MESSAGE PUMP,WM_GETOBJECT,61
2036,1,0,MESSAGE PUMP,WM_GETOBJECT,61
2036,1,0,MESSAGE PUMP,WM_GETOBJECT,61
2036,1,0,MESSAGE PUMP,WM_GETOBJECT,61
2036,1,0,MESSAGE PUMP,WM_GETOBJECT,61
2036,1,0,MESSAGE PUMP,WM_GETOBJECT,61
2036,1,0,MESSAGE PUMP,WM_GETOBJECT,61
2036,1,0,MESSAGE PUMP,WM_GETOBJECT,61
2037,1,1,MESSAGE PUMP,WM_KEYUP,257
2041,1,1,MESSAGE PUMP,WM_NULL,0
2050,1,1,MESSAGE PUMP,WM_KEYDOWN,256
2050,1,0,MESSAGE PUMP,WM_GETOBJECT,61
2050,1,0,MESSAGE PUMP,WM_GETOBJECT,61
2050,1,0,MESSAGE PUMP,WM_GETOBJECT,61
2050,1,0,MESSAGE PUMP,WM_GETOBJECT,61
2050,1,0,MESSAGE PUMP,WM_GETOBJECT,61
2050,1,0,MESSAGE PUMP,WM_GETOBJECT,61
2050,1,0,MESSAGE PUMP,WM_GETOBJECT,61
2050,1,0,MESSAGE PUMP,WM_GETOBJECT,61
2051,1,1,MESSAGE PUMP,WM_KEYUP,257
2054,1,1,MESSAGE PUMP,WM_NULL,0
2076,1,1,MESSAGE PUMP,WM_KEYDOWN,256
2089,1,1,MESSAGE PUMP,WM_KEYDOWN,256
2089,1,0,MESSAGE PUMP,WM_GETOBJECT,61
2089,1,0,MESSAGE PUMP,WM_GETOBJECT,61
2089,1,0,MESSAGE PUMP,WM_GETOBJECT,61
2089,1,0,MESSAGE PUMP,WM_GETOBJECT,61
2089,1,0,MESSAGE PUMP,WM_GETOBJECT,61
2089,1,0,MESSAGE PUMP,WM_GETOBJECT,61
2089,1,0,MESSAGE PUMP,WM_GETOBJECT,61
2089,1,0,MESSAGE PUMP,WM_GETOBJECT,61
2090,1,1,MESSAGE PUMP,WM_KEYUP,257
2094,0,1,MESSAGE PUMP,WM_NULL,0
2103,1,1,MESSAGE PUMP,WM_KEYUP,257
2129,0,1,MESSAGE PUMP,WM_KEYDOWN,256
2129,0,1,MESSAGE PUMP,WM_CHAR,258
2130,1,1,MESSAGE PUMP,WM_KEYUP,257
2155,2,1,MESSAGE PUMP,WM_KEYDOWN,256
2155,2,0,MESSAGE PUMP,WM_GETOBJECT,61
2155,2,0,MESSAGE PUMP,WM_GETOBJECT,61
2155,2,0,MESSAGE PUMP,WM_GETOBJECT,61
2155,2,0,MESSAGE PUMP,WM_GETOBJECT,61
2155,2,0,MESSAGE PUMP,WM_GETOBJECT,61
2155,2,0,MESSAGE PUMP,WM_GETOBJECT,61
2155,2,0,MESSAGE PUMP,WM_GETOBJECT,61
2155,2,0,MESSAGE PUMP,WM_GETOBJECT,61
2156,1,1,MESSAGE PUMP,WM_KEYUP,257
2160,1,1,MESSAGE PUMP,WM_NULL,0
2169,1,1,MESSAGE PUMP,WM_KEYDOWN,256
2169,1,0,MESSAGE PUMP,WM_GETOBJECT,61
2169,1,0,MESSAGE PUMP,WM_GETOBJECT,61
2169,1,0,MESSAGE PUMP,WM_GETOBJECT,61
2169,1,0,MESSAGE PUMP,WM_GETOBJECT,61
2169,1,0,MESSAGE PUMP,WM_GETOBJECT,61
2169,1,0,MESSAGE PUMP,WM_GETOBJECT,61
2169,1,0,MESSAGE PUMP,WM_GETOBJECT,61
2169,1,0,MESSAGE PUMP,WM_GETOBJECT,61
2170,1,1,MESSAGE PUMP,WM_KEYUP,257
2174,0,1,MESSAGE PUMP,WM_NULL,0
2195,1,1,MESSAGE PUMP,WM_KEYDOWN,256
2195,1,1,MESSAGE PUMP,WM_CHAR,258
2195,1,0,MESSAGE PUMP,WM_GETOBJECT,61
2195,1,0,MESSAGE PUMP,WM_GETOBJECT,61
2195,1,0,MESSAGE PUMP,WM_GETOBJECT,61
2195,1,0,MESSAGE PUMP,WM_GETOBJECT,61
2195,1,0,MESSAGE PUMP,WM_GETOBJECT,61
2195,1,0,MESSAGE PUMP,WM_GETOBJECT,61
2195,1,0,MESSAGE PUMP,WM_GETOBJECT,61
2195,1,0,MESSAGE PUMP,WM_GETOBJECT,61
2196,0,1,MESSAGE PUMP,WM_KEYUP,257
2198,1,1,MESSAGE PUMP,WM_NULL,0
2221,1,1,MESSAGE PUMP,WM_KEYDOWN,256
2234,1,1,MESSAGE PUMP,WM_KEYDOWN,256
2235,1,1,MESSAGE PUMP,WM_KEYUP,257
2248,1,1,MESSAGE PUMP,WM_KEYUP,257
2274,0,1,MESSAGE PUMP,WM_KEYDOWN,256
2275,1,1,MESSAGE PUMP,WM_KEYUP,257
2300,1,1,MESSAGE PUMP,WM_KEYDOWN,256
2301,1,1,MESSAGE PUMP,WM_KEYUP,257
2314,1,1,MESSAGE PUMP,WM_KEYDOWN,256
2315,1,1,MESSAGE PUMP,WM_KEYUP,257
2328,1,1,MESSAGE PUMP,WM_KEYDOWN,256
2329,1,1,MESSAGE PUMP,WM_KEYUP,257
2354,1,1,MESSAGE PUMP,WM_KEYDOWN,256
2354,1,1,MESSAGE PUMP,WM_CHAR,258
2354,1,0,MESSAGE PUMP,WM_GETOBJECT,61
2354,1,0,MESSAGE PUMP,WM_GETOBJECT,61
2354,1,0,MESSAGE PUMP,WM_GETOBJECT,61
2354,1,0,MESSAGE PUMP,WM_GETOBJECT,61
2354,1,0,MESSAGE PUMP,WM_GETOBJECT,61
2354,1,0,MESSAGE PUMP,WM_GETOBJECT,61
2354,1,0,MESSAGE PUMP,WM_GETOBJECT,61
2354,1,0,MESSAGE PUMP,WM_GETOBJECT,61
2355,0,1,MESSAGE PUMP,WM_KEYUP,257
2358,0,1,MESSAGE PUMP,WM_NULL,0
2380,1,1,MESSAGE PUMP,WM_KEYDOWN,256
2380,1,0,MESSAGE PUMP,WM_GETOBJECT,61
2380,1,0,MESSAGE PUMP,WM_GETOBJECT,61
2380,1,0,MESSAGE PUMP,WM_GETOBJECT,61
2380,1,0,MESSAGE PUMP,WM_GETOBJECT,61
2380,1,0,MESSAGE PUMP,WM_GETOBJECT,61
2380,1,0,MESSAGE PUMP,WM_GETOBJECT,61
2380,1,0,MESSAGE PUMP,WM_GETOBJECT,61
2380,1,0,MESSAGE PUMP,WM_GETOBJECT,61
2381,1,1,MESSAGE PUMP,WM_KEYUP,257
2386,1,1,MESSAGE PUMP,WM_NULL,0
2406,1,1,MESSAGE PUMP,WM_KEYDOWN,256
2406,1,0,MESSAGE PUMP,WM_GETOBJECT,61
2406,1,0,MESSAGE PUMP,WM_GETOBJECT,61
2406,1,0,MESSAGE PUMP,WM_GETOBJECT,61
2406,1,0,MESSAGE PUMP,WM_GETOBJECT,61
2406,1,0,MESSAGE PUMP,WM_GETOBJECT,61
2406,1,0,MESSAGE PUMP,WM_GETOBJECT,61
2406,1,0,MESSAGE PUMP,WM_GETOBJECT,61
2406,1,0,MESSAGE PUMP,WM_GETOBJECT,61
2407,1,1,MESSAGE PUMP,WM_KEYUP,257
2410,0,1,MESSAGE PUMP,WM_NULL,0
2420,1,1,MESSAGE PUMP,WM_KEYDOWN,256
2420,1,0,MESSAGE PUMP,WM_GETOBJECT,61
2420,1,0,MESSAGE PUMP,WM_GETOBJECT,61
2420,1,0,MESSAGE PUMP,WM_GETOBJECT,61
2420,1,0,MESSAGE PUMP,WM_GETOBJECT,61
2420,1,0,MESSAGE PUMP,WM_GETOBJECT,61
2420,1,0,MESSAGE PUMP,WM_GETOBJECT,61
2420,1,0,MESSAGE PUMP,WM_GETOBJECT,61
2420,1,0,MESSAGE PUMP,WM_GETOBJECT,61
2421,1,1,MESSAGE PUMP,WM_KEYUP,257
2426,0,1,MESSAGE PUMP,WM_NULL,0
2434,1,1,MESSAGE PUMP,WM_KEYDOWN,256
2434,1,0,MESSAGE PUMP,WM_GETOBJECT,61
2434,1,0,MESSAGE PUMP,WM_GETOBJECT,61
2434,1,0,MESSAGE PUMP,WM_GETOBJECT,61
2434,1,0,MESSAGE PUMP,WM_GETOBJECT,61
2434,1,0,MESSAGE PUMP,WM_GETOBJECT,61
2434,1,0,MESSAGE PUMP,WM_GETOBJECT,61
2434,1,0,MESSAGE PUMP,WM_GETOBJECT,61
2434,1,0,MESSAGE PUMP,WM_GETOBJECT,61
2435,1,1,MESSAGE PUMP,WM_KEYUP,257
2439,1,1,MESSAGE PUMP,WM_NULL,0
2448,1,1,MESSAGE PUMP,WM_KEYDOWN,256
2448,1,0,MESSAGE PUMP,WM_GETOBJECT,61
2448,1,0,MESSAGE PUMP,WM_GETOBJECT,61
2448,1,0,MESSAGE PUMP,WM_GETOBJECT,61
2448,1,0,MESSAGE PUMP,WM_GETOBJECT,61
2448,1,0,MESSAGE PUMP,WM_GETOBJECT,61
2448,1,0,MESSAGE PUMP,WM_GETOBJECT,61
2448,1,0,MESSAGE PUMP,WM_GETOBJECT,61
2448,1,0,MESSAGE PUMP,WM_GETOBJECT,61
2449,1,1,MESSAGE PUMP,WM_KEYUP,257
2452,1,1,MESSAGE PUMP,WM_NULL,0
2462,1,1,MESSAGE PUMP,WM_KEYDOWN,256
2462,1,0,MESSAGE PUMP,WM_GETOBJECT,61
2462,1,0,MESSAGE PUMP,WM_GETOBJECT,61
2462,1,0,MESSAGE PUMP,WM_GETOBJECT,61
2462,1,0,MESSAGE PUMP,WM_GETOBJECT,61
2462,1,0,MESSAGE PUMP,WM_GETOBJECT,61
2462,1,0,MESSAGE PUMP,WM_GETOBJECT,61
2462,1,0,MESSAGE PUMP,WM_GETOBJECT,61
2462,1,0,MESSAGE PUMP,WM_GETOBJECT,61
2463,1,1,MESSAGE PUMP,WM_KEYUP,257
2468,1,1,MESSAGE PUMP,WM_NULL,0
2488,1,1,MESSAGE PUMP,WM_KEYDOWN,256
2488,1,1,MESSAGE PUMP,WM_CHAR,258
2488,1,0,MESSAGE PUMP,WM_GETOBJECT,61
2488,1,0,MESSAGE PUMP,WM_GETOBJECT,61
2488,1,0,MESSAGE PUMP,WM_GETOBJECT,61
2488,1,0,MESSAGE PUMP,WM_GETOBJECT,61
2488,1,0,MESSAGE PUMP,WM_GETOBJECT,61
2488,1,0,MESSAGE PUMP,WM_GETOBJECT,61
2488,1,0,MESSAGE PUMP,WM_GETOBJECT,61
2488,1,0,MESSAGE PUMP,WM_GETOBJECT,61
2489,1,1,MESSAGE PUMP,WM_KEYUP,257
2490,0,1,MESSAGE PUMP,WM_NULL,0
2514,1,1,MESSAGE PUMP,WM_KEYDOWN,256
2514,1,0,MESSAGE PUMP,WM_GETOBJECT,61
2514,1,0,MESSAGE PUMP,WM_GETOBJECT,61
2514,1,0,MESSAGE PUMP,WM_GETOBJECT,61
2514,1,0,MESSAGE PUMP,WM_GETOBJECT,61
2514,1,0,MESSAGE PUMP,WM_GETOBJECT,61
2514,1,0,MESSAGE PUMP,WM_GETOBJECT,61
2514,1,0,MESSAGE PUMP,WM_GETOBJECT,61
2514,1,0,MESSAGE PUMP,WM_GETOBJECT,61
2515,1,1,MESSAGE PUMP,WM_KEYUP,257
2518,1,1,MESSAGE PUMP,WM_NULL,0
2540,1,1,MESSAGE PUMP,WM_KEYDOWN,256
2553,1,1,MESSAGE PUMP,WM_KEYDOWN,256
2553,1,0,MESSAGE PUMP,WM_GETOBJECT,61
2553,1,0,MESSAGE PUMP,WM_GETOBJECT,61
2553,1,0,MESSAGE PUMP,WM_GETOBJECT,61
2553,1,0,MESSAGE PUMP,WM_GETOBJECT,61
2553,1,0,MESSAGE PUMP,WM_GETOBJECT,61
2553,1,0,MESSAGE PUMP,WM_GETOBJECT,61
2553,1,0,MESSAGE PUMP,WM_GETOBJECT,61
2553,1,0,MESSAGE PUMP,WM_GETOBJECT,61
2554,1,1,MESSAGE PUMP,WM_KEYUP,257
2558,1,1,MESSAGE PUMP,WM_NULL,0
2567,1,1,MESSAGE PUMP,WM_KEYUP,257
2593,0,1,MESSAGE PUMP,WM_KEYDOWN,256
2593,0,0,MESSAGE PUMP,WM_GETOBJECT,61
2593,0,0,MESSAGE PUMP,WM_GETOBJECT,61
2593,0,0,MESSAGE PUMP,WM_GETOBJECT,61
2593,0,0,MESSAGE PUMP,WM_GETOBJECT,61
2593,0,0,MESSAGE PUMP,WM_GETOBJECT,61
2593,0,0,MESSAGE PUMP,WM_GETOBJECT,61
2593,0,0,MESSAGE PUMP,WM_GETOBJECT,61
2593,0,0,MESSAGE PUMP,WM_GETOBJECT,61
2594,1,1,MESSAGE PUMP,WM_KEYUP,257
2598,1,1,MESSAGE PUMP,WM_NULL,0
2607,1,1,MESSAGE PUMP,WM_KEYDOWN,256
2607,1,0,MESSAGE PUMP,WM_GETOBJECT,61
2607,1,0,MESSAGE PUMP,WM_GETOBJECT,61
2607,1,0,MESSAGE PUMP,WM_GETOBJECT,61
2607,1,0,MESSAGE PUMP,WM_GETOBJECT,61
2607,1,0,MESSAGE PUMP,WM_GETOBJECT,61
2607,1,0,MESSAGE PUMP,WM_GETOBJECT,61
2607,1,0,MESSAGE PUMP,WM_GETOBJECT,61
2607,1,0,MESSAGE PUMP,WM_GETOBJECT,61
2608,1,1,MESSAGE PUMP,WM_KEYUP,257
2611,1,1,MESSAGE PUMP,WM_NULL,0
2633,1,1,MESSAGE PUMP,WM_KEYDOWN,256
2633,1,1,MESSAGE PUMP,WM_CHAR,258
2634,1,1,MESSAGE PUMP,WM_KEYUP,257
3020,1,1,MESSAGE PUMP,WM_KEYDOWN,256
3033,1,1,MESSAGE PUMP,WM_KEYDOWN,256
3034,1,1,MESSAGE PUMP,WM_KEYUP,257
3048,0,1,MESSAGE PUMP,WM_KEYUP,257
3098,1,1,MESSAGE PUMP,WM_SYSKEYDOWN,260
3111,1,1,MESSAGE PUMP,WM_SYSKEYDOWN,260
3111,1,1,MESSAGE PUMP,WM_SYSCOMMAND,274
3111,1,1,MESSAGE PUMP,WM_CLOSE,16
3111,1,0,MESSAGE PUMP,Unknown,144
3111,1,0,MESSAGE PUMP,WM_WINDOWPOSCHANGING,70
3111,1,0,MESSAGE PUMP,WM_WINDOWPOSCHANGED,71
3111,1,0,MESSAGE PUMP,WM_NCACTIVATE,134
3111,1,0,MESSAGE PUMP,WM_GETICON,127
3111,1,0,MESSAGE PUMP,WM_ACTIVATE,6
3111,1,0,MESSAGE PUMP,WM_ACTIVATEAPP,28
3111,1,0,MESSAGE PUMP,WM_KILLFOCUS,8
3111,1,0,MESSAGE PUMP,WM_IME_SETCONTEXT,641
3111,1,0,MESSAGE PUMP,WM_IME_NOTIFY,642
3111,1,0,MESSAGE PUMP,WM_DESTROY,2
3111,1,0,MESSAGE PUMP,WM_NCDESTROY,130
